\relax 
\citation{Atzori2010}
\citation{zhou2013energy}
\citation{Meurisch2013}
\citation{networkcoding}
\citation{Wang2008}
\citation{mousie}
\citation{trade-offs-2}
\@writefile{toc}{\contentsline {section}{\numberline {I}Introduction}{1}}
\newlabel{sec:Introduction}{{I}{1}}
\citation{dermany2015effect}
\citation{storm1}
\citation{TC-IROCX}
\citation{mousie}
\@writefile{lof}{\contentsline {figure}{\numberline {1}{\ignorespaces Wireless multihop network modeled as a graph.\relax }}{2}}
\providecommand*\caption@xref[2]{\@setref\relax\@undefined{#1}}
\newlabel{fig:graph}{{1}{2}}
\@writefile{toc}{\contentsline {section}{\numberline {II}Related Work}{2}}
\newlabel{sec:related-work}{{II}{2}}
\@writefile{toc}{\contentsline {section}{\numberline {III}System Model}{2}}
\newlabel{sec:system-model}{{III}{2}}
\@writefile{toc}{\contentsline {subsection}{\numberline {\unhbox \voidb@x \hbox {III-A}}Network Layer}{2}}
\@writefile{toc}{\contentsline {subsection}{\numberline {\unhbox \voidb@x \hbox {III-B}}MAC Layer}{2}}
\@writefile{toc}{\contentsline {subsection}{\numberline {\unhbox \voidb@x \hbox {III-C}}Physical Layer}{2}}
\citation{TC-energy}
\citation{ktc}
\citation{mousie}
\@writefile{lof}{\contentsline {figure}{\numberline {2}{\ignorespaces Node Virtualization: Introducing a virtual node $N^v$ and three virtual links to represent the broadcast transmission from $N$ to $D_1$ and $D_2$.\relax }}{3}}
\newlabel{fig:virtualization}{{2}{3}}
\@writefile{toc}{\contentsline {subsection}{\numberline {\unhbox \voidb@x \hbox {III-D}}Topology Control}{3}}
\@writefile{toc}{\contentsline {section}{\numberline {IV}Cross-Layer Framework for Network Coding and Topology Control}{3}}
\newlabel{sec:nctc}{{IV}{3}}
\@writefile{lof}{\contentsline {figure}{\numberline {3}{\ignorespaces Software architecture of the NcTc framework.\relax }}{3}}
\newlabel{fig:architecture}{{3}{3}}
\@writefile{toc}{\contentsline {section}{\numberline {V}Performance Evaluation}{3}}
\newlabel{sec:evaluation}{{V}{3}}
\@writefile{toc}{\contentsline {subsection}{\numberline {\unhbox \voidb@x \hbox {V-A}}Performance Metrics}{3}}
\newlabel{sec:Eval-metrics}{{\unhbox \voidb@x \hbox {V-A}}{3}}
\@writefile{lot}{\contentsline {table}{\numberline {I}{\ignorespaces Simulation parameters.\relax }}{3}}
\newlabel{table:simulation-parameters}{{I}{3}}
\@writefile{lof}{\contentsline {figure}{\numberline {4}{\ignorespaces System throughput and energy consumption for the four configurations Tree, NC, TC+Tree and TC+NC.\relax }}{4}}
\newlabel{fig:plot2}{{4}{4}}
\@writefile{toc}{\contentsline {subsection}{\numberline {\unhbox \voidb@x \hbox {V-B}}Possible Configurations}{4}}
\newlabel{sec:Eval-cases}{{\unhbox \voidb@x \hbox {V-B}}{4}}
\@writefile{toc}{\contentsline {subsection}{\numberline {\unhbox \voidb@x \hbox {V-C}}Simulation Results}{4}}
\newlabel{sec:Simulation-Results}{{\unhbox \voidb@x \hbox {V-C}}{4}}
\@writefile{lot}{\contentsline {table}{\numberline {II}{\ignorespaces System throughput and energy consumption for the configuration Tree, NC, TC+Tree and TC+NC obtained from Fig\nobreakspace  {}4\hbox {}.\relax }}{4}}
\newlabel{table:comparison-25nodes}{{II}{4}}
\citation{trade-offs-2}
\@writefile{toc}{\contentsline {section}{\numberline {VI}Case Study: Network Coding and Topology Control based Algorithm for Improved Performance}{5}}
\newlabel{sec:necta}{{VI}{5}}
\@writefile{toc}{\contentsline {subsection}{\numberline {\unhbox \voidb@x \hbox {VI-A}}Evaluation}{5}}
\@writefile{loa}{\contentsline {algorithm}{\numberline {1}{\ignorespaces Case Study: NECTA\relax }}{5}}
\newlabel{alg1}{{1}{5}}
\@writefile{lof}{\contentsline {figure}{\numberline {5}{\ignorespaces System throughput over the number of transmissions for Tree and NECTA.\relax }}{5}}
\newlabel{fig:necta}{{5}{5}}
\@writefile{toc}{\contentsline {section}{\numberline {VII}Conclusion}{5}}
\newlabel{sec:conclusion}{{VII}{5}}
\bibstyle{IEEEtran}
\bibdata{bare_conf}
\bibcite{Atzori2010}{1}
\bibcite{zhou2013energy}{2}
\bibcite{Meurisch2013}{3}
\bibcite{networkcoding}{4}
\bibcite{Wang2008}{5}
\bibcite{mousie}{6}
\bibcite{trade-offs-2}{7}
\bibcite{dermany2015effect}{8}
\bibcite{storm1}{9}
\bibcite{TC-IROCX}{10}
\bibcite{TC-energy}{11}
\bibcite{ktc}{12}
\@writefile{toc}{\contentsline {section}{References}{6}}
