%!PS-Adobe-3.0 EPSF-3.0
%%Creator: (MATLAB, The Mathworks, Inc. Version 8.5.0.197613 \(R2015a\). Operating System: Mac OS X)
%%Title: /Users/ashwinyakkundimath/Documents/Thesis_Results/plots/phy_mechs/cdf_bbc_thr.eps
%%CreationDate: 2016-01-05T11:45:52
%%Pages: (atend)
%%BoundingBox: 0 0 560 420
%%LanguageLevel: 2
%%EndComments
%%BeginProlog
%%BeginResource: procset (Apache XML Graphics Std ProcSet) 1.2 0
%%Version: 1.2 0
%%Copyright: (Copyright 2001-2003,2010 The Apache Software Foundation. License terms: http://www.apache.org/licenses/LICENSE-2.0)
/bd{bind def}bind def
/ld{load def}bd
/GR/grestore ld
/M/moveto ld
/LJ/setlinejoin ld
/C/curveto ld
/f/fill ld
/LW/setlinewidth ld
/GC/setgray ld
/t/show ld
/N/newpath ld
/CT/concat ld
/cp/closepath ld
/S/stroke ld
/L/lineto ld
/CC/setcmykcolor ld
/A/ashow ld
/GS/gsave ld
/RC/setrgbcolor ld
/RM/rmoveto ld
/ML/setmiterlimit ld
/re {4 2 roll M
1 index 0 rlineto
0 exch rlineto
neg 0 rlineto
cp } bd
/_ctm matrix def
/_tm matrix def
/BT { _ctm currentmatrix pop matrix _tm copy pop 0 0 moveto } bd
/ET { _ctm setmatrix } bd
/iTm { _ctm setmatrix _tm concat } bd
/Tm { _tm astore pop iTm 0 0 moveto } bd
/ux 0.0 def
/uy 0.0 def
/F {
  /Tp exch def
  /Tf exch def
  Tf findfont Tp scalefont setfont
  /cf Tf def  /cs Tp def
} bd
/ULS {currentpoint /uy exch def /ux exch def} bd
/ULE {
  /Tcx currentpoint pop def
  gsave
  newpath
  cf findfont cs scalefont dup
  /FontMatrix get 0 get /Ts exch def /FontInfo get dup
  /UnderlinePosition get Ts mul /To exch def
  /UnderlineThickness get Ts mul /Tt exch def
  ux uy To add moveto  Tcx uy To add lineto
  Tt setlinewidth stroke
  grestore
} bd
/OLE {
  /Tcx currentpoint pop def
  gsave
  newpath
  cf findfont cs scalefont dup
  /FontMatrix get 0 get /Ts exch def /FontInfo get dup
  /UnderlinePosition get Ts mul /To exch def
  /UnderlineThickness get Ts mul /Tt exch def
  ux uy To add cs add moveto Tcx uy To add cs add lineto
  Tt setlinewidth stroke
  grestore
} bd
/SOE {
  /Tcx currentpoint pop def
  gsave
  newpath
  cf findfont cs scalefont dup
  /FontMatrix get 0 get /Ts exch def /FontInfo get dup
  /UnderlinePosition get Ts mul /To exch def
  /UnderlineThickness get Ts mul /Tt exch def
  ux uy To add cs 10 mul 26 idiv add moveto Tcx uy To add cs 10 mul 26 idiv add lineto
  Tt setlinewidth stroke
  grestore
} bd
/QT {
/Y22 exch store
/X22 exch store
/Y21 exch store
/X21 exch store
currentpoint
/Y21 load 2 mul add 3 div exch
/X21 load 2 mul add 3 div exch
/X21 load 2 mul /X22 load add 3 div
/Y21 load 2 mul /Y22 load add 3 div
/X22 load /Y22 load curveto
} bd
/SSPD {
dup length /d exch dict def
{
/v exch def
/k exch def
currentpagedevice k known {
/cpdv currentpagedevice k get def
v cpdv ne {
/upd false def
/nullv v type /nulltype eq def
/nullcpdv cpdv type /nulltype eq def
nullv nullcpdv or
{
/upd true def
} {
/sametype v type cpdv type eq def
sametype {
v type /arraytype eq {
/vlen v length def
/cpdvlen cpdv length def
vlen cpdvlen eq {
0 1 vlen 1 sub {
/i exch def
/obj v i get def
/cpdobj cpdv i get def
obj cpdobj ne {
/upd true def
exit
} if
} for
} {
/upd true def
} ifelse
} {
v type /dicttype eq {
v {
/dv exch def
/dk exch def
/cpddv cpdv dk get def
dv cpddv ne {
/upd true def
exit
} if
} forall
} {
/upd true def
} ifelse
} ifelse
} if
} ifelse
upd true eq {
d k v put
} if
} if
} if
} forall
d length 0 gt {
d setpagedevice
} if
} bd
%%EndResource
%%BeginResource: procset (Apache XML Graphics EPS ProcSet) 1.0 0
%%Version: 1.0 0
%%Copyright: (Copyright 2002-2003 The Apache Software Foundation. License terms: http://www.apache.org/licenses/LICENSE-2.0)
/BeginEPSF { %def
/b4_Inc_state save def         % Save state for cleanup
/dict_count countdictstack def % Count objects on dict stack
/op_count count 1 sub def      % Count objects on operand stack
userdict begin                 % Push userdict on dict stack
/showpage { } def              % Redefine showpage, { } = null proc
0 setgray 0 setlinecap         % Prepare graphics state
1 setlinewidth 0 setlinejoin
10 setmiterlimit [ ] 0 setdash newpath
/languagelevel where           % If level not equal to 1 then
{pop languagelevel             % set strokeadjust and
1 ne                           % overprint to their defaults.
{false setstrokeadjust false setoverprint
} if
} if
} bd
/EndEPSF { %def
count op_count sub {pop} repeat            % Clean up stacks
countdictstack dict_count sub {end} repeat
b4_Inc_state restore
} bd
%%EndResource
%FOPBeginFontDict
%%IncludeResource: font Courier-Bold
%%IncludeResource: font Helvetica
%%IncludeResource: font Courier-BoldOblique
%%IncludeResource: font Courier-Oblique
%%IncludeResource: font Times-Roman
%%IncludeResource: font Helvetica-BoldOblique
%%IncludeResource: font Helvetica-Bold
%%IncludeResource: font Helvetica-Oblique
%%IncludeResource: font Times-BoldItalic
%%IncludeResource: font Courier
%%IncludeResource: font Times-Italic
%%IncludeResource: font Times-Bold
%%IncludeResource: font Symbol
%%IncludeResource: font ZapfDingbats
%FOPEndFontDict
%%BeginResource: encoding WinAnsiEncoding
/WinAnsiEncoding [
/.notdef /.notdef /.notdef /.notdef /.notdef
/.notdef /.notdef /.notdef /.notdef /.notdef
/.notdef /.notdef /.notdef /.notdef /.notdef
/.notdef /.notdef /.notdef /.notdef /.notdef
/.notdef /.notdef /.notdef /.notdef /.notdef
/.notdef /.notdef /.notdef /.notdef /.notdef
/.notdef /.notdef /space /exclam /quotedbl
/numbersign /dollar /percent /ampersand /quotesingle
/parenleft /parenright /asterisk /plus /comma
/hyphen /period /slash /zero /one
/two /three /four /five /six
/seven /eight /nine /colon /semicolon
/less /equal /greater /question /at
/A /B /C /D /E
/F /G /H /I /J
/K /L /M /N /O
/P /Q /R /S /T
/U /V /W /X /Y
/Z /bracketleft /backslash /bracketright /asciicircum
/underscore /quoteleft /a /b /c
/d /e /f /g /h
/i /j /k /l /m
/n /o /p /q /r
/s /t /u /v /w
/x /y /z /braceleft /bar
/braceright /asciitilde /bullet /Euro /bullet
/quotesinglbase /florin /quotedblbase /ellipsis /dagger
/daggerdbl /circumflex /perthousand /Scaron /guilsinglleft
/OE /bullet /Zcaron /bullet /bullet
/quoteleft /quoteright /quotedblleft /quotedblright /bullet
/endash /emdash /asciitilde /trademark /scaron
/guilsinglright /oe /bullet /zcaron /Ydieresis
/space /exclamdown /cent /sterling /currency
/yen /brokenbar /section /dieresis /copyright
/ordfeminine /guillemotleft /logicalnot /sfthyphen /registered
/macron /degree /plusminus /twosuperior /threesuperior
/acute /mu /paragraph /middot /cedilla
/onesuperior /ordmasculine /guillemotright /onequarter /onehalf
/threequarters /questiondown /Agrave /Aacute /Acircumflex
/Atilde /Adieresis /Aring /AE /Ccedilla
/Egrave /Eacute /Ecircumflex /Edieresis /Igrave
/Iacute /Icircumflex /Idieresis /Eth /Ntilde
/Ograve /Oacute /Ocircumflex /Otilde /Odieresis
/multiply /Oslash /Ugrave /Uacute /Ucircumflex
/Udieresis /Yacute /Thorn /germandbls /agrave
/aacute /acircumflex /atilde /adieresis /aring
/ae /ccedilla /egrave /eacute /ecircumflex
/edieresis /igrave /iacute /icircumflex /idieresis
/eth /ntilde /ograve /oacute /ocircumflex
/otilde /odieresis /divide /oslash /ugrave
/uacute /ucircumflex /udieresis /yacute /thorn
/ydieresis
] def
%%EndResource
%FOPBeginFontReencode
/Courier-Bold findfont
dup length dict begin
  {1 index /FID ne {def} {pop pop} ifelse} forall
  /Encoding WinAnsiEncoding def
  currentdict
end
/Courier-Bold exch definefont pop
/Helvetica findfont
dup length dict begin
  {1 index /FID ne {def} {pop pop} ifelse} forall
  /Encoding WinAnsiEncoding def
  currentdict
end
/Helvetica exch definefont pop
/Courier-BoldOblique findfont
dup length dict begin
  {1 index /FID ne {def} {pop pop} ifelse} forall
  /Encoding WinAnsiEncoding def
  currentdict
end
/Courier-BoldOblique exch definefont pop
/Courier-Oblique findfont
dup length dict begin
  {1 index /FID ne {def} {pop pop} ifelse} forall
  /Encoding WinAnsiEncoding def
  currentdict
end
/Courier-Oblique exch definefont pop
/Times-Roman findfont
dup length dict begin
  {1 index /FID ne {def} {pop pop} ifelse} forall
  /Encoding WinAnsiEncoding def
  currentdict
end
/Times-Roman exch definefont pop
/Helvetica-BoldOblique findfont
dup length dict begin
  {1 index /FID ne {def} {pop pop} ifelse} forall
  /Encoding WinAnsiEncoding def
  currentdict
end
/Helvetica-BoldOblique exch definefont pop
/Helvetica-Bold findfont
dup length dict begin
  {1 index /FID ne {def} {pop pop} ifelse} forall
  /Encoding WinAnsiEncoding def
  currentdict
end
/Helvetica-Bold exch definefont pop
/Helvetica-Oblique findfont
dup length dict begin
  {1 index /FID ne {def} {pop pop} ifelse} forall
  /Encoding WinAnsiEncoding def
  currentdict
end
/Helvetica-Oblique exch definefont pop
/Times-BoldItalic findfont
dup length dict begin
  {1 index /FID ne {def} {pop pop} ifelse} forall
  /Encoding WinAnsiEncoding def
  currentdict
end
/Times-BoldItalic exch definefont pop
/Courier findfont
dup length dict begin
  {1 index /FID ne {def} {pop pop} ifelse} forall
  /Encoding WinAnsiEncoding def
  currentdict
end
/Courier exch definefont pop
/Times-Italic findfont
dup length dict begin
  {1 index /FID ne {def} {pop pop} ifelse} forall
  /Encoding WinAnsiEncoding def
  currentdict
end
/Times-Italic exch definefont pop
/Times-Bold findfont
dup length dict begin
  {1 index /FID ne {def} {pop pop} ifelse} forall
  /Encoding WinAnsiEncoding def
  currentdict
end
/Times-Bold exch definefont pop
%FOPEndFontReencode
%%EndProlog
%%Page: 1 1
%%PageBoundingBox: 0 0 560 420
%%BeginPageSetup
[1 0 0 -1 0 420] CT
%%EndPageSetup
GS
1 GC
N
0 0 560 420 re
f
GR
GS
1 GC
N
0 0 560 420 re
f
GR
GS
1 GC
N
73 374 M
507 374 L
507 31 L
73 31 L
cp
f
GR
GS
0.873 GC
2 setlinecap
10.0 ML
N
73 374 M
73 31 L
S
GR
GS
0.873 GC
2 setlinecap
10.0 ML
N
135 374 M
135 31 L
S
GR
GS
0.873 GC
2 setlinecap
10.0 ML
N
197 374 M
197 31 L
S
GR
GS
0.873 GC
2 setlinecap
10.0 ML
N
259 374 M
259 31 L
S
GR
GS
0.873 GC
2 setlinecap
10.0 ML
N
321 374 M
321 31 L
S
GR
GS
0.873 GC
2 setlinecap
10.0 ML
N
383 374 M
383 31 L
S
GR
GS
0.873 GC
2 setlinecap
10.0 ML
N
445 374 M
445 31 L
S
GR
GS
0.873 GC
2 setlinecap
10.0 ML
N
507 374 M
507 31 L
S
GR
GS
0.873 GC
2 setlinecap
10.0 ML
N
507 374 M
73 374 L
S
GR
GS
0.873 GC
2 setlinecap
10.0 ML
N
507 339.7 M
73 339.7 L
S
GR
GS
0.873 GC
2 setlinecap
10.0 ML
N
507 305.4 M
73 305.4 L
S
GR
GS
0.873 GC
2 setlinecap
10.0 ML
N
507 271.1 M
73 271.1 L
S
GR
GS
0.873 GC
2 setlinecap
10.0 ML
N
507 236.8 M
73 236.8 L
S
GR
GS
0.873 GC
2 setlinecap
10.0 ML
N
507 202.5 M
73 202.5 L
S
GR
GS
0.873 GC
2 setlinecap
10.0 ML
N
507 168.2 M
73 168.2 L
S
GR
GS
0.873 GC
2 setlinecap
10.0 ML
N
507 133.9 M
73 133.9 L
S
GR
GS
0.873 GC
2 setlinecap
10.0 ML
N
507 99.6 M
73 99.6 L
S
GR
GS
0.873 GC
2 setlinecap
10.0 ML
N
507 65.3 M
73 65.3 L
S
GR
GS
0.873 GC
2 setlinecap
10.0 ML
N
507 31 M
73 31 L
S
GR
GS
[1 0 0 1 290.00021 390] CT
0.149 GC
/Helvetica-Bold 11 F
GS
[1 0 0 1 0 0] CT
-52 9 moveto 
1 -1 scale
(System Throughput) t 
GR
GR
GS
0.149 GC
2 setlinecap
10.0 ML
N
73 374 M
507 374 L
S
GR
GS
0.149 GC
2 setlinecap
10.0 ML
N
73 374 M
73 369.66 L
S
GR
GS
0.149 GC
2 setlinecap
10.0 ML
N
135 374 M
135 369.66 L
S
GR
GS
0.149 GC
2 setlinecap
10.0 ML
N
197 374 M
197 369.66 L
S
GR
GS
0.149 GC
2 setlinecap
10.0 ML
N
259 374 M
259 369.66 L
S
GR
GS
0.149 GC
2 setlinecap
10.0 ML
N
321 374 M
321 369.66 L
S
GR
GS
0.149 GC
2 setlinecap
10.0 ML
N
383 374 M
383 369.66 L
S
GR
GS
0.149 GC
2 setlinecap
10.0 ML
N
445 374 M
445 369.66 L
S
GR
GS
0.149 GC
2 setlinecap
10.0 ML
N
507 374 M
507 369.66 L
S
GR
GS
[1 0 0 1 73 378] CT
0.149 GC
/Helvetica-Bold 10 F
GS
[1 0 0 1 0 0] CT
-3 8 moveto 
1 -1 scale
(0) t 
GR
GR
GS
[1 0 0 1 135 378] CT
0.149 GC
/Helvetica-Bold 10 F
GS
[1 0 0 1 0 0] CT
-7 8 moveto 
1 -1 scale
(0.1) t 
GR
GR
GS
[1 0 0 1 197 378] CT
0.149 GC
/Helvetica-Bold 10 F
GS
[1 0 0 1 0 0] CT
-7 8 moveto 
1 -1 scale
(0.2) t 
GR
GR
GS
[1 0 0 1 259 378] CT
0.149 GC
/Helvetica-Bold 10 F
GS
[1 0 0 1 0 0] CT
-7 8 moveto 
1 -1 scale
(0.3) t 
GR
GR
GS
[1 0 0 1 321 378] CT
0.149 GC
/Helvetica-Bold 10 F
GS
[1 0 0 1 0 0] CT
-7 8 moveto 
1 -1 scale
(0.4) t 
GR
GR
GS
[1 0 0 1 383 378] CT
0.149 GC
/Helvetica-Bold 10 F
GS
[1 0 0 1 0 0] CT
-7 8 moveto 
1 -1 scale
(0.5) t 
GR
GR
GS
[1 0 0 1 445 378] CT
0.149 GC
/Helvetica-Bold 10 F
GS
[1 0 0 1 0 0] CT
-7 8 moveto 
1 -1 scale
(0.6) t 
GR
GR
GS
[1 0 0 1 507 378] CT
0.149 GC
/Helvetica-Bold 10 F
GS
[1 0 0 1 0 0] CT
-7 8 moveto 
1 -1 scale
(0.7) t 
GR
GR
GS
[0 -1 1 0 52 202.49983] CT
0.149 GC
/Helvetica-Bold 11 F
GS
[1 0 0 1 0 0] CT
-60 -3 moveto 
1 -1 scale
(Cumulative Probability) t 
GR
GR
GS
0.149 GC
2 setlinecap
10.0 ML
N
73 374 M
73 31 L
S
GR
GS
0.149 GC
2 setlinecap
10.0 ML
N
73 374 M
77.34 374 L
S
GR
GS
0.149 GC
2 setlinecap
10.0 ML
N
73 339.7 M
77.34 339.7 L
S
GR
GS
0.149 GC
2 setlinecap
10.0 ML
N
73 305.4 M
77.34 305.4 L
S
GR
GS
0.149 GC
2 setlinecap
10.0 ML
N
73 271.1 M
77.34 271.1 L
S
GR
GS
0.149 GC
2 setlinecap
10.0 ML
N
73 236.8 M
77.34 236.8 L
S
GR
GS
0.149 GC
2 setlinecap
10.0 ML
N
73 202.5 M
77.34 202.5 L
S
GR
GS
0.149 GC
2 setlinecap
10.0 ML
N
73 168.2 M
77.34 168.2 L
S
GR
GS
0.149 GC
2 setlinecap
10.0 ML
N
73 133.9 M
77.34 133.9 L
S
GR
GS
0.149 GC
2 setlinecap
10.0 ML
N
73 99.6 M
77.34 99.6 L
S
GR
GS
0.149 GC
2 setlinecap
10.0 ML
N
73 65.3 M
77.34 65.3 L
S
GR
GS
0.149 GC
2 setlinecap
10.0 ML
N
73 31 M
77.34 31 L
S
GR
GS
[1 0 0 1 69 374] CT
0.149 GC
/Helvetica-Bold 10 F
GS
[1 0 0 1 0 0] CT
-6 2.5 moveto 
1 -1 scale
(0) t 
GR
GR
GS
[1 0 0 1 69 339.70001] CT
0.149 GC
/Helvetica-Bold 10 F
GS
[1 0 0 1 0 0] CT
-14 2.5 moveto 
1 -1 scale
(0.1) t 
GR
GR
GS
[1 0 0 1 69 305.39999] CT
0.149 GC
/Helvetica-Bold 10 F
GS
[1 0 0 1 0 0] CT
-14 2.5 moveto 
1 -1 scale
(0.2) t 
GR
GR
GS
[1 0 0 1 69 271.10001] CT
0.149 GC
/Helvetica-Bold 10 F
GS
[1 0 0 1 0 0] CT
-14 2.5 moveto 
1 -1 scale
(0.3) t 
GR
GR
GS
[1 0 0 1 69 236.8] CT
0.149 GC
/Helvetica-Bold 10 F
GS
[1 0 0 1 0 0] CT
-14 2.5 moveto 
1 -1 scale
(0.4) t 
GR
GR
GS
[1 0 0 1 69 202.5] CT
0.149 GC
/Helvetica-Bold 10 F
GS
[1 0 0 1 0 0] CT
-14 2.5 moveto 
1 -1 scale
(0.5) t 
GR
GR
GS
[1 0 0 1 69 168.2] CT
0.149 GC
/Helvetica-Bold 10 F
GS
[1 0 0 1 0 0] CT
-14 2.5 moveto 
1 -1 scale
(0.6) t 
GR
GR
GS
[1 0 0 1 69 133.90001] CT
0.149 GC
/Helvetica-Bold 10 F
GS
[1 0 0 1 0 0] CT
-14 2.5 moveto 
1 -1 scale
(0.7) t 
GR
GR
GS
[1 0 0 1 69 99.6] CT
0.149 GC
/Helvetica-Bold 10 F
GS
[1 0 0 1 0 0] CT
-14 2.5 moveto 
1 -1 scale
(0.8) t 
GR
GR
GS
[1 0 0 1 69 65.30001] CT
0.149 GC
/Helvetica-Bold 10 F
GS
[1 0 0 1 0 0] CT
-14 2.5 moveto 
1 -1 scale
(0.9) t 
GR
GR
GS
[1 0 0 1 69 31] CT
0.149 GC
/Helvetica-Bold 10 F
GS
[1 0 0 1 0 0] CT
-6 2.5 moveto 
1 -1 scale
(1) t 
GR
GR
GS
0.6 0 0 RC
2 LJ
2 LW
N
73 374 M
73 319.12 L
102.965 315.69 L
102.969 312.26 L
103.629 308.83 L
104.716 305.4 L
105.16 301.97 L
105.391 298.54 L
105.676 295.11 L
106.192 291.68 L
106.722 288.25 L
106.911 284.82 L
107.059 281.39 L
107.285 277.96 L
107.623 274.53 L
108.02 271.1 L
108.22 267.67 L
108.408 264.24 L
108.965 260.81 L
109.222 257.38 L
109.229 253.95 L
109.438 250.52 L
109.438 247.09 L
109.811 243.66 L
110.049 240.23 L
110.473 236.8 L
110.59 233.37 L
110.969 229.94 L
111.086 226.51 L
112.061 223.08 L
112.124 219.65 L
113.085 216.22 L
113.199 212.79 L
113.475 209.36 L
114.201 205.93 L
114.411 202.5 L
115.082 195.64 L
115.161 192.21 L
115.444 188.78 L
115.836 185.35 L
116.711 181.92 L
116.857 178.49 L
117.015 175.06 L
117.172 171.63 L
117.817 168.2 L
118.546 164.77 L
118.919 161.34 L
119.046 157.91 L
119.175 154.48 L
121.077 151.05 L
S
GR
GS
0.6 0 0 RC
2 LJ
2 LW
N
121.077 151.05 M
122.211 147.62 L
123.005 144.19 L
124.144 140.76 L
124.182 137.33 L
124.727 133.9 L
125.432 130.47 L
126.318 127.04 L
127.719 123.61 L
129.057 120.18 L
129.073 116.75 L
130.934 113.32 L
131.592 109.89 L
132.128 106.46 L
133.838 96.17 L
134.046 92.74 L
136.581 89.31 L
138.261 85.88 L
139.878 82.45 L
142.484 79.02 L
144.662 75.59 L
144.682 72.16 L
146.962 68.73 L
147.464 65.3 L
148.196 61.87 L
149.722 58.44 L
150.767 55.01 L
153.768 51.58 L
156.963 48.15 L
156.963 44.72 L
163.971 41.29 L
168.163 37.86 L
182.208 34.43 L
197.462 31 L
S
GR
GS
0.6 0 0 RC
2 LJ
2 LW
N
69.1 377.9 M
69.1 370.1 L
76.9 370.1 L
76.9 377.9 L
69.1 377.9 L
S
GR
GS
0.6 0 0 RC
2 LJ
2 LW
N
101.26 305.87 M
101.26 298.07 L
109.06 298.07 L
109.06 305.87 L
101.26 305.87 L
S
GR
GS
0.6 0 0 RC
2 LJ
2 LW
N
103.159 285.29 M
103.159 277.49 L
110.959 277.49 L
110.959 285.29 L
103.159 285.29 L
S
GR
GS
0.6 0 0 RC
2 LJ
2 LW
N
105.065 264.71 M
105.065 256.91 L
112.865 256.91 L
112.865 264.71 L
105.065 264.71 L
S
GR
GS
0.6 0 0 RC
2 LJ
2 LW
N
105.911 247.56 M
105.911 239.76 L
113.711 239.76 L
113.711 247.56 L
105.911 247.56 L
S
GR
GS
0.6 0 0 RC
2 LJ
2 LW
N
108.161 226.98 M
108.161 219.18 L
115.961 219.18 L
115.961 226.98 L
108.161 226.98 L
S
GR
GS
0.6 0 0 RC
2 LJ
2 LW
N
110.511 206.4 M
110.511 198.6 L
118.311 198.6 L
118.311 206.4 L
110.511 206.4 L
S
GR
GS
0.6 0 0 RC
2 LJ
2 LW
N
112.957 182.39 M
112.957 174.59 L
120.757 174.59 L
120.757 182.39 L
112.957 182.39 L
S
GR
GS
0.6 0 0 RC
2 LJ
2 LW
N
115.146 161.81 M
115.146 154.01 L
122.946 154.01 L
122.946 161.81 L
115.146 161.81 L
S
GR
GS
0.6 0 0 RC
2 LJ
2 LW
N
120.282 141.23 M
120.282 133.43 L
128.082 133.43 L
128.082 141.23 L
120.282 141.23 L
S
GR
GS
0.6 0 0 RC
2 LJ
2 LW
N
125.173 120.65 M
125.173 112.85 L
132.973 112.85 L
132.973 120.65 L
125.173 120.65 L
S
GR
GS
0.6 0 0 RC
2 LJ
2 LW
N
130.146 96.64 M
130.146 88.84 L
137.946 88.84 L
137.946 96.64 L
130.146 96.64 L
S
GR
GS
0.6 0 0 RC
2 LJ
2 LW
N
140.782 76.06 M
140.782 68.26 L
148.582 68.26 L
148.582 76.06 L
140.782 76.06 L
S
GR
GS
0.6 0 0 RC
2 LJ
2 LW
N
149.868 55.48 M
149.868 47.68 L
157.668 47.68 L
157.668 55.48 L
149.868 55.48 L
S
GR
GS
0.6 0 0 RC
2 LJ
2 LW
N
193.562 34.9 M
193.562 27.1 L
201.362 27.1 L
201.362 34.9 L
193.562 34.9 L
S
GR
GS
0.6 0 0 RC
2 LJ
2 LW
N
69.1 377.9 M
69.1 370.1 L
76.9 370.1 L
76.9 377.9 L
69.1 377.9 L
S
GR
GS
0 0.2 0.4 RC
2 LJ
2 LW
N
73 374 M
73 319.12 L
139.633 315.69 L
142.804 308.83 L
143.991 305.4 L
143.991 298.54 L
146.497 288.25 L
147.602 284.82 L
147.602 277.96 L
147.92 274.53 L
148.601 271.1 L
148.96 267.67 L
148.96 264.24 L
149.232 260.81 L
149.67 257.38 L
150.197 253.95 L
151.733 250.52 L
151.836 247.09 L
151.836 243.66 L
152.332 240.23 L
153.109 229.94 L
153.169 226.51 L
153.475 223.08 L
153.475 219.65 L
154.677 216.22 L
155.038 212.79 L
155.257 209.36 L
157.36 205.93 L
157.38 199.07 L
157.523 195.64 L
158.423 192.21 L
158.493 185.35 L
159.32 181.92 L
162.894 175.06 L
166.384 171.63 L
168.763 164.77 L
168.763 161.34 L
170.133 157.91 L
170.615 154.48 L
171.012 151.05 L
171.012 147.62 L
173.281 144.19 L
175.854 140.76 L
175.854 137.33 L
177.053 133.9 L
178.032 130.47 L
178.032 127.04 L
178.661 123.61 L
180.023 120.18 L
181.29 116.75 L
S
GR
GS
0 0.2 0.4 RC
2 LJ
2 LW
N
181.29 116.75 M
181.373 113.32 L
181.517 109.89 L
183.611 106.46 L
183.611 99.6 L
183.611 96.17 L
189.286 92.74 L
194.389 89.31 L
197.888 85.88 L
211.106 79.02 L
221.927 75.59 L
225.463 72.16 L
225.463 68.73 L
231.244 65.3 L
232.92 58.44 L
236.707 55.01 L
250.384 51.58 L
252.187 48.15 L
261.269 44.72 L
266.902 41.29 L
272.772 37.86 L
285.46 34.43 L
446.387 31 L
S
GR
GS
0 0.2 0.4 RC
2 LJ
2 LW
N
78 374 M
77.045 371.061 L
74.545 369.245 L
71.455 369.245 L
68.955 371.061 L
68 374 L
68.955 376.939 L
71.455 378.755 L
74.545 378.755 L
77.045 376.939 L
78 374 L
S
GR
GS
0 0.2 0.4 RC
2 LJ
2 LW
N
148.991 298.54 M
148.036 295.601 L
145.536 293.785 L
142.446 293.785 L
139.946 295.601 L
138.991 298.54 L
139.946 301.479 L
142.446 303.295 L
145.536 303.295 L
148.036 301.479 L
148.991 298.54 L
S
GR
GS
0 0.2 0.4 RC
2 LJ
2 LW
N
153.601 271.1 M
152.647 268.161 L
150.147 266.345 L
147.056 266.345 L
144.556 268.161 L
143.601 271.1 L
144.556 274.039 L
147.056 275.855 L
150.147 275.855 L
152.647 274.039 L
153.601 271.1 L
S
GR
GS
0 0.2 0.4 RC
2 LJ
2 LW
N
155.197 253.95 M
154.242 251.011 L
151.742 249.195 L
148.652 249.195 L
146.152 251.011 L
145.197 253.95 L
146.152 256.889 L
148.652 258.705 L
151.742 258.705 L
154.242 256.889 L
155.197 253.95 L
S
GR
GS
0 0.2 0.4 RC
2 LJ
2 LW
N
158.109 229.94 M
157.154 227.001 L
154.654 225.185 L
151.564 225.185 L
149.064 227.001 L
148.109 229.94 L
149.064 232.879 L
151.564 234.695 L
154.654 234.695 L
157.154 232.879 L
158.109 229.94 L
S
GR
GS
0 0.2 0.4 RC
2 LJ
2 LW
N
160.038 212.79 M
159.083 209.851 L
156.583 208.035 L
153.493 208.035 L
150.993 209.851 L
150.038 212.79 L
150.993 215.729 L
153.493 217.545 L
156.583 217.545 L
159.083 215.729 L
160.038 212.79 L
S
GR
GS
0 0.2 0.4 RC
2 LJ
2 LW
N
163.423 192.21 M
162.468 189.271 L
159.968 187.455 L
156.877 187.455 L
154.377 189.271 L
153.423 192.21 L
154.377 195.149 L
156.877 196.965 L
159.968 196.965 L
162.468 195.149 L
163.423 192.21 L
S
GR
GS
0 0.2 0.4 RC
2 LJ
2 LW
N
173.763 161.34 M
172.809 158.401 L
170.309 156.585 L
167.218 156.585 L
164.718 158.401 L
163.763 161.34 L
164.718 164.279 L
167.218 166.095 L
170.309 166.095 L
172.809 164.279 L
173.763 161.34 L
S
GR
GS
0 0.2 0.4 RC
2 LJ
2 LW
N
178.281 144.19 M
177.326 141.251 L
174.826 139.435 L
171.736 139.435 L
169.236 141.251 L
168.281 144.19 L
169.236 147.129 L
171.736 148.945 L
174.826 148.945 L
177.326 147.129 L
178.281 144.19 L
S
GR
GS
0 0.2 0.4 RC
2 LJ
2 LW
N
183.032 127.04 M
182.077 124.101 L
179.577 122.285 L
176.487 122.285 L
173.987 124.101 L
173.032 127.04 L
173.987 129.979 L
176.487 131.795 L
179.577 131.795 L
182.077 129.979 L
183.032 127.04 L
S
GR
GS
0 0.2 0.4 RC
2 LJ
2 LW
N
186.517 109.89 M
185.563 106.951 L
183.063 105.135 L
179.972 105.135 L
177.472 106.951 L
176.517 109.89 L
177.472 112.829 L
179.972 114.645 L
183.063 114.645 L
185.563 112.829 L
186.517 109.89 L
S
GR
GS
0 0.2 0.4 RC
2 LJ
2 LW
N
199.389 89.31 M
198.434 86.371 L
195.934 84.555 L
192.844 84.555 L
190.344 86.371 L
189.389 89.31 L
190.344 92.249 L
192.844 94.065 L
195.934 94.065 L
198.434 92.249 L
199.389 89.31 L
S
GR
GS
0 0.2 0.4 RC
2 LJ
2 LW
N
230.463 68.73 M
229.508 65.791 L
227.008 63.975 L
223.918 63.975 L
221.418 65.791 L
220.463 68.73 L
221.418 71.669 L
223.918 73.485 L
227.008 73.485 L
229.508 71.669 L
230.463 68.73 L
S
GR
GS
0 0.2 0.4 RC
2 LJ
2 LW
N
257.187 48.15 M
256.232 45.211 L
253.732 43.395 L
250.642 43.395 L
248.142 45.211 L
247.187 48.15 L
248.142 51.089 L
250.642 52.905 L
253.732 52.905 L
256.232 51.089 L
257.187 48.15 L
S
GR
GS
0 0.2 0.4 RC
2 LJ
2 LW
N
451.387 31 M
450.432 28.061 L
447.932 26.245 L
444.842 26.245 L
442.342 28.061 L
441.387 31 L
442.342 33.939 L
444.842 35.755 L
447.932 35.755 L
450.432 33.939 L
451.387 31 L
S
GR
GS
0 0.2 0.4 RC
2 LJ
2 LW
N
78 374 M
77.045 371.061 L
74.545 369.245 L
71.455 369.245 L
68.955 371.061 L
68 374 L
68.955 376.939 L
71.455 378.755 L
74.545 378.755 L
77.045 376.939 L
78 374 L
S
GR
GS
0.8 0.6 0.2 RC
2 LJ
2 LW
N
73 374 M
73 199.07 L
73.029 195.64 L
73.047 192.21 L
112.051 188.78 L
121.505 185.35 L
122.289 181.92 L
125.577 178.49 L
125.946 175.06 L
125.99 171.63 L
126.423 168.2 L
127.725 164.77 L
130.575 161.34 L
134.834 157.91 L
137.078 154.48 L
137.698 151.05 L
138.444 147.62 L
142.647 144.19 L
142.735 140.76 L
143.154 137.33 L
147.006 133.9 L
147.641 130.47 L
150.542 127.04 L
152.412 123.61 L
154.23 120.18 L
155.57 116.75 L
155.834 113.32 L
156.642 109.89 L
157.84 106.46 L
157.974 103.03 L
158.363 99.6 L
158.429 96.17 L
159.138 92.74 L
159.342 89.31 L
161.787 85.88 L
161.916 82.45 L
163.338 79.02 L
164.483 75.59 L
167.217 72.16 L
171.674 68.73 L
176.363 65.3 L
176.386 61.87 L
177.349 58.44 L
179.497 55.01 L
181.857 51.58 L
182.485 48.15 L
185.948 44.72 L
188.723 41.29 L
201.654 37.86 L
237.597 34.43 L
S
GR
GS
0.8 0.6 0.2 RC
2 LJ
2 LW
N
237.597 34.43 M
283.082 31 L
S
GR
GS
0.8 0.6 0.2 RC
2 LJ
2 LW
N
68 374 M
78 374 L
S
GR
GS
0.8 0.6 0.2 RC
2 LJ
2 LW
N
73 379 M
73 369 L
S
GR
GS
0.8 0.6 0.2 RC
2 LJ
2 LW
N
69.464 377.536 M
76.536 370.464 L
S
GR
GS
0.8 0.6 0.2 RC
2 LJ
2 LW
N
69.464 370.464 M
76.536 377.536 L
S
GR
GS
0.8 0.6 0.2 RC
2 LJ
2 LW
N
107.051 188.78 M
117.051 188.78 L
S
GR
GS
0.8 0.6 0.2 RC
2 LJ
2 LW
N
112.051 193.78 M
112.051 183.78 L
S
GR
GS
0.8 0.6 0.2 RC
2 LJ
2 LW
N
108.515 192.316 M
115.586 185.244 L
S
GR
GS
0.8 0.6 0.2 RC
2 LJ
2 LW
N
108.515 185.244 M
115.586 192.316 L
S
GR
GS
0.8 0.6 0.2 RC
2 LJ
2 LW
N
120.577 178.49 M
130.577 178.49 L
S
GR
GS
0.8 0.6 0.2 RC
2 LJ
2 LW
N
125.577 183.49 M
125.577 173.49 L
S
GR
GS
0.8 0.6 0.2 RC
2 LJ
2 LW
N
122.042 182.026 M
129.113 174.954 L
S
GR
GS
0.8 0.6 0.2 RC
2 LJ
2 LW
N
122.042 174.954 M
129.113 182.026 L
S
GR
GS
0.8 0.6 0.2 RC
2 LJ
2 LW
N
122.725 164.77 M
132.725 164.77 L
S
GR
GS
0.8 0.6 0.2 RC
2 LJ
2 LW
N
127.725 169.77 M
127.725 159.77 L
S
GR
GS
0.8 0.6 0.2 RC
2 LJ
2 LW
N
124.19 168.306 M
131.261 161.234 L
S
GR
GS
0.8 0.6 0.2 RC
2 LJ
2 LW
N
124.19 161.234 M
131.261 168.306 L
S
GR
GS
0.8 0.6 0.2 RC
2 LJ
2 LW
N
132.078 154.48 M
142.078 154.48 L
S
GR
GS
0.8 0.6 0.2 RC
2 LJ
2 LW
N
137.078 159.48 M
137.078 149.48 L
S
GR
GS
0.8 0.6 0.2 RC
2 LJ
2 LW
N
133.543 158.016 M
140.614 150.944 L
S
GR
GS
0.8 0.6 0.2 RC
2 LJ
2 LW
N
133.543 150.944 M
140.614 158.016 L
S
GR
GS
0.8 0.6 0.2 RC
2 LJ
2 LW
N
137.735 140.76 M
147.735 140.76 L
S
GR
GS
0.8 0.6 0.2 RC
2 LJ
2 LW
N
142.735 145.76 M
142.735 135.76 L
S
GR
GS
0.8 0.6 0.2 RC
2 LJ
2 LW
N
139.199 144.296 M
146.27 137.224 L
S
GR
GS
0.8 0.6 0.2 RC
2 LJ
2 LW
N
139.199 137.224 M
146.27 144.296 L
S
GR
GS
0.8 0.6 0.2 RC
2 LJ
2 LW
N
142.641 130.47 M
152.641 130.47 L
S
GR
GS
0.8 0.6 0.2 RC
2 LJ
2 LW
N
147.641 135.47 M
147.641 125.47 L
S
GR
GS
0.8 0.6 0.2 RC
2 LJ
2 LW
N
144.106 134.006 M
151.177 126.934 L
S
GR
GS
0.8 0.6 0.2 RC
2 LJ
2 LW
N
144.106 126.934 M
151.177 134.006 L
S
GR
GS
0.8 0.6 0.2 RC
2 LJ
2 LW
N
150.57 116.75 M
160.57 116.75 L
S
GR
GS
0.8 0.6 0.2 RC
2 LJ
2 LW
N
155.57 121.75 M
155.57 111.75 L
S
GR
GS
0.8 0.6 0.2 RC
2 LJ
2 LW
N
152.034 120.286 M
159.106 113.214 L
S
GR
GS
0.8 0.6 0.2 RC
2 LJ
2 LW
N
152.034 113.214 M
159.106 120.286 L
S
GR
GS
0.8 0.6 0.2 RC
2 LJ
2 LW
N
152.974 103.03 M
162.974 103.03 L
S
GR
GS
0.8 0.6 0.2 RC
2 LJ
2 LW
N
157.974 108.03 M
157.974 98.03 L
S
GR
GS
0.8 0.6 0.2 RC
2 LJ
2 LW
N
154.438 106.566 M
161.51 99.494 L
S
GR
GS
0.8 0.6 0.2 RC
2 LJ
2 LW
N
154.438 99.494 M
161.51 106.566 L
S
GR
GS
0.8 0.6 0.2 RC
2 LJ
2 LW
N
154.138 92.74 M
164.138 92.74 L
S
GR
GS
0.8 0.6 0.2 RC
2 LJ
2 LW
N
159.138 97.74 M
159.138 87.74 L
S
GR
GS
0.8 0.6 0.2 RC
2 LJ
2 LW
N
155.602 96.276 M
162.673 89.204 L
S
GR
GS
0.8 0.6 0.2 RC
2 LJ
2 LW
N
155.602 89.204 M
162.673 96.276 L
S
GR
GS
0.8 0.6 0.2 RC
2 LJ
2 LW
N
158.338 79.02 M
168.338 79.02 L
S
GR
GS
0.8 0.6 0.2 RC
2 LJ
2 LW
N
163.338 84.02 M
163.338 74.02 L
S
GR
GS
0.8 0.6 0.2 RC
2 LJ
2 LW
N
159.802 82.556 M
166.873 75.484 L
S
GR
GS
0.8 0.6 0.2 RC
2 LJ
2 LW
N
159.802 75.484 M
166.873 82.556 L
S
GR
GS
0.8 0.6 0.2 RC
2 LJ
2 LW
N
166.674 68.73 M
176.674 68.73 L
S
GR
GS
0.8 0.6 0.2 RC
2 LJ
2 LW
N
171.674 73.73 M
171.674 63.73 L
S
GR
GS
0.8 0.6 0.2 RC
2 LJ
2 LW
N
168.139 72.266 M
175.21 65.194 L
S
GR
GS
0.8 0.6 0.2 RC
2 LJ
2 LW
N
168.139 65.194 M
175.21 72.266 L
S
GR
GS
0.8 0.6 0.2 RC
2 LJ
2 LW
N
174.497 55.01 M
184.497 55.01 L
S
GR
GS
0.8 0.6 0.2 RC
2 LJ
2 LW
N
179.497 60.01 M
179.497 50.01 L
S
GR
GS
0.8 0.6 0.2 RC
2 LJ
2 LW
N
175.961 58.546 M
183.032 51.474 L
S
GR
GS
0.8 0.6 0.2 RC
2 LJ
2 LW
N
175.961 51.474 M
183.032 58.546 L
S
GR
GS
0.8 0.6 0.2 RC
2 LJ
2 LW
N
180.948 44.72 M
190.948 44.72 L
S
GR
GS
0.8 0.6 0.2 RC
2 LJ
2 LW
N
185.948 49.72 M
185.948 39.72 L
S
GR
GS
0.8 0.6 0.2 RC
2 LJ
2 LW
N
182.412 48.256 M
189.483 41.184 L
S
GR
GS
0.8 0.6 0.2 RC
2 LJ
2 LW
N
182.412 41.184 M
189.483 48.256 L
S
GR
GS
0.8 0.6 0.2 RC
2 LJ
2 LW
N
278.082 31 M
288.082 31 L
S
GR
GS
0.8 0.6 0.2 RC
2 LJ
2 LW
N
283.082 36 M
283.082 26 L
S
GR
GS
0.8 0.6 0.2 RC
2 LJ
2 LW
N
279.547 34.536 M
286.618 27.464 L
S
GR
GS
0.8 0.6 0.2 RC
2 LJ
2 LW
N
279.547 27.464 M
286.618 34.536 L
S
GR
GS
0.8 0.6 0.2 RC
2 LJ
2 LW
N
68 374 M
78 374 L
S
GR
GS
0.8 0.6 0.2 RC
2 LJ
2 LW
N
73 379 M
73 369 L
S
GR
GS
0.8 0.6 0.2 RC
2 LJ
2 LW
N
69.464 377.536 M
76.536 370.464 L
S
GR
GS
0.8 0.6 0.2 RC
2 LJ
2 LW
N
69.464 370.464 M
76.536 377.536 L
S
GR
GS
0 0.2 0 RC
2 LJ
2 LW
N
73 374 M
73 188.78 L
169.558 185.35 L
171.231 181.92 L
178.027 178.49 L
184.314 175.06 L
185.226 171.63 L
185.571 168.2 L
191.428 164.77 L
194.47 161.34 L
195.156 157.91 L
196.573 154.48 L
198.149 151.05 L
200.593 147.62 L
202.81 144.19 L
210.7 140.76 L
213.204 137.33 L
213.556 133.9 L
220.459 130.47 L
220.608 127.04 L
221.418 123.61 L
223.334 120.18 L
224.358 116.75 L
225.406 113.32 L
225.429 109.89 L
226.147 106.46 L
227.976 103.03 L
231.147 99.6 L
233.16 96.17 L
236.733 92.74 L
241.566 89.31 L
242.067 85.88 L
251.347 82.45 L
252.103 79.02 L
252.526 75.59 L
254.744 72.16 L
255.087 68.73 L
265.595 65.3 L
266.109 61.87 L
280.552 58.44 L
282.985 55.01 L
291.77 51.58 L
293.552 48.15 L
294.219 44.72 L
313.847 41.29 L
317.149 37.86 L
392.194 34.43 L
400.769 31 L
S
GR
GS
0 0.2 0 RC
2 LJ
2 LW
N
67.228 377.332 M
78.772 377.332 L
73 367.335 L
67.228 377.332 L
S
GR
GS
0 0.2 0 RC
2 LJ
2 LW
N
165.459 185.253 M
177.003 185.253 L
171.231 175.255 L
165.459 185.253 L
S
GR
GS
0 0.2 0 RC
2 LJ
2 LW
N
179.799 171.532 M
191.343 171.532 L
185.571 161.535 L
179.799 171.532 L
S
GR
GS
0 0.2 0 RC
2 LJ
2 LW
N
189.385 161.243 M
200.928 161.243 L
195.156 151.245 L
189.385 161.243 L
S
GR
GS
0 0.2 0 RC
2 LJ
2 LW
N
194.821 150.952 M
206.365 150.952 L
200.593 140.955 L
194.821 150.952 L
S
GR
GS
0 0.2 0 RC
2 LJ
2 LW
N
207.784 137.232 M
219.328 137.232 L
213.556 127.235 L
207.784 137.232 L
S
GR
GS
0 0.2 0 RC
2 LJ
2 LW
N
215.646 126.942 M
227.19 126.942 L
221.418 116.945 L
215.646 126.942 L
S
GR
GS
0 0.2 0 RC
2 LJ
2 LW
N
219.657 113.223 M
231.2 113.223 L
225.429 103.225 L
219.657 113.223 L
S
GR
GS
0 0.2 0 RC
2 LJ
2 LW
N
225.375 102.932 M
236.919 102.932 L
231.147 92.935 L
225.375 102.932 L
S
GR
GS
0 0.2 0 RC
2 LJ
2 LW
N
235.794 92.643 M
247.338 92.643 L
241.566 82.645 L
235.794 92.643 L
S
GR
GS
0 0.2 0 RC
2 LJ
2 LW
N
246.754 78.923 M
258.297 78.923 L
252.526 68.925 L
246.754 78.923 L
S
GR
GS
0 0.2 0 RC
2 LJ
2 LW
N
259.823 68.633 M
271.367 68.633 L
265.595 58.635 L
259.823 68.633 L
S
GR
GS
0 0.2 0 RC
2 LJ
2 LW
N
277.213 58.342 M
288.757 58.342 L
282.985 48.345 L
277.213 58.342 L
S
GR
GS
0 0.2 0 RC
2 LJ
2 LW
N
308.075 44.622 M
319.619 44.622 L
313.847 34.625 L
308.075 44.622 L
S
GR
GS
0 0.2 0 RC
2 LJ
2 LW
N
394.997 34.333 M
406.541 34.333 L
400.769 24.335 L
394.997 34.333 L
S
GR
GS
0 0.2 0 RC
2 LJ
2 LW
N
67.228 377.332 M
78.772 377.332 L
73 367.335 L
67.228 377.332 L
S
GR
GS
1 GC
N
423 123 M
423 70 L
500 70 L
500 123 L
cp
f
GR
GS
[1 0 0 1 462 77.92523] CT
/Helvetica-Bold 11 F
GS
[1 0 0 1 0 0] CT
0 3 moveto 
1 -1 scale
(Tree) t 
GR
GR
GS
0.6 0 0 RC
2 setlinecap
10.0 ML
2 LW
N
429 77.925 M
459 77.925 L
S
GR
GS
0.6 0 0 RC
2 setlinecap
10.0 ML
2 LW
N
440.6 81.4 M
440.6 73.6 L
448.4 73.6 L
448.4 81.4 L
440.6 81.4 L
S
GR
GS
[1 0 0 1 462 90.30841] CT
/Helvetica-Bold 11 F
GS
[1 0 0 1 0 0] CT
0 3 moveto 
1 -1 scale
(NC) t 
GR
GR
GS
0 0.2 0.4 RC
2 setlinecap
10.0 ML
2 LW
N
429 90.308 M
459 90.308 L
S
GR
GS
0 0.2 0.4 RC
2 setlinecap
10.0 ML
2 LW
N
449.5 90.5 M
448.545 87.561 L
446.045 85.745 L
442.955 85.745 L
440.455 87.561 L
439.5 90.5 L
440.455 93.439 L
442.955 95.255 L
446.045 95.255 L
448.545 93.439 L
449.5 90.5 L
S
GR
GS
[1 0 0 1 462 102.69159] CT
/Helvetica-Bold 11 F
GS
[1 0 0 1 0 0] CT
0 3 moveto 
1 -1 scale
(TC) t 
GR
GR
GS
0.8 0.6 0.2 RC
2 setlinecap
10.0 ML
2 LW
N
429 102.692 M
459 102.692 L
S
GR
GS
0.8 0.6 0.2 RC
2 setlinecap
10.0 ML
2 LW
N
439 102.5 M
450 102.5 L
S
GR
GS
0.8 0.6 0.2 RC
2 setlinecap
10.0 ML
2 LW
N
444.5 108 M
444.5 97 L
S
GR
GS
0.8 0.6 0.2 RC
2 setlinecap
10.0 ML
2 LW
N
440 107 M
449 98 L
S
GR
GS
0.8 0.6 0.2 RC
2 setlinecap
10.0 ML
2 LW
N
440 98 M
449 107 L
S
GR
GS
[1 0 0 1 462 115.07477] CT
/Helvetica-Bold 11 F
GS
[1 0 0 1 0 0] CT
0 3 moveto 
1 -1 scale
(NC-TC) t 
GR
GR
GS
0 0.2 0 RC
2 setlinecap
10.0 ML
2 LW
N
429 115.075 M
459 115.075 L
S
GR
GS
0 0.2 0 RC
2 setlinecap
10.0 ML
2 LW
N
438.728 118.832 M
450.272 118.832 L
444.5 108.835 L
438.728 118.832 L
S
GR
GS
0.149 GC
2 setlinecap
10.0 ML
N
423 123 M
423 70 L
500 70 L
500 123 L
423 123 L
S
GR
%%Trailer
%%Pages: 1
%%EOF
