%!PS-Adobe-3.0 EPSF-3.0
%%Creator: (MATLAB, The Mathworks, Inc. Version 8.5.0.197613 \(R2015a\). Operating System: Mac OS X)
%%Title: /Users/ashwinyakkundimath/Documents/Thesis_Results/plots/phy_mechs/cdf_tuc_thr.eps
%%CreationDate: 2016-01-05T12:24:03
%%Pages: (atend)
%%BoundingBox: 0 0 560 420
%%LanguageLevel: 2
%%EndComments
%%BeginProlog
%%BeginResource: procset (Apache XML Graphics Std ProcSet) 1.2 0
%%Version: 1.2 0
%%Copyright: (Copyright 2001-2003,2010 The Apache Software Foundation. License terms: http://www.apache.org/licenses/LICENSE-2.0)
/bd{bind def}bind def
/ld{load def}bd
/GR/grestore ld
/M/moveto ld
/LJ/setlinejoin ld
/C/curveto ld
/f/fill ld
/LW/setlinewidth ld
/GC/setgray ld
/t/show ld
/N/newpath ld
/CT/concat ld
/cp/closepath ld
/S/stroke ld
/L/lineto ld
/CC/setcmykcolor ld
/A/ashow ld
/GS/gsave ld
/RC/setrgbcolor ld
/RM/rmoveto ld
/ML/setmiterlimit ld
/re {4 2 roll M
1 index 0 rlineto
0 exch rlineto
neg 0 rlineto
cp } bd
/_ctm matrix def
/_tm matrix def
/BT { _ctm currentmatrix pop matrix _tm copy pop 0 0 moveto } bd
/ET { _ctm setmatrix } bd
/iTm { _ctm setmatrix _tm concat } bd
/Tm { _tm astore pop iTm 0 0 moveto } bd
/ux 0.0 def
/uy 0.0 def
/F {
  /Tp exch def
  /Tf exch def
  Tf findfont Tp scalefont setfont
  /cf Tf def  /cs Tp def
} bd
/ULS {currentpoint /uy exch def /ux exch def} bd
/ULE {
  /Tcx currentpoint pop def
  gsave
  newpath
  cf findfont cs scalefont dup
  /FontMatrix get 0 get /Ts exch def /FontInfo get dup
  /UnderlinePosition get Ts mul /To exch def
  /UnderlineThickness get Ts mul /Tt exch def
  ux uy To add moveto  Tcx uy To add lineto
  Tt setlinewidth stroke
  grestore
} bd
/OLE {
  /Tcx currentpoint pop def
  gsave
  newpath
  cf findfont cs scalefont dup
  /FontMatrix get 0 get /Ts exch def /FontInfo get dup
  /UnderlinePosition get Ts mul /To exch def
  /UnderlineThickness get Ts mul /Tt exch def
  ux uy To add cs add moveto Tcx uy To add cs add lineto
  Tt setlinewidth stroke
  grestore
} bd
/SOE {
  /Tcx currentpoint pop def
  gsave
  newpath
  cf findfont cs scalefont dup
  /FontMatrix get 0 get /Ts exch def /FontInfo get dup
  /UnderlinePosition get Ts mul /To exch def
  /UnderlineThickness get Ts mul /Tt exch def
  ux uy To add cs 10 mul 26 idiv add moveto Tcx uy To add cs 10 mul 26 idiv add lineto
  Tt setlinewidth stroke
  grestore
} bd
/QT {
/Y22 exch store
/X22 exch store
/Y21 exch store
/X21 exch store
currentpoint
/Y21 load 2 mul add 3 div exch
/X21 load 2 mul add 3 div exch
/X21 load 2 mul /X22 load add 3 div
/Y21 load 2 mul /Y22 load add 3 div
/X22 load /Y22 load curveto
} bd
/SSPD {
dup length /d exch dict def
{
/v exch def
/k exch def
currentpagedevice k known {
/cpdv currentpagedevice k get def
v cpdv ne {
/upd false def
/nullv v type /nulltype eq def
/nullcpdv cpdv type /nulltype eq def
nullv nullcpdv or
{
/upd true def
} {
/sametype v type cpdv type eq def
sametype {
v type /arraytype eq {
/vlen v length def
/cpdvlen cpdv length def
vlen cpdvlen eq {
0 1 vlen 1 sub {
/i exch def
/obj v i get def
/cpdobj cpdv i get def
obj cpdobj ne {
/upd true def
exit
} if
} for
} {
/upd true def
} ifelse
} {
v type /dicttype eq {
v {
/dv exch def
/dk exch def
/cpddv cpdv dk get def
dv cpddv ne {
/upd true def
exit
} if
} forall
} {
/upd true def
} ifelse
} ifelse
} if
} ifelse
upd true eq {
d k v put
} if
} if
} if
} forall
d length 0 gt {
d setpagedevice
} if
} bd
%%EndResource
%%BeginResource: procset (Apache XML Graphics EPS ProcSet) 1.0 0
%%Version: 1.0 0
%%Copyright: (Copyright 2002-2003 The Apache Software Foundation. License terms: http://www.apache.org/licenses/LICENSE-2.0)
/BeginEPSF { %def
/b4_Inc_state save def         % Save state for cleanup
/dict_count countdictstack def % Count objects on dict stack
/op_count count 1 sub def      % Count objects on operand stack
userdict begin                 % Push userdict on dict stack
/showpage { } def              % Redefine showpage, { } = null proc
0 setgray 0 setlinecap         % Prepare graphics state
1 setlinewidth 0 setlinejoin
10 setmiterlimit [ ] 0 setdash newpath
/languagelevel where           % If level not equal to 1 then
{pop languagelevel             % set strokeadjust and
1 ne                           % overprint to their defaults.
{false setstrokeadjust false setoverprint
} if
} if
} bd
/EndEPSF { %def
count op_count sub {pop} repeat            % Clean up stacks
countdictstack dict_count sub {end} repeat
b4_Inc_state restore
} bd
%%EndResource
%FOPBeginFontDict
%%IncludeResource: font Courier-Bold
%%IncludeResource: font Helvetica
%%IncludeResource: font Courier-BoldOblique
%%IncludeResource: font Courier-Oblique
%%IncludeResource: font Times-Roman
%%IncludeResource: font Helvetica-BoldOblique
%%IncludeResource: font Helvetica-Bold
%%IncludeResource: font Helvetica-Oblique
%%IncludeResource: font Times-BoldItalic
%%IncludeResource: font Courier
%%IncludeResource: font Times-Italic
%%IncludeResource: font Times-Bold
%%IncludeResource: font Symbol
%%IncludeResource: font ZapfDingbats
%FOPEndFontDict
%%BeginResource: encoding WinAnsiEncoding
/WinAnsiEncoding [
/.notdef /.notdef /.notdef /.notdef /.notdef
/.notdef /.notdef /.notdef /.notdef /.notdef
/.notdef /.notdef /.notdef /.notdef /.notdef
/.notdef /.notdef /.notdef /.notdef /.notdef
/.notdef /.notdef /.notdef /.notdef /.notdef
/.notdef /.notdef /.notdef /.notdef /.notdef
/.notdef /.notdef /space /exclam /quotedbl
/numbersign /dollar /percent /ampersand /quotesingle
/parenleft /parenright /asterisk /plus /comma
/hyphen /period /slash /zero /one
/two /three /four /five /six
/seven /eight /nine /colon /semicolon
/less /equal /greater /question /at
/A /B /C /D /E
/F /G /H /I /J
/K /L /M /N /O
/P /Q /R /S /T
/U /V /W /X /Y
/Z /bracketleft /backslash /bracketright /asciicircum
/underscore /quoteleft /a /b /c
/d /e /f /g /h
/i /j /k /l /m
/n /o /p /q /r
/s /t /u /v /w
/x /y /z /braceleft /bar
/braceright /asciitilde /bullet /Euro /bullet
/quotesinglbase /florin /quotedblbase /ellipsis /dagger
/daggerdbl /circumflex /perthousand /Scaron /guilsinglleft
/OE /bullet /Zcaron /bullet /bullet
/quoteleft /quoteright /quotedblleft /quotedblright /bullet
/endash /emdash /asciitilde /trademark /scaron
/guilsinglright /oe /bullet /zcaron /Ydieresis
/space /exclamdown /cent /sterling /currency
/yen /brokenbar /section /dieresis /copyright
/ordfeminine /guillemotleft /logicalnot /sfthyphen /registered
/macron /degree /plusminus /twosuperior /threesuperior
/acute /mu /paragraph /middot /cedilla
/onesuperior /ordmasculine /guillemotright /onequarter /onehalf
/threequarters /questiondown /Agrave /Aacute /Acircumflex
/Atilde /Adieresis /Aring /AE /Ccedilla
/Egrave /Eacute /Ecircumflex /Edieresis /Igrave
/Iacute /Icircumflex /Idieresis /Eth /Ntilde
/Ograve /Oacute /Ocircumflex /Otilde /Odieresis
/multiply /Oslash /Ugrave /Uacute /Ucircumflex
/Udieresis /Yacute /Thorn /germandbls /agrave
/aacute /acircumflex /atilde /adieresis /aring
/ae /ccedilla /egrave /eacute /ecircumflex
/edieresis /igrave /iacute /icircumflex /idieresis
/eth /ntilde /ograve /oacute /ocircumflex
/otilde /odieresis /divide /oslash /ugrave
/uacute /ucircumflex /udieresis /yacute /thorn
/ydieresis
] def
%%EndResource
%FOPBeginFontReencode
/Courier-Bold findfont
dup length dict begin
  {1 index /FID ne {def} {pop pop} ifelse} forall
  /Encoding WinAnsiEncoding def
  currentdict
end
/Courier-Bold exch definefont pop
/Helvetica findfont
dup length dict begin
  {1 index /FID ne {def} {pop pop} ifelse} forall
  /Encoding WinAnsiEncoding def
  currentdict
end
/Helvetica exch definefont pop
/Courier-BoldOblique findfont
dup length dict begin
  {1 index /FID ne {def} {pop pop} ifelse} forall
  /Encoding WinAnsiEncoding def
  currentdict
end
/Courier-BoldOblique exch definefont pop
/Courier-Oblique findfont
dup length dict begin
  {1 index /FID ne {def} {pop pop} ifelse} forall
  /Encoding WinAnsiEncoding def
  currentdict
end
/Courier-Oblique exch definefont pop
/Times-Roman findfont
dup length dict begin
  {1 index /FID ne {def} {pop pop} ifelse} forall
  /Encoding WinAnsiEncoding def
  currentdict
end
/Times-Roman exch definefont pop
/Helvetica-BoldOblique findfont
dup length dict begin
  {1 index /FID ne {def} {pop pop} ifelse} forall
  /Encoding WinAnsiEncoding def
  currentdict
end
/Helvetica-BoldOblique exch definefont pop
/Helvetica-Bold findfont
dup length dict begin
  {1 index /FID ne {def} {pop pop} ifelse} forall
  /Encoding WinAnsiEncoding def
  currentdict
end
/Helvetica-Bold exch definefont pop
/Helvetica-Oblique findfont
dup length dict begin
  {1 index /FID ne {def} {pop pop} ifelse} forall
  /Encoding WinAnsiEncoding def
  currentdict
end
/Helvetica-Oblique exch definefont pop
/Times-BoldItalic findfont
dup length dict begin
  {1 index /FID ne {def} {pop pop} ifelse} forall
  /Encoding WinAnsiEncoding def
  currentdict
end
/Times-BoldItalic exch definefont pop
/Courier findfont
dup length dict begin
  {1 index /FID ne {def} {pop pop} ifelse} forall
  /Encoding WinAnsiEncoding def
  currentdict
end
/Courier exch definefont pop
/Times-Italic findfont
dup length dict begin
  {1 index /FID ne {def} {pop pop} ifelse} forall
  /Encoding WinAnsiEncoding def
  currentdict
end
/Times-Italic exch definefont pop
/Times-Bold findfont
dup length dict begin
  {1 index /FID ne {def} {pop pop} ifelse} forall
  /Encoding WinAnsiEncoding def
  currentdict
end
/Times-Bold exch definefont pop
%FOPEndFontReencode
%%EndProlog
%%Page: 1 1
%%PageBoundingBox: 0 0 560 420
%%BeginPageSetup
[1 0 0 -1 0 420] CT
%%EndPageSetup
GS
1 GC
N
0 0 560 420 re
f
GR
GS
1 GC
N
0 0 560 420 re
f
GR
GS
1 GC
N
73 374 M
507 374 L
507 31 L
73 31 L
cp
f
GR
GS
0.873 GC
2 setlinecap
10.0 ML
N
73 374 M
73 31 L
S
GR
GS
0.873 GC
2 setlinecap
10.0 ML
N
135 374 M
135 31 L
S
GR
GS
0.873 GC
2 setlinecap
10.0 ML
N
197 374 M
197 31 L
S
GR
GS
0.873 GC
2 setlinecap
10.0 ML
N
259 374 M
259 31 L
S
GR
GS
0.873 GC
2 setlinecap
10.0 ML
N
321 374 M
321 31 L
S
GR
GS
0.873 GC
2 setlinecap
10.0 ML
N
383 374 M
383 31 L
S
GR
GS
0.873 GC
2 setlinecap
10.0 ML
N
445 374 M
445 31 L
S
GR
GS
0.873 GC
2 setlinecap
10.0 ML
N
507 374 M
507 31 L
S
GR
GS
0.873 GC
2 setlinecap
10.0 ML
N
507 374 M
73 374 L
S
GR
GS
0.873 GC
2 setlinecap
10.0 ML
N
507 339.7 M
73 339.7 L
S
GR
GS
0.873 GC
2 setlinecap
10.0 ML
N
507 305.4 M
73 305.4 L
S
GR
GS
0.873 GC
2 setlinecap
10.0 ML
N
507 271.1 M
73 271.1 L
S
GR
GS
0.873 GC
2 setlinecap
10.0 ML
N
507 236.8 M
73 236.8 L
S
GR
GS
0.873 GC
2 setlinecap
10.0 ML
N
507 202.5 M
73 202.5 L
S
GR
GS
0.873 GC
2 setlinecap
10.0 ML
N
507 168.2 M
73 168.2 L
S
GR
GS
0.873 GC
2 setlinecap
10.0 ML
N
507 133.9 M
73 133.9 L
S
GR
GS
0.873 GC
2 setlinecap
10.0 ML
N
507 99.6 M
73 99.6 L
S
GR
GS
0.873 GC
2 setlinecap
10.0 ML
N
507 65.3 M
73 65.3 L
S
GR
GS
0.873 GC
2 setlinecap
10.0 ML
N
507 31 M
73 31 L
S
GR
GS
[1 0 0 1 290.00021 390] CT
0.149 GC
/Helvetica-Bold 11 F
GS
[1 0 0 1 0 0] CT
-52 9 moveto 
1 -1 scale
(System Throughput) t 
GR
GR
GS
0.149 GC
2 setlinecap
10.0 ML
N
73 374 M
507 374 L
S
GR
GS
0.149 GC
2 setlinecap
10.0 ML
N
73 374 M
73 369.66 L
S
GR
GS
0.149 GC
2 setlinecap
10.0 ML
N
135 374 M
135 369.66 L
S
GR
GS
0.149 GC
2 setlinecap
10.0 ML
N
197 374 M
197 369.66 L
S
GR
GS
0.149 GC
2 setlinecap
10.0 ML
N
259 374 M
259 369.66 L
S
GR
GS
0.149 GC
2 setlinecap
10.0 ML
N
321 374 M
321 369.66 L
S
GR
GS
0.149 GC
2 setlinecap
10.0 ML
N
383 374 M
383 369.66 L
S
GR
GS
0.149 GC
2 setlinecap
10.0 ML
N
445 374 M
445 369.66 L
S
GR
GS
0.149 GC
2 setlinecap
10.0 ML
N
507 374 M
507 369.66 L
S
GR
GS
[1 0 0 1 73 378] CT
0.149 GC
/Helvetica-Bold 10 F
GS
[1 0 0 1 0 0] CT
-3 8 moveto 
1 -1 scale
(0) t 
GR
GR
GS
[1 0 0 1 135 378] CT
0.149 GC
/Helvetica-Bold 10 F
GS
[1 0 0 1 0 0] CT
-7 8 moveto 
1 -1 scale
(0.1) t 
GR
GR
GS
[1 0 0 1 197 378] CT
0.149 GC
/Helvetica-Bold 10 F
GS
[1 0 0 1 0 0] CT
-7 8 moveto 
1 -1 scale
(0.2) t 
GR
GR
GS
[1 0 0 1 259 378] CT
0.149 GC
/Helvetica-Bold 10 F
GS
[1 0 0 1 0 0] CT
-7 8 moveto 
1 -1 scale
(0.3) t 
GR
GR
GS
[1 0 0 1 321 378] CT
0.149 GC
/Helvetica-Bold 10 F
GS
[1 0 0 1 0 0] CT
-7 8 moveto 
1 -1 scale
(0.4) t 
GR
GR
GS
[1 0 0 1 383 378] CT
0.149 GC
/Helvetica-Bold 10 F
GS
[1 0 0 1 0 0] CT
-7 8 moveto 
1 -1 scale
(0.5) t 
GR
GR
GS
[1 0 0 1 445 378] CT
0.149 GC
/Helvetica-Bold 10 F
GS
[1 0 0 1 0 0] CT
-7 8 moveto 
1 -1 scale
(0.6) t 
GR
GR
GS
[1 0 0 1 507 378] CT
0.149 GC
/Helvetica-Bold 10 F
GS
[1 0 0 1 0 0] CT
-7 8 moveto 
1 -1 scale
(0.7) t 
GR
GR
GS
[0 -1 1 0 52 202.49983] CT
0.149 GC
/Helvetica-Bold 11 F
GS
[1 0 0 1 0 0] CT
-60 -3 moveto 
1 -1 scale
(Cumulative Probability) t 
GR
GR
GS
0.149 GC
2 setlinecap
10.0 ML
N
73 374 M
73 31 L
S
GR
GS
0.149 GC
2 setlinecap
10.0 ML
N
73 374 M
77.34 374 L
S
GR
GS
0.149 GC
2 setlinecap
10.0 ML
N
73 339.7 M
77.34 339.7 L
S
GR
GS
0.149 GC
2 setlinecap
10.0 ML
N
73 305.4 M
77.34 305.4 L
S
GR
GS
0.149 GC
2 setlinecap
10.0 ML
N
73 271.1 M
77.34 271.1 L
S
GR
GS
0.149 GC
2 setlinecap
10.0 ML
N
73 236.8 M
77.34 236.8 L
S
GR
GS
0.149 GC
2 setlinecap
10.0 ML
N
73 202.5 M
77.34 202.5 L
S
GR
GS
0.149 GC
2 setlinecap
10.0 ML
N
73 168.2 M
77.34 168.2 L
S
GR
GS
0.149 GC
2 setlinecap
10.0 ML
N
73 133.9 M
77.34 133.9 L
S
GR
GS
0.149 GC
2 setlinecap
10.0 ML
N
73 99.6 M
77.34 99.6 L
S
GR
GS
0.149 GC
2 setlinecap
10.0 ML
N
73 65.3 M
77.34 65.3 L
S
GR
GS
0.149 GC
2 setlinecap
10.0 ML
N
73 31 M
77.34 31 L
S
GR
GS
[1 0 0 1 69 374] CT
0.149 GC
/Helvetica-Bold 10 F
GS
[1 0 0 1 0 0] CT
-6 2.5 moveto 
1 -1 scale
(0) t 
GR
GR
GS
[1 0 0 1 69 339.70001] CT
0.149 GC
/Helvetica-Bold 10 F
GS
[1 0 0 1 0 0] CT
-14 2.5 moveto 
1 -1 scale
(0.1) t 
GR
GR
GS
[1 0 0 1 69 305.39999] CT
0.149 GC
/Helvetica-Bold 10 F
GS
[1 0 0 1 0 0] CT
-14 2.5 moveto 
1 -1 scale
(0.2) t 
GR
GR
GS
[1 0 0 1 69 271.10001] CT
0.149 GC
/Helvetica-Bold 10 F
GS
[1 0 0 1 0 0] CT
-14 2.5 moveto 
1 -1 scale
(0.3) t 
GR
GR
GS
[1 0 0 1 69 236.8] CT
0.149 GC
/Helvetica-Bold 10 F
GS
[1 0 0 1 0 0] CT
-14 2.5 moveto 
1 -1 scale
(0.4) t 
GR
GR
GS
[1 0 0 1 69 202.5] CT
0.149 GC
/Helvetica-Bold 10 F
GS
[1 0 0 1 0 0] CT
-14 2.5 moveto 
1 -1 scale
(0.5) t 
GR
GR
GS
[1 0 0 1 69 168.2] CT
0.149 GC
/Helvetica-Bold 10 F
GS
[1 0 0 1 0 0] CT
-14 2.5 moveto 
1 -1 scale
(0.6) t 
GR
GR
GS
[1 0 0 1 69 133.90001] CT
0.149 GC
/Helvetica-Bold 10 F
GS
[1 0 0 1 0 0] CT
-14 2.5 moveto 
1 -1 scale
(0.7) t 
GR
GR
GS
[1 0 0 1 69 99.6] CT
0.149 GC
/Helvetica-Bold 10 F
GS
[1 0 0 1 0 0] CT
-14 2.5 moveto 
1 -1 scale
(0.8) t 
GR
GR
GS
[1 0 0 1 69 65.30001] CT
0.149 GC
/Helvetica-Bold 10 F
GS
[1 0 0 1 0 0] CT
-14 2.5 moveto 
1 -1 scale
(0.9) t 
GR
GR
GS
[1 0 0 1 69 31] CT
0.149 GC
/Helvetica-Bold 10 F
GS
[1 0 0 1 0 0] CT
-6 2.5 moveto 
1 -1 scale
(1) t 
GR
GR
GS
0.6 0 0 RC
2 LJ
2 LW
N
73 374 M
73 319.12 L
122.4 315.69 L
124.028 312.26 L
125.134 308.83 L
128.302 305.4 L
128.728 301.97 L
132.434 298.54 L
132.958 295.11 L
133.112 291.68 L
133.379 288.25 L
134.354 284.82 L
136.107 281.39 L
138.893 277.96 L
139.209 274.53 L
139.826 271.1 L
140.585 267.67 L
141.746 264.24 L
142.611 260.81 L
144.497 257.38 L
144.651 253.95 L
145.145 250.52 L
145.517 247.09 L
145.795 243.66 L
147.09 240.23 L
147.565 236.8 L
148.349 233.37 L
148.912 229.94 L
149.618 226.51 L
149.995 223.08 L
151.293 219.65 L
151.401 216.22 L
151.784 212.79 L
152.998 209.36 L
153.24 205.93 L
153.973 202.5 L
154.017 199.07 L
154.037 195.64 L
155.009 192.21 L
156.616 188.78 L
156.763 185.35 L
157.373 181.92 L
158.009 178.49 L
160.234 175.06 L
160.257 171.63 L
160.513 168.2 L
161.196 164.77 L
161.815 161.34 L
162.112 157.91 L
162.131 154.48 L
S
GR
GS
0.6 0 0 RC
2 LJ
2 LW
N
162.131 154.48 M
162.763 151.05 L
164.232 147.62 L
169.765 144.19 L
170.018 140.76 L
170.551 137.33 L
171.4 133.9 L
175.865 130.47 L
177.271 127.04 L
179.692 123.61 L
180.203 120.18 L
183.272 116.75 L
183.983 113.32 L
186.177 109.89 L
186.397 106.46 L
187.534 103.03 L
187.685 99.6 L
189.385 96.17 L
198.005 92.74 L
198.637 89.31 L
198.79 85.88 L
199.554 82.45 L
201.903 79.02 L
205.749 75.59 L
214.82 72.16 L
216.606 68.73 L
219.223 65.3 L
225.5 61.87 L
226.03 58.44 L
227.198 55.01 L
227.931 51.58 L
228.999 48.15 L
238.225 44.72 L
244.151 41.29 L
270.019 37.86 L
278.688 34.43 L
293.055 31 L
S
GR
GS
0.6 0 0 RC
2 LJ
2 LW
N
69.1 377.9 M
69.1 370.1 L
76.9 370.1 L
76.9 377.9 L
69.1 377.9 L
S
GR
GS
0.6 0 0 RC
2 LJ
2 LW
N
124.828 305.87 M
124.828 298.07 L
132.628 298.07 L
132.628 305.87 L
124.828 305.87 L
S
GR
GS
0.6 0 0 RC
2 LJ
2 LW
N
132.207 285.29 M
132.207 277.49 L
140.007 277.49 L
140.007 285.29 L
132.207 285.29 L
S
GR
GS
0.6 0 0 RC
2 LJ
2 LW
N
138.711 264.71 M
138.711 256.91 L
146.511 256.91 L
146.511 264.71 L
138.711 264.71 L
S
GR
GS
0.6 0 0 RC
2 LJ
2 LW
N
143.19 244.13 M
143.19 236.33 L
150.99 236.33 L
150.99 244.13 L
143.19 244.13 L
S
GR
GS
0.6 0 0 RC
2 LJ
2 LW
N
147.393 223.55 M
147.393 215.75 L
155.193 215.75 L
155.193 223.55 L
147.393 223.55 L
S
GR
GS
0.6 0 0 RC
2 LJ
2 LW
N
150.117 202.97 M
150.117 195.17 L
157.917 195.17 L
157.917 202.97 L
150.117 202.97 L
S
GR
GS
0.6 0 0 RC
2 LJ
2 LW
N
156.334 178.96 M
156.334 171.16 L
164.134 171.16 L
164.134 178.96 L
156.334 178.96 L
S
GR
GS
0.6 0 0 RC
2 LJ
2 LW
N
158.231 158.38 M
158.231 150.58 L
166.031 150.58 L
166.031 158.38 L
158.231 158.38 L
S
GR
GS
0.6 0 0 RC
2 LJ
2 LW
N
167.5 137.8 M
167.5 130 L
175.3 130 L
175.3 137.8 L
167.5 137.8 L
S
GR
GS
0.6 0 0 RC
2 LJ
2 LW
N
180.083 117.22 M
180.083 109.42 L
187.883 109.42 L
187.883 117.22 L
180.083 117.22 L
S
GR
GS
0.6 0 0 RC
2 LJ
2 LW
N
194.105 96.64 M
194.105 88.84 L
201.905 88.84 L
201.905 96.64 L
194.105 96.64 L
S
GR
GS
0.6 0 0 RC
2 LJ
2 LW
N
210.92 76.06 M
210.92 68.26 L
218.72 68.26 L
218.72 76.06 L
210.92 76.06 L
S
GR
GS
0.6 0 0 RC
2 LJ
2 LW
N
224.031 55.48 M
224.031 47.68 L
231.831 47.68 L
231.831 55.48 L
224.031 55.48 L
S
GR
GS
0.6 0 0 RC
2 LJ
2 LW
N
289.155 34.9 M
289.155 27.1 L
296.955 27.1 L
296.955 34.9 L
289.155 34.9 L
S
GR
GS
0.6 0 0 RC
2 LJ
2 LW
N
69.1 377.9 M
69.1 370.1 L
76.9 370.1 L
76.9 377.9 L
69.1 377.9 L
S
GR
GS
0 0.2 0.4 RC
2 LJ
2 LW
N
73 374 M
73 319.12 L
155.425 315.69 L
158.622 312.26 L
159.118 308.83 L
162.707 305.4 L
165.18 301.97 L
173.005 298.54 L
174.858 295.11 L
175.09 291.68 L
178.715 288.25 L
179.246 284.82 L
179.417 281.39 L
181.072 277.96 L
183.35 274.53 L
187.303 271.1 L
187.312 267.67 L
188.628 264.24 L
189.382 260.81 L
189.708 257.38 L
190.396 253.95 L
191.554 250.52 L
193.772 247.09 L
194.534 243.66 L
194.588 240.23 L
194.907 236.8 L
195.555 233.37 L
201.335 229.94 L
203.592 226.51 L
204.543 223.08 L
204.625 219.65 L
205.602 216.22 L
205.909 212.79 L
206.197 209.36 L
207.042 205.93 L
207.16 202.5 L
208.812 199.07 L
209.9 195.64 L
211.525 192.21 L
212.032 188.78 L
212.352 185.35 L
213.86 181.92 L
216.019 178.49 L
216.187 175.06 L
217.845 171.63 L
218.602 168.2 L
220.982 164.77 L
222.729 161.34 L
222.958 157.91 L
224.09 154.48 L
S
GR
GS
0 0.2 0.4 RC
2 LJ
2 LW
N
224.09 154.48 M
224.175 151.05 L
224.574 147.62 L
224.967 144.19 L
231.44 140.76 L
231.994 137.33 L
234.038 133.9 L
234.119 130.47 L
234.373 127.04 L
235.145 123.61 L
235.582 120.18 L
236.093 116.75 L
237.136 113.32 L
238.073 109.89 L
241.398 106.46 L
241.412 103.03 L
241.999 99.6 L
242.365 96.17 L
243.753 92.74 L
255.36 89.31 L
262.268 85.88 L
262.627 82.45 L
263.863 79.02 L
272.031 75.59 L
277.743 72.16 L
286.96 68.73 L
290.779 65.3 L
292.763 61.87 L
302.495 58.44 L
303.483 55.01 L
312.132 51.58 L
314.628 48.15 L
320.026 44.72 L
328.232 41.29 L
344.701 37.86 L
367.381 34.43 L
475.519 31 L
S
GR
GS
0 0.2 0.4 RC
2 LJ
2 LW
N
78 374 M
77.045 371.061 L
74.545 369.245 L
71.455 369.245 L
68.955 371.061 L
68 374 L
68.955 376.939 L
71.455 378.755 L
74.545 378.755 L
77.045 376.939 L
78 374 L
S
GR
GS
0 0.2 0.4 RC
2 LJ
2 LW
N
170.18 301.97 M
169.225 299.031 L
166.725 297.215 L
163.635 297.215 L
161.135 299.031 L
160.18 301.97 L
161.135 304.909 L
163.635 306.725 L
166.725 306.725 L
169.225 304.909 L
170.18 301.97 L
S
GR
GS
0 0.2 0.4 RC
2 LJ
2 LW
N
184.417 281.39 M
183.462 278.451 L
180.962 276.635 L
177.871 276.635 L
175.371 278.451 L
174.417 281.39 L
175.371 284.329 L
177.871 286.145 L
180.962 286.145 L
183.462 284.329 L
184.417 281.39 L
S
GR
GS
0 0.2 0.4 RC
2 LJ
2 LW
N
194.382 260.81 M
193.427 257.871 L
190.927 256.055 L
187.837 256.055 L
185.337 257.871 L
184.382 260.81 L
185.337 263.749 L
187.837 265.565 L
190.927 265.565 L
193.427 263.749 L
194.382 260.81 L
S
GR
GS
0 0.2 0.4 RC
2 LJ
2 LW
N
199.588 240.23 M
198.633 237.291 L
196.133 235.475 L
193.043 235.475 L
190.543 237.291 L
189.588 240.23 L
190.543 243.169 L
193.043 244.985 L
196.133 244.985 L
198.633 243.169 L
199.588 240.23 L
S
GR
GS
0 0.2 0.4 RC
2 LJ
2 LW
N
209.625 219.65 M
208.67 216.711 L
206.17 214.895 L
203.08 214.895 L
200.58 216.711 L
199.625 219.65 L
200.58 222.589 L
203.08 224.405 L
206.17 224.405 L
208.67 222.589 L
209.625 219.65 L
S
GR
GS
0 0.2 0.4 RC
2 LJ
2 LW
N
213.812 199.07 M
212.857 196.131 L
210.357 194.315 L
207.267 194.315 L
204.767 196.131 L
203.812 199.07 L
204.767 202.009 L
207.267 203.825 L
210.357 203.825 L
212.857 202.009 L
213.812 199.07 L
S
GR
GS
0 0.2 0.4 RC
2 LJ
2 LW
N
221.187 175.06 M
220.232 172.121 L
217.732 170.305 L
214.642 170.305 L
212.142 172.121 L
211.187 175.06 L
212.142 177.999 L
214.642 179.815 L
217.732 179.815 L
220.232 177.999 L
221.187 175.06 L
S
GR
GS
0 0.2 0.4 RC
2 LJ
2 LW
N
229.09 154.48 M
228.135 151.541 L
225.635 149.725 L
222.545 149.725 L
220.045 151.541 L
219.09 154.48 L
220.045 157.419 L
222.545 159.235 L
225.635 159.235 L
228.135 157.419 L
229.09 154.48 L
S
GR
GS
0 0.2 0.4 RC
2 LJ
2 LW
N
239.038 133.9 M
238.083 130.961 L
235.583 129.145 L
232.493 129.145 L
229.993 130.961 L
229.038 133.9 L
229.993 136.839 L
232.493 138.655 L
235.583 138.655 L
238.083 136.839 L
239.038 133.9 L
S
GR
GS
0 0.2 0.4 RC
2 LJ
2 LW
N
242.136 113.32 M
241.181 110.381 L
238.681 108.565 L
235.591 108.565 L
233.091 110.381 L
232.136 113.32 L
233.091 116.259 L
235.591 118.075 L
238.681 118.075 L
241.181 116.259 L
242.136 113.32 L
S
GR
GS
0 0.2 0.4 RC
2 LJ
2 LW
N
248.753 92.74 M
247.798 89.801 L
245.298 87.985 L
242.208 87.985 L
239.708 89.801 L
238.753 92.74 L
239.708 95.679 L
242.208 97.495 L
245.298 97.495 L
247.798 95.679 L
248.753 92.74 L
S
GR
GS
0 0.2 0.4 RC
2 LJ
2 LW
N
282.743 72.16 M
281.788 69.221 L
279.288 67.405 L
276.197 67.405 L
273.697 69.221 L
272.743 72.16 L
273.697 75.099 L
276.197 76.915 L
279.288 76.915 L
281.788 75.099 L
282.743 72.16 L
S
GR
GS
0 0.2 0.4 RC
2 LJ
2 LW
N
317.132 51.58 M
316.177 48.641 L
313.677 46.825 L
310.587 46.825 L
308.087 48.641 L
307.132 51.58 L
308.087 54.519 L
310.587 56.335 L
313.677 56.335 L
316.177 54.519 L
317.132 51.58 L
S
GR
GS
0 0.2 0.4 RC
2 LJ
2 LW
N
480.519 31 M
479.564 28.061 L
477.064 26.245 L
473.974 26.245 L
471.474 28.061 L
470.519 31 L
471.474 33.939 L
473.974 35.755 L
477.064 35.755 L
479.564 33.939 L
480.519 31 L
S
GR
GS
0 0.2 0.4 RC
2 LJ
2 LW
N
78 374 M
77.045 371.061 L
74.545 369.245 L
71.455 369.245 L
68.955 371.061 L
68 374 L
68.955 376.939 L
71.455 378.755 L
74.545 378.755 L
77.045 376.939 L
78 374 L
S
GR
GS
0.8 0.6 0.2 RC
2 LJ
2 LW
N
73 374 M
73 181.92 L
124.359 178.49 L
139.561 175.06 L
139.901 171.63 L
140.531 168.2 L
142.844 164.77 L
143.643 161.34 L
144.196 157.91 L
148.557 154.48 L
156.015 151.05 L
156.017 147.62 L
156.546 144.19 L
156.633 140.76 L
156.837 137.33 L
160.805 133.9 L
161.021 130.47 L
163.308 127.04 L
163.411 123.61 L
165.422 120.18 L
166.777 116.75 L
168.115 113.32 L
170.613 109.89 L
171.413 106.46 L
172.007 103.03 L
174.442 99.6 L
176.028 96.17 L
177.882 92.74 L
179.75 89.31 L
183.972 85.88 L
184.345 82.45 L
185.761 79.02 L
185.822 75.59 L
191.152 72.16 L
195.68 68.73 L
197.731 65.3 L
199.419 61.87 L
204.974 58.44 L
211.325 55.01 L
214.218 51.58 L
217.538 48.15 L
225.974 44.72 L
226.701 41.29 L
268.854 37.86 L
313.638 34.43 L
321.215 31 L
S
GR
GS
0.8 0.6 0.2 RC
2 LJ
2 LW
N
68 374 M
78 374 L
S
GR
GS
0.8 0.6 0.2 RC
2 LJ
2 LW
N
73 379 M
73 369 L
S
GR
GS
0.8 0.6 0.2 RC
2 LJ
2 LW
N
69.464 377.536 M
76.536 370.464 L
S
GR
GS
0.8 0.6 0.2 RC
2 LJ
2 LW
N
69.464 370.464 M
76.536 377.536 L
S
GR
GS
0.8 0.6 0.2 RC
2 LJ
2 LW
N
134.561 175.06 M
144.561 175.06 L
S
GR
GS
0.8 0.6 0.2 RC
2 LJ
2 LW
N
139.561 180.06 M
139.561 170.06 L
S
GR
GS
0.8 0.6 0.2 RC
2 LJ
2 LW
N
136.026 178.596 M
143.097 171.524 L
S
GR
GS
0.8 0.6 0.2 RC
2 LJ
2 LW
N
136.026 171.524 M
143.097 178.596 L
S
GR
GS
0.8 0.6 0.2 RC
2 LJ
2 LW
N
137.844 164.77 M
147.844 164.77 L
S
GR
GS
0.8 0.6 0.2 RC
2 LJ
2 LW
N
142.844 169.77 M
142.844 159.77 L
S
GR
GS
0.8 0.6 0.2 RC
2 LJ
2 LW
N
139.308 168.306 M
146.379 161.234 L
S
GR
GS
0.8 0.6 0.2 RC
2 LJ
2 LW
N
139.308 161.234 M
146.379 168.306 L
S
GR
GS
0.8 0.6 0.2 RC
2 LJ
2 LW
N
151.015 151.05 M
161.015 151.05 L
S
GR
GS
0.8 0.6 0.2 RC
2 LJ
2 LW
N
156.015 156.05 M
156.015 146.05 L
S
GR
GS
0.8 0.6 0.2 RC
2 LJ
2 LW
N
152.48 154.586 M
159.551 147.514 L
S
GR
GS
0.8 0.6 0.2 RC
2 LJ
2 LW
N
152.48 147.514 M
159.551 154.586 L
S
GR
GS
0.8 0.6 0.2 RC
2 LJ
2 LW
N
151.633 140.76 M
161.633 140.76 L
S
GR
GS
0.8 0.6 0.2 RC
2 LJ
2 LW
N
156.633 145.76 M
156.633 135.76 L
S
GR
GS
0.8 0.6 0.2 RC
2 LJ
2 LW
N
153.098 144.296 M
160.169 137.224 L
S
GR
GS
0.8 0.6 0.2 RC
2 LJ
2 LW
N
153.098 137.224 M
160.169 144.296 L
S
GR
GS
0.8 0.6 0.2 RC
2 LJ
2 LW
N
156.021 130.47 M
166.021 130.47 L
S
GR
GS
0.8 0.6 0.2 RC
2 LJ
2 LW
N
161.021 135.47 M
161.021 125.47 L
S
GR
GS
0.8 0.6 0.2 RC
2 LJ
2 LW
N
157.486 134.006 M
164.557 126.934 L
S
GR
GS
0.8 0.6 0.2 RC
2 LJ
2 LW
N
157.486 126.934 M
164.557 134.006 L
S
GR
GS
0.8 0.6 0.2 RC
2 LJ
2 LW
N
160.422 120.18 M
170.422 120.18 L
S
GR
GS
0.8 0.6 0.2 RC
2 LJ
2 LW
N
165.422 125.18 M
165.422 115.18 L
S
GR
GS
0.8 0.6 0.2 RC
2 LJ
2 LW
N
161.887 123.716 M
168.958 116.644 L
S
GR
GS
0.8 0.6 0.2 RC
2 LJ
2 LW
N
161.887 116.644 M
168.958 123.716 L
S
GR
GS
0.8 0.6 0.2 RC
2 LJ
2 LW
N
166.413 106.46 M
176.413 106.46 L
S
GR
GS
0.8 0.6 0.2 RC
2 LJ
2 LW
N
171.413 111.46 M
171.413 101.46 L
S
GR
GS
0.8 0.6 0.2 RC
2 LJ
2 LW
N
167.878 109.996 M
174.949 102.924 L
S
GR
GS
0.8 0.6 0.2 RC
2 LJ
2 LW
N
167.878 102.924 M
174.949 109.996 L
S
GR
GS
0.8 0.6 0.2 RC
2 LJ
2 LW
N
171.028 96.17 M
181.028 96.17 L
S
GR
GS
0.8 0.6 0.2 RC
2 LJ
2 LW
N
176.028 101.17 M
176.028 91.17 L
S
GR
GS
0.8 0.6 0.2 RC
2 LJ
2 LW
N
172.492 99.706 M
179.563 92.634 L
S
GR
GS
0.8 0.6 0.2 RC
2 LJ
2 LW
N
172.492 92.634 M
179.563 99.706 L
S
GR
GS
0.8 0.6 0.2 RC
2 LJ
2 LW
N
178.972 85.88 M
188.972 85.88 L
S
GR
GS
0.8 0.6 0.2 RC
2 LJ
2 LW
N
183.972 90.88 M
183.972 80.88 L
S
GR
GS
0.8 0.6 0.2 RC
2 LJ
2 LW
N
180.436 89.416 M
187.507 82.344 L
S
GR
GS
0.8 0.6 0.2 RC
2 LJ
2 LW
N
180.436 82.344 M
187.507 89.416 L
S
GR
GS
0.8 0.6 0.2 RC
2 LJ
2 LW
N
180.822 75.59 M
190.822 75.59 L
S
GR
GS
0.8 0.6 0.2 RC
2 LJ
2 LW
N
185.822 80.59 M
185.822 70.59 L
S
GR
GS
0.8 0.6 0.2 RC
2 LJ
2 LW
N
182.286 79.126 M
189.357 72.054 L
S
GR
GS
0.8 0.6 0.2 RC
2 LJ
2 LW
N
182.286 72.054 M
189.357 79.126 L
S
GR
GS
0.8 0.6 0.2 RC
2 LJ
2 LW
N
192.731 65.3 M
202.731 65.3 L
S
GR
GS
0.8 0.6 0.2 RC
2 LJ
2 LW
N
197.731 70.3 M
197.731 60.3 L
S
GR
GS
0.8 0.6 0.2 RC
2 LJ
2 LW
N
194.195 68.836 M
201.266 61.764 L
S
GR
GS
0.8 0.6 0.2 RC
2 LJ
2 LW
N
194.195 61.764 M
201.266 68.836 L
S
GR
GS
0.8 0.6 0.2 RC
2 LJ
2 LW
N
209.218 51.58 M
219.218 51.58 L
S
GR
GS
0.8 0.6 0.2 RC
2 LJ
2 LW
N
214.218 56.58 M
214.218 46.58 L
S
GR
GS
0.8 0.6 0.2 RC
2 LJ
2 LW
N
210.682 55.116 M
217.753 48.044 L
S
GR
GS
0.8 0.6 0.2 RC
2 LJ
2 LW
N
210.682 48.044 M
217.753 55.116 L
S
GR
GS
0.8 0.6 0.2 RC
2 LJ
2 LW
N
221.701 41.29 M
231.701 41.29 L
S
GR
GS
0.8 0.6 0.2 RC
2 LJ
2 LW
N
226.701 46.29 M
226.701 36.29 L
S
GR
GS
0.8 0.6 0.2 RC
2 LJ
2 LW
N
223.165 44.826 M
230.236 37.754 L
S
GR
GS
0.8 0.6 0.2 RC
2 LJ
2 LW
N
223.165 37.754 M
230.236 44.826 L
S
GR
GS
0.8 0.6 0.2 RC
2 LJ
2 LW
N
316.215 31 M
326.215 31 L
S
GR
GS
0.8 0.6 0.2 RC
2 LJ
2 LW
N
321.215 36 M
321.215 26 L
S
GR
GS
0.8 0.6 0.2 RC
2 LJ
2 LW
N
317.68 34.536 M
324.751 27.464 L
S
GR
GS
0.8 0.6 0.2 RC
2 LJ
2 LW
N
317.68 27.464 M
324.751 34.536 L
S
GR
GS
0.8 0.6 0.2 RC
2 LJ
2 LW
N
68 374 M
78 374 L
S
GR
GS
0.8 0.6 0.2 RC
2 LJ
2 LW
N
73 379 M
73 369 L
S
GR
GS
0.8 0.6 0.2 RC
2 LJ
2 LW
N
69.464 377.536 M
76.536 370.464 L
S
GR
GS
0.8 0.6 0.2 RC
2 LJ
2 LW
N
69.464 370.464 M
76.536 377.536 L
S
GR
GS
0 0.2 0 RC
2 LJ
2 LW
N
73 374 M
73 181.92 L
183.717 178.49 L
197.304 175.06 L
200.934 171.63 L
203.99 168.2 L
204.145 164.77 L
209.96 161.34 L
211.555 157.91 L
213.776 154.48 L
217.449 151.05 L
217.878 147.62 L
220.87 144.19 L
222.695 140.76 L
223.916 137.33 L
224.153 133.9 L
224.974 130.47 L
225.231 127.04 L
225.748 123.61 L
227.076 120.18 L
228.107 116.75 L
229.39 113.32 L
231.421 109.89 L
232.475 106.46 L
235.858 103.03 L
235.914 99.6 L
239.025 96.17 L
242.212 92.74 L
243.79 89.31 L
244.399 85.88 L
257.791 82.45 L
270.243 79.02 L
273.407 75.59 L
278.639 72.16 L
280.27 68.73 L
283.512 65.3 L
289.542 61.87 L
289.632 58.44 L
300.154 55.01 L
300.518 51.58 L
300.56 48.15 L
314.069 44.72 L
324.057 41.29 L
351.1 37.86 L
372.218 34.43 L
475.519 31 L
S
GR
GS
0 0.2 0 RC
2 LJ
2 LW
N
67.228 377.332 M
78.772 377.332 L
73 367.335 L
67.228 377.332 L
S
GR
GS
0 0.2 0 RC
2 LJ
2 LW
N
191.532 178.393 M
203.076 178.393 L
197.304 168.395 L
191.532 178.393 L
S
GR
GS
0 0.2 0 RC
2 LJ
2 LW
N
198.374 168.102 M
209.917 168.102 L
204.145 158.105 L
198.374 168.102 L
S
GR
GS
0 0.2 0 RC
2 LJ
2 LW
N
211.677 154.383 M
223.221 154.383 L
217.449 144.385 L
211.677 154.383 L
S
GR
GS
0 0.2 0 RC
2 LJ
2 LW
N
216.923 144.092 M
228.466 144.092 L
222.695 134.095 L
216.923 144.092 L
S
GR
GS
0 0.2 0 RC
2 LJ
2 LW
N
219.202 133.803 M
230.746 133.803 L
224.974 123.805 L
219.202 133.803 L
S
GR
GS
0 0.2 0 RC
2 LJ
2 LW
N
221.304 123.512 M
232.848 123.512 L
227.076 113.515 L
221.304 123.512 L
S
GR
GS
0 0.2 0 RC
2 LJ
2 LW
N
226.703 109.793 M
238.247 109.793 L
232.475 99.795 L
226.703 109.793 L
S
GR
GS
0 0.2 0 RC
2 LJ
2 LW
N
233.253 99.503 M
244.797 99.503 L
239.025 89.505 L
233.253 99.503 L
S
GR
GS
0 0.2 0 RC
2 LJ
2 LW
N
238.627 89.213 M
250.171 89.213 L
244.399 79.215 L
238.627 89.213 L
S
GR
GS
0 0.2 0 RC
2 LJ
2 LW
N
267.635 78.923 M
279.179 78.923 L
273.407 68.925 L
267.635 78.923 L
S
GR
GS
0 0.2 0 RC
2 LJ
2 LW
N
277.74 68.633 M
289.284 68.633 L
283.512 58.635 L
277.74 68.633 L
S
GR
GS
0 0.2 0 RC
2 LJ
2 LW
N
294.746 54.913 M
306.29 54.913 L
300.518 44.915 L
294.746 54.913 L
S
GR
GS
0 0.2 0 RC
2 LJ
2 LW
N
318.286 44.622 M
329.829 44.622 L
324.057 34.625 L
318.286 44.622 L
S
GR
GS
0 0.2 0 RC
2 LJ
2 LW
N
469.747 34.333 M
481.291 34.333 L
475.519 24.335 L
469.747 34.333 L
S
GR
GS
0 0.2 0 RC
2 LJ
2 LW
N
67.228 377.332 M
78.772 377.332 L
73 367.335 L
67.228 377.332 L
S
GR
GS
1 GC
N
424 123 M
424 70 L
501 70 L
501 123 L
cp
f
GR
GS
[1 0 0 1 463 77.92523] CT
/Helvetica-Bold 11 F
GS
[1 0 0 1 0 0] CT
0 3 moveto 
1 -1 scale
(Tree) t 
GR
GR
GS
0.6 0 0 RC
2 setlinecap
10.0 ML
2 LW
N
430 77.925 M
460 77.925 L
S
GR
GS
0.6 0 0 RC
2 setlinecap
10.0 ML
2 LW
N
441.6 81.4 M
441.6 73.6 L
449.4 73.6 L
449.4 81.4 L
441.6 81.4 L
S
GR
GS
[1 0 0 1 463 90.30841] CT
/Helvetica-Bold 11 F
GS
[1 0 0 1 0 0] CT
0 3 moveto 
1 -1 scale
(NC) t 
GR
GR
GS
0 0.2 0.4 RC
2 setlinecap
10.0 ML
2 LW
N
430 90.308 M
460 90.308 L
S
GR
GS
0 0.2 0.4 RC
2 setlinecap
10.0 ML
2 LW
N
450.5 90.5 M
449.545 87.561 L
447.045 85.745 L
443.955 85.745 L
441.455 87.561 L
440.5 90.5 L
441.455 93.439 L
443.955 95.255 L
447.045 95.255 L
449.545 93.439 L
450.5 90.5 L
S
GR
GS
[1 0 0 1 463 102.69159] CT
/Helvetica-Bold 11 F
GS
[1 0 0 1 0 0] CT
0 3 moveto 
1 -1 scale
(TC) t 
GR
GR
GS
0.8 0.6 0.2 RC
2 setlinecap
10.0 ML
2 LW
N
430 102.692 M
460 102.692 L
S
GR
GS
0.8 0.6 0.2 RC
2 setlinecap
10.0 ML
2 LW
N
440 102.5 M
451 102.5 L
S
GR
GS
0.8 0.6 0.2 RC
2 setlinecap
10.0 ML
2 LW
N
445.5 108 M
445.5 97 L
S
GR
GS
0.8 0.6 0.2 RC
2 setlinecap
10.0 ML
2 LW
N
441 107 M
450 98 L
S
GR
GS
0.8 0.6 0.2 RC
2 setlinecap
10.0 ML
2 LW
N
441 98 M
450 107 L
S
GR
GS
[1 0 0 1 463 115.07477] CT
/Helvetica-Bold 11 F
GS
[1 0 0 1 0 0] CT
0 3 moveto 
1 -1 scale
(NC-TC) t 
GR
GR
GS
0 0.2 0 RC
2 setlinecap
10.0 ML
2 LW
N
430 115.075 M
460 115.075 L
S
GR
GS
0 0.2 0 RC
2 setlinecap
10.0 ML
2 LW
N
439.728 118.832 M
451.272 118.832 L
445.5 108.835 L
439.728 118.832 L
S
GR
GS
0.149 GC
2 setlinecap
10.0 ML
N
424 123 M
424 70 L
501 70 L
501 123 L
424 123 L
S
GR
%%Trailer
%%Pages: 1
%%EOF
