%!PS-Adobe-3.0 EPSF-3.0
%%Creator: (MATLAB, The Mathworks, Inc. Version 8.5.0.197613 \(R2015a\). Operating System: Mac OS X)
%%Title: /Users/ashwinyakkundimath/Documents/Thesis_Results/plots/phy_mechs/cdf_crossLayer_thr.eps
%%CreationDate: 2016-01-05T11:48:27
%%Pages: (atend)
%%BoundingBox: 0 0 560 420
%%LanguageLevel: 2
%%EndComments
%%BeginProlog
%%BeginResource: procset (Apache XML Graphics Std ProcSet) 1.2 0
%%Version: 1.2 0
%%Copyright: (Copyright 2001-2003,2010 The Apache Software Foundation. License terms: http://www.apache.org/licenses/LICENSE-2.0)
/bd{bind def}bind def
/ld{load def}bd
/GR/grestore ld
/M/moveto ld
/LJ/setlinejoin ld
/C/curveto ld
/f/fill ld
/LW/setlinewidth ld
/GC/setgray ld
/t/show ld
/N/newpath ld
/CT/concat ld
/cp/closepath ld
/S/stroke ld
/L/lineto ld
/CC/setcmykcolor ld
/A/ashow ld
/GS/gsave ld
/RC/setrgbcolor ld
/RM/rmoveto ld
/ML/setmiterlimit ld
/re {4 2 roll M
1 index 0 rlineto
0 exch rlineto
neg 0 rlineto
cp } bd
/_ctm matrix def
/_tm matrix def
/BT { _ctm currentmatrix pop matrix _tm copy pop 0 0 moveto } bd
/ET { _ctm setmatrix } bd
/iTm { _ctm setmatrix _tm concat } bd
/Tm { _tm astore pop iTm 0 0 moveto } bd
/ux 0.0 def
/uy 0.0 def
/F {
  /Tp exch def
  /Tf exch def
  Tf findfont Tp scalefont setfont
  /cf Tf def  /cs Tp def
} bd
/ULS {currentpoint /uy exch def /ux exch def} bd
/ULE {
  /Tcx currentpoint pop def
  gsave
  newpath
  cf findfont cs scalefont dup
  /FontMatrix get 0 get /Ts exch def /FontInfo get dup
  /UnderlinePosition get Ts mul /To exch def
  /UnderlineThickness get Ts mul /Tt exch def
  ux uy To add moveto  Tcx uy To add lineto
  Tt setlinewidth stroke
  grestore
} bd
/OLE {
  /Tcx currentpoint pop def
  gsave
  newpath
  cf findfont cs scalefont dup
  /FontMatrix get 0 get /Ts exch def /FontInfo get dup
  /UnderlinePosition get Ts mul /To exch def
  /UnderlineThickness get Ts mul /Tt exch def
  ux uy To add cs add moveto Tcx uy To add cs add lineto
  Tt setlinewidth stroke
  grestore
} bd
/SOE {
  /Tcx currentpoint pop def
  gsave
  newpath
  cf findfont cs scalefont dup
  /FontMatrix get 0 get /Ts exch def /FontInfo get dup
  /UnderlinePosition get Ts mul /To exch def
  /UnderlineThickness get Ts mul /Tt exch def
  ux uy To add cs 10 mul 26 idiv add moveto Tcx uy To add cs 10 mul 26 idiv add lineto
  Tt setlinewidth stroke
  grestore
} bd
/QT {
/Y22 exch store
/X22 exch store
/Y21 exch store
/X21 exch store
currentpoint
/Y21 load 2 mul add 3 div exch
/X21 load 2 mul add 3 div exch
/X21 load 2 mul /X22 load add 3 div
/Y21 load 2 mul /Y22 load add 3 div
/X22 load /Y22 load curveto
} bd
/SSPD {
dup length /d exch dict def
{
/v exch def
/k exch def
currentpagedevice k known {
/cpdv currentpagedevice k get def
v cpdv ne {
/upd false def
/nullv v type /nulltype eq def
/nullcpdv cpdv type /nulltype eq def
nullv nullcpdv or
{
/upd true def
} {
/sametype v type cpdv type eq def
sametype {
v type /arraytype eq {
/vlen v length def
/cpdvlen cpdv length def
vlen cpdvlen eq {
0 1 vlen 1 sub {
/i exch def
/obj v i get def
/cpdobj cpdv i get def
obj cpdobj ne {
/upd true def
exit
} if
} for
} {
/upd true def
} ifelse
} {
v type /dicttype eq {
v {
/dv exch def
/dk exch def
/cpddv cpdv dk get def
dv cpddv ne {
/upd true def
exit
} if
} forall
} {
/upd true def
} ifelse
} ifelse
} if
} ifelse
upd true eq {
d k v put
} if
} if
} if
} forall
d length 0 gt {
d setpagedevice
} if
} bd
%%EndResource
%%BeginResource: procset (Apache XML Graphics EPS ProcSet) 1.0 0
%%Version: 1.0 0
%%Copyright: (Copyright 2002-2003 The Apache Software Foundation. License terms: http://www.apache.org/licenses/LICENSE-2.0)
/BeginEPSF { %def
/b4_Inc_state save def         % Save state for cleanup
/dict_count countdictstack def % Count objects on dict stack
/op_count count 1 sub def      % Count objects on operand stack
userdict begin                 % Push userdict on dict stack
/showpage { } def              % Redefine showpage, { } = null proc
0 setgray 0 setlinecap         % Prepare graphics state
1 setlinewidth 0 setlinejoin
10 setmiterlimit [ ] 0 setdash newpath
/languagelevel where           % If level not equal to 1 then
{pop languagelevel             % set strokeadjust and
1 ne                           % overprint to their defaults.
{false setstrokeadjust false setoverprint
} if
} if
} bd
/EndEPSF { %def
count op_count sub {pop} repeat            % Clean up stacks
countdictstack dict_count sub {end} repeat
b4_Inc_state restore
} bd
%%EndResource
%FOPBeginFontDict
%%IncludeResource: font Courier-Bold
%%IncludeResource: font Helvetica
%%IncludeResource: font Courier-BoldOblique
%%IncludeResource: font Courier-Oblique
%%IncludeResource: font Times-Roman
%%IncludeResource: font Helvetica-BoldOblique
%%IncludeResource: font Helvetica-Bold
%%IncludeResource: font Helvetica-Oblique
%%IncludeResource: font Times-BoldItalic
%%IncludeResource: font Courier
%%IncludeResource: font Times-Italic
%%IncludeResource: font Times-Bold
%%IncludeResource: font Symbol
%%IncludeResource: font ZapfDingbats
%FOPEndFontDict
%%BeginResource: encoding WinAnsiEncoding
/WinAnsiEncoding [
/.notdef /.notdef /.notdef /.notdef /.notdef
/.notdef /.notdef /.notdef /.notdef /.notdef
/.notdef /.notdef /.notdef /.notdef /.notdef
/.notdef /.notdef /.notdef /.notdef /.notdef
/.notdef /.notdef /.notdef /.notdef /.notdef
/.notdef /.notdef /.notdef /.notdef /.notdef
/.notdef /.notdef /space /exclam /quotedbl
/numbersign /dollar /percent /ampersand /quotesingle
/parenleft /parenright /asterisk /plus /comma
/hyphen /period /slash /zero /one
/two /three /four /five /six
/seven /eight /nine /colon /semicolon
/less /equal /greater /question /at
/A /B /C /D /E
/F /G /H /I /J
/K /L /M /N /O
/P /Q /R /S /T
/U /V /W /X /Y
/Z /bracketleft /backslash /bracketright /asciicircum
/underscore /quoteleft /a /b /c
/d /e /f /g /h
/i /j /k /l /m
/n /o /p /q /r
/s /t /u /v /w
/x /y /z /braceleft /bar
/braceright /asciitilde /bullet /Euro /bullet
/quotesinglbase /florin /quotedblbase /ellipsis /dagger
/daggerdbl /circumflex /perthousand /Scaron /guilsinglleft
/OE /bullet /Zcaron /bullet /bullet
/quoteleft /quoteright /quotedblleft /quotedblright /bullet
/endash /emdash /asciitilde /trademark /scaron
/guilsinglright /oe /bullet /zcaron /Ydieresis
/space /exclamdown /cent /sterling /currency
/yen /brokenbar /section /dieresis /copyright
/ordfeminine /guillemotleft /logicalnot /sfthyphen /registered
/macron /degree /plusminus /twosuperior /threesuperior
/acute /mu /paragraph /middot /cedilla
/onesuperior /ordmasculine /guillemotright /onequarter /onehalf
/threequarters /questiondown /Agrave /Aacute /Acircumflex
/Atilde /Adieresis /Aring /AE /Ccedilla
/Egrave /Eacute /Ecircumflex /Edieresis /Igrave
/Iacute /Icircumflex /Idieresis /Eth /Ntilde
/Ograve /Oacute /Ocircumflex /Otilde /Odieresis
/multiply /Oslash /Ugrave /Uacute /Ucircumflex
/Udieresis /Yacute /Thorn /germandbls /agrave
/aacute /acircumflex /atilde /adieresis /aring
/ae /ccedilla /egrave /eacute /ecircumflex
/edieresis /igrave /iacute /icircumflex /idieresis
/eth /ntilde /ograve /oacute /ocircumflex
/otilde /odieresis /divide /oslash /ugrave
/uacute /ucircumflex /udieresis /yacute /thorn
/ydieresis
] def
%%EndResource
%FOPBeginFontReencode
/Courier-Bold findfont
dup length dict begin
  {1 index /FID ne {def} {pop pop} ifelse} forall
  /Encoding WinAnsiEncoding def
  currentdict
end
/Courier-Bold exch definefont pop
/Helvetica findfont
dup length dict begin
  {1 index /FID ne {def} {pop pop} ifelse} forall
  /Encoding WinAnsiEncoding def
  currentdict
end
/Helvetica exch definefont pop
/Courier-BoldOblique findfont
dup length dict begin
  {1 index /FID ne {def} {pop pop} ifelse} forall
  /Encoding WinAnsiEncoding def
  currentdict
end
/Courier-BoldOblique exch definefont pop
/Courier-Oblique findfont
dup length dict begin
  {1 index /FID ne {def} {pop pop} ifelse} forall
  /Encoding WinAnsiEncoding def
  currentdict
end
/Courier-Oblique exch definefont pop
/Times-Roman findfont
dup length dict begin
  {1 index /FID ne {def} {pop pop} ifelse} forall
  /Encoding WinAnsiEncoding def
  currentdict
end
/Times-Roman exch definefont pop
/Helvetica-BoldOblique findfont
dup length dict begin
  {1 index /FID ne {def} {pop pop} ifelse} forall
  /Encoding WinAnsiEncoding def
  currentdict
end
/Helvetica-BoldOblique exch definefont pop
/Helvetica-Bold findfont
dup length dict begin
  {1 index /FID ne {def} {pop pop} ifelse} forall
  /Encoding WinAnsiEncoding def
  currentdict
end
/Helvetica-Bold exch definefont pop
/Helvetica-Oblique findfont
dup length dict begin
  {1 index /FID ne {def} {pop pop} ifelse} forall
  /Encoding WinAnsiEncoding def
  currentdict
end
/Helvetica-Oblique exch definefont pop
/Times-BoldItalic findfont
dup length dict begin
  {1 index /FID ne {def} {pop pop} ifelse} forall
  /Encoding WinAnsiEncoding def
  currentdict
end
/Times-BoldItalic exch definefont pop
/Courier findfont
dup length dict begin
  {1 index /FID ne {def} {pop pop} ifelse} forall
  /Encoding WinAnsiEncoding def
  currentdict
end
/Courier exch definefont pop
/Times-Italic findfont
dup length dict begin
  {1 index /FID ne {def} {pop pop} ifelse} forall
  /Encoding WinAnsiEncoding def
  currentdict
end
/Times-Italic exch definefont pop
/Times-Bold findfont
dup length dict begin
  {1 index /FID ne {def} {pop pop} ifelse} forall
  /Encoding WinAnsiEncoding def
  currentdict
end
/Times-Bold exch definefont pop
%FOPEndFontReencode
%%EndProlog
%%Page: 1 1
%%PageBoundingBox: 0 0 560 420
%%BeginPageSetup
[1 0 0 -1 0 420] CT
%%EndPageSetup
GS
1 GC
N
0 0 560 420 re
f
GR
GS
1 GC
N
0 0 560 420 re
f
GR
GS
1 GC
N
73 374 M
507 374 L
507 31 L
73 31 L
cp
f
GR
GS
0.873 GC
2 setlinecap
10.0 ML
N
73 374 M
73 31 L
S
GR
GS
0.873 GC
2 setlinecap
10.0 ML
N
127.25 374 M
127.25 31 L
S
GR
GS
0.873 GC
2 setlinecap
10.0 ML
N
181.5 374 M
181.5 31 L
S
GR
GS
0.873 GC
2 setlinecap
10.0 ML
N
235.75 374 M
235.75 31 L
S
GR
GS
0.873 GC
2 setlinecap
10.0 ML
N
290 374 M
290 31 L
S
GR
GS
0.873 GC
2 setlinecap
10.0 ML
N
344.25 374 M
344.25 31 L
S
GR
GS
0.873 GC
2 setlinecap
10.0 ML
N
398.5 374 M
398.5 31 L
S
GR
GS
0.873 GC
2 setlinecap
10.0 ML
N
452.75 374 M
452.75 31 L
S
GR
GS
0.873 GC
2 setlinecap
10.0 ML
N
507 374 M
507 31 L
S
GR
GS
0.873 GC
2 setlinecap
10.0 ML
N
507 374 M
73 374 L
S
GR
GS
0.873 GC
2 setlinecap
10.0 ML
N
507 339.7 M
73 339.7 L
S
GR
GS
0.873 GC
2 setlinecap
10.0 ML
N
507 305.4 M
73 305.4 L
S
GR
GS
0.873 GC
2 setlinecap
10.0 ML
N
507 271.1 M
73 271.1 L
S
GR
GS
0.873 GC
2 setlinecap
10.0 ML
N
507 236.8 M
73 236.8 L
S
GR
GS
0.873 GC
2 setlinecap
10.0 ML
N
507 202.5 M
73 202.5 L
S
GR
GS
0.873 GC
2 setlinecap
10.0 ML
N
507 168.2 M
73 168.2 L
S
GR
GS
0.873 GC
2 setlinecap
10.0 ML
N
507 133.9 M
73 133.9 L
S
GR
GS
0.873 GC
2 setlinecap
10.0 ML
N
507 99.6 M
73 99.6 L
S
GR
GS
0.873 GC
2 setlinecap
10.0 ML
N
507 65.3 M
73 65.3 L
S
GR
GS
0.873 GC
2 setlinecap
10.0 ML
N
507 31 M
73 31 L
S
GR
GS
[1 0 0 1 290.00021 390] CT
0.149 GC
/Helvetica-Bold 11 F
GS
[1 0 0 1 0 0] CT
-52 9 moveto 
1 -1 scale
(System Throughput) t 
GR
GR
GS
0.149 GC
2 setlinecap
10.0 ML
N
73 374 M
507 374 L
S
GR
GS
0.149 GC
2 setlinecap
10.0 ML
N
73 374 M
73 369.66 L
S
GR
GS
0.149 GC
2 setlinecap
10.0 ML
N
127.25 374 M
127.25 369.66 L
S
GR
GS
0.149 GC
2 setlinecap
10.0 ML
N
181.5 374 M
181.5 369.66 L
S
GR
GS
0.149 GC
2 setlinecap
10.0 ML
N
235.75 374 M
235.75 369.66 L
S
GR
GS
0.149 GC
2 setlinecap
10.0 ML
N
290 374 M
290 369.66 L
S
GR
GS
0.149 GC
2 setlinecap
10.0 ML
N
344.25 374 M
344.25 369.66 L
S
GR
GS
0.149 GC
2 setlinecap
10.0 ML
N
398.5 374 M
398.5 369.66 L
S
GR
GS
0.149 GC
2 setlinecap
10.0 ML
N
452.75 374 M
452.75 369.66 L
S
GR
GS
0.149 GC
2 setlinecap
10.0 ML
N
507 374 M
507 369.66 L
S
GR
GS
[1 0 0 1 73 378] CT
0.149 GC
/Helvetica-Bold 10 F
GS
[1 0 0 1 0 0] CT
-3 8 moveto 
1 -1 scale
(0) t 
GR
GR
GS
[1 0 0 1 127.25 378] CT
0.149 GC
/Helvetica-Bold 10 F
GS
[1 0 0 1 0 0] CT
-7 8 moveto 
1 -1 scale
(0.1) t 
GR
GR
GS
[1 0 0 1 181.5 378] CT
0.149 GC
/Helvetica-Bold 10 F
GS
[1 0 0 1 0 0] CT
-7 8 moveto 
1 -1 scale
(0.2) t 
GR
GR
GS
[1 0 0 1 235.75 378] CT
0.149 GC
/Helvetica-Bold 10 F
GS
[1 0 0 1 0 0] CT
-7 8 moveto 
1 -1 scale
(0.3) t 
GR
GR
GS
[1 0 0 1 290 378] CT
0.149 GC
/Helvetica-Bold 10 F
GS
[1 0 0 1 0 0] CT
-7 8 moveto 
1 -1 scale
(0.4) t 
GR
GR
GS
[1 0 0 1 344.25 378] CT
0.149 GC
/Helvetica-Bold 10 F
GS
[1 0 0 1 0 0] CT
-7 8 moveto 
1 -1 scale
(0.5) t 
GR
GR
GS
[1 0 0 1 398.5 378] CT
0.149 GC
/Helvetica-Bold 10 F
GS
[1 0 0 1 0 0] CT
-7 8 moveto 
1 -1 scale
(0.6) t 
GR
GR
GS
[1 0 0 1 452.75 378] CT
0.149 GC
/Helvetica-Bold 10 F
GS
[1 0 0 1 0 0] CT
-7 8 moveto 
1 -1 scale
(0.7) t 
GR
GR
GS
[1 0 0 1 507 378] CT
0.149 GC
/Helvetica-Bold 10 F
GS
[1 0 0 1 0 0] CT
-7 8 moveto 
1 -1 scale
(0.8) t 
GR
GR
GS
[0 -1 1 0 52 202.49983] CT
0.149 GC
/Helvetica-Bold 11 F
GS
[1 0 0 1 0 0] CT
-60 -3 moveto 
1 -1 scale
(Cumulative Probability) t 
GR
GR
GS
0.149 GC
2 setlinecap
10.0 ML
N
73 374 M
73 31 L
S
GR
GS
0.149 GC
2 setlinecap
10.0 ML
N
73 374 M
77.34 374 L
S
GR
GS
0.149 GC
2 setlinecap
10.0 ML
N
73 339.7 M
77.34 339.7 L
S
GR
GS
0.149 GC
2 setlinecap
10.0 ML
N
73 305.4 M
77.34 305.4 L
S
GR
GS
0.149 GC
2 setlinecap
10.0 ML
N
73 271.1 M
77.34 271.1 L
S
GR
GS
0.149 GC
2 setlinecap
10.0 ML
N
73 236.8 M
77.34 236.8 L
S
GR
GS
0.149 GC
2 setlinecap
10.0 ML
N
73 202.5 M
77.34 202.5 L
S
GR
GS
0.149 GC
2 setlinecap
10.0 ML
N
73 168.2 M
77.34 168.2 L
S
GR
GS
0.149 GC
2 setlinecap
10.0 ML
N
73 133.9 M
77.34 133.9 L
S
GR
GS
0.149 GC
2 setlinecap
10.0 ML
N
73 99.6 M
77.34 99.6 L
S
GR
GS
0.149 GC
2 setlinecap
10.0 ML
N
73 65.3 M
77.34 65.3 L
S
GR
GS
0.149 GC
2 setlinecap
10.0 ML
N
73 31 M
77.34 31 L
S
GR
GS
[1 0 0 1 69 374] CT
0.149 GC
/Helvetica-Bold 10 F
GS
[1 0 0 1 0 0] CT
-6 2.5 moveto 
1 -1 scale
(0) t 
GR
GR
GS
[1 0 0 1 69 339.70001] CT
0.149 GC
/Helvetica-Bold 10 F
GS
[1 0 0 1 0 0] CT
-14 2.5 moveto 
1 -1 scale
(0.1) t 
GR
GR
GS
[1 0 0 1 69 305.39999] CT
0.149 GC
/Helvetica-Bold 10 F
GS
[1 0 0 1 0 0] CT
-14 2.5 moveto 
1 -1 scale
(0.2) t 
GR
GR
GS
[1 0 0 1 69 271.10001] CT
0.149 GC
/Helvetica-Bold 10 F
GS
[1 0 0 1 0 0] CT
-14 2.5 moveto 
1 -1 scale
(0.3) t 
GR
GR
GS
[1 0 0 1 69 236.8] CT
0.149 GC
/Helvetica-Bold 10 F
GS
[1 0 0 1 0 0] CT
-14 2.5 moveto 
1 -1 scale
(0.4) t 
GR
GR
GS
[1 0 0 1 69 202.5] CT
0.149 GC
/Helvetica-Bold 10 F
GS
[1 0 0 1 0 0] CT
-14 2.5 moveto 
1 -1 scale
(0.5) t 
GR
GR
GS
[1 0 0 1 69 168.2] CT
0.149 GC
/Helvetica-Bold 10 F
GS
[1 0 0 1 0 0] CT
-14 2.5 moveto 
1 -1 scale
(0.6) t 
GR
GR
GS
[1 0 0 1 69 133.90001] CT
0.149 GC
/Helvetica-Bold 10 F
GS
[1 0 0 1 0 0] CT
-14 2.5 moveto 
1 -1 scale
(0.7) t 
GR
GR
GS
[1 0 0 1 69 99.6] CT
0.149 GC
/Helvetica-Bold 10 F
GS
[1 0 0 1 0 0] CT
-14 2.5 moveto 
1 -1 scale
(0.8) t 
GR
GR
GS
[1 0 0 1 69 65.30001] CT
0.149 GC
/Helvetica-Bold 10 F
GS
[1 0 0 1 0 0] CT
-14 2.5 moveto 
1 -1 scale
(0.9) t 
GR
GR
GS
[1 0 0 1 69 31] CT
0.149 GC
/Helvetica-Bold 10 F
GS
[1 0 0 1 0 0] CT
-6 2.5 moveto 
1 -1 scale
(1) t 
GR
GR
GS
0.6 0 0 RC
2 LJ
2 LW
N
73 374 M
73 319.12 L
116.017 315.69 L
116.066 312.26 L
116.522 308.83 L
119.057 305.4 L
119.104 301.97 L
119.291 298.54 L
119.975 295.11 L
121.83 291.68 L
124.236 288.25 L
124.767 284.82 L
125.463 281.39 L
127.635 277.96 L
127.985 274.53 L
129.141 271.1 L
129.585 267.67 L
130.252 264.24 L
130.411 260.81 L
130.7 257.38 L
131.316 253.95 L
131.525 250.52 L
132.044 247.09 L
132.277 243.66 L
132.979 240.23 L
133.375 236.8 L
133.423 233.37 L
133.474 229.94 L
133.8 226.51 L
134.019 223.08 L
134.02 219.65 L
134.381 216.22 L
134.564 212.79 L
134.658 209.36 L
134.901 205.93 L
135.217 202.5 L
135.877 199.07 L
137.513 195.64 L
137.637 192.21 L
137.919 188.78 L
138.512 185.35 L
139.479 181.92 L
139.522 178.49 L
140.604 175.06 L
141.309 171.63 L
141.345 168.2 L
143.368 164.77 L
143.387 161.34 L
146.066 157.91 L
147.957 154.48 L
S
GR
GS
0.6 0 0 RC
2 LJ
2 LW
N
147.957 154.48 M
149.037 151.05 L
150.353 147.62 L
151.44 144.19 L
151.719 140.76 L
152.714 137.33 L
153.231 133.9 L
158.209 130.47 L
159.1 127.04 L
159.87 123.61 L
160.979 120.18 L
163.18 116.75 L
163.776 113.32 L
165.207 109.89 L
165.239 106.46 L
166.432 103.03 L
167.85 99.6 L
171.033 96.17 L
174.153 92.74 L
174.264 89.31 L
174.837 85.88 L
180.337 82.45 L
180.573 79.02 L
184.356 75.59 L
189.155 72.16 L
191.012 68.73 L
194.486 65.3 L
196.138 61.87 L
197.137 58.44 L
197.841 55.01 L
206.881 51.58 L
207.923 48.15 L
208.565 44.72 L
217.572 41.29 L
245.392 37.86 L
252.977 34.43 L
265.548 31 L
S
GR
GS
0.6 0 0 RC
2 LJ
2 LW
N
69.1 377.9 M
69.1 370.1 L
76.9 370.1 L
76.9 377.9 L
69.1 377.9 L
S
GR
GS
0.6 0 0 RC
2 LJ
2 LW
N
115.204 305.87 M
115.204 298.07 L
123.004 298.07 L
123.004 305.87 L
115.204 305.87 L
S
GR
GS
0.6 0 0 RC
2 LJ
2 LW
N
121.563 285.29 M
121.563 277.49 L
129.363 277.49 L
129.363 285.29 L
121.563 285.29 L
S
GR
GS
0.6 0 0 RC
2 LJ
2 LW
N
126.511 264.71 M
126.511 256.91 L
134.311 256.91 L
134.311 264.71 L
126.511 264.71 L
S
GR
GS
0.6 0 0 RC
2 LJ
2 LW
N
129.079 244.13 M
129.079 236.33 L
136.879 236.33 L
136.879 244.13 L
129.079 244.13 L
S
GR
GS
0.6 0 0 RC
2 LJ
2 LW
N
130.12 223.55 M
130.12 215.75 L
137.92 215.75 L
137.92 223.55 L
130.12 223.55 L
S
GR
GS
0.6 0 0 RC
2 LJ
2 LW
N
131.977 202.97 M
131.977 195.17 L
139.777 195.17 L
139.777 202.97 L
131.977 202.97 L
S
GR
GS
0.6 0 0 RC
2 LJ
2 LW
N
136.704 178.96 M
136.704 171.16 L
144.504 171.16 L
144.504 178.96 L
136.704 178.96 L
S
GR
GS
0.6 0 0 RC
2 LJ
2 LW
N
144.057 158.38 M
144.057 150.58 L
151.857 150.58 L
151.857 158.38 L
144.057 158.38 L
S
GR
GS
0.6 0 0 RC
2 LJ
2 LW
N
149.331 137.8 M
149.331 130 L
157.131 130 L
157.131 137.8 L
149.331 137.8 L
S
GR
GS
0.6 0 0 RC
2 LJ
2 LW
N
159.876 117.22 M
159.876 109.42 L
167.676 109.42 L
167.676 117.22 L
159.876 117.22 L
S
GR
GS
0.6 0 0 RC
2 LJ
2 LW
N
170.253 96.64 M
170.253 88.84 L
178.053 88.84 L
178.053 96.64 L
170.253 96.64 L
S
GR
GS
0.6 0 0 RC
2 LJ
2 LW
N
185.255 76.06 M
185.255 68.26 L
193.055 68.26 L
193.055 76.06 L
185.255 76.06 L
S
GR
GS
0.6 0 0 RC
2 LJ
2 LW
N
202.981 55.48 M
202.981 47.68 L
210.781 47.68 L
210.781 55.48 L
202.981 55.48 L
S
GR
GS
0.6 0 0 RC
2 LJ
2 LW
N
261.648 34.9 M
261.648 27.1 L
269.448 27.1 L
269.448 34.9 L
261.648 34.9 L
S
GR
GS
0.6 0 0 RC
2 LJ
2 LW
N
69.1 377.9 M
69.1 370.1 L
76.9 370.1 L
76.9 377.9 L
69.1 377.9 L
S
GR
GS
0 0.2 0.4 RC
2 LJ
2 LW
N
73 374 M
73 319.12 L
156.314 315.69 L
160.098 312.26 L
163.406 308.83 L
163.518 305.4 L
163.836 301.97 L
166.159 298.54 L
168.835 295.11 L
169.066 291.68 L
169.574 288.25 L
169.869 284.82 L
170.098 281.39 L
172.38 277.96 L
172.773 274.53 L
174.713 271.1 L
175.771 267.67 L
177.284 264.24 L
177.627 260.81 L
177.794 257.38 L
178.131 253.95 L
178.188 250.52 L
178.333 247.09 L
178.533 243.66 L
179.098 240.23 L
179.147 236.8 L
179.389 233.37 L
179.488 229.94 L
181.864 226.51 L
181.953 223.08 L
185.908 219.65 L
187.256 216.22 L
187.495 212.79 L
187.505 209.36 L
187.884 205.93 L
187.927 202.5 L
188.258 199.07 L
189.233 195.64 L
190.338 192.21 L
191.052 188.78 L
191.383 185.35 L
191.71 181.92 L
192.088 178.49 L
192.792 175.06 L
194.209 171.63 L
194.791 168.2 L
196.308 164.77 L
200.113 161.34 L
201.024 157.91 L
202.091 154.48 L
S
GR
GS
0 0.2 0.4 RC
2 LJ
2 LW
N
202.091 154.48 M
204.82 151.05 L
205.627 147.62 L
206.406 144.19 L
206.644 140.76 L
206.817 137.33 L
207.592 133.9 L
207.748 130.47 L
209.045 127.04 L
210.329 123.61 L
211.211 120.18 L
215.131 116.75 L
217.196 113.32 L
220.348 109.89 L
222.198 106.46 L
223.048 103.03 L
227.145 99.6 L
228.802 96.17 L
232.17 92.74 L
240.2 89.31 L
251.192 85.88 L
251.771 82.45 L
255.475 79.02 L
258.365 75.59 L
258.696 72.16 L
261.488 68.73 L
263.053 65.3 L
268.606 61.87 L
270.515 58.44 L
280.2 55.01 L
284.424 51.58 L
285.376 48.15 L
298.38 44.72 L
310.738 41.29 L
315.2 37.86 L
344.38 34.43 L
425.204 31 L
S
GR
GS
0 0.2 0.4 RC
2 LJ
2 LW
N
78 374 M
77.045 371.061 L
74.545 369.245 L
71.455 369.245 L
68.955 371.061 L
68 374 L
68.955 376.939 L
71.455 378.755 L
74.545 378.755 L
77.045 376.939 L
78 374 L
S
GR
GS
0 0.2 0.4 RC
2 LJ
2 LW
N
168.836 301.97 M
167.881 299.031 L
165.381 297.215 L
162.291 297.215 L
159.791 299.031 L
158.836 301.97 L
159.791 304.909 L
162.291 306.725 L
165.381 306.725 L
167.881 304.909 L
168.836 301.97 L
S
GR
GS
0 0.2 0.4 RC
2 LJ
2 LW
N
175.098 281.39 M
174.143 278.451 L
171.643 276.635 L
168.553 276.635 L
166.053 278.451 L
165.098 281.39 L
166.053 284.329 L
168.553 286.145 L
171.643 286.145 L
174.143 284.329 L
175.098 281.39 L
S
GR
GS
0 0.2 0.4 RC
2 LJ
2 LW
N
182.627 260.81 M
181.672 257.871 L
179.172 256.055 L
176.081 256.055 L
173.581 257.871 L
172.627 260.81 L
173.581 263.749 L
176.081 265.565 L
179.172 265.565 L
181.672 263.749 L
182.627 260.81 L
S
GR
GS
0 0.2 0.4 RC
2 LJ
2 LW
N
184.098 240.23 M
183.143 237.291 L
180.643 235.475 L
177.552 235.475 L
175.052 237.291 L
174.098 240.23 L
175.052 243.169 L
177.552 244.985 L
180.643 244.985 L
183.143 243.169 L
184.098 240.23 L
S
GR
GS
0 0.2 0.4 RC
2 LJ
2 LW
N
190.908 219.65 M
189.953 216.711 L
187.453 214.895 L
184.363 214.895 L
181.863 216.711 L
180.908 219.65 L
181.863 222.589 L
184.363 224.405 L
187.453 224.405 L
189.953 222.589 L
190.908 219.65 L
S
GR
GS
0 0.2 0.4 RC
2 LJ
2 LW
N
193.258 199.07 M
192.303 196.131 L
189.803 194.315 L
186.713 194.315 L
184.213 196.131 L
183.258 199.07 L
184.213 202.009 L
186.713 203.825 L
189.803 203.825 L
192.303 202.009 L
193.258 199.07 L
S
GR
GS
0 0.2 0.4 RC
2 LJ
2 LW
N
197.792 175.06 M
196.837 172.121 L
194.337 170.305 L
191.247 170.305 L
188.747 172.121 L
187.792 175.06 L
188.747 177.999 L
191.247 179.815 L
194.337 179.815 L
196.837 177.999 L
197.792 175.06 L
S
GR
GS
0 0.2 0.4 RC
2 LJ
2 LW
N
207.091 154.48 M
206.136 151.541 L
203.636 149.725 L
200.546 149.725 L
198.046 151.541 L
197.091 154.48 L
198.046 157.419 L
200.546 159.235 L
203.636 159.235 L
206.136 157.419 L
207.091 154.48 L
S
GR
GS
0 0.2 0.4 RC
2 LJ
2 LW
N
212.592 133.9 M
211.637 130.961 L
209.137 129.145 L
206.047 129.145 L
203.547 130.961 L
202.592 133.9 L
203.547 136.839 L
206.047 138.655 L
209.137 138.655 L
211.637 136.839 L
212.592 133.9 L
S
GR
GS
0 0.2 0.4 RC
2 LJ
2 LW
N
222.196 113.32 M
221.241 110.381 L
218.741 108.565 L
215.651 108.565 L
213.151 110.381 L
212.196 113.32 L
213.151 116.259 L
215.651 118.075 L
218.741 118.075 L
221.241 116.259 L
222.196 113.32 L
S
GR
GS
0 0.2 0.4 RC
2 LJ
2 LW
N
237.17 92.74 M
236.215 89.801 L
233.715 87.985 L
230.625 87.985 L
228.125 89.801 L
227.17 92.74 L
228.125 95.679 L
230.625 97.495 L
233.715 97.495 L
236.215 95.679 L
237.17 92.74 L
S
GR
GS
0 0.2 0.4 RC
2 LJ
2 LW
N
263.696 72.16 M
262.741 69.221 L
260.241 67.405 L
257.15 67.405 L
254.65 69.221 L
253.696 72.16 L
254.65 75.099 L
257.15 76.915 L
260.241 76.915 L
262.741 75.099 L
263.696 72.16 L
S
GR
GS
0 0.2 0.4 RC
2 LJ
2 LW
N
289.424 51.58 M
288.469 48.641 L
285.969 46.825 L
282.879 46.825 L
280.379 48.641 L
279.424 51.58 L
280.379 54.519 L
282.879 56.335 L
285.969 56.335 L
288.469 54.519 L
289.424 51.58 L
S
GR
GS
0 0.2 0.4 RC
2 LJ
2 LW
N
430.204 31 M
429.249 28.061 L
426.749 26.245 L
423.659 26.245 L
421.159 28.061 L
420.204 31 L
421.159 33.939 L
423.659 35.755 L
426.749 35.755 L
429.249 33.939 L
430.204 31 L
S
GR
GS
0 0.2 0.4 RC
2 LJ
2 LW
N
78 374 M
77.045 371.061 L
74.545 369.245 L
71.455 369.245 L
68.955 371.061 L
68 374 L
68.955 376.939 L
71.455 378.755 L
74.545 378.755 L
77.045 376.939 L
78 374 L
S
GR
GS
0.8 0.6 0.2 RC
2 LJ
2 LW
N
73 374 M
73 181.92 L
116.398 178.49 L
127.48 175.06 L
129.555 171.63 L
132.066 168.2 L
139.501 164.77 L
139.899 161.34 L
140.328 157.91 L
140.685 154.48 L
141.322 151.05 L
148.379 147.62 L
148.842 144.19 L
151.472 140.76 L
153.122 137.33 L
154.154 133.9 L
157.218 130.47 L
157.393 127.04 L
157.594 123.61 L
159.001 120.18 L
159.81 116.75 L
159.936 113.32 L
162.033 109.89 L
163.594 106.46 L
164.518 103.03 L
166.63 99.6 L
168.643 96.17 L
169.569 92.74 L
170.639 89.31 L
173.931 85.88 L
174.77 82.45 L
177.252 79.02 L
182.586 75.59 L
183.491 72.16 L
183.762 68.73 L
185.702 65.3 L
190.391 61.87 L
194.184 58.44 L
201.028 55.01 L
205.392 51.58 L
209.172 48.15 L
220.247 44.72 L
225.059 41.29 L
264.069 37.86 L
290.188 34.43 L
296.432 31 L
S
GR
GS
0.8 0.6 0.2 RC
2 LJ
2 LW
N
68 374 M
78 374 L
S
GR
GS
0.8 0.6 0.2 RC
2 LJ
2 LW
N
73 379 M
73 369 L
S
GR
GS
0.8 0.6 0.2 RC
2 LJ
2 LW
N
69.464 377.536 M
76.536 370.464 L
S
GR
GS
0.8 0.6 0.2 RC
2 LJ
2 LW
N
69.464 370.464 M
76.536 377.536 L
S
GR
GS
0.8 0.6 0.2 RC
2 LJ
2 LW
N
122.48 175.06 M
132.48 175.06 L
S
GR
GS
0.8 0.6 0.2 RC
2 LJ
2 LW
N
127.48 180.06 M
127.48 170.06 L
S
GR
GS
0.8 0.6 0.2 RC
2 LJ
2 LW
N
123.945 178.596 M
131.016 171.524 L
S
GR
GS
0.8 0.6 0.2 RC
2 LJ
2 LW
N
123.945 171.524 M
131.016 178.596 L
S
GR
GS
0.8 0.6 0.2 RC
2 LJ
2 LW
N
134.501 164.77 M
144.501 164.77 L
S
GR
GS
0.8 0.6 0.2 RC
2 LJ
2 LW
N
139.501 169.77 M
139.501 159.77 L
S
GR
GS
0.8 0.6 0.2 RC
2 LJ
2 LW
N
135.965 168.306 M
143.036 161.234 L
S
GR
GS
0.8 0.6 0.2 RC
2 LJ
2 LW
N
135.965 161.234 M
143.036 168.306 L
S
GR
GS
0.8 0.6 0.2 RC
2 LJ
2 LW
N
136.322 151.05 M
146.322 151.05 L
S
GR
GS
0.8 0.6 0.2 RC
2 LJ
2 LW
N
141.322 156.05 M
141.322 146.05 L
S
GR
GS
0.8 0.6 0.2 RC
2 LJ
2 LW
N
137.786 154.586 M
144.857 147.514 L
S
GR
GS
0.8 0.6 0.2 RC
2 LJ
2 LW
N
137.786 147.514 M
144.857 154.586 L
S
GR
GS
0.8 0.6 0.2 RC
2 LJ
2 LW
N
146.472 140.76 M
156.472 140.76 L
S
GR
GS
0.8 0.6 0.2 RC
2 LJ
2 LW
N
151.472 145.76 M
151.472 135.76 L
S
GR
GS
0.8 0.6 0.2 RC
2 LJ
2 LW
N
147.937 144.296 M
155.008 137.224 L
S
GR
GS
0.8 0.6 0.2 RC
2 LJ
2 LW
N
147.937 137.224 M
155.008 144.296 L
S
GR
GS
0.8 0.6 0.2 RC
2 LJ
2 LW
N
152.218 130.47 M
162.218 130.47 L
S
GR
GS
0.8 0.6 0.2 RC
2 LJ
2 LW
N
157.218 135.47 M
157.218 125.47 L
S
GR
GS
0.8 0.6 0.2 RC
2 LJ
2 LW
N
153.683 134.006 M
160.754 126.934 L
S
GR
GS
0.8 0.6 0.2 RC
2 LJ
2 LW
N
153.683 126.934 M
160.754 134.006 L
S
GR
GS
0.8 0.6 0.2 RC
2 LJ
2 LW
N
154.001 120.18 M
164.001 120.18 L
S
GR
GS
0.8 0.6 0.2 RC
2 LJ
2 LW
N
159.001 125.18 M
159.001 115.18 L
S
GR
GS
0.8 0.6 0.2 RC
2 LJ
2 LW
N
155.465 123.716 M
162.536 116.644 L
S
GR
GS
0.8 0.6 0.2 RC
2 LJ
2 LW
N
155.465 116.644 M
162.536 123.716 L
S
GR
GS
0.8 0.6 0.2 RC
2 LJ
2 LW
N
158.594 106.46 M
168.594 106.46 L
S
GR
GS
0.8 0.6 0.2 RC
2 LJ
2 LW
N
163.594 111.46 M
163.594 101.46 L
S
GR
GS
0.8 0.6 0.2 RC
2 LJ
2 LW
N
160.059 109.996 M
167.13 102.924 L
S
GR
GS
0.8 0.6 0.2 RC
2 LJ
2 LW
N
160.059 102.924 M
167.13 109.996 L
S
GR
GS
0.8 0.6 0.2 RC
2 LJ
2 LW
N
163.643 96.17 M
173.643 96.17 L
S
GR
GS
0.8 0.6 0.2 RC
2 LJ
2 LW
N
168.643 101.17 M
168.643 91.17 L
S
GR
GS
0.8 0.6 0.2 RC
2 LJ
2 LW
N
165.107 99.706 M
172.178 92.634 L
S
GR
GS
0.8 0.6 0.2 RC
2 LJ
2 LW
N
165.107 92.634 M
172.178 99.706 L
S
GR
GS
0.8 0.6 0.2 RC
2 LJ
2 LW
N
168.931 85.88 M
178.931 85.88 L
S
GR
GS
0.8 0.6 0.2 RC
2 LJ
2 LW
N
173.931 90.88 M
173.931 80.88 L
S
GR
GS
0.8 0.6 0.2 RC
2 LJ
2 LW
N
170.395 89.416 M
177.466 82.344 L
S
GR
GS
0.8 0.6 0.2 RC
2 LJ
2 LW
N
170.395 82.344 M
177.466 89.416 L
S
GR
GS
0.8 0.6 0.2 RC
2 LJ
2 LW
N
177.586 75.59 M
187.586 75.59 L
S
GR
GS
0.8 0.6 0.2 RC
2 LJ
2 LW
N
182.586 80.59 M
182.586 70.59 L
S
GR
GS
0.8 0.6 0.2 RC
2 LJ
2 LW
N
179.05 79.126 M
186.121 72.054 L
S
GR
GS
0.8 0.6 0.2 RC
2 LJ
2 LW
N
179.05 72.054 M
186.121 79.126 L
S
GR
GS
0.8 0.6 0.2 RC
2 LJ
2 LW
N
180.702 65.3 M
190.702 65.3 L
S
GR
GS
0.8 0.6 0.2 RC
2 LJ
2 LW
N
185.702 70.3 M
185.702 60.3 L
S
GR
GS
0.8 0.6 0.2 RC
2 LJ
2 LW
N
182.167 68.836 M
189.238 61.764 L
S
GR
GS
0.8 0.6 0.2 RC
2 LJ
2 LW
N
182.167 61.764 M
189.238 68.836 L
S
GR
GS
0.8 0.6 0.2 RC
2 LJ
2 LW
N
200.392 51.58 M
210.392 51.58 L
S
GR
GS
0.8 0.6 0.2 RC
2 LJ
2 LW
N
205.392 56.58 M
205.392 46.58 L
S
GR
GS
0.8 0.6 0.2 RC
2 LJ
2 LW
N
201.856 55.116 M
208.927 48.044 L
S
GR
GS
0.8 0.6 0.2 RC
2 LJ
2 LW
N
201.856 48.044 M
208.927 55.116 L
S
GR
GS
0.8 0.6 0.2 RC
2 LJ
2 LW
N
220.059 41.29 M
230.059 41.29 L
S
GR
GS
0.8 0.6 0.2 RC
2 LJ
2 LW
N
225.059 46.29 M
225.059 36.29 L
S
GR
GS
0.8 0.6 0.2 RC
2 LJ
2 LW
N
221.523 44.826 M
228.594 37.754 L
S
GR
GS
0.8 0.6 0.2 RC
2 LJ
2 LW
N
221.523 37.754 M
228.594 44.826 L
S
GR
GS
0.8 0.6 0.2 RC
2 LJ
2 LW
N
291.432 31 M
301.432 31 L
S
GR
GS
0.8 0.6 0.2 RC
2 LJ
2 LW
N
296.432 36 M
296.432 26 L
S
GR
GS
0.8 0.6 0.2 RC
2 LJ
2 LW
N
292.897 34.536 M
299.968 27.464 L
S
GR
GS
0.8 0.6 0.2 RC
2 LJ
2 LW
N
292.897 27.464 M
299.968 34.536 L
S
GR
GS
0.8 0.6 0.2 RC
2 LJ
2 LW
N
68 374 M
78 374 L
S
GR
GS
0.8 0.6 0.2 RC
2 LJ
2 LW
N
73 379 M
73 369 L
S
GR
GS
0.8 0.6 0.2 RC
2 LJ
2 LW
N
69.464 377.536 M
76.536 370.464 L
S
GR
GS
0.8 0.6 0.2 RC
2 LJ
2 LW
N
69.464 370.464 M
76.536 377.536 L
S
GR
GS
0 0.2 0 RC
2 LJ
2 LW
N
73 374 M
73 181.92 L
189.321 178.49 L
190.083 175.06 L
194.786 171.63 L
195.585 168.2 L
195.869 164.77 L
203.56 161.34 L
203.659 157.91 L
205.665 154.48 L
205.942 151.05 L
212.262 147.62 L
213.788 144.19 L
219.603 140.76 L
219.882 137.33 L
221.353 133.9 L
222.819 130.47 L
222.929 127.04 L
224.159 123.61 L
226.855 120.18 L
230.149 116.75 L
232.331 113.32 L
234.042 109.89 L
235.504 106.46 L
241.553 103.03 L
249.816 99.6 L
250.111 96.17 L
253.704 92.74 L
255.304 89.31 L
256.307 85.88 L
269.015 82.45 L
270.561 79.02 L
275.668 75.59 L
277.157 72.16 L
277.565 68.73 L
279.205 65.3 L
291.837 61.87 L
293.268 58.44 L
295.364 55.01 L
303.231 51.58 L
314.568 48.15 L
314.87 44.72 L
319.039 41.29 L
329.238 37.86 L
417.847 34.43 L
464.504 31 L
S
GR
GS
0 0.2 0 RC
2 LJ
2 LW
N
67.228 377.332 M
78.772 377.332 L
73 367.335 L
67.228 377.332 L
S
GR
GS
0 0.2 0 RC
2 LJ
2 LW
N
184.311 178.393 M
195.855 178.393 L
190.083 168.395 L
184.311 178.393 L
S
GR
GS
0 0.2 0 RC
2 LJ
2 LW
N
190.097 168.102 M
201.641 168.102 L
195.869 158.105 L
190.097 168.102 L
S
GR
GS
0 0.2 0 RC
2 LJ
2 LW
N
200.17 154.383 M
211.714 154.383 L
205.942 144.385 L
200.17 154.383 L
S
GR
GS
0 0.2 0 RC
2 LJ
2 LW
N
213.831 144.092 M
225.374 144.092 L
219.603 134.095 L
213.831 144.092 L
S
GR
GS
0 0.2 0 RC
2 LJ
2 LW
N
217.047 133.803 M
228.59 133.803 L
222.819 123.805 L
217.047 133.803 L
S
GR
GS
0 0.2 0 RC
2 LJ
2 LW
N
221.083 123.512 M
232.627 123.512 L
226.855 113.515 L
221.083 123.512 L
S
GR
GS
0 0.2 0 RC
2 LJ
2 LW
N
229.732 109.793 M
241.276 109.793 L
235.504 99.795 L
229.732 109.793 L
S
GR
GS
0 0.2 0 RC
2 LJ
2 LW
N
244.339 99.503 M
255.883 99.503 L
250.111 89.505 L
244.339 99.503 L
S
GR
GS
0 0.2 0 RC
2 LJ
2 LW
N
250.535 89.213 M
262.079 89.213 L
256.307 79.215 L
250.535 89.213 L
S
GR
GS
0 0.2 0 RC
2 LJ
2 LW
N
269.896 78.923 M
281.44 78.923 L
275.668 68.925 L
269.896 78.923 L
S
GR
GS
0 0.2 0 RC
2 LJ
2 LW
N
273.433 68.633 M
284.977 68.633 L
279.205 58.635 L
273.433 68.633 L
S
GR
GS
0 0.2 0 RC
2 LJ
2 LW
N
297.459 54.913 M
309.003 54.913 L
303.231 44.915 L
297.459 54.913 L
S
GR
GS
0 0.2 0 RC
2 LJ
2 LW
N
313.267 44.622 M
324.81 44.622 L
319.039 34.625 L
313.267 44.622 L
S
GR
GS
0 0.2 0 RC
2 LJ
2 LW
N
458.732 34.333 M
470.276 34.333 L
464.504 24.335 L
458.732 34.333 L
S
GR
GS
0 0.2 0 RC
2 LJ
2 LW
N
67.228 377.332 M
78.772 377.332 L
73 367.335 L
67.228 377.332 L
S
GR
GS
1 GC
N
422 124 M
422 71 L
499 71 L
499 124 L
cp
f
GR
GS
[1 0 0 1 461 78.92523] CT
/Helvetica-Bold 11 F
GS
[1 0 0 1 0 0] CT
0 3 moveto 
1 -1 scale
(Tree) t 
GR
GR
GS
0.6 0 0 RC
2 setlinecap
10.0 ML
2 LW
N
428 78.925 M
458 78.925 L
S
GR
GS
0.6 0 0 RC
2 setlinecap
10.0 ML
2 LW
N
439.6 82.4 M
439.6 74.6 L
447.4 74.6 L
447.4 82.4 L
439.6 82.4 L
S
GR
GS
[1 0 0 1 461 91.30841] CT
/Helvetica-Bold 11 F
GS
[1 0 0 1 0 0] CT
0 3 moveto 
1 -1 scale
(NC) t 
GR
GR
GS
0 0.2 0.4 RC
2 setlinecap
10.0 ML
2 LW
N
428 91.308 M
458 91.308 L
S
GR
GS
0 0.2 0.4 RC
2 setlinecap
10.0 ML
2 LW
N
448.5 91.5 M
447.545 88.561 L
445.045 86.745 L
441.955 86.745 L
439.455 88.561 L
438.5 91.5 L
439.455 94.439 L
441.955 96.255 L
445.045 96.255 L
447.545 94.439 L
448.5 91.5 L
S
GR
GS
[1 0 0 1 461 103.69159] CT
/Helvetica-Bold 11 F
GS
[1 0 0 1 0 0] CT
0 3 moveto 
1 -1 scale
(TC) t 
GR
GR
GS
0.8 0.6 0.2 RC
2 setlinecap
10.0 ML
2 LW
N
428 103.692 M
458 103.692 L
S
GR
GS
0.8 0.6 0.2 RC
2 setlinecap
10.0 ML
2 LW
N
438 103.5 M
449 103.5 L
S
GR
GS
0.8 0.6 0.2 RC
2 setlinecap
10.0 ML
2 LW
N
443.5 109 M
443.5 98 L
S
GR
GS
0.8 0.6 0.2 RC
2 setlinecap
10.0 ML
2 LW
N
439 108 M
448 99 L
S
GR
GS
0.8 0.6 0.2 RC
2 setlinecap
10.0 ML
2 LW
N
439 99 M
448 108 L
S
GR
GS
[1 0 0 1 461 116.07477] CT
/Helvetica-Bold 11 F
GS
[1 0 0 1 0 0] CT
0 3 moveto 
1 -1 scale
(NC-TC) t 
GR
GR
GS
0 0.2 0 RC
2 setlinecap
10.0 ML
2 LW
N
428 116.075 M
458 116.075 L
S
GR
GS
0 0.2 0 RC
2 setlinecap
10.0 ML
2 LW
N
437.728 119.832 M
449.272 119.832 L
443.5 109.835 L
437.728 119.832 L
S
GR
GS
0.149 GC
2 setlinecap
10.0 ML
N
422 124 M
422 71 L
499 71 L
499 124 L
422 124 L
S
GR
%%Trailer
%%Pages: 1
%%EOF
