%!PS-Adobe-3.0 EPSF-3.0
%%Creator: (MATLAB, The Mathworks, Inc. Version 8.5.0.197613 \(R2015a\). Operating System: Mac OS X)
%%Title: /Users/ashwinyakkundimath/Documents/Thesis_Results/plots/phy_mechs/cdf_bbc_energy.eps
%%CreationDate: 2016-01-05T11:46:06
%%Pages: (atend)
%%BoundingBox: 0 0 560 420
%%LanguageLevel: 2
%%EndComments
%%BeginProlog
%%BeginResource: procset (Apache XML Graphics Std ProcSet) 1.2 0
%%Version: 1.2 0
%%Copyright: (Copyright 2001-2003,2010 The Apache Software Foundation. License terms: http://www.apache.org/licenses/LICENSE-2.0)
/bd{bind def}bind def
/ld{load def}bd
/GR/grestore ld
/M/moveto ld
/LJ/setlinejoin ld
/C/curveto ld
/f/fill ld
/LW/setlinewidth ld
/GC/setgray ld
/t/show ld
/N/newpath ld
/CT/concat ld
/cp/closepath ld
/S/stroke ld
/L/lineto ld
/CC/setcmykcolor ld
/A/ashow ld
/GS/gsave ld
/RC/setrgbcolor ld
/RM/rmoveto ld
/ML/setmiterlimit ld
/re {4 2 roll M
1 index 0 rlineto
0 exch rlineto
neg 0 rlineto
cp } bd
/_ctm matrix def
/_tm matrix def
/BT { _ctm currentmatrix pop matrix _tm copy pop 0 0 moveto } bd
/ET { _ctm setmatrix } bd
/iTm { _ctm setmatrix _tm concat } bd
/Tm { _tm astore pop iTm 0 0 moveto } bd
/ux 0.0 def
/uy 0.0 def
/F {
  /Tp exch def
  /Tf exch def
  Tf findfont Tp scalefont setfont
  /cf Tf def  /cs Tp def
} bd
/ULS {currentpoint /uy exch def /ux exch def} bd
/ULE {
  /Tcx currentpoint pop def
  gsave
  newpath
  cf findfont cs scalefont dup
  /FontMatrix get 0 get /Ts exch def /FontInfo get dup
  /UnderlinePosition get Ts mul /To exch def
  /UnderlineThickness get Ts mul /Tt exch def
  ux uy To add moveto  Tcx uy To add lineto
  Tt setlinewidth stroke
  grestore
} bd
/OLE {
  /Tcx currentpoint pop def
  gsave
  newpath
  cf findfont cs scalefont dup
  /FontMatrix get 0 get /Ts exch def /FontInfo get dup
  /UnderlinePosition get Ts mul /To exch def
  /UnderlineThickness get Ts mul /Tt exch def
  ux uy To add cs add moveto Tcx uy To add cs add lineto
  Tt setlinewidth stroke
  grestore
} bd
/SOE {
  /Tcx currentpoint pop def
  gsave
  newpath
  cf findfont cs scalefont dup
  /FontMatrix get 0 get /Ts exch def /FontInfo get dup
  /UnderlinePosition get Ts mul /To exch def
  /UnderlineThickness get Ts mul /Tt exch def
  ux uy To add cs 10 mul 26 idiv add moveto Tcx uy To add cs 10 mul 26 idiv add lineto
  Tt setlinewidth stroke
  grestore
} bd
/QT {
/Y22 exch store
/X22 exch store
/Y21 exch store
/X21 exch store
currentpoint
/Y21 load 2 mul add 3 div exch
/X21 load 2 mul add 3 div exch
/X21 load 2 mul /X22 load add 3 div
/Y21 load 2 mul /Y22 load add 3 div
/X22 load /Y22 load curveto
} bd
/SSPD {
dup length /d exch dict def
{
/v exch def
/k exch def
currentpagedevice k known {
/cpdv currentpagedevice k get def
v cpdv ne {
/upd false def
/nullv v type /nulltype eq def
/nullcpdv cpdv type /nulltype eq def
nullv nullcpdv or
{
/upd true def
} {
/sametype v type cpdv type eq def
sametype {
v type /arraytype eq {
/vlen v length def
/cpdvlen cpdv length def
vlen cpdvlen eq {
0 1 vlen 1 sub {
/i exch def
/obj v i get def
/cpdobj cpdv i get def
obj cpdobj ne {
/upd true def
exit
} if
} for
} {
/upd true def
} ifelse
} {
v type /dicttype eq {
v {
/dv exch def
/dk exch def
/cpddv cpdv dk get def
dv cpddv ne {
/upd true def
exit
} if
} forall
} {
/upd true def
} ifelse
} ifelse
} if
} ifelse
upd true eq {
d k v put
} if
} if
} if
} forall
d length 0 gt {
d setpagedevice
} if
} bd
%%EndResource
%%BeginResource: procset (Apache XML Graphics EPS ProcSet) 1.0 0
%%Version: 1.0 0
%%Copyright: (Copyright 2002-2003 The Apache Software Foundation. License terms: http://www.apache.org/licenses/LICENSE-2.0)
/BeginEPSF { %def
/b4_Inc_state save def         % Save state for cleanup
/dict_count countdictstack def % Count objects on dict stack
/op_count count 1 sub def      % Count objects on operand stack
userdict begin                 % Push userdict on dict stack
/showpage { } def              % Redefine showpage, { } = null proc
0 setgray 0 setlinecap         % Prepare graphics state
1 setlinewidth 0 setlinejoin
10 setmiterlimit [ ] 0 setdash newpath
/languagelevel where           % If level not equal to 1 then
{pop languagelevel             % set strokeadjust and
1 ne                           % overprint to their defaults.
{false setstrokeadjust false setoverprint
} if
} if
} bd
/EndEPSF { %def
count op_count sub {pop} repeat            % Clean up stacks
countdictstack dict_count sub {end} repeat
b4_Inc_state restore
} bd
%%EndResource
%FOPBeginFontDict
%%IncludeResource: font Courier-Bold
%%IncludeResource: font Helvetica
%%IncludeResource: font Courier-BoldOblique
%%IncludeResource: font Courier-Oblique
%%IncludeResource: font Times-Roman
%%IncludeResource: font Helvetica-BoldOblique
%%IncludeResource: font Helvetica-Bold
%%IncludeResource: font Helvetica-Oblique
%%IncludeResource: font Times-BoldItalic
%%IncludeResource: font Courier
%%IncludeResource: font Times-Italic
%%IncludeResource: font Times-Bold
%%IncludeResource: font Symbol
%%IncludeResource: font ZapfDingbats
%FOPEndFontDict
%%BeginResource: encoding WinAnsiEncoding
/WinAnsiEncoding [
/.notdef /.notdef /.notdef /.notdef /.notdef
/.notdef /.notdef /.notdef /.notdef /.notdef
/.notdef /.notdef /.notdef /.notdef /.notdef
/.notdef /.notdef /.notdef /.notdef /.notdef
/.notdef /.notdef /.notdef /.notdef /.notdef
/.notdef /.notdef /.notdef /.notdef /.notdef
/.notdef /.notdef /space /exclam /quotedbl
/numbersign /dollar /percent /ampersand /quotesingle
/parenleft /parenright /asterisk /plus /comma
/hyphen /period /slash /zero /one
/two /three /four /five /six
/seven /eight /nine /colon /semicolon
/less /equal /greater /question /at
/A /B /C /D /E
/F /G /H /I /J
/K /L /M /N /O
/P /Q /R /S /T
/U /V /W /X /Y
/Z /bracketleft /backslash /bracketright /asciicircum
/underscore /quoteleft /a /b /c
/d /e /f /g /h
/i /j /k /l /m
/n /o /p /q /r
/s /t /u /v /w
/x /y /z /braceleft /bar
/braceright /asciitilde /bullet /Euro /bullet
/quotesinglbase /florin /quotedblbase /ellipsis /dagger
/daggerdbl /circumflex /perthousand /Scaron /guilsinglleft
/OE /bullet /Zcaron /bullet /bullet
/quoteleft /quoteright /quotedblleft /quotedblright /bullet
/endash /emdash /asciitilde /trademark /scaron
/guilsinglright /oe /bullet /zcaron /Ydieresis
/space /exclamdown /cent /sterling /currency
/yen /brokenbar /section /dieresis /copyright
/ordfeminine /guillemotleft /logicalnot /sfthyphen /registered
/macron /degree /plusminus /twosuperior /threesuperior
/acute /mu /paragraph /middot /cedilla
/onesuperior /ordmasculine /guillemotright /onequarter /onehalf
/threequarters /questiondown /Agrave /Aacute /Acircumflex
/Atilde /Adieresis /Aring /AE /Ccedilla
/Egrave /Eacute /Ecircumflex /Edieresis /Igrave
/Iacute /Icircumflex /Idieresis /Eth /Ntilde
/Ograve /Oacute /Ocircumflex /Otilde /Odieresis
/multiply /Oslash /Ugrave /Uacute /Ucircumflex
/Udieresis /Yacute /Thorn /germandbls /agrave
/aacute /acircumflex /atilde /adieresis /aring
/ae /ccedilla /egrave /eacute /ecircumflex
/edieresis /igrave /iacute /icircumflex /idieresis
/eth /ntilde /ograve /oacute /ocircumflex
/otilde /odieresis /divide /oslash /ugrave
/uacute /ucircumflex /udieresis /yacute /thorn
/ydieresis
] def
%%EndResource
%FOPBeginFontReencode
/Courier-Bold findfont
dup length dict begin
  {1 index /FID ne {def} {pop pop} ifelse} forall
  /Encoding WinAnsiEncoding def
  currentdict
end
/Courier-Bold exch definefont pop
/Helvetica findfont
dup length dict begin
  {1 index /FID ne {def} {pop pop} ifelse} forall
  /Encoding WinAnsiEncoding def
  currentdict
end
/Helvetica exch definefont pop
/Courier-BoldOblique findfont
dup length dict begin
  {1 index /FID ne {def} {pop pop} ifelse} forall
  /Encoding WinAnsiEncoding def
  currentdict
end
/Courier-BoldOblique exch definefont pop
/Courier-Oblique findfont
dup length dict begin
  {1 index /FID ne {def} {pop pop} ifelse} forall
  /Encoding WinAnsiEncoding def
  currentdict
end
/Courier-Oblique exch definefont pop
/Times-Roman findfont
dup length dict begin
  {1 index /FID ne {def} {pop pop} ifelse} forall
  /Encoding WinAnsiEncoding def
  currentdict
end
/Times-Roman exch definefont pop
/Helvetica-BoldOblique findfont
dup length dict begin
  {1 index /FID ne {def} {pop pop} ifelse} forall
  /Encoding WinAnsiEncoding def
  currentdict
end
/Helvetica-BoldOblique exch definefont pop
/Helvetica-Bold findfont
dup length dict begin
  {1 index /FID ne {def} {pop pop} ifelse} forall
  /Encoding WinAnsiEncoding def
  currentdict
end
/Helvetica-Bold exch definefont pop
/Helvetica-Oblique findfont
dup length dict begin
  {1 index /FID ne {def} {pop pop} ifelse} forall
  /Encoding WinAnsiEncoding def
  currentdict
end
/Helvetica-Oblique exch definefont pop
/Times-BoldItalic findfont
dup length dict begin
  {1 index /FID ne {def} {pop pop} ifelse} forall
  /Encoding WinAnsiEncoding def
  currentdict
end
/Times-BoldItalic exch definefont pop
/Courier findfont
dup length dict begin
  {1 index /FID ne {def} {pop pop} ifelse} forall
  /Encoding WinAnsiEncoding def
  currentdict
end
/Courier exch definefont pop
/Times-Italic findfont
dup length dict begin
  {1 index /FID ne {def} {pop pop} ifelse} forall
  /Encoding WinAnsiEncoding def
  currentdict
end
/Times-Italic exch definefont pop
/Times-Bold findfont
dup length dict begin
  {1 index /FID ne {def} {pop pop} ifelse} forall
  /Encoding WinAnsiEncoding def
  currentdict
end
/Times-Bold exch definefont pop
%FOPEndFontReencode
%%EndProlog
%%Page: 1 1
%%PageBoundingBox: 0 0 560 420
%%BeginPageSetup
[1 0 0 -1 0 420] CT
%%EndPageSetup
GS
1 GC
N
0 0 560 420 re
f
GR
GS
1 GC
N
0 0 560 420 re
f
GR
GS
1 GC
N
73 374 M
507 374 L
507 31 L
73 31 L
cp
f
GR
GS
0.873 GC
2 setlinecap
10.0 ML
N
73 374 M
73 31 L
S
GR
GS
0.873 GC
2 setlinecap
10.0 ML
N
145.333 374 M
145.333 31 L
S
GR
GS
0.873 GC
2 setlinecap
10.0 ML
N
217.667 374 M
217.667 31 L
S
GR
GS
0.873 GC
2 setlinecap
10.0 ML
N
290 374 M
290 31 L
S
GR
GS
0.873 GC
2 setlinecap
10.0 ML
N
362.333 374 M
362.333 31 L
S
GR
GS
0.873 GC
2 setlinecap
10.0 ML
N
434.667 374 M
434.667 31 L
S
GR
GS
0.873 GC
2 setlinecap
10.0 ML
N
507 374 M
507 31 L
S
GR
GS
0.873 GC
2 setlinecap
10.0 ML
N
507 374 M
73 374 L
S
GR
GS
0.873 GC
2 setlinecap
10.0 ML
N
507 339.7 M
73 339.7 L
S
GR
GS
0.873 GC
2 setlinecap
10.0 ML
N
507 305.4 M
73 305.4 L
S
GR
GS
0.873 GC
2 setlinecap
10.0 ML
N
507 271.1 M
73 271.1 L
S
GR
GS
0.873 GC
2 setlinecap
10.0 ML
N
507 236.8 M
73 236.8 L
S
GR
GS
0.873 GC
2 setlinecap
10.0 ML
N
507 202.5 M
73 202.5 L
S
GR
GS
0.873 GC
2 setlinecap
10.0 ML
N
507 168.2 M
73 168.2 L
S
GR
GS
0.873 GC
2 setlinecap
10.0 ML
N
507 133.9 M
73 133.9 L
S
GR
GS
0.873 GC
2 setlinecap
10.0 ML
N
507 99.6 M
73 99.6 L
S
GR
GS
0.873 GC
2 setlinecap
10.0 ML
N
507 65.3 M
73 65.3 L
S
GR
GS
0.873 GC
2 setlinecap
10.0 ML
N
507 31 M
73 31 L
S
GR
GS
[1 0 0 1 290.00021 390] CT
0.149 GC
/Helvetica-Bold 11 F
GS
[1 0 0 1 0 0] CT
-33.5 9 moveto 
1 -1 scale
(Total Energy) t 
GR
GR
GS
0.149 GC
2 setlinecap
10.0 ML
N
73 374 M
507 374 L
S
GR
GS
0.149 GC
2 setlinecap
10.0 ML
N
73 374 M
73 369.66 L
S
GR
GS
0.149 GC
2 setlinecap
10.0 ML
N
145.333 374 M
145.333 369.66 L
S
GR
GS
0.149 GC
2 setlinecap
10.0 ML
N
217.667 374 M
217.667 369.66 L
S
GR
GS
0.149 GC
2 setlinecap
10.0 ML
N
290 374 M
290 369.66 L
S
GR
GS
0.149 GC
2 setlinecap
10.0 ML
N
362.333 374 M
362.333 369.66 L
S
GR
GS
0.149 GC
2 setlinecap
10.0 ML
N
434.667 374 M
434.667 369.66 L
S
GR
GS
0.149 GC
2 setlinecap
10.0 ML
N
507 374 M
507 369.66 L
S
GR
GS
[1 0 0 1 73 378] CT
0.149 GC
/Helvetica-Bold 10 F
GS
[1 0 0 1 0 0] CT
-3 8 moveto 
1 -1 scale
(0) t 
GR
GR
GS
[1 0 0 1 145.33333 378] CT
0.149 GC
/Helvetica-Bold 10 F
GS
[1 0 0 1 0 0] CT
-3 8 moveto 
1 -1 scale
(2) t 
GR
GR
GS
[1 0 0 1 217.66667 378] CT
0.149 GC
/Helvetica-Bold 10 F
GS
[1 0 0 1 0 0] CT
-3 8 moveto 
1 -1 scale
(4) t 
GR
GR
GS
[1 0 0 1 290 378] CT
0.149 GC
/Helvetica-Bold 10 F
GS
[1 0 0 1 0 0] CT
-3 8 moveto 
1 -1 scale
(6) t 
GR
GR
GS
[1 0 0 1 362.33334 378] CT
0.149 GC
/Helvetica-Bold 10 F
GS
[1 0 0 1 0 0] CT
-3 8 moveto 
1 -1 scale
(8) t 
GR
GR
GS
[1 0 0 1 434.66666 378] CT
0.149 GC
/Helvetica-Bold 10 F
GS
[1 0 0 1 0 0] CT
-6 8 moveto 
1 -1 scale
(10) t 
GR
GR
GS
[1 0 0 1 507 378] CT
0.149 GC
/Helvetica-Bold 10 F
GS
[1 0 0 1 0 0] CT
-6 8 moveto 
1 -1 scale
(12) t 
GR
GR
GS
[0 -1 1 0 52 202.49983] CT
0.149 GC
/Helvetica-Bold 11 F
GS
[1 0 0 1 0 0] CT
-60 -3 moveto 
1 -1 scale
(Cumulative Probability) t 
GR
GR
GS
0.149 GC
2 setlinecap
10.0 ML
N
73 374 M
73 31 L
S
GR
GS
0.149 GC
2 setlinecap
10.0 ML
N
73 374 M
77.34 374 L
S
GR
GS
0.149 GC
2 setlinecap
10.0 ML
N
73 339.7 M
77.34 339.7 L
S
GR
GS
0.149 GC
2 setlinecap
10.0 ML
N
73 305.4 M
77.34 305.4 L
S
GR
GS
0.149 GC
2 setlinecap
10.0 ML
N
73 271.1 M
77.34 271.1 L
S
GR
GS
0.149 GC
2 setlinecap
10.0 ML
N
73 236.8 M
77.34 236.8 L
S
GR
GS
0.149 GC
2 setlinecap
10.0 ML
N
73 202.5 M
77.34 202.5 L
S
GR
GS
0.149 GC
2 setlinecap
10.0 ML
N
73 168.2 M
77.34 168.2 L
S
GR
GS
0.149 GC
2 setlinecap
10.0 ML
N
73 133.9 M
77.34 133.9 L
S
GR
GS
0.149 GC
2 setlinecap
10.0 ML
N
73 99.6 M
77.34 99.6 L
S
GR
GS
0.149 GC
2 setlinecap
10.0 ML
N
73 65.3 M
77.34 65.3 L
S
GR
GS
0.149 GC
2 setlinecap
10.0 ML
N
73 31 M
77.34 31 L
S
GR
GS
[1 0 0 1 69 374] CT
0.149 GC
/Helvetica-Bold 10 F
GS
[1 0 0 1 0 0] CT
-6 2.5 moveto 
1 -1 scale
(0) t 
GR
GR
GS
[1 0 0 1 69 339.70001] CT
0.149 GC
/Helvetica-Bold 10 F
GS
[1 0 0 1 0 0] CT
-14 2.5 moveto 
1 -1 scale
(0.1) t 
GR
GR
GS
[1 0 0 1 69 305.39999] CT
0.149 GC
/Helvetica-Bold 10 F
GS
[1 0 0 1 0 0] CT
-14 2.5 moveto 
1 -1 scale
(0.2) t 
GR
GR
GS
[1 0 0 1 69 271.10001] CT
0.149 GC
/Helvetica-Bold 10 F
GS
[1 0 0 1 0 0] CT
-14 2.5 moveto 
1 -1 scale
(0.3) t 
GR
GR
GS
[1 0 0 1 69 236.8] CT
0.149 GC
/Helvetica-Bold 10 F
GS
[1 0 0 1 0 0] CT
-14 2.5 moveto 
1 -1 scale
(0.4) t 
GR
GR
GS
[1 0 0 1 69 202.5] CT
0.149 GC
/Helvetica-Bold 10 F
GS
[1 0 0 1 0 0] CT
-14 2.5 moveto 
1 -1 scale
(0.5) t 
GR
GR
GS
[1 0 0 1 69 168.2] CT
0.149 GC
/Helvetica-Bold 10 F
GS
[1 0 0 1 0 0] CT
-14 2.5 moveto 
1 -1 scale
(0.6) t 
GR
GR
GS
[1 0 0 1 69 133.90001] CT
0.149 GC
/Helvetica-Bold 10 F
GS
[1 0 0 1 0 0] CT
-14 2.5 moveto 
1 -1 scale
(0.7) t 
GR
GR
GS
[1 0 0 1 69 99.6] CT
0.149 GC
/Helvetica-Bold 10 F
GS
[1 0 0 1 0 0] CT
-14 2.5 moveto 
1 -1 scale
(0.8) t 
GR
GR
GS
[1 0 0 1 69 65.30001] CT
0.149 GC
/Helvetica-Bold 10 F
GS
[1 0 0 1 0 0] CT
-14 2.5 moveto 
1 -1 scale
(0.9) t 
GR
GR
GS
[1 0 0 1 69 31] CT
0.149 GC
/Helvetica-Bold 10 F
GS
[1 0 0 1 0 0] CT
-6 2.5 moveto 
1 -1 scale
(1) t 
GR
GR
GS
0.6 0 0 RC
2 LJ
2 LW
N
73 374 M
73 325.98 L
145.406 319.12 L
171.376 315.69 L
175.251 312.26 L
175.786 308.83 L
183.386 305.4 L
187.507 301.97 L
190.555 298.54 L
193.295 295.11 L
193.817 291.68 L
193.841 288.25 L
196.485 284.82 L
197.92 281.39 L
198.057 277.96 L
198.926 274.53 L
199.096 271.1 L
199.383 267.67 L
200.232 264.24 L
200.536 260.81 L
202.749 257.38 L
203.639 253.95 L
205.257 250.52 L
205.269 247.09 L
206.785 240.23 L
207.312 236.8 L
207.379 233.37 L
207.733 229.94 L
208.251 226.51 L
208.372 223.08 L
209.007 219.65 L
209.562 216.22 L
209.603 212.79 L
209.691 209.36 L
212.374 205.93 L
213.34 202.5 L
213.509 199.07 L
213.529 195.64 L
213.936 192.21 L
213.947 188.78 L
214.396 185.35 L
216.355 181.92 L
216.899 178.49 L
217.182 175.06 L
218.525 171.63 L
219.179 168.2 L
221.261 164.77 L
221.557 161.34 L
221.937 157.91 L
222.188 154.48 L
S
GR
GS
0.6 0 0 RC
2 LJ
2 LW
N
222.188 154.48 M
222.702 151.05 L
226.085 147.62 L
226.17 144.19 L
227.938 140.76 L
228.599 137.33 L
228.724 133.9 L
228.742 130.47 L
229.529 127.04 L
232.826 123.61 L
234.14 113.32 L
234.632 109.89 L
235.191 106.46 L
235.824 103.03 L
239.058 99.6 L
239.494 96.17 L
239.664 92.74 L
241.127 89.31 L
242.479 85.88 L
242.95 82.45 L
242.999 75.59 L
250.066 72.16 L
250.97 68.73 L
252.289 65.3 L
254.014 61.87 L
256.017 58.44 L
256.788 55.01 L
257.066 51.58 L
257.309 48.15 L
258.692 44.72 L
259.385 41.29 L
261.513 37.86 L
271.27 34.43 L
290 31 L
S
GR
GS
0.6 0 0 RC
2 LJ
2 LW
N
69.1 377.9 M
69.1 370.1 L
76.9 370.1 L
76.9 377.9 L
69.1 377.9 L
S
GR
GS
0.6 0 0 RC
2 LJ
2 LW
N
179.486 309.3 M
179.486 301.5 L
187.286 301.5 L
187.286 309.3 L
179.486 309.3 L
S
GR
GS
0.6 0 0 RC
2 LJ
2 LW
N
192.585 288.72 M
192.585 280.92 L
200.385 280.92 L
200.385 288.72 L
192.585 288.72 L
S
GR
GS
0.6 0 0 RC
2 LJ
2 LW
N
196.332 268.14 M
196.332 260.34 L
204.132 260.34 L
204.132 268.14 L
196.332 268.14 L
S
GR
GS
0.6 0 0 RC
2 LJ
2 LW
N
201.369 250.99 M
201.369 243.19 L
209.169 243.19 L
209.169 250.99 L
201.369 250.99 L
S
GR
GS
0.6 0 0 RC
2 LJ
2 LW
N
204.472 226.98 M
204.472 219.18 L
212.272 219.18 L
212.272 226.98 L
204.472 226.98 L
S
GR
GS
0.6 0 0 RC
2 LJ
2 LW
N
209.44 206.4 M
209.44 198.6 L
217.24 198.6 L
217.24 206.4 L
209.44 206.4 L
S
GR
GS
0.6 0 0 RC
2 LJ
2 LW
N
212.455 185.82 M
212.455 178.02 L
220.255 178.02 L
220.255 185.82 L
212.455 185.82 L
S
GR
GS
0.6 0 0 RC
2 LJ
2 LW
N
217.657 165.24 M
217.657 157.44 L
225.457 157.44 L
225.457 165.24 L
217.657 165.24 L
S
GR
GS
0.6 0 0 RC
2 LJ
2 LW
N
224.038 144.66 M
224.038 136.86 L
231.838 136.86 L
231.838 144.66 L
224.038 144.66 L
S
GR
GS
0.6 0 0 RC
2 LJ
2 LW
N
230.24 117.22 M
230.24 109.42 L
238.04 109.42 L
238.04 117.22 L
230.24 117.22 L
S
GR
GS
0.6 0 0 RC
2 LJ
2 LW
N
235.594 100.07 M
235.594 92.27 L
243.394 92.27 L
243.394 100.07 L
235.594 100.07 L
S
GR
GS
0.6 0 0 RC
2 LJ
2 LW
N
246.166 76.06 M
246.166 68.26 L
253.966 68.26 L
253.966 76.06 L
246.166 76.06 L
S
GR
GS
0.6 0 0 RC
2 LJ
2 LW
N
253.166 55.48 M
253.166 47.68 L
260.966 47.68 L
260.966 55.48 L
253.166 55.48 L
S
GR
GS
0.6 0 0 RC
2 LJ
2 LW
N
286.1 34.9 M
286.1 27.1 L
293.9 27.1 L
293.9 34.9 L
286.1 34.9 L
S
GR
GS
0.6 0 0 RC
2 LJ
2 LW
N
69.1 377.9 M
69.1 370.1 L
76.9 370.1 L
76.9 377.9 L
69.1 377.9 L
S
GR
GS
0 0.2 0.4 RC
2 LJ
2 LW
N
73 374 M
73 319.12 L
174.31 315.69 L
184.259 312.26 L
192.237 308.83 L
192.341 305.4 L
194.345 301.97 L
195.411 298.54 L
199.938 295.11 L
200.283 291.68 L
204.423 288.25 L
204.477 284.82 L
204.477 281.39 L
208.34 277.96 L
208.563 274.53 L
208.625 271.1 L
210.554 267.67 L
210.805 264.24 L
211.144 260.81 L
211.286 257.38 L
213.646 253.95 L
213.863 250.52 L
214.145 247.09 L
214.812 243.66 L
215.221 240.23 L
217.118 236.8 L
217.811 233.37 L
219.986 229.94 L
220.532 226.51 L
226.487 223.08 L
227.019 219.65 L
227.701 216.22 L
228.218 209.36 L
228.92 205.93 L
230.332 202.5 L
231.334 199.07 L
231.716 195.64 L
232.263 192.21 L
234.009 188.78 L
235.069 185.35 L
236.277 181.92 L
236.363 175.06 L
236.976 171.63 L
239.239 164.77 L
239.833 161.34 L
240.338 157.91 L
241.637 154.48 L
242.554 151.05 L
242.814 147.62 L
243.106 144.19 L
S
GR
GS
0 0.2 0.4 RC
2 LJ
2 LW
N
243.106 144.19 M
243.671 140.76 L
244.96 137.33 L
245.133 133.9 L
245.25 130.47 L
247.1 127.04 L
250.511 123.61 L
250.962 120.18 L
251.384 116.75 L
252.088 113.32 L
254.283 109.89 L
255.593 106.46 L
256.279 103.03 L
259.115 99.6 L
260.507 96.17 L
263.29 92.74 L
264.94 85.88 L
266.45 82.45 L
267.691 79.02 L
268.511 75.59 L
270.255 72.16 L
272.576 68.73 L
272.7 65.3 L
290 61.87 L
290.217 41.29 L
291.901 37.86 L
304.017 34.43 L
308.212 31 L
S
GR
GS
0 0.2 0.4 RC
2 LJ
2 LW
N
78 374 M
77.045 371.061 L
74.545 369.245 L
71.455 369.245 L
68.955 371.061 L
68 374 L
68.955 376.939 L
71.455 378.755 L
74.545 378.755 L
77.045 376.939 L
78 374 L
S
GR
GS
0 0.2 0.4 RC
2 LJ
2 LW
N
197.341 305.4 M
196.386 302.461 L
193.886 300.645 L
190.796 300.645 L
188.296 302.461 L
187.341 305.4 L
188.296 308.339 L
190.796 310.155 L
193.886 310.155 L
196.386 308.339 L
197.341 305.4 L
S
GR
GS
0 0.2 0.4 RC
2 LJ
2 LW
N
209.477 284.82 M
208.522 281.881 L
206.022 280.065 L
202.932 280.065 L
200.432 281.881 L
199.477 284.82 L
200.432 287.759 L
202.932 289.575 L
206.022 289.575 L
208.522 287.759 L
209.477 284.82 L
S
GR
GS
0 0.2 0.4 RC
2 LJ
2 LW
N
215.554 267.67 M
214.599 264.731 L
212.099 262.915 L
209.009 262.915 L
206.509 264.731 L
205.554 267.67 L
206.509 270.609 L
209.009 272.425 L
212.099 272.425 L
214.599 270.609 L
215.554 267.67 L
S
GR
GS
0 0.2 0.4 RC
2 LJ
2 LW
N
219.145 247.09 M
218.19 244.151 L
215.69 242.335 L
212.6 242.335 L
210.1 244.151 L
209.145 247.09 L
210.1 250.029 L
212.6 251.845 L
215.69 251.845 L
218.19 250.029 L
219.145 247.09 L
S
GR
GS
0 0.2 0.4 RC
2 LJ
2 LW
N
224.986 229.94 M
224.031 227.001 L
221.531 225.185 L
218.441 225.185 L
215.941 227.001 L
214.986 229.94 L
215.941 232.879 L
218.441 234.695 L
221.531 234.695 L
224.031 232.879 L
224.986 229.94 L
S
GR
GS
0 0.2 0.4 RC
2 LJ
2 LW
N
233.92 205.93 M
232.965 202.991 L
230.465 201.175 L
227.375 201.175 L
224.875 202.991 L
223.92 205.93 L
224.875 208.869 L
227.375 210.685 L
230.465 210.685 L
232.965 208.869 L
233.92 205.93 L
S
GR
GS
0 0.2 0.4 RC
2 LJ
2 LW
N
239.009 188.78 M
238.054 185.841 L
235.554 184.025 L
232.464 184.025 L
229.964 185.841 L
229.009 188.78 L
229.964 191.719 L
232.464 193.535 L
235.554 193.535 L
238.054 191.719 L
239.009 188.78 L
S
GR
GS
0 0.2 0.4 RC
2 LJ
2 LW
N
244.239 164.77 M
243.284 161.831 L
240.784 160.015 L
237.694 160.015 L
235.194 161.831 L
234.239 164.77 L
235.194 167.709 L
237.694 169.525 L
240.784 169.525 L
243.284 167.709 L
244.239 164.77 L
S
GR
GS
0 0.2 0.4 RC
2 LJ
2 LW
N
248.106 144.19 M
247.151 141.251 L
244.651 139.435 L
241.561 139.435 L
239.061 141.251 L
238.106 144.19 L
239.061 147.129 L
241.561 148.945 L
244.651 148.945 L
247.151 147.129 L
248.106 144.19 L
S
GR
GS
0 0.2 0.4 RC
2 LJ
2 LW
N
252.1 127.04 M
251.145 124.101 L
248.645 122.285 L
245.555 122.285 L
243.055 124.101 L
242.1 127.04 L
243.055 129.979 L
245.555 131.795 L
248.645 131.795 L
251.145 129.979 L
252.1 127.04 L
S
GR
GS
0 0.2 0.4 RC
2 LJ
2 LW
N
260.593 106.46 M
259.638 103.521 L
257.138 101.705 L
254.048 101.705 L
251.548 103.521 L
250.593 106.46 L
251.548 109.399 L
254.048 111.215 L
257.138 111.215 L
259.638 109.399 L
260.593 106.46 L
S
GR
GS
0 0.2 0.4 RC
2 LJ
2 LW
N
269.94 85.88 M
268.985 82.941 L
266.485 81.125 L
263.395 81.125 L
260.895 82.941 L
259.94 85.88 L
260.895 88.819 L
263.395 90.635 L
266.485 90.635 L
268.985 88.819 L
269.94 85.88 L
S
GR
GS
0 0.2 0.4 RC
2 LJ
2 LW
N
277.7 65.3 M
276.745 62.361 L
274.245 60.545 L
271.155 60.545 L
268.655 62.361 L
267.7 65.3 L
268.655 68.239 L
271.155 70.055 L
274.245 70.055 L
276.745 68.239 L
277.7 65.3 L
S
GR
GS
0 0.2 0.4 RC
2 LJ
2 LW
N
313.212 31 M
312.257 28.061 L
309.757 26.245 L
306.667 26.245 L
304.167 28.061 L
303.212 31 L
304.167 33.939 L
306.667 35.755 L
309.757 35.755 L
312.257 33.939 L
313.212 31 L
S
GR
GS
0 0.2 0.4 RC
2 LJ
2 LW
N
78 374 M
77.045 371.061 L
74.545 369.245 L
71.455 369.245 L
68.955 371.061 L
68 374 L
68.955 376.939 L
71.455 378.755 L
74.545 378.755 L
77.045 376.939 L
78 374 L
S
GR
GS
0.8 0.6 0.2 RC
2 LJ
2 LW
N
73 374 M
73 284.82 L
73.072 281.39 L
73.072 277.96 L
73.084 274.53 L
145.406 229.94 L
145.429 226.51 L
145.448 223.08 L
177.487 219.65 L
182.766 216.22 L
189.251 212.79 L
191.715 209.36 L
198.343 205.93 L
200.633 202.5 L
203.401 199.07 L
210.391 195.64 L
213.237 192.21 L
214.607 188.78 L
215.806 185.35 L
217.739 181.92 L
217.75 178.49 L
217.811 175.06 L
225.523 171.63 L
226.866 168.2 L
228.552 164.77 L
230.754 161.34 L
232.754 157.91 L
233.185 154.48 L
233.94 151.05 L
234.584 147.62 L
237.337 144.19 L
239.738 140.76 L
244.309 137.33 L
247.191 133.9 L
248.426 130.47 L
250.443 127.04 L
252.278 123.61 L
252.315 120.18 L
253.826 116.75 L
254.518 113.32 L
254.616 109.89 L
255.72 106.46 L
257.812 103.03 L
259.434 99.6 L
259.796 96.17 L
260.886 92.74 L
267.68 89.31 L
270.161 85.88 L
270.666 82.45 L
270.948 79.02 L
S
GR
GS
0.8 0.6 0.2 RC
2 LJ
2 LW
N
270.948 79.02 M
274.106 75.59 L
274.139 72.16 L
274.411 68.73 L
275.916 65.3 L
280.093 61.87 L
283.83 58.44 L
287.509 55.01 L
290.095 51.58 L
290.108 48.15 L
294.965 44.72 L
297.18 41.29 L
305.153 37.86 L
349.963 34.43 L
360.639 31 L
S
GR
GS
0.8 0.6 0.2 RC
2 LJ
2 LW
N
68 374 M
78 374 L
S
GR
GS
0.8 0.6 0.2 RC
2 LJ
2 LW
N
73 379 M
73 369 L
S
GR
GS
0.8 0.6 0.2 RC
2 LJ
2 LW
N
69.464 377.536 M
76.536 370.464 L
S
GR
GS
0.8 0.6 0.2 RC
2 LJ
2 LW
N
69.464 370.464 M
76.536 377.536 L
S
GR
GS
0.8 0.6 0.2 RC
2 LJ
2 LW
N
140.406 229.94 M
150.406 229.94 L
S
GR
GS
0.8 0.6 0.2 RC
2 LJ
2 LW
N
145.406 234.94 M
145.406 224.94 L
S
GR
GS
0.8 0.6 0.2 RC
2 LJ
2 LW
N
141.87 233.476 M
148.941 226.404 L
S
GR
GS
0.8 0.6 0.2 RC
2 LJ
2 LW
N
141.87 226.404 M
148.941 233.476 L
S
GR
GS
0.8 0.6 0.2 RC
2 LJ
2 LW
N
177.766 216.22 M
187.766 216.22 L
S
GR
GS
0.8 0.6 0.2 RC
2 LJ
2 LW
N
182.766 221.22 M
182.766 211.22 L
S
GR
GS
0.8 0.6 0.2 RC
2 LJ
2 LW
N
179.23 219.756 M
186.301 212.684 L
S
GR
GS
0.8 0.6 0.2 RC
2 LJ
2 LW
N
179.23 212.684 M
186.301 219.756 L
S
GR
GS
0.8 0.6 0.2 RC
2 LJ
2 LW
N
198.401 199.07 M
208.401 199.07 L
S
GR
GS
0.8 0.6 0.2 RC
2 LJ
2 LW
N
203.401 204.07 M
203.401 194.07 L
S
GR
GS
0.8 0.6 0.2 RC
2 LJ
2 LW
N
199.865 202.606 M
206.936 195.534 L
S
GR
GS
0.8 0.6 0.2 RC
2 LJ
2 LW
N
199.865 195.534 M
206.936 202.606 L
S
GR
GS
0.8 0.6 0.2 RC
2 LJ
2 LW
N
210.806 185.35 M
220.806 185.35 L
S
GR
GS
0.8 0.6 0.2 RC
2 LJ
2 LW
N
215.806 190.35 M
215.806 180.35 L
S
GR
GS
0.8 0.6 0.2 RC
2 LJ
2 LW
N
212.27 188.886 M
219.341 181.814 L
S
GR
GS
0.8 0.6 0.2 RC
2 LJ
2 LW
N
212.27 181.814 M
219.341 188.886 L
S
GR
GS
0.8 0.6 0.2 RC
2 LJ
2 LW
N
221.866 168.2 M
231.866 168.2 L
S
GR
GS
0.8 0.6 0.2 RC
2 LJ
2 LW
N
226.866 173.2 M
226.866 163.2 L
S
GR
GS
0.8 0.6 0.2 RC
2 LJ
2 LW
N
223.33 171.736 M
230.401 164.664 L
S
GR
GS
0.8 0.6 0.2 RC
2 LJ
2 LW
N
223.33 164.664 M
230.401 171.736 L
S
GR
GS
0.8 0.6 0.2 RC
2 LJ
2 LW
N
228.185 154.48 M
238.185 154.48 L
S
GR
GS
0.8 0.6 0.2 RC
2 LJ
2 LW
N
233.185 159.48 M
233.185 149.48 L
S
GR
GS
0.8 0.6 0.2 RC
2 LJ
2 LW
N
229.649 158.016 M
236.72 150.944 L
S
GR
GS
0.8 0.6 0.2 RC
2 LJ
2 LW
N
229.649 150.944 M
236.72 158.016 L
S
GR
GS
0.8 0.6 0.2 RC
2 LJ
2 LW
N
239.309 137.33 M
249.309 137.33 L
S
GR
GS
0.8 0.6 0.2 RC
2 LJ
2 LW
N
244.309 142.33 M
244.309 132.33 L
S
GR
GS
0.8 0.6 0.2 RC
2 LJ
2 LW
N
240.773 140.866 M
247.844 133.794 L
S
GR
GS
0.8 0.6 0.2 RC
2 LJ
2 LW
N
240.773 133.794 M
247.844 140.866 L
S
GR
GS
0.8 0.6 0.2 RC
2 LJ
2 LW
N
247.278 123.61 M
257.278 123.61 L
S
GR
GS
0.8 0.6 0.2 RC
2 LJ
2 LW
N
252.278 128.61 M
252.278 118.61 L
S
GR
GS
0.8 0.6 0.2 RC
2 LJ
2 LW
N
248.742 127.146 M
255.813 120.074 L
S
GR
GS
0.8 0.6 0.2 RC
2 LJ
2 LW
N
248.742 120.074 M
255.813 127.146 L
S
GR
GS
0.8 0.6 0.2 RC
2 LJ
2 LW
N
250.72 106.46 M
260.72 106.46 L
S
GR
GS
0.8 0.6 0.2 RC
2 LJ
2 LW
N
255.72 111.46 M
255.72 101.46 L
S
GR
GS
0.8 0.6 0.2 RC
2 LJ
2 LW
N
252.185 109.996 M
259.256 102.924 L
S
GR
GS
0.8 0.6 0.2 RC
2 LJ
2 LW
N
252.185 102.924 M
259.256 109.996 L
S
GR
GS
0.8 0.6 0.2 RC
2 LJ
2 LW
N
255.886 92.74 M
265.886 92.74 L
S
GR
GS
0.8 0.6 0.2 RC
2 LJ
2 LW
N
260.886 97.74 M
260.886 87.74 L
S
GR
GS
0.8 0.6 0.2 RC
2 LJ
2 LW
N
257.351 96.276 M
264.422 89.204 L
S
GR
GS
0.8 0.6 0.2 RC
2 LJ
2 LW
N
257.351 89.204 M
264.422 96.276 L
S
GR
GS
0.8 0.6 0.2 RC
2 LJ
2 LW
N
269.106 75.59 M
279.106 75.59 L
S
GR
GS
0.8 0.6 0.2 RC
2 LJ
2 LW
N
274.106 80.59 M
274.106 70.59 L
S
GR
GS
0.8 0.6 0.2 RC
2 LJ
2 LW
N
270.571 79.126 M
277.642 72.054 L
S
GR
GS
0.8 0.6 0.2 RC
2 LJ
2 LW
N
270.571 72.054 M
277.642 79.126 L
S
GR
GS
0.8 0.6 0.2 RC
2 LJ
2 LW
N
275.093 61.87 M
285.093 61.87 L
S
GR
GS
0.8 0.6 0.2 RC
2 LJ
2 LW
N
280.093 66.87 M
280.093 56.87 L
S
GR
GS
0.8 0.6 0.2 RC
2 LJ
2 LW
N
276.558 65.406 M
283.629 58.334 L
S
GR
GS
0.8 0.6 0.2 RC
2 LJ
2 LW
N
276.558 58.334 M
283.629 65.406 L
S
GR
GS
0.8 0.6 0.2 RC
2 LJ
2 LW
N
289.965 44.72 M
299.965 44.72 L
S
GR
GS
0.8 0.6 0.2 RC
2 LJ
2 LW
N
294.965 49.72 M
294.965 39.72 L
S
GR
GS
0.8 0.6 0.2 RC
2 LJ
2 LW
N
291.429 48.256 M
298.5 41.184 L
S
GR
GS
0.8 0.6 0.2 RC
2 LJ
2 LW
N
291.429 41.184 M
298.5 48.256 L
S
GR
GS
0.8 0.6 0.2 RC
2 LJ
2 LW
N
355.639 31 M
365.639 31 L
S
GR
GS
0.8 0.6 0.2 RC
2 LJ
2 LW
N
360.639 36 M
360.639 26 L
S
GR
GS
0.8 0.6 0.2 RC
2 LJ
2 LW
N
357.104 34.536 M
364.175 27.464 L
S
GR
GS
0.8 0.6 0.2 RC
2 LJ
2 LW
N
357.104 27.464 M
364.175 34.536 L
S
GR
GS
0.8 0.6 0.2 RC
2 LJ
2 LW
N
68 374 M
78 374 L
S
GR
GS
0.8 0.6 0.2 RC
2 LJ
2 LW
N
73 379 M
73 369 L
S
GR
GS
0.8 0.6 0.2 RC
2 LJ
2 LW
N
69.464 377.536 M
76.536 370.464 L
S
GR
GS
0.8 0.6 0.2 RC
2 LJ
2 LW
N
69.464 370.464 M
76.536 377.536 L
S
GR
GS
0 0.2 0 RC
2 LJ
2 LW
N
73 374 M
73 192.21 L
174.939 188.78 L
177.088 185.35 L
190.549 181.92 L
202.455 178.49 L
213.521 175.06 L
223.248 171.63 L
223.481 168.2 L
226.996 164.77 L
227.068 161.34 L
228.186 157.91 L
231.951 154.48 L
244.229 151.05 L
246.571 147.62 L
252.033 144.19 L
252.252 140.76 L
255.386 137.33 L
260.748 133.9 L
264.423 130.47 L
268.152 127.04 L
280.647 123.61 L
290.217 120.18 L
294.866 116.75 L
295.219 113.32 L
295.385 109.89 L
301.56 106.46 L
302.628 103.03 L
305.504 99.6 L
306.11 96.17 L
308.748 92.74 L
311.315 89.31 L
313.323 85.88 L
313.7 82.45 L
315.798 79.02 L
319.303 75.59 L
319.928 72.16 L
327.443 68.73 L
329.366 65.3 L
337.59 61.87 L
339.708 58.44 L
341.085 55.01 L
351.1 51.58 L
351.464 48.15 L
362.758 44.72 L
365.087 41.29 L
375.363 37.86 L
393.145 34.43 L
503.128 31 L
S
GR
GS
0 0.2 0 RC
2 LJ
2 LW
N
67.228 377.332 M
78.772 377.332 L
73 367.335 L
67.228 377.332 L
S
GR
GS
0 0.2 0 RC
2 LJ
2 LW
N
171.317 188.682 M
182.86 188.682 L
177.088 178.685 L
171.317 188.682 L
S
GR
GS
0 0.2 0 RC
2 LJ
2 LW
N
217.477 174.963 M
229.02 174.963 L
223.248 164.965 L
217.477 174.963 L
S
GR
GS
0 0.2 0 RC
2 LJ
2 LW
N
221.296 164.673 M
232.84 164.673 L
227.068 154.675 L
221.296 164.673 L
S
GR
GS
0 0.2 0 RC
2 LJ
2 LW
N
240.799 150.952 M
252.343 150.952 L
246.571 140.955 L
240.799 150.952 L
S
GR
GS
0 0.2 0 RC
2 LJ
2 LW
N
249.614 140.663 M
261.158 140.663 L
255.386 130.665 L
249.614 140.663 L
S
GR
GS
0 0.2 0 RC
2 LJ
2 LW
N
274.875 126.942 M
286.419 126.942 L
280.647 116.945 L
274.875 126.942 L
S
GR
GS
0 0.2 0 RC
2 LJ
2 LW
N
289.447 116.653 M
300.991 116.653 L
295.219 106.655 L
289.447 116.653 L
S
GR
GS
0 0.2 0 RC
2 LJ
2 LW
N
296.856 106.362 M
308.4 106.362 L
302.628 96.365 L
296.856 106.362 L
S
GR
GS
0 0.2 0 RC
2 LJ
2 LW
N
305.544 92.643 M
317.087 92.643 L
311.315 82.645 L
305.544 92.643 L
S
GR
GS
0 0.2 0 RC
2 LJ
2 LW
N
310.026 82.352 M
321.57 82.352 L
315.798 72.355 L
310.026 82.352 L
S
GR
GS
0 0.2 0 RC
2 LJ
2 LW
N
323.594 68.633 M
335.138 68.633 L
329.366 58.635 L
323.594 68.633 L
S
GR
GS
0 0.2 0 RC
2 LJ
2 LW
N
335.314 58.342 M
346.857 58.342 L
341.085 48.345 L
335.314 58.342 L
S
GR
GS
0 0.2 0 RC
2 LJ
2 LW
N
359.315 44.622 M
370.859 44.622 L
365.087 34.625 L
359.315 44.622 L
S
GR
GS
0 0.2 0 RC
2 LJ
2 LW
N
497.356 34.333 M
508.9 34.333 L
503.128 24.335 L
497.356 34.333 L
S
GR
GS
0 0.2 0 RC
2 LJ
2 LW
N
67.228 377.332 M
78.772 377.332 L
73 367.335 L
67.228 377.332 L
S
GR
GS
1 GC
N
418 124 M
418 71 L
495 71 L
495 124 L
cp
f
GR
GS
[1 0 0 1 457 78.92523] CT
/Helvetica-Bold 11 F
GS
[1 0 0 1 0 0] CT
0 3 moveto 
1 -1 scale
(Tree) t 
GR
GR
GS
0.6 0 0 RC
2 setlinecap
10.0 ML
2 LW
N
424 78.925 M
454 78.925 L
S
GR
GS
0.6 0 0 RC
2 setlinecap
10.0 ML
2 LW
N
435.6 82.4 M
435.6 74.6 L
443.4 74.6 L
443.4 82.4 L
435.6 82.4 L
S
GR
GS
[1 0 0 1 457 91.30841] CT
/Helvetica-Bold 11 F
GS
[1 0 0 1 0 0] CT
0 3 moveto 
1 -1 scale
(NC) t 
GR
GR
GS
0 0.2 0.4 RC
2 setlinecap
10.0 ML
2 LW
N
424 91.308 M
454 91.308 L
S
GR
GS
0 0.2 0.4 RC
2 setlinecap
10.0 ML
2 LW
N
444.5 91.5 M
443.545 88.561 L
441.045 86.745 L
437.955 86.745 L
435.455 88.561 L
434.5 91.5 L
435.455 94.439 L
437.955 96.255 L
441.045 96.255 L
443.545 94.439 L
444.5 91.5 L
S
GR
GS
[1 0 0 1 457 103.69159] CT
/Helvetica-Bold 11 F
GS
[1 0 0 1 0 0] CT
0 3 moveto 
1 -1 scale
(TC) t 
GR
GR
GS
0.8 0.6 0.2 RC
2 setlinecap
10.0 ML
2 LW
N
424 103.692 M
454 103.692 L
S
GR
GS
0.8 0.6 0.2 RC
2 setlinecap
10.0 ML
2 LW
N
434 103.5 M
445 103.5 L
S
GR
GS
0.8 0.6 0.2 RC
2 setlinecap
10.0 ML
2 LW
N
439.5 109 M
439.5 98 L
S
GR
GS
0.8 0.6 0.2 RC
2 setlinecap
10.0 ML
2 LW
N
435 108 M
444 99 L
S
GR
GS
0.8 0.6 0.2 RC
2 setlinecap
10.0 ML
2 LW
N
435 99 M
444 108 L
S
GR
GS
[1 0 0 1 457 116.07477] CT
/Helvetica-Bold 11 F
GS
[1 0 0 1 0 0] CT
0 3 moveto 
1 -1 scale
(NC-TC) t 
GR
GR
GS
0 0.2 0 RC
2 setlinecap
10.0 ML
2 LW
N
424 116.075 M
454 116.075 L
S
GR
GS
0 0.2 0 RC
2 setlinecap
10.0 ML
2 LW
N
433.728 119.832 M
445.272 119.832 L
439.5 109.835 L
433.728 119.832 L
S
GR
GS
0.149 GC
2 setlinecap
10.0 ML
N
418 124 M
418 71 L
495 71 L
495 124 L
418 124 L
S
GR
%%Trailer
%%Pages: 1
%%EOF
