%!PS-Adobe-3.0 EPSF-3.0
%%Creator: (MATLAB, The Mathworks, Inc. Version 8.5.0.197613 \(R2015a\). Operating System: Mac OS X)
%%Title: /Users/ashwinyakkundimath/Documents/Thesis_Results/plots/phy_mechs/cdf_tuc_energy.eps
%%CreationDate: 2016-01-05T12:24:30
%%Pages: (atend)
%%BoundingBox: 0 0 560 420
%%LanguageLevel: 2
%%EndComments
%%BeginProlog
%%BeginResource: procset (Apache XML Graphics Std ProcSet) 1.2 0
%%Version: 1.2 0
%%Copyright: (Copyright 2001-2003,2010 The Apache Software Foundation. License terms: http://www.apache.org/licenses/LICENSE-2.0)
/bd{bind def}bind def
/ld{load def}bd
/GR/grestore ld
/M/moveto ld
/LJ/setlinejoin ld
/C/curveto ld
/f/fill ld
/LW/setlinewidth ld
/GC/setgray ld
/t/show ld
/N/newpath ld
/CT/concat ld
/cp/closepath ld
/S/stroke ld
/L/lineto ld
/CC/setcmykcolor ld
/A/ashow ld
/GS/gsave ld
/RC/setrgbcolor ld
/RM/rmoveto ld
/ML/setmiterlimit ld
/re {4 2 roll M
1 index 0 rlineto
0 exch rlineto
neg 0 rlineto
cp } bd
/_ctm matrix def
/_tm matrix def
/BT { _ctm currentmatrix pop matrix _tm copy pop 0 0 moveto } bd
/ET { _ctm setmatrix } bd
/iTm { _ctm setmatrix _tm concat } bd
/Tm { _tm astore pop iTm 0 0 moveto } bd
/ux 0.0 def
/uy 0.0 def
/F {
  /Tp exch def
  /Tf exch def
  Tf findfont Tp scalefont setfont
  /cf Tf def  /cs Tp def
} bd
/ULS {currentpoint /uy exch def /ux exch def} bd
/ULE {
  /Tcx currentpoint pop def
  gsave
  newpath
  cf findfont cs scalefont dup
  /FontMatrix get 0 get /Ts exch def /FontInfo get dup
  /UnderlinePosition get Ts mul /To exch def
  /UnderlineThickness get Ts mul /Tt exch def
  ux uy To add moveto  Tcx uy To add lineto
  Tt setlinewidth stroke
  grestore
} bd
/OLE {
  /Tcx currentpoint pop def
  gsave
  newpath
  cf findfont cs scalefont dup
  /FontMatrix get 0 get /Ts exch def /FontInfo get dup
  /UnderlinePosition get Ts mul /To exch def
  /UnderlineThickness get Ts mul /Tt exch def
  ux uy To add cs add moveto Tcx uy To add cs add lineto
  Tt setlinewidth stroke
  grestore
} bd
/SOE {
  /Tcx currentpoint pop def
  gsave
  newpath
  cf findfont cs scalefont dup
  /FontMatrix get 0 get /Ts exch def /FontInfo get dup
  /UnderlinePosition get Ts mul /To exch def
  /UnderlineThickness get Ts mul /Tt exch def
  ux uy To add cs 10 mul 26 idiv add moveto Tcx uy To add cs 10 mul 26 idiv add lineto
  Tt setlinewidth stroke
  grestore
} bd
/QT {
/Y22 exch store
/X22 exch store
/Y21 exch store
/X21 exch store
currentpoint
/Y21 load 2 mul add 3 div exch
/X21 load 2 mul add 3 div exch
/X21 load 2 mul /X22 load add 3 div
/Y21 load 2 mul /Y22 load add 3 div
/X22 load /Y22 load curveto
} bd
/SSPD {
dup length /d exch dict def
{
/v exch def
/k exch def
currentpagedevice k known {
/cpdv currentpagedevice k get def
v cpdv ne {
/upd false def
/nullv v type /nulltype eq def
/nullcpdv cpdv type /nulltype eq def
nullv nullcpdv or
{
/upd true def
} {
/sametype v type cpdv type eq def
sametype {
v type /arraytype eq {
/vlen v length def
/cpdvlen cpdv length def
vlen cpdvlen eq {
0 1 vlen 1 sub {
/i exch def
/obj v i get def
/cpdobj cpdv i get def
obj cpdobj ne {
/upd true def
exit
} if
} for
} {
/upd true def
} ifelse
} {
v type /dicttype eq {
v {
/dv exch def
/dk exch def
/cpddv cpdv dk get def
dv cpddv ne {
/upd true def
exit
} if
} forall
} {
/upd true def
} ifelse
} ifelse
} if
} ifelse
upd true eq {
d k v put
} if
} if
} if
} forall
d length 0 gt {
d setpagedevice
} if
} bd
%%EndResource
%%BeginResource: procset (Apache XML Graphics EPS ProcSet) 1.0 0
%%Version: 1.0 0
%%Copyright: (Copyright 2002-2003 The Apache Software Foundation. License terms: http://www.apache.org/licenses/LICENSE-2.0)
/BeginEPSF { %def
/b4_Inc_state save def         % Save state for cleanup
/dict_count countdictstack def % Count objects on dict stack
/op_count count 1 sub def      % Count objects on operand stack
userdict begin                 % Push userdict on dict stack
/showpage { } def              % Redefine showpage, { } = null proc
0 setgray 0 setlinecap         % Prepare graphics state
1 setlinewidth 0 setlinejoin
10 setmiterlimit [ ] 0 setdash newpath
/languagelevel where           % If level not equal to 1 then
{pop languagelevel             % set strokeadjust and
1 ne                           % overprint to their defaults.
{false setstrokeadjust false setoverprint
} if
} if
} bd
/EndEPSF { %def
count op_count sub {pop} repeat            % Clean up stacks
countdictstack dict_count sub {end} repeat
b4_Inc_state restore
} bd
%%EndResource
%FOPBeginFontDict
%%IncludeResource: font Courier-Bold
%%IncludeResource: font Helvetica
%%IncludeResource: font Courier-BoldOblique
%%IncludeResource: font Courier-Oblique
%%IncludeResource: font Times-Roman
%%IncludeResource: font Helvetica-BoldOblique
%%IncludeResource: font Helvetica-Bold
%%IncludeResource: font Helvetica-Oblique
%%IncludeResource: font Times-BoldItalic
%%IncludeResource: font Courier
%%IncludeResource: font Times-Italic
%%IncludeResource: font Times-Bold
%%IncludeResource: font Symbol
%%IncludeResource: font ZapfDingbats
%FOPEndFontDict
%%BeginResource: encoding WinAnsiEncoding
/WinAnsiEncoding [
/.notdef /.notdef /.notdef /.notdef /.notdef
/.notdef /.notdef /.notdef /.notdef /.notdef
/.notdef /.notdef /.notdef /.notdef /.notdef
/.notdef /.notdef /.notdef /.notdef /.notdef
/.notdef /.notdef /.notdef /.notdef /.notdef
/.notdef /.notdef /.notdef /.notdef /.notdef
/.notdef /.notdef /space /exclam /quotedbl
/numbersign /dollar /percent /ampersand /quotesingle
/parenleft /parenright /asterisk /plus /comma
/hyphen /period /slash /zero /one
/two /three /four /five /six
/seven /eight /nine /colon /semicolon
/less /equal /greater /question /at
/A /B /C /D /E
/F /G /H /I /J
/K /L /M /N /O
/P /Q /R /S /T
/U /V /W /X /Y
/Z /bracketleft /backslash /bracketright /asciicircum
/underscore /quoteleft /a /b /c
/d /e /f /g /h
/i /j /k /l /m
/n /o /p /q /r
/s /t /u /v /w
/x /y /z /braceleft /bar
/braceright /asciitilde /bullet /Euro /bullet
/quotesinglbase /florin /quotedblbase /ellipsis /dagger
/daggerdbl /circumflex /perthousand /Scaron /guilsinglleft
/OE /bullet /Zcaron /bullet /bullet
/quoteleft /quoteright /quotedblleft /quotedblright /bullet
/endash /emdash /asciitilde /trademark /scaron
/guilsinglright /oe /bullet /zcaron /Ydieresis
/space /exclamdown /cent /sterling /currency
/yen /brokenbar /section /dieresis /copyright
/ordfeminine /guillemotleft /logicalnot /sfthyphen /registered
/macron /degree /plusminus /twosuperior /threesuperior
/acute /mu /paragraph /middot /cedilla
/onesuperior /ordmasculine /guillemotright /onequarter /onehalf
/threequarters /questiondown /Agrave /Aacute /Acircumflex
/Atilde /Adieresis /Aring /AE /Ccedilla
/Egrave /Eacute /Ecircumflex /Edieresis /Igrave
/Iacute /Icircumflex /Idieresis /Eth /Ntilde
/Ograve /Oacute /Ocircumflex /Otilde /Odieresis
/multiply /Oslash /Ugrave /Uacute /Ucircumflex
/Udieresis /Yacute /Thorn /germandbls /agrave
/aacute /acircumflex /atilde /adieresis /aring
/ae /ccedilla /egrave /eacute /ecircumflex
/edieresis /igrave /iacute /icircumflex /idieresis
/eth /ntilde /ograve /oacute /ocircumflex
/otilde /odieresis /divide /oslash /ugrave
/uacute /ucircumflex /udieresis /yacute /thorn
/ydieresis
] def
%%EndResource
%FOPBeginFontReencode
/Courier-Bold findfont
dup length dict begin
  {1 index /FID ne {def} {pop pop} ifelse} forall
  /Encoding WinAnsiEncoding def
  currentdict
end
/Courier-Bold exch definefont pop
/Helvetica findfont
dup length dict begin
  {1 index /FID ne {def} {pop pop} ifelse} forall
  /Encoding WinAnsiEncoding def
  currentdict
end
/Helvetica exch definefont pop
/Courier-BoldOblique findfont
dup length dict begin
  {1 index /FID ne {def} {pop pop} ifelse} forall
  /Encoding WinAnsiEncoding def
  currentdict
end
/Courier-BoldOblique exch definefont pop
/Courier-Oblique findfont
dup length dict begin
  {1 index /FID ne {def} {pop pop} ifelse} forall
  /Encoding WinAnsiEncoding def
  currentdict
end
/Courier-Oblique exch definefont pop
/Times-Roman findfont
dup length dict begin
  {1 index /FID ne {def} {pop pop} ifelse} forall
  /Encoding WinAnsiEncoding def
  currentdict
end
/Times-Roman exch definefont pop
/Helvetica-BoldOblique findfont
dup length dict begin
  {1 index /FID ne {def} {pop pop} ifelse} forall
  /Encoding WinAnsiEncoding def
  currentdict
end
/Helvetica-BoldOblique exch definefont pop
/Helvetica-Bold findfont
dup length dict begin
  {1 index /FID ne {def} {pop pop} ifelse} forall
  /Encoding WinAnsiEncoding def
  currentdict
end
/Helvetica-Bold exch definefont pop
/Helvetica-Oblique findfont
dup length dict begin
  {1 index /FID ne {def} {pop pop} ifelse} forall
  /Encoding WinAnsiEncoding def
  currentdict
end
/Helvetica-Oblique exch definefont pop
/Times-BoldItalic findfont
dup length dict begin
  {1 index /FID ne {def} {pop pop} ifelse} forall
  /Encoding WinAnsiEncoding def
  currentdict
end
/Times-BoldItalic exch definefont pop
/Courier findfont
dup length dict begin
  {1 index /FID ne {def} {pop pop} ifelse} forall
  /Encoding WinAnsiEncoding def
  currentdict
end
/Courier exch definefont pop
/Times-Italic findfont
dup length dict begin
  {1 index /FID ne {def} {pop pop} ifelse} forall
  /Encoding WinAnsiEncoding def
  currentdict
end
/Times-Italic exch definefont pop
/Times-Bold findfont
dup length dict begin
  {1 index /FID ne {def} {pop pop} ifelse} forall
  /Encoding WinAnsiEncoding def
  currentdict
end
/Times-Bold exch definefont pop
%FOPEndFontReencode
%%EndProlog
%%Page: 1 1
%%PageBoundingBox: 0 0 560 420
%%BeginPageSetup
[1 0 0 -1 0 420] CT
%%EndPageSetup
GS
1 GC
N
0 0 560 420 re
f
GR
GS
1 GC
N
0 0 560 420 re
f
GR
GS
1 GC
N
73 374 M
507 374 L
507 31 L
73 31 L
cp
f
GR
GS
0.873 GC
2 setlinecap
10.0 ML
N
73 374 M
73 31 L
S
GR
GS
0.873 GC
2 setlinecap
10.0 ML
N
121.222 374 M
121.222 31 L
S
GR
GS
0.873 GC
2 setlinecap
10.0 ML
N
169.444 374 M
169.444 31 L
S
GR
GS
0.873 GC
2 setlinecap
10.0 ML
N
217.667 374 M
217.667 31 L
S
GR
GS
0.873 GC
2 setlinecap
10.0 ML
N
265.889 374 M
265.889 31 L
S
GR
GS
0.873 GC
2 setlinecap
10.0 ML
N
314.111 374 M
314.111 31 L
S
GR
GS
0.873 GC
2 setlinecap
10.0 ML
N
362.333 374 M
362.333 31 L
S
GR
GS
0.873 GC
2 setlinecap
10.0 ML
N
410.556 374 M
410.556 31 L
S
GR
GS
0.873 GC
2 setlinecap
10.0 ML
N
458.778 374 M
458.778 31 L
S
GR
GS
0.873 GC
2 setlinecap
10.0 ML
N
507 374 M
507 31 L
S
GR
GS
0.873 GC
2 setlinecap
10.0 ML
N
507 374 M
73 374 L
S
GR
GS
0.873 GC
2 setlinecap
10.0 ML
N
507 339.7 M
73 339.7 L
S
GR
GS
0.873 GC
2 setlinecap
10.0 ML
N
507 305.4 M
73 305.4 L
S
GR
GS
0.873 GC
2 setlinecap
10.0 ML
N
507 271.1 M
73 271.1 L
S
GR
GS
0.873 GC
2 setlinecap
10.0 ML
N
507 236.8 M
73 236.8 L
S
GR
GS
0.873 GC
2 setlinecap
10.0 ML
N
507 202.5 M
73 202.5 L
S
GR
GS
0.873 GC
2 setlinecap
10.0 ML
N
507 168.2 M
73 168.2 L
S
GR
GS
0.873 GC
2 setlinecap
10.0 ML
N
507 133.9 M
73 133.9 L
S
GR
GS
0.873 GC
2 setlinecap
10.0 ML
N
507 99.6 M
73 99.6 L
S
GR
GS
0.873 GC
2 setlinecap
10.0 ML
N
507 65.3 M
73 65.3 L
S
GR
GS
0.873 GC
2 setlinecap
10.0 ML
N
507 31 M
73 31 L
S
GR
GS
[1 0 0 1 290.00021 390] CT
0.149 GC
/Helvetica-Bold 11 F
GS
[1 0 0 1 0 0] CT
-33.5 9 moveto 
1 -1 scale
(Total Energy) t 
GR
GR
GS
0.149 GC
2 setlinecap
10.0 ML
N
73 374 M
507 374 L
S
GR
GS
0.149 GC
2 setlinecap
10.0 ML
N
73 374 M
73 369.66 L
S
GR
GS
0.149 GC
2 setlinecap
10.0 ML
N
121.222 374 M
121.222 369.66 L
S
GR
GS
0.149 GC
2 setlinecap
10.0 ML
N
169.444 374 M
169.444 369.66 L
S
GR
GS
0.149 GC
2 setlinecap
10.0 ML
N
217.667 374 M
217.667 369.66 L
S
GR
GS
0.149 GC
2 setlinecap
10.0 ML
N
265.889 374 M
265.889 369.66 L
S
GR
GS
0.149 GC
2 setlinecap
10.0 ML
N
314.111 374 M
314.111 369.66 L
S
GR
GS
0.149 GC
2 setlinecap
10.0 ML
N
362.333 374 M
362.333 369.66 L
S
GR
GS
0.149 GC
2 setlinecap
10.0 ML
N
410.556 374 M
410.556 369.66 L
S
GR
GS
0.149 GC
2 setlinecap
10.0 ML
N
458.778 374 M
458.778 369.66 L
S
GR
GS
0.149 GC
2 setlinecap
10.0 ML
N
507 374 M
507 369.66 L
S
GR
GS
[1 0 0 1 73 378] CT
0.149 GC
/Helvetica-Bold 10 F
GS
[1 0 0 1 0 0] CT
-3 8 moveto 
1 -1 scale
(0) t 
GR
GR
GS
[1 0 0 1 121.22222 378] CT
0.149 GC
/Helvetica-Bold 10 F
GS
[1 0 0 1 0 0] CT
-7 8 moveto 
1 -1 scale
(0.5) t 
GR
GR
GS
[1 0 0 1 169.44444 378] CT
0.149 GC
/Helvetica-Bold 10 F
GS
[1 0 0 1 0 0] CT
-3 8 moveto 
1 -1 scale
(1) t 
GR
GR
GS
[1 0 0 1 217.66667 378] CT
0.149 GC
/Helvetica-Bold 10 F
GS
[1 0 0 1 0 0] CT
-7 8 moveto 
1 -1 scale
(1.5) t 
GR
GR
GS
[1 0 0 1 265.88889 378] CT
0.149 GC
/Helvetica-Bold 10 F
GS
[1 0 0 1 0 0] CT
-3 8 moveto 
1 -1 scale
(2) t 
GR
GR
GS
[1 0 0 1 314.11111 378] CT
0.149 GC
/Helvetica-Bold 10 F
GS
[1 0 0 1 0 0] CT
-7 8 moveto 
1 -1 scale
(2.5) t 
GR
GR
GS
[1 0 0 1 362.33334 378] CT
0.149 GC
/Helvetica-Bold 10 F
GS
[1 0 0 1 0 0] CT
-3 8 moveto 
1 -1 scale
(3) t 
GR
GR
GS
[1 0 0 1 410.55554 378] CT
0.149 GC
/Helvetica-Bold 10 F
GS
[1 0 0 1 0 0] CT
-7 8 moveto 
1 -1 scale
(3.5) t 
GR
GR
GS
[1 0 0 1 458.77777 378] CT
0.149 GC
/Helvetica-Bold 10 F
GS
[1 0 0 1 0 0] CT
-3 8 moveto 
1 -1 scale
(4) t 
GR
GR
GS
[1 0 0 1 507 378] CT
0.149 GC
/Helvetica-Bold 10 F
GS
[1 0 0 1 0 0] CT
-7 8 moveto 
1 -1 scale
(4.5) t 
GR
GR
GS
[0 -1 1 0 52 202.49983] CT
0.149 GC
/Helvetica-Bold 11 F
GS
[1 0 0 1 0 0] CT
-60 -3 moveto 
1 -1 scale
(Cumulative Probability) t 
GR
GR
GS
0.149 GC
2 setlinecap
10.0 ML
N
73 374 M
73 31 L
S
GR
GS
0.149 GC
2 setlinecap
10.0 ML
N
73 374 M
77.34 374 L
S
GR
GS
0.149 GC
2 setlinecap
10.0 ML
N
73 339.7 M
77.34 339.7 L
S
GR
GS
0.149 GC
2 setlinecap
10.0 ML
N
73 305.4 M
77.34 305.4 L
S
GR
GS
0.149 GC
2 setlinecap
10.0 ML
N
73 271.1 M
77.34 271.1 L
S
GR
GS
0.149 GC
2 setlinecap
10.0 ML
N
73 236.8 M
77.34 236.8 L
S
GR
GS
0.149 GC
2 setlinecap
10.0 ML
N
73 202.5 M
77.34 202.5 L
S
GR
GS
0.149 GC
2 setlinecap
10.0 ML
N
73 168.2 M
77.34 168.2 L
S
GR
GS
0.149 GC
2 setlinecap
10.0 ML
N
73 133.9 M
77.34 133.9 L
S
GR
GS
0.149 GC
2 setlinecap
10.0 ML
N
73 99.6 M
77.34 99.6 L
S
GR
GS
0.149 GC
2 setlinecap
10.0 ML
N
73 65.3 M
77.34 65.3 L
S
GR
GS
0.149 GC
2 setlinecap
10.0 ML
N
73 31 M
77.34 31 L
S
GR
GS
[1 0 0 1 69 374] CT
0.149 GC
/Helvetica-Bold 10 F
GS
[1 0 0 1 0 0] CT
-6 2.5 moveto 
1 -1 scale
(0) t 
GR
GR
GS
[1 0 0 1 69 339.70001] CT
0.149 GC
/Helvetica-Bold 10 F
GS
[1 0 0 1 0 0] CT
-14 2.5 moveto 
1 -1 scale
(0.1) t 
GR
GR
GS
[1 0 0 1 69 305.39999] CT
0.149 GC
/Helvetica-Bold 10 F
GS
[1 0 0 1 0 0] CT
-14 2.5 moveto 
1 -1 scale
(0.2) t 
GR
GR
GS
[1 0 0 1 69 271.10001] CT
0.149 GC
/Helvetica-Bold 10 F
GS
[1 0 0 1 0 0] CT
-14 2.5 moveto 
1 -1 scale
(0.3) t 
GR
GR
GS
[1 0 0 1 69 236.8] CT
0.149 GC
/Helvetica-Bold 10 F
GS
[1 0 0 1 0 0] CT
-14 2.5 moveto 
1 -1 scale
(0.4) t 
GR
GR
GS
[1 0 0 1 69 202.5] CT
0.149 GC
/Helvetica-Bold 10 F
GS
[1 0 0 1 0 0] CT
-14 2.5 moveto 
1 -1 scale
(0.5) t 
GR
GR
GS
[1 0 0 1 69 168.2] CT
0.149 GC
/Helvetica-Bold 10 F
GS
[1 0 0 1 0 0] CT
-14 2.5 moveto 
1 -1 scale
(0.6) t 
GR
GR
GS
[1 0 0 1 69 133.90001] CT
0.149 GC
/Helvetica-Bold 10 F
GS
[1 0 0 1 0 0] CT
-14 2.5 moveto 
1 -1 scale
(0.7) t 
GR
GR
GS
[1 0 0 1 69 99.6] CT
0.149 GC
/Helvetica-Bold 10 F
GS
[1 0 0 1 0 0] CT
-14 2.5 moveto 
1 -1 scale
(0.8) t 
GR
GR
GS
[1 0 0 1 69 65.30001] CT
0.149 GC
/Helvetica-Bold 10 F
GS
[1 0 0 1 0 0] CT
-14 2.5 moveto 
1 -1 scale
(0.9) t 
GR
GR
GS
[1 0 0 1 69 31] CT
0.149 GC
/Helvetica-Bold 10 F
GS
[1 0 0 1 0 0] CT
-6 2.5 moveto 
1 -1 scale
(1) t 
GR
GR
GS
0.6 0 0 RC
2 LJ
2 LW
N
73 374 M
73 319.12 L
169.541 315.69 L
193.317 312.26 L
197.29 308.83 L
197.688 305.4 L
198.469 301.97 L
199.809 298.54 L
201.852 295.11 L
202.362 291.68 L
203.837 288.25 L
206.434 284.82 L
206.977 281.39 L
207.804 277.96 L
212.723 274.53 L
213.025 271.1 L
213.505 267.67 L
214.53 264.24 L
214.602 260.81 L
215.632 257.38 L
216.135 253.95 L
217.871 250.52 L
220.06 247.09 L
220.256 243.66 L
220.588 240.23 L
225.174 236.8 L
234.423 233.37 L
236.229 229.94 L
238.446 226.51 L
239.531 223.08 L
243.786 219.65 L
245.707 216.22 L
246.214 212.79 L
247.051 209.36 L
249.064 205.93 L
249.07 202.5 L
249.514 199.07 L
250.111 195.64 L
250.238 192.21 L
250.992 188.78 L
251.92 185.35 L
253.118 181.92 L
260.321 178.49 L
260.744 175.06 L
261.693 171.63 L
262.713 168.2 L
265.2 164.77 L
267.761 161.34 L
267.769 157.91 L
269.735 154.48 L
S
GR
GS
0.6 0 0 RC
2 LJ
2 LW
N
269.735 154.48 M
269.768 151.05 L
271.145 147.62 L
272.02 144.19 L
272.182 140.76 L
273.244 137.33 L
277.225 133.9 L
278.051 130.47 L
278.226 127.04 L
280.614 123.61 L
281.748 120.18 L
282.968 116.75 L
283.049 113.32 L
284.175 109.89 L
285.194 106.46 L
285.434 103.03 L
289.217 99.6 L
294.618 96.17 L
298.855 92.74 L
301.533 89.31 L
302.226 85.88 L
304.283 82.45 L
304.674 79.02 L
308.791 75.59 L
310.142 72.16 L
312.738 68.73 L
315.821 65.3 L
317.535 61.87 L
319.061 58.44 L
320.868 55.01 L
321.117 51.58 L
326.39 48.15 L
332.696 44.72 L
339.416 41.29 L
340.465 37.86 L
348.693 34.43 L
355.387 31 L
S
GR
GS
0.6 0 0 RC
2 LJ
2 LW
N
69.1 377.9 M
69.1 370.1 L
76.9 370.1 L
76.9 377.9 L
69.1 377.9 L
S
GR
GS
0.6 0 0 RC
2 LJ
2 LW
N
194.569 305.87 M
194.569 298.07 L
202.369 298.07 L
202.369 305.87 L
194.569 305.87 L
S
GR
GS
0.6 0 0 RC
2 LJ
2 LW
N
203.077 285.29 M
203.077 277.49 L
210.877 277.49 L
210.877 285.29 L
203.077 285.29 L
S
GR
GS
0.6 0 0 RC
2 LJ
2 LW
N
210.702 264.71 M
210.702 256.91 L
218.502 256.91 L
218.502 264.71 L
210.702 264.71 L
S
GR
GS
0.6 0 0 RC
2 LJ
2 LW
N
216.688 244.13 M
216.688 236.33 L
224.488 236.33 L
224.488 244.13 L
216.688 244.13 L
S
GR
GS
0.6 0 0 RC
2 LJ
2 LW
N
239.886 223.55 M
239.886 215.75 L
247.686 215.75 L
247.686 223.55 L
239.886 223.55 L
S
GR
GS
0.6 0 0 RC
2 LJ
2 LW
N
245.614 202.97 M
245.614 195.17 L
253.414 195.17 L
253.414 202.97 L
245.614 202.97 L
S
GR
GS
0.6 0 0 RC
2 LJ
2 LW
N
256.844 178.96 M
256.844 171.16 L
264.644 171.16 L
264.644 178.96 L
256.844 178.96 L
S
GR
GS
0.6 0 0 RC
2 LJ
2 LW
N
265.835 158.38 M
265.835 150.58 L
273.635 150.58 L
273.635 158.38 L
265.835 158.38 L
S
GR
GS
0.6 0 0 RC
2 LJ
2 LW
N
273.325 137.8 M
273.325 130 L
281.125 130 L
281.125 137.8 L
273.325 137.8 L
S
GR
GS
0.6 0 0 RC
2 LJ
2 LW
N
279.149 117.22 M
279.149 109.42 L
286.949 109.42 L
286.949 117.22 L
279.149 117.22 L
S
GR
GS
0.6 0 0 RC
2 LJ
2 LW
N
294.955 96.64 M
294.955 88.84 L
302.755 88.84 L
302.755 96.64 L
294.955 96.64 L
S
GR
GS
0.6 0 0 RC
2 LJ
2 LW
N
306.242 76.06 M
306.242 68.26 L
314.042 68.26 L
314.042 76.06 L
306.242 76.06 L
S
GR
GS
0.6 0 0 RC
2 LJ
2 LW
N
317.217 55.48 M
317.217 47.68 L
325.017 47.68 L
325.017 55.48 L
317.217 55.48 L
S
GR
GS
0.6 0 0 RC
2 LJ
2 LW
N
351.487 34.9 M
351.487 27.1 L
359.287 27.1 L
359.287 34.9 L
351.487 34.9 L
S
GR
GS
0.6 0 0 RC
2 LJ
2 LW
N
69.1 377.9 M
69.1 370.1 L
76.9 370.1 L
76.9 377.9 L
69.1 377.9 L
S
GR
GS
0 0.2 0.4 RC
2 LJ
2 LW
N
73 374 M
73 319.12 L
188.943 315.69 L
200.248 312.26 L
219.171 308.83 L
223.143 305.4 L
226.938 301.97 L
227.225 298.54 L
239.517 295.11 L
241.203 291.68 L
241.92 288.25 L
242.662 284.82 L
244.58 281.39 L
248.576 277.96 L
250.518 274.53 L
252.169 271.1 L
258.845 267.67 L
258.868 264.24 L
264.337 260.81 L
264.352 257.38 L
264.623 253.95 L
265.818 250.52 L
269.595 247.09 L
269.788 243.66 L
270.353 240.23 L
271.322 236.8 L
271.893 233.37 L
275.179 229.94 L
275.58 226.51 L
275.853 223.08 L
278.594 219.65 L
283.827 216.22 L
283.86 212.79 L
289.83 209.36 L
292.151 205.93 L
292.225 202.5 L
293.95 199.07 L
294.687 195.64 L
296.225 192.21 L
298.016 188.78 L
298.09 185.35 L
298.445 181.92 L
302.095 178.49 L
302.263 175.06 L
303.671 171.63 L
304.132 168.2 L
305.569 164.77 L
306.064 161.34 L
306.945 157.91 L
307.554 154.48 L
S
GR
GS
0 0.2 0.4 RC
2 LJ
2 LW
N
307.554 154.48 M
308.503 151.05 L
311.047 147.62 L
311.952 144.19 L
312.863 140.76 L
317.105 137.33 L
317.506 133.9 L
318.334 130.47 L
319.197 127.04 L
321.81 123.61 L
322.424 120.18 L
325.573 116.75 L
325.635 113.32 L
329.665 109.89 L
331.075 106.46 L
333.65 103.03 L
334.861 99.6 L
339.164 96.17 L
339.773 92.74 L
342.432 89.31 L
346.72 85.88 L
350.743 82.45 L
351.364 79.02 L
353.396 75.59 L
359.339 72.16 L
363.527 68.73 L
364.489 65.3 L
368.528 61.87 L
374.575 58.44 L
376.372 55.01 L
376.46 51.58 L
382.996 48.15 L
385.909 44.72 L
386.54 41.29 L
393.531 37.86 L
406.615 34.43 L
452.252 31 L
S
GR
GS
0 0.2 0.4 RC
2 LJ
2 LW
N
78 374 M
77.045 371.061 L
74.545 369.245 L
71.455 369.245 L
68.955 371.061 L
68 374 L
68.955 376.939 L
71.455 378.755 L
74.545 378.755 L
77.045 376.939 L
78 374 L
S
GR
GS
0 0.2 0.4 RC
2 LJ
2 LW
N
231.938 301.97 M
230.983 299.031 L
228.483 297.215 L
225.393 297.215 L
222.893 299.031 L
221.938 301.97 L
222.893 304.909 L
225.393 306.725 L
228.483 306.725 L
230.983 304.909 L
231.938 301.97 L
S
GR
GS
0 0.2 0.4 RC
2 LJ
2 LW
N
249.58 281.39 M
248.625 278.451 L
246.125 276.635 L
243.035 276.635 L
240.535 278.451 L
239.58 281.39 L
240.535 284.329 L
243.035 286.145 L
246.125 286.145 L
248.625 284.329 L
249.58 281.39 L
S
GR
GS
0 0.2 0.4 RC
2 LJ
2 LW
N
269.337 260.81 M
268.383 257.871 L
265.883 256.055 L
262.792 256.055 L
260.292 257.871 L
259.337 260.81 L
260.292 263.749 L
262.792 265.565 L
265.883 265.565 L
268.383 263.749 L
269.337 260.81 L
S
GR
GS
0 0.2 0.4 RC
2 LJ
2 LW
N
275.353 240.23 M
274.398 237.291 L
271.898 235.475 L
268.808 235.475 L
266.308 237.291 L
265.353 240.23 L
266.308 243.169 L
268.808 244.985 L
271.898 244.985 L
274.398 243.169 L
275.353 240.23 L
S
GR
GS
0 0.2 0.4 RC
2 LJ
2 LW
N
283.594 219.65 M
282.639 216.711 L
280.139 214.895 L
277.048 214.895 L
274.548 216.711 L
273.594 219.65 L
274.548 222.589 L
277.048 224.405 L
280.139 224.405 L
282.639 222.589 L
283.594 219.65 L
S
GR
GS
0 0.2 0.4 RC
2 LJ
2 LW
N
298.95 199.07 M
297.995 196.131 L
295.495 194.315 L
292.404 194.315 L
289.904 196.131 L
288.95 199.07 L
289.904 202.009 L
292.404 203.825 L
295.495 203.825 L
297.995 202.009 L
298.95 199.07 L
S
GR
GS
0 0.2 0.4 RC
2 LJ
2 LW
N
307.263 175.06 M
306.308 172.121 L
303.808 170.305 L
300.718 170.305 L
298.218 172.121 L
297.263 175.06 L
298.218 177.999 L
300.718 179.815 L
303.808 179.815 L
306.308 177.999 L
307.263 175.06 L
S
GR
GS
0 0.2 0.4 RC
2 LJ
2 LW
N
312.554 154.48 M
311.599 151.541 L
309.099 149.725 L
306.009 149.725 L
303.509 151.541 L
302.554 154.48 L
303.509 157.419 L
306.009 159.235 L
309.099 159.235 L
311.599 157.419 L
312.554 154.48 L
S
GR
GS
0 0.2 0.4 RC
2 LJ
2 LW
N
322.506 133.9 M
321.551 130.961 L
319.051 129.145 L
315.961 129.145 L
313.461 130.961 L
312.506 133.9 L
313.461 136.839 L
315.961 138.655 L
319.051 138.655 L
321.551 136.839 L
322.506 133.9 L
S
GR
GS
0 0.2 0.4 RC
2 LJ
2 LW
N
330.635 113.32 M
329.68 110.381 L
327.18 108.565 L
324.09 108.565 L
321.59 110.381 L
320.635 113.32 L
321.59 116.259 L
324.09 118.075 L
327.18 118.075 L
329.68 116.259 L
330.635 113.32 L
S
GR
GS
0 0.2 0.4 RC
2 LJ
2 LW
N
344.773 92.74 M
343.818 89.801 L
341.318 87.985 L
338.228 87.985 L
335.728 89.801 L
334.773 92.74 L
335.728 95.679 L
338.228 97.495 L
341.318 97.495 L
343.818 95.679 L
344.773 92.74 L
S
GR
GS
0 0.2 0.4 RC
2 LJ
2 LW
N
364.339 72.16 M
363.385 69.221 L
360.885 67.405 L
357.794 67.405 L
355.294 69.221 L
354.339 72.16 L
355.294 75.099 L
357.794 76.915 L
360.885 76.915 L
363.385 75.099 L
364.339 72.16 L
S
GR
GS
0 0.2 0.4 RC
2 LJ
2 LW
N
381.46 51.58 M
380.506 48.641 L
378.006 46.825 L
374.915 46.825 L
372.415 48.641 L
371.46 51.58 L
372.415 54.519 L
374.915 56.335 L
378.006 56.335 L
380.506 54.519 L
381.46 51.58 L
S
GR
GS
0 0.2 0.4 RC
2 LJ
2 LW
N
457.252 31 M
456.297 28.061 L
453.797 26.245 L
450.707 26.245 L
448.207 28.061 L
447.252 31 L
448.207 33.939 L
450.707 35.755 L
453.797 35.755 L
456.297 33.939 L
457.252 31 L
S
GR
GS
0 0.2 0.4 RC
2 LJ
2 LW
N
78 374 M
77.045 371.061 L
74.545 369.245 L
71.455 369.245 L
68.955 371.061 L
68 374 L
68.955 376.939 L
71.455 378.755 L
74.545 378.755 L
77.045 376.939 L
78 374 L
S
GR
GS
0.8 0.6 0.2 RC
2 LJ
2 LW
N
73 374 M
73 181.92 L
205.272 178.49 L
214.955 175.06 L
224.683 171.63 L
230.16 168.2 L
230.622 164.77 L
231.407 161.34 L
242.162 157.91 L
243.188 154.48 L
256.805 151.05 L
261.638 147.62 L
262.092 144.19 L
264.504 140.76 L
265.497 137.33 L
269.948 133.9 L
270.442 130.47 L
273.501 127.04 L
280.873 123.61 L
282.454 120.18 L
282.759 116.75 L
291.603 113.32 L
292.316 109.89 L
295.839 106.46 L
297.698 103.03 L
301.253 99.6 L
302.219 96.17 L
306.679 92.74 L
311.011 89.31 L
312.265 85.88 L
318.388 82.45 L
319.897 79.02 L
320.899 75.59 L
323.566 72.16 L
327.701 68.73 L
329.836 65.3 L
333.332 61.87 L
335.507 58.44 L
336.312 55.01 L
339.7 51.58 L
340.481 48.15 L
347.224 44.72 L
349.087 41.29 L
368.594 37.86 L
387.321 34.43 L
392.709 31 L
S
GR
GS
0.8 0.6 0.2 RC
2 LJ
2 LW
N
68 374 M
78 374 L
S
GR
GS
0.8 0.6 0.2 RC
2 LJ
2 LW
N
73 379 M
73 369 L
S
GR
GS
0.8 0.6 0.2 RC
2 LJ
2 LW
N
69.464 377.536 M
76.536 370.464 L
S
GR
GS
0.8 0.6 0.2 RC
2 LJ
2 LW
N
69.464 370.464 M
76.536 377.536 L
S
GR
GS
0.8 0.6 0.2 RC
2 LJ
2 LW
N
209.955 175.06 M
219.955 175.06 L
S
GR
GS
0.8 0.6 0.2 RC
2 LJ
2 LW
N
214.955 180.06 M
214.955 170.06 L
S
GR
GS
0.8 0.6 0.2 RC
2 LJ
2 LW
N
211.42 178.596 M
218.491 171.524 L
S
GR
GS
0.8 0.6 0.2 RC
2 LJ
2 LW
N
211.42 171.524 M
218.491 178.596 L
S
GR
GS
0.8 0.6 0.2 RC
2 LJ
2 LW
N
225.622 164.77 M
235.622 164.77 L
S
GR
GS
0.8 0.6 0.2 RC
2 LJ
2 LW
N
230.622 169.77 M
230.622 159.77 L
S
GR
GS
0.8 0.6 0.2 RC
2 LJ
2 LW
N
227.086 168.306 M
234.157 161.234 L
S
GR
GS
0.8 0.6 0.2 RC
2 LJ
2 LW
N
227.086 161.234 M
234.157 168.306 L
S
GR
GS
0.8 0.6 0.2 RC
2 LJ
2 LW
N
251.805 151.05 M
261.805 151.05 L
S
GR
GS
0.8 0.6 0.2 RC
2 LJ
2 LW
N
256.805 156.05 M
256.805 146.05 L
S
GR
GS
0.8 0.6 0.2 RC
2 LJ
2 LW
N
253.269 154.586 M
260.34 147.514 L
S
GR
GS
0.8 0.6 0.2 RC
2 LJ
2 LW
N
253.269 147.514 M
260.34 154.586 L
S
GR
GS
0.8 0.6 0.2 RC
2 LJ
2 LW
N
259.504 140.76 M
269.504 140.76 L
S
GR
GS
0.8 0.6 0.2 RC
2 LJ
2 LW
N
264.504 145.76 M
264.504 135.76 L
S
GR
GS
0.8 0.6 0.2 RC
2 LJ
2 LW
N
260.968 144.296 M
268.039 137.224 L
S
GR
GS
0.8 0.6 0.2 RC
2 LJ
2 LW
N
260.968 137.224 M
268.039 144.296 L
S
GR
GS
0.8 0.6 0.2 RC
2 LJ
2 LW
N
265.442 130.47 M
275.442 130.47 L
S
GR
GS
0.8 0.6 0.2 RC
2 LJ
2 LW
N
270.442 135.47 M
270.442 125.47 L
S
GR
GS
0.8 0.6 0.2 RC
2 LJ
2 LW
N
266.906 134.006 M
273.977 126.934 L
S
GR
GS
0.8 0.6 0.2 RC
2 LJ
2 LW
N
266.906 126.934 M
273.977 134.006 L
S
GR
GS
0.8 0.6 0.2 RC
2 LJ
2 LW
N
277.454 120.18 M
287.454 120.18 L
S
GR
GS
0.8 0.6 0.2 RC
2 LJ
2 LW
N
282.454 125.18 M
282.454 115.18 L
S
GR
GS
0.8 0.6 0.2 RC
2 LJ
2 LW
N
278.919 123.716 M
285.99 116.644 L
S
GR
GS
0.8 0.6 0.2 RC
2 LJ
2 LW
N
278.919 116.644 M
285.99 123.716 L
S
GR
GS
0.8 0.6 0.2 RC
2 LJ
2 LW
N
290.839 106.46 M
300.839 106.46 L
S
GR
GS
0.8 0.6 0.2 RC
2 LJ
2 LW
N
295.839 111.46 M
295.839 101.46 L
S
GR
GS
0.8 0.6 0.2 RC
2 LJ
2 LW
N
292.304 109.996 M
299.375 102.924 L
S
GR
GS
0.8 0.6 0.2 RC
2 LJ
2 LW
N
292.304 102.924 M
299.375 109.996 L
S
GR
GS
0.8 0.6 0.2 RC
2 LJ
2 LW
N
297.219 96.17 M
307.219 96.17 L
S
GR
GS
0.8 0.6 0.2 RC
2 LJ
2 LW
N
302.219 101.17 M
302.219 91.17 L
S
GR
GS
0.8 0.6 0.2 RC
2 LJ
2 LW
N
298.684 99.706 M
305.755 92.634 L
S
GR
GS
0.8 0.6 0.2 RC
2 LJ
2 LW
N
298.684 92.634 M
305.755 99.706 L
S
GR
GS
0.8 0.6 0.2 RC
2 LJ
2 LW
N
307.265 85.88 M
317.265 85.88 L
S
GR
GS
0.8 0.6 0.2 RC
2 LJ
2 LW
N
312.265 90.88 M
312.265 80.88 L
S
GR
GS
0.8 0.6 0.2 RC
2 LJ
2 LW
N
308.73 89.416 M
315.801 82.344 L
S
GR
GS
0.8 0.6 0.2 RC
2 LJ
2 LW
N
308.73 82.344 M
315.801 89.416 L
S
GR
GS
0.8 0.6 0.2 RC
2 LJ
2 LW
N
315.899 75.59 M
325.899 75.59 L
S
GR
GS
0.8 0.6 0.2 RC
2 LJ
2 LW
N
320.899 80.59 M
320.899 70.59 L
S
GR
GS
0.8 0.6 0.2 RC
2 LJ
2 LW
N
317.363 79.126 M
324.434 72.054 L
S
GR
GS
0.8 0.6 0.2 RC
2 LJ
2 LW
N
317.363 72.054 M
324.434 79.126 L
S
GR
GS
0.8 0.6 0.2 RC
2 LJ
2 LW
N
324.836 65.3 M
334.836 65.3 L
S
GR
GS
0.8 0.6 0.2 RC
2 LJ
2 LW
N
329.836 70.3 M
329.836 60.3 L
S
GR
GS
0.8 0.6 0.2 RC
2 LJ
2 LW
N
326.3 68.836 M
333.371 61.764 L
S
GR
GS
0.8 0.6 0.2 RC
2 LJ
2 LW
N
326.3 61.764 M
333.371 68.836 L
S
GR
GS
0.8 0.6 0.2 RC
2 LJ
2 LW
N
334.7 51.58 M
344.7 51.58 L
S
GR
GS
0.8 0.6 0.2 RC
2 LJ
2 LW
N
339.7 56.58 M
339.7 46.58 L
S
GR
GS
0.8 0.6 0.2 RC
2 LJ
2 LW
N
336.164 55.116 M
343.235 48.044 L
S
GR
GS
0.8 0.6 0.2 RC
2 LJ
2 LW
N
336.164 48.044 M
343.235 55.116 L
S
GR
GS
0.8 0.6 0.2 RC
2 LJ
2 LW
N
344.087 41.29 M
354.087 41.29 L
S
GR
GS
0.8 0.6 0.2 RC
2 LJ
2 LW
N
349.087 46.29 M
349.087 36.29 L
S
GR
GS
0.8 0.6 0.2 RC
2 LJ
2 LW
N
345.551 44.826 M
352.623 37.754 L
S
GR
GS
0.8 0.6 0.2 RC
2 LJ
2 LW
N
345.551 37.754 M
352.623 44.826 L
S
GR
GS
0.8 0.6 0.2 RC
2 LJ
2 LW
N
387.709 31 M
397.709 31 L
S
GR
GS
0.8 0.6 0.2 RC
2 LJ
2 LW
N
392.709 36 M
392.709 26 L
S
GR
GS
0.8 0.6 0.2 RC
2 LJ
2 LW
N
389.173 34.536 M
396.244 27.464 L
S
GR
GS
0.8 0.6 0.2 RC
2 LJ
2 LW
N
389.173 27.464 M
396.244 34.536 L
S
GR
GS
0.8 0.6 0.2 RC
2 LJ
2 LW
N
68 374 M
78 374 L
S
GR
GS
0.8 0.6 0.2 RC
2 LJ
2 LW
N
73 379 M
73 369 L
S
GR
GS
0.8 0.6 0.2 RC
2 LJ
2 LW
N
69.464 377.536 M
76.536 370.464 L
S
GR
GS
0.8 0.6 0.2 RC
2 LJ
2 LW
N
69.464 370.464 M
76.536 377.536 L
S
GR
GS
0 0.2 0 RC
2 LJ
2 LW
N
73 374 M
73 181.92 L
233.513 178.49 L
236.339 175.06 L
241.062 171.63 L
258.868 168.2 L
261.83 164.77 L
279.45 161.34 L
285.105 157.91 L
285.903 154.48 L
289.877 151.05 L
302.37 147.62 L
308.005 144.19 L
311.207 140.76 L
311.275 137.33 L
316.499 133.9 L
316.687 130.47 L
317.758 127.04 L
319.147 123.61 L
320.379 120.18 L
328.423 116.75 L
329.75 113.32 L
331.633 109.89 L
332.336 106.46 L
349.631 103.03 L
359.557 99.6 L
360.816 96.17 L
362.877 92.74 L
364.418 89.31 L
366.321 85.88 L
370.086 82.45 L
376.395 79.02 L
376.475 75.59 L
377.031 72.16 L
386.376 68.73 L
401.383 65.3 L
407.284 61.87 L
420.851 58.44 L
420.889 55.01 L
423.045 51.58 L
436.613 48.15 L
440.7 44.72 L
456.802 41.29 L
460.988 37.86 L
461.8 34.43 L
480.927 31 L
S
GR
GS
0 0.2 0 RC
2 LJ
2 LW
N
67.228 377.332 M
78.772 377.332 L
73 367.335 L
67.228 377.332 L
S
GR
GS
0 0.2 0 RC
2 LJ
2 LW
N
230.567 178.393 M
242.111 178.393 L
236.339 168.395 L
230.567 178.393 L
S
GR
GS
0 0.2 0 RC
2 LJ
2 LW
N
256.058 168.102 M
267.601 168.102 L
261.83 158.105 L
256.058 168.102 L
S
GR
GS
0 0.2 0 RC
2 LJ
2 LW
N
284.105 154.383 M
295.649 154.383 L
289.877 144.385 L
284.105 154.383 L
S
GR
GS
0 0.2 0 RC
2 LJ
2 LW
N
305.435 144.092 M
316.979 144.092 L
311.207 134.095 L
305.435 144.092 L
S
GR
GS
0 0.2 0 RC
2 LJ
2 LW
N
310.915 133.803 M
322.459 133.803 L
316.687 123.805 L
310.915 133.803 L
S
GR
GS
0 0.2 0 RC
2 LJ
2 LW
N
314.607 123.512 M
326.151 123.512 L
320.379 113.515 L
314.607 123.512 L
S
GR
GS
0 0.2 0 RC
2 LJ
2 LW
N
326.564 109.793 M
338.108 109.793 L
332.336 99.795 L
326.564 109.793 L
S
GR
GS
0 0.2 0 RC
2 LJ
2 LW
N
355.044 99.503 M
366.588 99.503 L
360.816 89.505 L
355.044 99.503 L
S
GR
GS
0 0.2 0 RC
2 LJ
2 LW
N
360.549 89.213 M
372.093 89.213 L
366.321 79.215 L
360.549 89.213 L
S
GR
GS
0 0.2 0 RC
2 LJ
2 LW
N
370.703 78.923 M
382.247 78.923 L
376.475 68.925 L
370.703 78.923 L
S
GR
GS
0 0.2 0 RC
2 LJ
2 LW
N
395.611 68.633 M
407.155 68.633 L
401.383 58.635 L
395.611 68.633 L
S
GR
GS
0 0.2 0 RC
2 LJ
2 LW
N
417.273 54.913 M
428.817 54.913 L
423.045 44.915 L
417.273 54.913 L
S
GR
GS
0 0.2 0 RC
2 LJ
2 LW
N
451.03 44.622 M
462.574 44.622 L
456.802 34.625 L
451.03 44.622 L
S
GR
GS
0 0.2 0 RC
2 LJ
2 LW
N
475.155 34.333 M
486.699 34.333 L
480.927 24.335 L
475.155 34.333 L
S
GR
GS
0 0.2 0 RC
2 LJ
2 LW
N
67.228 377.332 M
78.772 377.332 L
73 367.335 L
67.228 377.332 L
S
GR
GS
1 GC
N
424 126 M
424 73 L
501 73 L
501 126 L
cp
f
GR
GS
[1 0 0 1 463 80.92523] CT
/Helvetica-Bold 11 F
GS
[1 0 0 1 0 0] CT
0 3 moveto 
1 -1 scale
(Tree) t 
GR
GR
GS
0.6 0 0 RC
2 setlinecap
10.0 ML
2 LW
N
430 80.925 M
460 80.925 L
S
GR
GS
0.6 0 0 RC
2 setlinecap
10.0 ML
2 LW
N
441.6 84.4 M
441.6 76.6 L
449.4 76.6 L
449.4 84.4 L
441.6 84.4 L
S
GR
GS
[1 0 0 1 463 93.30841] CT
/Helvetica-Bold 11 F
GS
[1 0 0 1 0 0] CT
0 3 moveto 
1 -1 scale
(NC) t 
GR
GR
GS
0 0.2 0.4 RC
2 setlinecap
10.0 ML
2 LW
N
430 93.308 M
460 93.308 L
S
GR
GS
0 0.2 0.4 RC
2 setlinecap
10.0 ML
2 LW
N
450.5 93.5 M
449.545 90.561 L
447.045 88.745 L
443.955 88.745 L
441.455 90.561 L
440.5 93.5 L
441.455 96.439 L
443.955 98.255 L
447.045 98.255 L
449.545 96.439 L
450.5 93.5 L
S
GR
GS
[1 0 0 1 463 105.69159] CT
/Helvetica-Bold 11 F
GS
[1 0 0 1 0 0] CT
0 3 moveto 
1 -1 scale
(TC) t 
GR
GR
GS
0.8 0.6 0.2 RC
2 setlinecap
10.0 ML
2 LW
N
430 105.692 M
460 105.692 L
S
GR
GS
0.8 0.6 0.2 RC
2 setlinecap
10.0 ML
2 LW
N
440 105.5 M
451 105.5 L
S
GR
GS
0.8 0.6 0.2 RC
2 setlinecap
10.0 ML
2 LW
N
445.5 111 M
445.5 100 L
S
GR
GS
0.8 0.6 0.2 RC
2 setlinecap
10.0 ML
2 LW
N
441 110 M
450 101 L
S
GR
GS
0.8 0.6 0.2 RC
2 setlinecap
10.0 ML
2 LW
N
441 101 M
450 110 L
S
GR
GS
[1 0 0 1 463 118.07477] CT
/Helvetica-Bold 11 F
GS
[1 0 0 1 0 0] CT
0 3 moveto 
1 -1 scale
(NC-TC) t 
GR
GR
GS
0 0.2 0 RC
2 setlinecap
10.0 ML
2 LW
N
430 118.075 M
460 118.075 L
S
GR
GS
0 0.2 0 RC
2 setlinecap
10.0 ML
2 LW
N
439.728 121.832 M
451.272 121.832 L
445.5 111.835 L
439.728 121.832 L
S
GR
GS
0.149 GC
2 setlinecap
10.0 ML
N
424 126 M
424 73 L
501 73 L
501 126 L
424 126 L
S
GR
%%Trailer
%%Pages: 1
%%EOF
