%!PS-Adobe-3.0 EPSF-3.0
%%Creator: (MATLAB, The Mathworks, Inc. Version 8.5.0.197613 \(R2015a\). Operating System: Mac OS X)
%%Title: /Users/ashwinyakkundimath/Documents/Thesis_Results/plots/phy_mechs/cdf_crosslayer_energy.eps
%%CreationDate: 2016-01-05T11:48:48
%%Pages: (atend)
%%BoundingBox: 0 0 560 420
%%LanguageLevel: 2
%%EndComments
%%BeginProlog
%%BeginResource: procset (Apache XML Graphics Std ProcSet) 1.2 0
%%Version: 1.2 0
%%Copyright: (Copyright 2001-2003,2010 The Apache Software Foundation. License terms: http://www.apache.org/licenses/LICENSE-2.0)
/bd{bind def}bind def
/ld{load def}bd
/GR/grestore ld
/M/moveto ld
/LJ/setlinejoin ld
/C/curveto ld
/f/fill ld
/LW/setlinewidth ld
/GC/setgray ld
/t/show ld
/N/newpath ld
/CT/concat ld
/cp/closepath ld
/S/stroke ld
/L/lineto ld
/CC/setcmykcolor ld
/A/ashow ld
/GS/gsave ld
/RC/setrgbcolor ld
/RM/rmoveto ld
/ML/setmiterlimit ld
/re {4 2 roll M
1 index 0 rlineto
0 exch rlineto
neg 0 rlineto
cp } bd
/_ctm matrix def
/_tm matrix def
/BT { _ctm currentmatrix pop matrix _tm copy pop 0 0 moveto } bd
/ET { _ctm setmatrix } bd
/iTm { _ctm setmatrix _tm concat } bd
/Tm { _tm astore pop iTm 0 0 moveto } bd
/ux 0.0 def
/uy 0.0 def
/F {
  /Tp exch def
  /Tf exch def
  Tf findfont Tp scalefont setfont
  /cf Tf def  /cs Tp def
} bd
/ULS {currentpoint /uy exch def /ux exch def} bd
/ULE {
  /Tcx currentpoint pop def
  gsave
  newpath
  cf findfont cs scalefont dup
  /FontMatrix get 0 get /Ts exch def /FontInfo get dup
  /UnderlinePosition get Ts mul /To exch def
  /UnderlineThickness get Ts mul /Tt exch def
  ux uy To add moveto  Tcx uy To add lineto
  Tt setlinewidth stroke
  grestore
} bd
/OLE {
  /Tcx currentpoint pop def
  gsave
  newpath
  cf findfont cs scalefont dup
  /FontMatrix get 0 get /Ts exch def /FontInfo get dup
  /UnderlinePosition get Ts mul /To exch def
  /UnderlineThickness get Ts mul /Tt exch def
  ux uy To add cs add moveto Tcx uy To add cs add lineto
  Tt setlinewidth stroke
  grestore
} bd
/SOE {
  /Tcx currentpoint pop def
  gsave
  newpath
  cf findfont cs scalefont dup
  /FontMatrix get 0 get /Ts exch def /FontInfo get dup
  /UnderlinePosition get Ts mul /To exch def
  /UnderlineThickness get Ts mul /Tt exch def
  ux uy To add cs 10 mul 26 idiv add moveto Tcx uy To add cs 10 mul 26 idiv add lineto
  Tt setlinewidth stroke
  grestore
} bd
/QT {
/Y22 exch store
/X22 exch store
/Y21 exch store
/X21 exch store
currentpoint
/Y21 load 2 mul add 3 div exch
/X21 load 2 mul add 3 div exch
/X21 load 2 mul /X22 load add 3 div
/Y21 load 2 mul /Y22 load add 3 div
/X22 load /Y22 load curveto
} bd
/SSPD {
dup length /d exch dict def
{
/v exch def
/k exch def
currentpagedevice k known {
/cpdv currentpagedevice k get def
v cpdv ne {
/upd false def
/nullv v type /nulltype eq def
/nullcpdv cpdv type /nulltype eq def
nullv nullcpdv or
{
/upd true def
} {
/sametype v type cpdv type eq def
sametype {
v type /arraytype eq {
/vlen v length def
/cpdvlen cpdv length def
vlen cpdvlen eq {
0 1 vlen 1 sub {
/i exch def
/obj v i get def
/cpdobj cpdv i get def
obj cpdobj ne {
/upd true def
exit
} if
} for
} {
/upd true def
} ifelse
} {
v type /dicttype eq {
v {
/dv exch def
/dk exch def
/cpddv cpdv dk get def
dv cpddv ne {
/upd true def
exit
} if
} forall
} {
/upd true def
} ifelse
} ifelse
} if
} ifelse
upd true eq {
d k v put
} if
} if
} if
} forall
d length 0 gt {
d setpagedevice
} if
} bd
%%EndResource
%%BeginResource: procset (Apache XML Graphics EPS ProcSet) 1.0 0
%%Version: 1.0 0
%%Copyright: (Copyright 2002-2003 The Apache Software Foundation. License terms: http://www.apache.org/licenses/LICENSE-2.0)
/BeginEPSF { %def
/b4_Inc_state save def         % Save state for cleanup
/dict_count countdictstack def % Count objects on dict stack
/op_count count 1 sub def      % Count objects on operand stack
userdict begin                 % Push userdict on dict stack
/showpage { } def              % Redefine showpage, { } = null proc
0 setgray 0 setlinecap         % Prepare graphics state
1 setlinewidth 0 setlinejoin
10 setmiterlimit [ ] 0 setdash newpath
/languagelevel where           % If level not equal to 1 then
{pop languagelevel             % set strokeadjust and
1 ne                           % overprint to their defaults.
{false setstrokeadjust false setoverprint
} if
} if
} bd
/EndEPSF { %def
count op_count sub {pop} repeat            % Clean up stacks
countdictstack dict_count sub {end} repeat
b4_Inc_state restore
} bd
%%EndResource
%FOPBeginFontDict
%%IncludeResource: font Courier-Bold
%%IncludeResource: font Helvetica
%%IncludeResource: font Courier-BoldOblique
%%IncludeResource: font Courier-Oblique
%%IncludeResource: font Times-Roman
%%IncludeResource: font Helvetica-BoldOblique
%%IncludeResource: font Helvetica-Bold
%%IncludeResource: font Helvetica-Oblique
%%IncludeResource: font Times-BoldItalic
%%IncludeResource: font Courier
%%IncludeResource: font Times-Italic
%%IncludeResource: font Times-Bold
%%IncludeResource: font Symbol
%%IncludeResource: font ZapfDingbats
%FOPEndFontDict
%%BeginResource: encoding WinAnsiEncoding
/WinAnsiEncoding [
/.notdef /.notdef /.notdef /.notdef /.notdef
/.notdef /.notdef /.notdef /.notdef /.notdef
/.notdef /.notdef /.notdef /.notdef /.notdef
/.notdef /.notdef /.notdef /.notdef /.notdef
/.notdef /.notdef /.notdef /.notdef /.notdef
/.notdef /.notdef /.notdef /.notdef /.notdef
/.notdef /.notdef /space /exclam /quotedbl
/numbersign /dollar /percent /ampersand /quotesingle
/parenleft /parenright /asterisk /plus /comma
/hyphen /period /slash /zero /one
/two /three /four /five /six
/seven /eight /nine /colon /semicolon
/less /equal /greater /question /at
/A /B /C /D /E
/F /G /H /I /J
/K /L /M /N /O
/P /Q /R /S /T
/U /V /W /X /Y
/Z /bracketleft /backslash /bracketright /asciicircum
/underscore /quoteleft /a /b /c
/d /e /f /g /h
/i /j /k /l /m
/n /o /p /q /r
/s /t /u /v /w
/x /y /z /braceleft /bar
/braceright /asciitilde /bullet /Euro /bullet
/quotesinglbase /florin /quotedblbase /ellipsis /dagger
/daggerdbl /circumflex /perthousand /Scaron /guilsinglleft
/OE /bullet /Zcaron /bullet /bullet
/quoteleft /quoteright /quotedblleft /quotedblright /bullet
/endash /emdash /asciitilde /trademark /scaron
/guilsinglright /oe /bullet /zcaron /Ydieresis
/space /exclamdown /cent /sterling /currency
/yen /brokenbar /section /dieresis /copyright
/ordfeminine /guillemotleft /logicalnot /sfthyphen /registered
/macron /degree /plusminus /twosuperior /threesuperior
/acute /mu /paragraph /middot /cedilla
/onesuperior /ordmasculine /guillemotright /onequarter /onehalf
/threequarters /questiondown /Agrave /Aacute /Acircumflex
/Atilde /Adieresis /Aring /AE /Ccedilla
/Egrave /Eacute /Ecircumflex /Edieresis /Igrave
/Iacute /Icircumflex /Idieresis /Eth /Ntilde
/Ograve /Oacute /Ocircumflex /Otilde /Odieresis
/multiply /Oslash /Ugrave /Uacute /Ucircumflex
/Udieresis /Yacute /Thorn /germandbls /agrave
/aacute /acircumflex /atilde /adieresis /aring
/ae /ccedilla /egrave /eacute /ecircumflex
/edieresis /igrave /iacute /icircumflex /idieresis
/eth /ntilde /ograve /oacute /ocircumflex
/otilde /odieresis /divide /oslash /ugrave
/uacute /ucircumflex /udieresis /yacute /thorn
/ydieresis
] def
%%EndResource
%FOPBeginFontReencode
/Courier-Bold findfont
dup length dict begin
  {1 index /FID ne {def} {pop pop} ifelse} forall
  /Encoding WinAnsiEncoding def
  currentdict
end
/Courier-Bold exch definefont pop
/Helvetica findfont
dup length dict begin
  {1 index /FID ne {def} {pop pop} ifelse} forall
  /Encoding WinAnsiEncoding def
  currentdict
end
/Helvetica exch definefont pop
/Courier-BoldOblique findfont
dup length dict begin
  {1 index /FID ne {def} {pop pop} ifelse} forall
  /Encoding WinAnsiEncoding def
  currentdict
end
/Courier-BoldOblique exch definefont pop
/Courier-Oblique findfont
dup length dict begin
  {1 index /FID ne {def} {pop pop} ifelse} forall
  /Encoding WinAnsiEncoding def
  currentdict
end
/Courier-Oblique exch definefont pop
/Times-Roman findfont
dup length dict begin
  {1 index /FID ne {def} {pop pop} ifelse} forall
  /Encoding WinAnsiEncoding def
  currentdict
end
/Times-Roman exch definefont pop
/Helvetica-BoldOblique findfont
dup length dict begin
  {1 index /FID ne {def} {pop pop} ifelse} forall
  /Encoding WinAnsiEncoding def
  currentdict
end
/Helvetica-BoldOblique exch definefont pop
/Helvetica-Bold findfont
dup length dict begin
  {1 index /FID ne {def} {pop pop} ifelse} forall
  /Encoding WinAnsiEncoding def
  currentdict
end
/Helvetica-Bold exch definefont pop
/Helvetica-Oblique findfont
dup length dict begin
  {1 index /FID ne {def} {pop pop} ifelse} forall
  /Encoding WinAnsiEncoding def
  currentdict
end
/Helvetica-Oblique exch definefont pop
/Times-BoldItalic findfont
dup length dict begin
  {1 index /FID ne {def} {pop pop} ifelse} forall
  /Encoding WinAnsiEncoding def
  currentdict
end
/Times-BoldItalic exch definefont pop
/Courier findfont
dup length dict begin
  {1 index /FID ne {def} {pop pop} ifelse} forall
  /Encoding WinAnsiEncoding def
  currentdict
end
/Courier exch definefont pop
/Times-Italic findfont
dup length dict begin
  {1 index /FID ne {def} {pop pop} ifelse} forall
  /Encoding WinAnsiEncoding def
  currentdict
end
/Times-Italic exch definefont pop
/Times-Bold findfont
dup length dict begin
  {1 index /FID ne {def} {pop pop} ifelse} forall
  /Encoding WinAnsiEncoding def
  currentdict
end
/Times-Bold exch definefont pop
%FOPEndFontReencode
%%EndProlog
%%Page: 1 1
%%PageBoundingBox: 0 0 560 420
%%BeginPageSetup
[1 0 0 -1 0 420] CT
%%EndPageSetup
GS
1 GC
N
0 0 560 420 re
f
GR
GS
1 GC
N
0 0 560 420 re
f
GR
GS
1 GC
N
73 374 M
507 374 L
507 31 L
73 31 L
cp
f
GR
GS
0.873 GC
2 setlinecap
10.0 ML
N
73 374 M
73 31 L
S
GR
GS
0.873 GC
2 setlinecap
10.0 ML
N
127.25 374 M
127.25 31 L
S
GR
GS
0.873 GC
2 setlinecap
10.0 ML
N
181.5 374 M
181.5 31 L
S
GR
GS
0.873 GC
2 setlinecap
10.0 ML
N
235.75 374 M
235.75 31 L
S
GR
GS
0.873 GC
2 setlinecap
10.0 ML
N
290 374 M
290 31 L
S
GR
GS
0.873 GC
2 setlinecap
10.0 ML
N
344.25 374 M
344.25 31 L
S
GR
GS
0.873 GC
2 setlinecap
10.0 ML
N
398.5 374 M
398.5 31 L
S
GR
GS
0.873 GC
2 setlinecap
10.0 ML
N
452.75 374 M
452.75 31 L
S
GR
GS
0.873 GC
2 setlinecap
10.0 ML
N
507 374 M
507 31 L
S
GR
GS
0.873 GC
2 setlinecap
10.0 ML
N
507 374 M
73 374 L
S
GR
GS
0.873 GC
2 setlinecap
10.0 ML
N
507 339.7 M
73 339.7 L
S
GR
GS
0.873 GC
2 setlinecap
10.0 ML
N
507 305.4 M
73 305.4 L
S
GR
GS
0.873 GC
2 setlinecap
10.0 ML
N
507 271.1 M
73 271.1 L
S
GR
GS
0.873 GC
2 setlinecap
10.0 ML
N
507 236.8 M
73 236.8 L
S
GR
GS
0.873 GC
2 setlinecap
10.0 ML
N
507 202.5 M
73 202.5 L
S
GR
GS
0.873 GC
2 setlinecap
10.0 ML
N
507 168.2 M
73 168.2 L
S
GR
GS
0.873 GC
2 setlinecap
10.0 ML
N
507 133.9 M
73 133.9 L
S
GR
GS
0.873 GC
2 setlinecap
10.0 ML
N
507 99.6 M
73 99.6 L
S
GR
GS
0.873 GC
2 setlinecap
10.0 ML
N
507 65.3 M
73 65.3 L
S
GR
GS
0.873 GC
2 setlinecap
10.0 ML
N
507 31 M
73 31 L
S
GR
GS
[1 0 0 1 290.00021 390] CT
0.149 GC
/Helvetica-Bold 11 F
GS
[1 0 0 1 0 0] CT
-33.5 9 moveto 
1 -1 scale
(Total Energy) t 
GR
GR
GS
0.149 GC
2 setlinecap
10.0 ML
N
73 374 M
507 374 L
S
GR
GS
0.149 GC
2 setlinecap
10.0 ML
N
73 374 M
73 369.66 L
S
GR
GS
0.149 GC
2 setlinecap
10.0 ML
N
127.25 374 M
127.25 369.66 L
S
GR
GS
0.149 GC
2 setlinecap
10.0 ML
N
181.5 374 M
181.5 369.66 L
S
GR
GS
0.149 GC
2 setlinecap
10.0 ML
N
235.75 374 M
235.75 369.66 L
S
GR
GS
0.149 GC
2 setlinecap
10.0 ML
N
290 374 M
290 369.66 L
S
GR
GS
0.149 GC
2 setlinecap
10.0 ML
N
344.25 374 M
344.25 369.66 L
S
GR
GS
0.149 GC
2 setlinecap
10.0 ML
N
398.5 374 M
398.5 369.66 L
S
GR
GS
0.149 GC
2 setlinecap
10.0 ML
N
452.75 374 M
452.75 369.66 L
S
GR
GS
0.149 GC
2 setlinecap
10.0 ML
N
507 374 M
507 369.66 L
S
GR
GS
[1 0 0 1 73 378] CT
0.149 GC
/Helvetica-Bold 10 F
GS
[1 0 0 1 0 0] CT
-3 8 moveto 
1 -1 scale
(0) t 
GR
GR
GS
[1 0 0 1 127.25 378] CT
0.149 GC
/Helvetica-Bold 10 F
GS
[1 0 0 1 0 0] CT
-3 8 moveto 
1 -1 scale
(1) t 
GR
GR
GS
[1 0 0 1 181.5 378] CT
0.149 GC
/Helvetica-Bold 10 F
GS
[1 0 0 1 0 0] CT
-3 8 moveto 
1 -1 scale
(2) t 
GR
GR
GS
[1 0 0 1 235.75 378] CT
0.149 GC
/Helvetica-Bold 10 F
GS
[1 0 0 1 0 0] CT
-3 8 moveto 
1 -1 scale
(3) t 
GR
GR
GS
[1 0 0 1 290 378] CT
0.149 GC
/Helvetica-Bold 10 F
GS
[1 0 0 1 0 0] CT
-3 8 moveto 
1 -1 scale
(4) t 
GR
GR
GS
[1 0 0 1 344.25 378] CT
0.149 GC
/Helvetica-Bold 10 F
GS
[1 0 0 1 0 0] CT
-3 8 moveto 
1 -1 scale
(5) t 
GR
GR
GS
[1 0 0 1 398.5 378] CT
0.149 GC
/Helvetica-Bold 10 F
GS
[1 0 0 1 0 0] CT
-3 8 moveto 
1 -1 scale
(6) t 
GR
GR
GS
[1 0 0 1 452.75 378] CT
0.149 GC
/Helvetica-Bold 10 F
GS
[1 0 0 1 0 0] CT
-3 8 moveto 
1 -1 scale
(7) t 
GR
GR
GS
[1 0 0 1 507 378] CT
0.149 GC
/Helvetica-Bold 10 F
GS
[1 0 0 1 0 0] CT
-3 8 moveto 
1 -1 scale
(8) t 
GR
GR
GS
[0 -1 1 0 52 202.49983] CT
0.149 GC
/Helvetica-Bold 11 F
GS
[1 0 0 1 0 0] CT
-60 -3 moveto 
1 -1 scale
(Cumulative Probability) t 
GR
GR
GS
0.149 GC
2 setlinecap
10.0 ML
N
73 374 M
73 31 L
S
GR
GS
0.149 GC
2 setlinecap
10.0 ML
N
73 374 M
77.34 374 L
S
GR
GS
0.149 GC
2 setlinecap
10.0 ML
N
73 339.7 M
77.34 339.7 L
S
GR
GS
0.149 GC
2 setlinecap
10.0 ML
N
73 305.4 M
77.34 305.4 L
S
GR
GS
0.149 GC
2 setlinecap
10.0 ML
N
73 271.1 M
77.34 271.1 L
S
GR
GS
0.149 GC
2 setlinecap
10.0 ML
N
73 236.8 M
77.34 236.8 L
S
GR
GS
0.149 GC
2 setlinecap
10.0 ML
N
73 202.5 M
77.34 202.5 L
S
GR
GS
0.149 GC
2 setlinecap
10.0 ML
N
73 168.2 M
77.34 168.2 L
S
GR
GS
0.149 GC
2 setlinecap
10.0 ML
N
73 133.9 M
77.34 133.9 L
S
GR
GS
0.149 GC
2 setlinecap
10.0 ML
N
73 99.6 M
77.34 99.6 L
S
GR
GS
0.149 GC
2 setlinecap
10.0 ML
N
73 65.3 M
77.34 65.3 L
S
GR
GS
0.149 GC
2 setlinecap
10.0 ML
N
73 31 M
77.34 31 L
S
GR
GS
[1 0 0 1 69 374] CT
0.149 GC
/Helvetica-Bold 10 F
GS
[1 0 0 1 0 0] CT
-6 2.5 moveto 
1 -1 scale
(0) t 
GR
GR
GS
[1 0 0 1 69 339.70001] CT
0.149 GC
/Helvetica-Bold 10 F
GS
[1 0 0 1 0 0] CT
-14 2.5 moveto 
1 -1 scale
(0.1) t 
GR
GR
GS
[1 0 0 1 69 305.39999] CT
0.149 GC
/Helvetica-Bold 10 F
GS
[1 0 0 1 0 0] CT
-14 2.5 moveto 
1 -1 scale
(0.2) t 
GR
GR
GS
[1 0 0 1 69 271.10001] CT
0.149 GC
/Helvetica-Bold 10 F
GS
[1 0 0 1 0 0] CT
-14 2.5 moveto 
1 -1 scale
(0.3) t 
GR
GR
GS
[1 0 0 1 69 236.8] CT
0.149 GC
/Helvetica-Bold 10 F
GS
[1 0 0 1 0 0] CT
-14 2.5 moveto 
1 -1 scale
(0.4) t 
GR
GR
GS
[1 0 0 1 69 202.5] CT
0.149 GC
/Helvetica-Bold 10 F
GS
[1 0 0 1 0 0] CT
-14 2.5 moveto 
1 -1 scale
(0.5) t 
GR
GR
GS
[1 0 0 1 69 168.2] CT
0.149 GC
/Helvetica-Bold 10 F
GS
[1 0 0 1 0 0] CT
-14 2.5 moveto 
1 -1 scale
(0.6) t 
GR
GR
GS
[1 0 0 1 69 133.90001] CT
0.149 GC
/Helvetica-Bold 10 F
GS
[1 0 0 1 0 0] CT
-14 2.5 moveto 
1 -1 scale
(0.7) t 
GR
GR
GS
[1 0 0 1 69 99.6] CT
0.149 GC
/Helvetica-Bold 10 F
GS
[1 0 0 1 0 0] CT
-14 2.5 moveto 
1 -1 scale
(0.8) t 
GR
GR
GS
[1 0 0 1 69 65.30001] CT
0.149 GC
/Helvetica-Bold 10 F
GS
[1 0 0 1 0 0] CT
-14 2.5 moveto 
1 -1 scale
(0.9) t 
GR
GR
GS
[1 0 0 1 69 31] CT
0.149 GC
/Helvetica-Bold 10 F
GS
[1 0 0 1 0 0] CT
-6 2.5 moveto 
1 -1 scale
(1) t 
GR
GR
GS
0.6 0 0 RC
2 LJ
2 LW
N
73 374 M
73 319.12 L
127.304 312.26 L
132.783 308.83 L
136.151 305.4 L
140.678 301.97 L
142.913 298.54 L
143.152 295.11 L
144.264 291.68 L
145.152 288.25 L
145.429 284.82 L
145.479 281.39 L
145.766 277.96 L
146.017 274.53 L
146.045 271.1 L
147.53 267.67 L
148.362 264.24 L
148.403 260.81 L
148.729 257.38 L
148.942 253.95 L
149.739 250.52 L
151.764 247.09 L
152.391 243.66 L
153.278 240.23 L
153.513 236.8 L
153.908 233.37 L
154.42 229.94 L
155.422 226.51 L
156.192 223.08 L
159.14 219.65 L
159.203 216.22 L
159.214 212.79 L
159.391 209.36 L
159.61 205.93 L
159.659 202.5 L
159.853 199.07 L
160.416 195.64 L
160.565 192.21 L
161.198 188.78 L
162.037 185.35 L
163.64 181.92 L
164.063 178.49 L
166.079 175.06 L
166.36 171.63 L
167.726 168.2 L
168.649 164.77 L
169.92 161.34 L
170.101 157.91 L
171.113 154.48 L
171.546 151.05 L
S
GR
GS
0.6 0 0 RC
2 LJ
2 LW
N
171.546 151.05 M
172.788 147.62 L
172.959 144.19 L
173.746 140.76 L
174.022 137.33 L
175.375 133.9 L
176.206 130.47 L
177.029 127.04 L
177.098 123.61 L
178.059 120.18 L
178.352 116.75 L
178.965 113.32 L
179.489 109.89 L
179.524 106.46 L
179.834 103.03 L
180.344 99.6 L
181.575 96.17 L
182.704 92.74 L
182.903 89.31 L
183.477 85.88 L
183.76 82.45 L
184.148 79.02 L
185.637 75.59 L
187.507 72.16 L
189.273 68.73 L
190.421 65.3 L
192.057 61.87 L
192.331 58.44 L
193.177 55.01 L
193.855 51.58 L
197.447 48.15 L
197.671 44.72 L
200.209 41.29 L
208.234 37.86 L
230.936 34.43 L
246.469 31 L
S
GR
GS
0.6 0 0 RC
2 LJ
2 LW
N
69.1 377.9 M
69.1 370.1 L
76.9 370.1 L
76.9 377.9 L
69.1 377.9 L
S
GR
GS
0.6 0 0 RC
2 LJ
2 LW
N
139.013 302.44 M
139.013 294.64 L
146.813 294.64 L
146.813 302.44 L
139.013 302.44 L
S
GR
GS
0.6 0 0 RC
2 LJ
2 LW
N
141.866 281.86 M
141.866 274.06 L
149.666 274.06 L
149.666 281.86 L
141.866 281.86 L
S
GR
GS
0.6 0 0 RC
2 LJ
2 LW
N
144.829 261.28 M
144.829 253.48 L
152.629 253.48 L
152.629 261.28 L
144.829 261.28 L
S
GR
GS
0.6 0 0 RC
2 LJ
2 LW
N
149.613 240.7 M
149.613 232.9 L
157.413 232.9 L
157.413 240.7 L
149.613 240.7 L
S
GR
GS
0.6 0 0 RC
2 LJ
2 LW
N
155.303 220.12 M
155.303 212.32 L
163.103 212.32 L
163.103 220.12 L
155.303 220.12 L
S
GR
GS
0.6 0 0 RC
2 LJ
2 LW
N
156.516 199.54 M
156.516 191.74 L
164.316 191.74 L
164.316 199.54 L
156.516 199.54 L
S
GR
GS
0.6 0 0 RC
2 LJ
2 LW
N
162.179 178.96 M
162.179 171.16 L
169.979 171.16 L
169.979 178.96 L
162.179 178.96 L
S
GR
GS
0.6 0 0 RC
2 LJ
2 LW
N
167.213 158.38 M
167.213 150.58 L
175.013 150.58 L
175.013 158.38 L
167.213 158.38 L
S
GR
GS
0.6 0 0 RC
2 LJ
2 LW
N
171.475 137.8 M
171.475 130 L
179.275 130 L
179.275 137.8 L
171.475 137.8 L
S
GR
GS
0.6 0 0 RC
2 LJ
2 LW
N
175.065 117.22 M
175.065 109.42 L
182.865 109.42 L
182.865 117.22 L
175.065 117.22 L
S
GR
GS
0.6 0 0 RC
2 LJ
2 LW
N
178.804 96.64 M
178.804 88.84 L
186.604 88.84 L
186.604 96.64 L
178.804 96.64 L
S
GR
GS
0.6 0 0 RC
2 LJ
2 LW
N
183.607 76.06 M
183.607 68.26 L
191.407 68.26 L
191.407 76.06 L
183.607 76.06 L
S
GR
GS
0.6 0 0 RC
2 LJ
2 LW
N
189.955 55.48 M
189.955 47.68 L
197.755 47.68 L
197.755 55.48 L
189.955 55.48 L
S
GR
GS
0.6 0 0 RC
2 LJ
2 LW
N
242.569 34.9 M
242.569 27.1 L
250.369 27.1 L
250.369 34.9 L
242.569 34.9 L
S
GR
GS
0.6 0 0 RC
2 LJ
2 LW
N
69.1 377.9 M
69.1 370.1 L
76.9 370.1 L
76.9 377.9 L
69.1 377.9 L
S
GR
GS
0 0.2 0.4 RC
2 LJ
2 LW
N
73 374 M
73 319.12 L
158.835 315.69 L
170.326 312.26 L
171.762 308.83 L
173.782 305.4 L
176.006 301.97 L
177.551 298.54 L
178.553 295.11 L
179.836 291.68 L
183.563 288.25 L
184.877 284.82 L
185.393 281.39 L
186.486 277.96 L
186.894 274.53 L
187.392 271.1 L
187.932 267.67 L
191.59 264.24 L
191.787 260.81 L
194.915 257.38 L
194.967 253.95 L
202.68 250.52 L
203.713 247.09 L
206.203 243.66 L
209.674 240.23 L
211 236.8 L
211.73 233.37 L
212.046 229.94 L
212.532 226.51 L
213.534 223.08 L
215.253 219.65 L
215.857 216.22 L
217.093 212.79 L
217.793 209.36 L
219.446 205.93 L
223.055 202.5 L
224.812 199.07 L
225.585 195.64 L
227.499 192.21 L
234.121 188.78 L
235.355 185.35 L
236.123 181.92 L
237.251 178.49 L
239.212 175.06 L
241.132 171.63 L
241.857 168.2 L
243.65 164.77 L
244.004 161.34 L
244.188 157.91 L
247.795 154.48 L
S
GR
GS
0 0.2 0.4 RC
2 LJ
2 LW
N
247.795 154.48 M
248.377 151.05 L
249.997 147.62 L
250.297 144.19 L
262.179 140.76 L
262.36 137.33 L
262.527 133.9 L
265.819 130.47 L
268.074 127.04 L
270.056 123.61 L
271.14 120.18 L
271.592 116.75 L
275.079 113.32 L
275.726 109.89 L
277.344 106.46 L
279.906 103.03 L
281.048 99.6 L
284.679 96.17 L
288.374 92.74 L
289.44 89.31 L
290.364 85.88 L
293.883 82.45 L
294.639 79.02 L
294.706 75.59 L
294.992 72.16 L
295.068 68.73 L
299.329 65.3 L
301.361 61.87 L
304.657 58.44 L
311.683 55.01 L
314.679 51.58 L
319.912 48.15 L
320.984 44.72 L
322.923 41.29 L
333.282 37.86 L
347.824 34.43 L
396.37 31 L
S
GR
GS
0 0.2 0.4 RC
2 LJ
2 LW
N
78 374 M
77.045 371.061 L
74.545 369.245 L
71.455 369.245 L
68.955 371.061 L
68 374 L
68.955 376.939 L
71.455 378.755 L
74.545 378.755 L
77.045 376.939 L
78 374 L
S
GR
GS
0 0.2 0.4 RC
2 LJ
2 LW
N
181.006 301.97 M
180.051 299.031 L
177.551 297.215 L
174.461 297.215 L
171.961 299.031 L
171.006 301.97 L
171.961 304.909 L
174.461 306.725 L
177.551 306.725 L
180.051 304.909 L
181.006 301.97 L
S
GR
GS
0 0.2 0.4 RC
2 LJ
2 LW
N
190.393 281.39 M
189.438 278.451 L
186.938 276.635 L
183.848 276.635 L
181.348 278.451 L
180.393 281.39 L
181.348 284.329 L
183.848 286.145 L
186.938 286.145 L
189.438 284.329 L
190.393 281.39 L
S
GR
GS
0 0.2 0.4 RC
2 LJ
2 LW
N
196.787 260.81 M
195.832 257.871 L
193.332 256.055 L
190.241 256.055 L
187.741 257.871 L
186.787 260.81 L
187.741 263.749 L
190.241 265.565 L
193.332 265.565 L
195.832 263.749 L
196.787 260.81 L
S
GR
GS
0 0.2 0.4 RC
2 LJ
2 LW
N
214.674 240.23 M
213.719 237.291 L
211.219 235.475 L
208.129 235.475 L
205.629 237.291 L
204.674 240.23 L
205.629 243.169 L
208.129 244.985 L
211.219 244.985 L
213.719 243.169 L
214.674 240.23 L
S
GR
GS
0 0.2 0.4 RC
2 LJ
2 LW
N
220.253 219.65 M
219.298 216.711 L
216.798 214.895 L
213.707 214.895 L
211.207 216.711 L
210.253 219.65 L
211.207 222.589 L
213.707 224.405 L
216.798 224.405 L
219.298 222.589 L
220.253 219.65 L
S
GR
GS
0 0.2 0.4 RC
2 LJ
2 LW
N
229.812 199.07 M
228.857 196.131 L
226.357 194.315 L
223.267 194.315 L
220.767 196.131 L
219.812 199.07 L
220.767 202.009 L
223.267 203.825 L
226.357 203.825 L
228.857 202.009 L
229.812 199.07 L
S
GR
GS
0 0.2 0.4 RC
2 LJ
2 LW
N
244.212 175.06 M
243.257 172.121 L
240.757 170.305 L
237.667 170.305 L
235.167 172.121 L
234.212 175.06 L
235.167 177.999 L
237.667 179.815 L
240.757 179.815 L
243.257 177.999 L
244.212 175.06 L
S
GR
GS
0 0.2 0.4 RC
2 LJ
2 LW
N
252.795 154.48 M
251.84 151.541 L
249.34 149.725 L
246.249 149.725 L
243.749 151.541 L
242.795 154.48 L
243.749 157.419 L
246.249 159.235 L
249.34 159.235 L
251.84 157.419 L
252.795 154.48 L
S
GR
GS
0 0.2 0.4 RC
2 LJ
2 LW
N
267.527 133.9 M
266.572 130.961 L
264.072 129.145 L
260.982 129.145 L
258.482 130.961 L
257.527 133.9 L
258.482 136.839 L
260.982 138.655 L
264.072 138.655 L
266.572 136.839 L
267.527 133.9 L
S
GR
GS
0 0.2 0.4 RC
2 LJ
2 LW
N
280.079 113.32 M
279.124 110.381 L
276.624 108.565 L
273.534 108.565 L
271.034 110.381 L
270.079 113.32 L
271.034 116.259 L
273.534 118.075 L
276.624 118.075 L
279.124 116.259 L
280.079 113.32 L
S
GR
GS
0 0.2 0.4 RC
2 LJ
2 LW
N
293.374 92.74 M
292.419 89.801 L
289.919 87.985 L
286.829 87.985 L
284.329 89.801 L
283.374 92.74 L
284.329 95.679 L
286.829 97.495 L
289.919 97.495 L
292.419 95.679 L
293.374 92.74 L
S
GR
GS
0 0.2 0.4 RC
2 LJ
2 LW
N
299.992 72.16 M
299.037 69.221 L
296.537 67.405 L
293.447 67.405 L
290.947 69.221 L
289.992 72.16 L
290.947 75.099 L
293.447 76.915 L
296.537 76.915 L
299.037 75.099 L
299.992 72.16 L
S
GR
GS
0 0.2 0.4 RC
2 LJ
2 LW
N
319.679 51.58 M
318.724 48.641 L
316.224 46.825 L
313.134 46.825 L
310.634 48.641 L
309.679 51.58 L
310.634 54.519 L
313.134 56.335 L
316.224 56.335 L
318.724 54.519 L
319.679 51.58 L
S
GR
GS
0 0.2 0.4 RC
2 LJ
2 LW
N
401.37 31 M
400.415 28.061 L
397.915 26.245 L
394.825 26.245 L
392.325 28.061 L
391.37 31 L
392.325 33.939 L
394.825 35.755 L
397.915 35.755 L
400.415 33.939 L
401.37 31 L
S
GR
GS
0 0.2 0.4 RC
2 LJ
2 LW
N
78 374 M
77.045 371.061 L
74.545 369.245 L
71.455 369.245 L
68.955 371.061 L
68 374 L
68.955 376.939 L
71.455 378.755 L
74.545 378.755 L
77.045 376.939 L
78 374 L
S
GR
GS
0.8 0.6 0.2 RC
2 LJ
2 LW
N
73 374 M
73 240.23 L
73.054 233.37 L
73.072 229.94 L
73.083 226.51 L
73.09 223.08 L
73.108 219.65 L
73.122 216.22 L
127.304 212.79 L
154.456 205.93 L
165.671 202.5 L
167.539 199.07 L
167.717 195.64 L
173.641 192.21 L
181.554 188.78 L
181.609 185.35 L
181.619 181.92 L
181.636 178.49 L
181.642 175.06 L
181.883 171.63 L
184.684 168.2 L
185.233 164.77 L
186.309 161.34 L
188.528 157.91 L
188.913 154.48 L
194.084 151.05 L
199.209 147.62 L
202.018 144.19 L
205.077 140.76 L
205.224 137.33 L
205.789 133.9 L
206.543 130.47 L
211.064 127.04 L
214.232 123.61 L
214.491 120.18 L
217.553 116.75 L
217.574 113.32 L
218.624 109.89 L
219.801 106.46 L
220.648 103.03 L
220.798 99.6 L
227.167 96.17 L
230.999 92.74 L
232.091 89.31 L
233.628 85.88 L
239.87 82.45 L
243.095 79.02 L
243.939 75.59 L
247.056 72.16 L
247.161 68.73 L
S
GR
GS
0.8 0.6 0.2 RC
2 LJ
2 LW
N
247.161 68.73 M
249.147 65.3 L
251.092 61.87 L
259.104 58.44 L
285.722 55.01 L
287.037 51.58 L
290.126 48.15 L
296.823 44.72 L
300.01 41.29 L
305.715 37.86 L
326.348 34.43 L
344.407 31 L
S
GR
GS
0.8 0.6 0.2 RC
2 LJ
2 LW
N
68 374 M
78 374 L
S
GR
GS
0.8 0.6 0.2 RC
2 LJ
2 LW
N
73 379 M
73 369 L
S
GR
GS
0.8 0.6 0.2 RC
2 LJ
2 LW
N
69.464 377.536 M
76.536 370.464 L
S
GR
GS
0.8 0.6 0.2 RC
2 LJ
2 LW
N
69.464 370.464 M
76.536 377.536 L
S
GR
GS
0.8 0.6 0.2 RC
2 LJ
2 LW
N
68.083 226.51 M
78.083 226.51 L
S
GR
GS
0.8 0.6 0.2 RC
2 LJ
2 LW
N
73.083 231.51 M
73.083 221.51 L
S
GR
GS
0.8 0.6 0.2 RC
2 LJ
2 LW
N
69.547 230.046 M
76.618 222.974 L
S
GR
GS
0.8 0.6 0.2 RC
2 LJ
2 LW
N
69.547 222.974 M
76.618 230.046 L
S
GR
GS
0.8 0.6 0.2 RC
2 LJ
2 LW
N
149.456 205.93 M
159.456 205.93 L
S
GR
GS
0.8 0.6 0.2 RC
2 LJ
2 LW
N
154.456 210.93 M
154.456 200.93 L
S
GR
GS
0.8 0.6 0.2 RC
2 LJ
2 LW
N
150.921 209.466 M
157.992 202.394 L
S
GR
GS
0.8 0.6 0.2 RC
2 LJ
2 LW
N
150.921 202.394 M
157.992 209.466 L
S
GR
GS
0.8 0.6 0.2 RC
2 LJ
2 LW
N
168.641 192.21 M
178.641 192.21 L
S
GR
GS
0.8 0.6 0.2 RC
2 LJ
2 LW
N
173.641 197.21 M
173.641 187.21 L
S
GR
GS
0.8 0.6 0.2 RC
2 LJ
2 LW
N
170.105 195.746 M
177.176 188.674 L
S
GR
GS
0.8 0.6 0.2 RC
2 LJ
2 LW
N
170.105 188.674 M
177.176 195.746 L
S
GR
GS
0.8 0.6 0.2 RC
2 LJ
2 LW
N
176.636 178.49 M
186.636 178.49 L
S
GR
GS
0.8 0.6 0.2 RC
2 LJ
2 LW
N
181.636 183.49 M
181.636 173.49 L
S
GR
GS
0.8 0.6 0.2 RC
2 LJ
2 LW
N
178.1 182.026 M
185.171 174.954 L
S
GR
GS
0.8 0.6 0.2 RC
2 LJ
2 LW
N
178.1 174.954 M
185.171 182.026 L
S
GR
GS
0.8 0.6 0.2 RC
2 LJ
2 LW
N
180.233 164.77 M
190.233 164.77 L
S
GR
GS
0.8 0.6 0.2 RC
2 LJ
2 LW
N
185.233 169.77 M
185.233 159.77 L
S
GR
GS
0.8 0.6 0.2 RC
2 LJ
2 LW
N
181.697 168.306 M
188.768 161.234 L
S
GR
GS
0.8 0.6 0.2 RC
2 LJ
2 LW
N
181.697 161.234 M
188.768 168.306 L
S
GR
GS
0.8 0.6 0.2 RC
2 LJ
2 LW
N
194.209 147.62 M
204.209 147.62 L
S
GR
GS
0.8 0.6 0.2 RC
2 LJ
2 LW
N
199.209 152.62 M
199.209 142.62 L
S
GR
GS
0.8 0.6 0.2 RC
2 LJ
2 LW
N
195.673 151.156 M
202.744 144.084 L
S
GR
GS
0.8 0.6 0.2 RC
2 LJ
2 LW
N
195.673 144.084 M
202.744 151.156 L
S
GR
GS
0.8 0.6 0.2 RC
2 LJ
2 LW
N
200.789 133.9 M
210.789 133.9 L
S
GR
GS
0.8 0.6 0.2 RC
2 LJ
2 LW
N
205.789 138.9 M
205.789 128.9 L
S
GR
GS
0.8 0.6 0.2 RC
2 LJ
2 LW
N
202.253 137.436 M
209.324 130.364 L
S
GR
GS
0.8 0.6 0.2 RC
2 LJ
2 LW
N
202.253 130.364 M
209.324 137.436 L
S
GR
GS
0.8 0.6 0.2 RC
2 LJ
2 LW
N
209.491 120.18 M
219.491 120.18 L
S
GR
GS
0.8 0.6 0.2 RC
2 LJ
2 LW
N
214.491 125.18 M
214.491 115.18 L
S
GR
GS
0.8 0.6 0.2 RC
2 LJ
2 LW
N
210.956 123.716 M
218.027 116.644 L
S
GR
GS
0.8 0.6 0.2 RC
2 LJ
2 LW
N
210.956 116.644 M
218.027 123.716 L
S
GR
GS
0.8 0.6 0.2 RC
2 LJ
2 LW
N
215.648 103.03 M
225.648 103.03 L
S
GR
GS
0.8 0.6 0.2 RC
2 LJ
2 LW
N
220.648 108.03 M
220.648 98.03 L
S
GR
GS
0.8 0.6 0.2 RC
2 LJ
2 LW
N
217.112 106.566 M
224.183 99.494 L
S
GR
GS
0.8 0.6 0.2 RC
2 LJ
2 LW
N
217.112 99.494 M
224.183 106.566 L
S
GR
GS
0.8 0.6 0.2 RC
2 LJ
2 LW
N
227.091 89.31 M
237.091 89.31 L
S
GR
GS
0.8 0.6 0.2 RC
2 LJ
2 LW
N
232.091 94.31 M
232.091 84.31 L
S
GR
GS
0.8 0.6 0.2 RC
2 LJ
2 LW
N
228.555 92.846 M
235.626 85.774 L
S
GR
GS
0.8 0.6 0.2 RC
2 LJ
2 LW
N
228.555 85.774 M
235.626 92.846 L
S
GR
GS
0.8 0.6 0.2 RC
2 LJ
2 LW
N
238.939 75.59 M
248.939 75.59 L
S
GR
GS
0.8 0.6 0.2 RC
2 LJ
2 LW
N
243.939 80.59 M
243.939 70.59 L
S
GR
GS
0.8 0.6 0.2 RC
2 LJ
2 LW
N
240.403 79.126 M
247.475 72.054 L
S
GR
GS
0.8 0.6 0.2 RC
2 LJ
2 LW
N
240.403 72.054 M
247.475 79.126 L
S
GR
GS
0.8 0.6 0.2 RC
2 LJ
2 LW
N
246.092 61.87 M
256.092 61.87 L
S
GR
GS
0.8 0.6 0.2 RC
2 LJ
2 LW
N
251.092 66.87 M
251.092 56.87 L
S
GR
GS
0.8 0.6 0.2 RC
2 LJ
2 LW
N
247.557 65.406 M
254.628 58.334 L
S
GR
GS
0.8 0.6 0.2 RC
2 LJ
2 LW
N
247.557 58.334 M
254.628 65.406 L
S
GR
GS
0.8 0.6 0.2 RC
2 LJ
2 LW
N
291.823 44.72 M
301.823 44.72 L
S
GR
GS
0.8 0.6 0.2 RC
2 LJ
2 LW
N
296.823 49.72 M
296.823 39.72 L
S
GR
GS
0.8 0.6 0.2 RC
2 LJ
2 LW
N
293.287 48.256 M
300.358 41.184 L
S
GR
GS
0.8 0.6 0.2 RC
2 LJ
2 LW
N
293.287 41.184 M
300.358 48.256 L
S
GR
GS
0.8 0.6 0.2 RC
2 LJ
2 LW
N
339.407 31 M
349.407 31 L
S
GR
GS
0.8 0.6 0.2 RC
2 LJ
2 LW
N
344.407 36 M
344.407 26 L
S
GR
GS
0.8 0.6 0.2 RC
2 LJ
2 LW
N
340.871 34.536 M
347.943 27.464 L
S
GR
GS
0.8 0.6 0.2 RC
2 LJ
2 LW
N
340.871 27.464 M
347.943 34.536 L
S
GR
GS
0.8 0.6 0.2 RC
2 LJ
2 LW
N
68 374 M
78 374 L
S
GR
GS
0.8 0.6 0.2 RC
2 LJ
2 LW
N
73 379 M
73 369 L
S
GR
GS
0.8 0.6 0.2 RC
2 LJ
2 LW
N
69.464 377.536 M
76.536 370.464 L
S
GR
GS
0.8 0.6 0.2 RC
2 LJ
2 LW
N
69.464 370.464 M
76.536 377.536 L
S
GR
GS
0 0.2 0 RC
2 LJ
2 LW
N
73 374 M
73 181.92 L
174.657 178.49 L
180.22 175.06 L
225.768 171.63 L
231.212 168.2 L
235.286 164.77 L
245.395 161.34 L
249.851 157.91 L
257.86 154.48 L
261.337 151.05 L
261.856 147.62 L
267.136 144.19 L
267.382 140.76 L
279.068 137.33 L
279.878 133.9 L
280.756 130.47 L
284.021 127.04 L
284.094 123.61 L
285.549 120.18 L
289.004 116.75 L
289.919 113.32 L
292.372 109.89 L
296.943 106.46 L
309.276 103.03 L
316.831 99.6 L
320.973 96.17 L
323.879 92.74 L
325.294 89.31 L
325.436 85.88 L
330.812 82.45 L
331.016 79.02 L
335.386 75.59 L
335.685 72.16 L
340.433 68.73 L
345.771 65.3 L
352.55 61.87 L
376.45 58.44 L
392.713 55.01 L
395.122 51.58 L
407.052 48.15 L
411.476 44.72 L
419.225 41.29 L
434.777 37.86 L
473.329 34.43 L
506.809 31 L
S
GR
GS
0 0.2 0 RC
2 LJ
2 LW
N
67.228 377.332 M
78.772 377.332 L
73 367.335 L
67.228 377.332 L
S
GR
GS
0 0.2 0 RC
2 LJ
2 LW
N
174.448 178.393 M
185.992 178.393 L
180.22 168.395 L
174.448 178.393 L
S
GR
GS
0 0.2 0 RC
2 LJ
2 LW
N
229.514 168.102 M
241.057 168.102 L
235.286 158.105 L
229.514 168.102 L
S
GR
GS
0 0.2 0 RC
2 LJ
2 LW
N
255.565 154.383 M
267.109 154.383 L
261.337 144.385 L
255.565 154.383 L
S
GR
GS
0 0.2 0 RC
2 LJ
2 LW
N
261.61 144.092 M
273.154 144.092 L
267.382 134.095 L
261.61 144.092 L
S
GR
GS
0 0.2 0 RC
2 LJ
2 LW
N
274.984 133.803 M
286.528 133.803 L
280.756 123.805 L
274.984 133.803 L
S
GR
GS
0 0.2 0 RC
2 LJ
2 LW
N
279.777 123.512 M
291.321 123.512 L
285.549 113.515 L
279.777 123.512 L
S
GR
GS
0 0.2 0 RC
2 LJ
2 LW
N
291.171 109.793 M
302.715 109.793 L
296.943 99.795 L
291.171 109.793 L
S
GR
GS
0 0.2 0 RC
2 LJ
2 LW
N
315.201 99.503 M
326.745 99.503 L
320.973 89.505 L
315.201 99.503 L
S
GR
GS
0 0.2 0 RC
2 LJ
2 LW
N
319.664 89.213 M
331.208 89.213 L
325.436 79.215 L
319.664 89.213 L
S
GR
GS
0 0.2 0 RC
2 LJ
2 LW
N
329.614 78.923 M
341.158 78.923 L
335.386 68.925 L
329.614 78.923 L
S
GR
GS
0 0.2 0 RC
2 LJ
2 LW
N
339.999 68.633 M
351.543 68.633 L
345.771 58.635 L
339.999 68.633 L
S
GR
GS
0 0.2 0 RC
2 LJ
2 LW
N
389.35 54.913 M
400.893 54.913 L
395.122 44.915 L
389.35 54.913 L
S
GR
GS
0 0.2 0 RC
2 LJ
2 LW
N
413.453 44.622 M
424.997 44.622 L
419.225 34.625 L
413.453 44.622 L
S
GR
GS
0 0.2 0 RC
2 LJ
2 LW
N
501.037 34.333 M
512.581 34.333 L
506.809 24.335 L
501.037 34.333 L
S
GR
GS
0 0.2 0 RC
2 LJ
2 LW
N
67.228 377.332 M
78.772 377.332 L
73 367.335 L
67.228 377.332 L
S
GR
GS
1 GC
N
425 123 M
425 70 L
502 70 L
502 123 L
cp
f
GR
GS
[1 0 0 1 464 77.92523] CT
/Helvetica-Bold 11 F
GS
[1 0 0 1 0 0] CT
0 3 moveto 
1 -1 scale
(Tree) t 
GR
GR
GS
0.6 0 0 RC
2 setlinecap
10.0 ML
2 LW
N
431 77.925 M
461 77.925 L
S
GR
GS
0.6 0 0 RC
2 setlinecap
10.0 ML
2 LW
N
442.6 81.4 M
442.6 73.6 L
450.4 73.6 L
450.4 81.4 L
442.6 81.4 L
S
GR
GS
[1 0 0 1 464 90.30841] CT
/Helvetica-Bold 11 F
GS
[1 0 0 1 0 0] CT
0 3 moveto 
1 -1 scale
(NC) t 
GR
GR
GS
0 0.2 0.4 RC
2 setlinecap
10.0 ML
2 LW
N
431 90.308 M
461 90.308 L
S
GR
GS
0 0.2 0.4 RC
2 setlinecap
10.0 ML
2 LW
N
451.5 90.5 M
450.545 87.561 L
448.045 85.745 L
444.955 85.745 L
442.455 87.561 L
441.5 90.5 L
442.455 93.439 L
444.955 95.255 L
448.045 95.255 L
450.545 93.439 L
451.5 90.5 L
S
GR
GS
[1 0 0 1 464 102.69159] CT
/Helvetica-Bold 11 F
GS
[1 0 0 1 0 0] CT
0 3 moveto 
1 -1 scale
(TC) t 
GR
GR
GS
0.8 0.6 0.2 RC
2 setlinecap
10.0 ML
2 LW
N
431 102.692 M
461 102.692 L
S
GR
GS
0.8 0.6 0.2 RC
2 setlinecap
10.0 ML
2 LW
N
441 102.5 M
452 102.5 L
S
GR
GS
0.8 0.6 0.2 RC
2 setlinecap
10.0 ML
2 LW
N
446.5 108 M
446.5 97 L
S
GR
GS
0.8 0.6 0.2 RC
2 setlinecap
10.0 ML
2 LW
N
442 107 M
451 98 L
S
GR
GS
0.8 0.6 0.2 RC
2 setlinecap
10.0 ML
2 LW
N
442 98 M
451 107 L
S
GR
GS
[1 0 0 1 464 115.07477] CT
/Helvetica-Bold 11 F
GS
[1 0 0 1 0 0] CT
0 3 moveto 
1 -1 scale
(NC-TC) t 
GR
GR
GS
0 0.2 0 RC
2 setlinecap
10.0 ML
2 LW
N
431 115.075 M
461 115.075 L
S
GR
GS
0 0.2 0 RC
2 setlinecap
10.0 ML
2 LW
N
440.728 118.832 M
452.272 118.832 L
446.5 108.835 L
440.728 118.832 L
S
GR
GS
0.149 GC
2 setlinecap
10.0 ML
N
425 123 M
425 70 L
502 70 L
502 123 L
425 123 L
S
GR
%%Trailer
%%Pages: 1
%%EOF
