%!PS-Adobe-3.0 EPSF-3.0
%%Creator: (MATLAB, The Mathworks, Inc. Version 8.5.0.197613 \(R2015a\). Operating System: Mac OS X)
%%Title: /Users/ashwinyakkundimath/Documents/Thesis_Results/plots/phy_mechs/MR_25n_3phymechs.eps
%%CreationDate: 2016-01-05T12:08:09
%%Pages: (atend)
%%BoundingBox: 0 0 560 420
%%LanguageLevel: 2
%%EndComments
%%BeginProlog
%%BeginResource: procset (Apache XML Graphics Std ProcSet) 1.2 0
%%Version: 1.2 0
%%Copyright: (Copyright 2001-2003,2010 The Apache Software Foundation. License terms: http://www.apache.org/licenses/LICENSE-2.0)
/bd{bind def}bind def
/ld{load def}bd
/GR/grestore ld
/M/moveto ld
/LJ/setlinejoin ld
/C/curveto ld
/f/fill ld
/LW/setlinewidth ld
/GC/setgray ld
/t/show ld
/N/newpath ld
/CT/concat ld
/cp/closepath ld
/S/stroke ld
/L/lineto ld
/CC/setcmykcolor ld
/A/ashow ld
/GS/gsave ld
/RC/setrgbcolor ld
/RM/rmoveto ld
/ML/setmiterlimit ld
/re {4 2 roll M
1 index 0 rlineto
0 exch rlineto
neg 0 rlineto
cp } bd
/_ctm matrix def
/_tm matrix def
/BT { _ctm currentmatrix pop matrix _tm copy pop 0 0 moveto } bd
/ET { _ctm setmatrix } bd
/iTm { _ctm setmatrix _tm concat } bd
/Tm { _tm astore pop iTm 0 0 moveto } bd
/ux 0.0 def
/uy 0.0 def
/F {
  /Tp exch def
  /Tf exch def
  Tf findfont Tp scalefont setfont
  /cf Tf def  /cs Tp def
} bd
/ULS {currentpoint /uy exch def /ux exch def} bd
/ULE {
  /Tcx currentpoint pop def
  gsave
  newpath
  cf findfont cs scalefont dup
  /FontMatrix get 0 get /Ts exch def /FontInfo get dup
  /UnderlinePosition get Ts mul /To exch def
  /UnderlineThickness get Ts mul /Tt exch def
  ux uy To add moveto  Tcx uy To add lineto
  Tt setlinewidth stroke
  grestore
} bd
/OLE {
  /Tcx currentpoint pop def
  gsave
  newpath
  cf findfont cs scalefont dup
  /FontMatrix get 0 get /Ts exch def /FontInfo get dup
  /UnderlinePosition get Ts mul /To exch def
  /UnderlineThickness get Ts mul /Tt exch def
  ux uy To add cs add moveto Tcx uy To add cs add lineto
  Tt setlinewidth stroke
  grestore
} bd
/SOE {
  /Tcx currentpoint pop def
  gsave
  newpath
  cf findfont cs scalefont dup
  /FontMatrix get 0 get /Ts exch def /FontInfo get dup
  /UnderlinePosition get Ts mul /To exch def
  /UnderlineThickness get Ts mul /Tt exch def
  ux uy To add cs 10 mul 26 idiv add moveto Tcx uy To add cs 10 mul 26 idiv add lineto
  Tt setlinewidth stroke
  grestore
} bd
/QT {
/Y22 exch store
/X22 exch store
/Y21 exch store
/X21 exch store
currentpoint
/Y21 load 2 mul add 3 div exch
/X21 load 2 mul add 3 div exch
/X21 load 2 mul /X22 load add 3 div
/Y21 load 2 mul /Y22 load add 3 div
/X22 load /Y22 load curveto
} bd
/SSPD {
dup length /d exch dict def
{
/v exch def
/k exch def
currentpagedevice k known {
/cpdv currentpagedevice k get def
v cpdv ne {
/upd false def
/nullv v type /nulltype eq def
/nullcpdv cpdv type /nulltype eq def
nullv nullcpdv or
{
/upd true def
} {
/sametype v type cpdv type eq def
sametype {
v type /arraytype eq {
/vlen v length def
/cpdvlen cpdv length def
vlen cpdvlen eq {
0 1 vlen 1 sub {
/i exch def
/obj v i get def
/cpdobj cpdv i get def
obj cpdobj ne {
/upd true def
exit
} if
} for
} {
/upd true def
} ifelse
} {
v type /dicttype eq {
v {
/dv exch def
/dk exch def
/cpddv cpdv dk get def
dv cpddv ne {
/upd true def
exit
} if
} forall
} {
/upd true def
} ifelse
} ifelse
} if
} ifelse
upd true eq {
d k v put
} if
} if
} if
} forall
d length 0 gt {
d setpagedevice
} if
} bd
%%EndResource
%%BeginResource: procset (Apache XML Graphics EPS ProcSet) 1.0 0
%%Version: 1.0 0
%%Copyright: (Copyright 2002-2003 The Apache Software Foundation. License terms: http://www.apache.org/licenses/LICENSE-2.0)
/BeginEPSF { %def
/b4_Inc_state save def         % Save state for cleanup
/dict_count countdictstack def % Count objects on dict stack
/op_count count 1 sub def      % Count objects on operand stack
userdict begin                 % Push userdict on dict stack
/showpage { } def              % Redefine showpage, { } = null proc
0 setgray 0 setlinecap         % Prepare graphics state
1 setlinewidth 0 setlinejoin
10 setmiterlimit [ ] 0 setdash newpath
/languagelevel where           % If level not equal to 1 then
{pop languagelevel             % set strokeadjust and
1 ne                           % overprint to their defaults.
{false setstrokeadjust false setoverprint
} if
} if
} bd
/EndEPSF { %def
count op_count sub {pop} repeat            % Clean up stacks
countdictstack dict_count sub {end} repeat
b4_Inc_state restore
} bd
%%EndResource
%FOPBeginFontDict
%%IncludeResource: font Courier-Bold
%%IncludeResource: font Helvetica
%%IncludeResource: font Courier-BoldOblique
%%IncludeResource: font Courier-Oblique
%%IncludeResource: font Times-Roman
%%IncludeResource: font Helvetica-BoldOblique
%%IncludeResource: font Helvetica-Bold
%%IncludeResource: font Helvetica-Oblique
%%IncludeResource: font Times-BoldItalic
%%IncludeResource: font Courier
%%IncludeResource: font Times-Italic
%%IncludeResource: font Times-Bold
%%IncludeResource: font Symbol
%%IncludeResource: font ZapfDingbats
%FOPEndFontDict
%%BeginResource: encoding WinAnsiEncoding
/WinAnsiEncoding [
/.notdef /.notdef /.notdef /.notdef /.notdef
/.notdef /.notdef /.notdef /.notdef /.notdef
/.notdef /.notdef /.notdef /.notdef /.notdef
/.notdef /.notdef /.notdef /.notdef /.notdef
/.notdef /.notdef /.notdef /.notdef /.notdef
/.notdef /.notdef /.notdef /.notdef /.notdef
/.notdef /.notdef /space /exclam /quotedbl
/numbersign /dollar /percent /ampersand /quotesingle
/parenleft /parenright /asterisk /plus /comma
/hyphen /period /slash /zero /one
/two /three /four /five /six
/seven /eight /nine /colon /semicolon
/less /equal /greater /question /at
/A /B /C /D /E
/F /G /H /I /J
/K /L /M /N /O
/P /Q /R /S /T
/U /V /W /X /Y
/Z /bracketleft /backslash /bracketright /asciicircum
/underscore /quoteleft /a /b /c
/d /e /f /g /h
/i /j /k /l /m
/n /o /p /q /r
/s /t /u /v /w
/x /y /z /braceleft /bar
/braceright /asciitilde /bullet /Euro /bullet
/quotesinglbase /florin /quotedblbase /ellipsis /dagger
/daggerdbl /circumflex /perthousand /Scaron /guilsinglleft
/OE /bullet /Zcaron /bullet /bullet
/quoteleft /quoteright /quotedblleft /quotedblright /bullet
/endash /emdash /asciitilde /trademark /scaron
/guilsinglright /oe /bullet /zcaron /Ydieresis
/space /exclamdown /cent /sterling /currency
/yen /brokenbar /section /dieresis /copyright
/ordfeminine /guillemotleft /logicalnot /sfthyphen /registered
/macron /degree /plusminus /twosuperior /threesuperior
/acute /mu /paragraph /middot /cedilla
/onesuperior /ordmasculine /guillemotright /onequarter /onehalf
/threequarters /questiondown /Agrave /Aacute /Acircumflex
/Atilde /Adieresis /Aring /AE /Ccedilla
/Egrave /Eacute /Ecircumflex /Edieresis /Igrave
/Iacute /Icircumflex /Idieresis /Eth /Ntilde
/Ograve /Oacute /Ocircumflex /Otilde /Odieresis
/multiply /Oslash /Ugrave /Uacute /Ucircumflex
/Udieresis /Yacute /Thorn /germandbls /agrave
/aacute /acircumflex /atilde /adieresis /aring
/ae /ccedilla /egrave /eacute /ecircumflex
/edieresis /igrave /iacute /icircumflex /idieresis
/eth /ntilde /ograve /oacute /ocircumflex
/otilde /odieresis /divide /oslash /ugrave
/uacute /ucircumflex /udieresis /yacute /thorn
/ydieresis
] def
%%EndResource
%FOPBeginFontReencode
/Courier-Bold findfont
dup length dict begin
  {1 index /FID ne {def} {pop pop} ifelse} forall
  /Encoding WinAnsiEncoding def
  currentdict
end
/Courier-Bold exch definefont pop
/Helvetica findfont
dup length dict begin
  {1 index /FID ne {def} {pop pop} ifelse} forall
  /Encoding WinAnsiEncoding def
  currentdict
end
/Helvetica exch definefont pop
/Courier-BoldOblique findfont
dup length dict begin
  {1 index /FID ne {def} {pop pop} ifelse} forall
  /Encoding WinAnsiEncoding def
  currentdict
end
/Courier-BoldOblique exch definefont pop
/Courier-Oblique findfont
dup length dict begin
  {1 index /FID ne {def} {pop pop} ifelse} forall
  /Encoding WinAnsiEncoding def
  currentdict
end
/Courier-Oblique exch definefont pop
/Times-Roman findfont
dup length dict begin
  {1 index /FID ne {def} {pop pop} ifelse} forall
  /Encoding WinAnsiEncoding def
  currentdict
end
/Times-Roman exch definefont pop
/Helvetica-BoldOblique findfont
dup length dict begin
  {1 index /FID ne {def} {pop pop} ifelse} forall
  /Encoding WinAnsiEncoding def
  currentdict
end
/Helvetica-BoldOblique exch definefont pop
/Helvetica-Bold findfont
dup length dict begin
  {1 index /FID ne {def} {pop pop} ifelse} forall
  /Encoding WinAnsiEncoding def
  currentdict
end
/Helvetica-Bold exch definefont pop
/Helvetica-Oblique findfont
dup length dict begin
  {1 index /FID ne {def} {pop pop} ifelse} forall
  /Encoding WinAnsiEncoding def
  currentdict
end
/Helvetica-Oblique exch definefont pop
/Times-BoldItalic findfont
dup length dict begin
  {1 index /FID ne {def} {pop pop} ifelse} forall
  /Encoding WinAnsiEncoding def
  currentdict
end
/Times-BoldItalic exch definefont pop
/Courier findfont
dup length dict begin
  {1 index /FID ne {def} {pop pop} ifelse} forall
  /Encoding WinAnsiEncoding def
  currentdict
end
/Courier exch definefont pop
/Times-Italic findfont
dup length dict begin
  {1 index /FID ne {def} {pop pop} ifelse} forall
  /Encoding WinAnsiEncoding def
  currentdict
end
/Times-Italic exch definefont pop
/Times-Bold findfont
dup length dict begin
  {1 index /FID ne {def} {pop pop} ifelse} forall
  /Encoding WinAnsiEncoding def
  currentdict
end
/Times-Bold exch definefont pop
%FOPEndFontReencode
%%EndProlog
%%Page: 1 1
%%PageBoundingBox: 0 0 560 420
%%BeginPageSetup
[1 0 0 -1 0 420] CT
%%EndPageSetup
GS
1 GC
N
0 0 560 420 re
f
GR
GS
1 GC
N
0 0 560 420 re
f
GR
GS
1 GC
N
73 175 M
507 175 L
507 31 L
73 31 L
cp
f
GR
GS
0.873 GC
2 setlinecap
10.0 ML
N
127.25 175 M
127.25 31 L
S
GR
GS
0.873 GC
2 setlinecap
10.0 ML
N
235.75 175 M
235.75 31 L
S
GR
GS
0.873 GC
2 setlinecap
10.0 ML
N
344.25 175 M
344.25 31 L
S
GR
GS
0.873 GC
2 setlinecap
10.0 ML
N
452.75 175 M
452.75 31 L
S
GR
GS
0.873 GC
2 setlinecap
10.0 ML
N
507 175 M
73 175 L
S
GR
GS
0.873 GC
2 setlinecap
10.0 ML
N
507 139 M
73 139 L
S
GR
GS
0.873 GC
2 setlinecap
10.0 ML
N
507 103 M
73 103 L
S
GR
GS
0.873 GC
2 setlinecap
10.0 ML
N
507 67 M
73 67 L
S
GR
GS
0.873 GC
2 setlinecap
10.0 ML
N
507 31 M
73 31 L
S
GR
GS
[1 0 0 1 290.00021 191] CT
0.149 GC
/Helvetica-Bold 11 F
GS
[1 0 0 1 0 0] CT
-16.5 9 moveto 
1 -1 scale
(Cases) t 
GR
GR
GS
0.149 GC
2 setlinecap
10.0 ML
N
73 175 M
507 175 L
S
GR
GS
0.149 GC
2 setlinecap
10.0 ML
N
73 31 M
507 31 L
S
GR
GS
0.149 GC
2 setlinecap
10.0 ML
N
127.25 175 M
127.25 170.66 L
S
GR
GS
0.149 GC
2 setlinecap
10.0 ML
N
235.75 175 M
235.75 170.66 L
S
GR
GS
0.149 GC
2 setlinecap
10.0 ML
N
344.25 175 M
344.25 170.66 L
S
GR
GS
0.149 GC
2 setlinecap
10.0 ML
N
452.75 175 M
452.75 170.66 L
S
GR
GS
0.149 GC
2 setlinecap
10.0 ML
N
127.25 31 M
127.25 35.34 L
S
GR
GS
0.149 GC
2 setlinecap
10.0 ML
N
235.75 31 M
235.75 35.34 L
S
GR
GS
0.149 GC
2 setlinecap
10.0 ML
N
344.25 31 M
344.25 35.34 L
S
GR
GS
0.149 GC
2 setlinecap
10.0 ML
N
452.75 31 M
452.75 35.34 L
S
GR
GS
[1 0 0 1 127.25 179] CT
0.149 GC
/Helvetica-Bold 10 F
GS
[1 0 0 1 0 0] CT
-11 8 moveto 
1 -1 scale
(Tree) t 
GR
GR
GS
[1 0 0 1 235.75 179] CT
0.149 GC
/Helvetica-Bold 10 F
GS
[1 0 0 1 0 0] CT
-7.5 8 moveto 
1 -1 scale
(NC) t 
GR
GR
GS
[1 0 0 1 344.25 179] CT
0.149 GC
/Helvetica-Bold 10 F
GS
[1 0 0 1 0 0] CT
-19 8 moveto 
1 -1 scale
(TC-Tree) t 
GR
GR
GS
[1 0 0 1 452.75 179] CT
0.149 GC
/Helvetica-Bold 10 F
GS
[1 0 0 1 0 0] CT
-16 8 moveto 
1 -1 scale
(TC-NC) t 
GR
GR
GS
[0 -1 1 0 52 102.99993] CT
0.149 GC
/Helvetica-Bold 11 F
GS
[1 0 0 1 0 0] CT
-52 -3 moveto 
1 -1 scale
(System Throughput) t 
GR
GR
GS
0.149 GC
2 setlinecap
10.0 ML
N
73 175 M
73 31 L
S
GR
GS
0.149 GC
2 setlinecap
10.0 ML
N
507 175 M
507 31 L
S
GR
GS
0.149 GC
2 setlinecap
10.0 ML
N
73 175 M
77.34 175 L
S
GR
GS
0.149 GC
2 setlinecap
10.0 ML
N
73 139 M
77.34 139 L
S
GR
GS
0.149 GC
2 setlinecap
10.0 ML
N
73 103 M
77.34 103 L
S
GR
GS
0.149 GC
2 setlinecap
10.0 ML
N
73 67 M
77.34 67 L
S
GR
GS
0.149 GC
2 setlinecap
10.0 ML
N
73 31 M
77.34 31 L
S
GR
GS
0.149 GC
2 setlinecap
10.0 ML
N
507 175 M
502.66 175 L
S
GR
GS
0.149 GC
2 setlinecap
10.0 ML
N
507 139 M
502.66 139 L
S
GR
GS
0.149 GC
2 setlinecap
10.0 ML
N
507 103 M
502.66 103 L
S
GR
GS
0.149 GC
2 setlinecap
10.0 ML
N
507 67 M
502.66 67 L
S
GR
GS
0.149 GC
2 setlinecap
10.0 ML
N
507 31 M
502.66 31 L
S
GR
GS
[1 0 0 1 69 175] CT
0.149 GC
/Helvetica-Bold 10 F
GS
[1 0 0 1 0 0] CT
-6 2.5 moveto 
1 -1 scale
(0) t 
GR
GR
GS
[1 0 0 1 69 139] CT
0.149 GC
/Helvetica-Bold 10 F
GS
[1 0 0 1 0 0] CT
-14 2.5 moveto 
1 -1 scale
(0.1) t 
GR
GR
GS
[1 0 0 1 69 103] CT
0.149 GC
/Helvetica-Bold 10 F
GS
[1 0 0 1 0 0] CT
-14 2.5 moveto 
1 -1 scale
(0.2) t 
GR
GR
GS
[1 0 0 1 69 66.99999] CT
0.149 GC
/Helvetica-Bold 10 F
GS
[1 0 0 1 0 0] CT
-14 2.5 moveto 
1 -1 scale
(0.3) t 
GR
GR
GS
[1 0 0 1 69 31] CT
0.149 GC
/Helvetica-Bold 10 F
GS
[1 0 0 1 0 0] CT
-14 2.5 moveto 
1 -1 scale
(0.4) t 
GR
GR
GS
0.2 0.4 0.2 RC
N
91.083 175 M
91.083 118.608 L
115.194 118.608 L
cp
f
GR
GS
0.2 0.4 0.2 RC
N
91.083 175 M
115.194 118.608 L
115.194 175 L
cp
f
GR
GS
0.2 0.4 0.2 RC
N
199.583 175 M
199.583 98.501 L
223.694 98.501 L
cp
f
GR
GS
0.2 0.4 0.2 RC
N
199.583 175 M
223.694 98.501 L
223.694 175 L
cp
f
GR
GS
0.2 0.4 0.2 RC
N
308.083 175 M
308.083 71.558 L
332.194 71.558 L
cp
f
GR
GS
0.2 0.4 0.2 RC
N
308.083 175 M
332.194 71.558 L
332.194 175 L
cp
f
GR
GS
0.2 0.4 0.2 RC
N
416.583 175 M
416.583 57.903 L
440.694 57.903 L
cp
f
GR
GS
0.2 0.4 0.2 RC
N
416.583 175 M
440.694 57.903 L
440.694 175 L
cp
f
GR
GS
0.149 GC
2 setlinecap
10.0 ML
N
91.083 175 M
91.083 118.608 L
115.194 118.608 L
115.194 175 L
91.083 175 L
S
GR
GS
0.149 GC
2 setlinecap
10.0 ML
N
199.583 175 M
199.583 98.501 L
223.694 98.501 L
223.694 175 L
199.583 175 L
S
GR
GS
0.149 GC
2 setlinecap
10.0 ML
N
308.083 175 M
308.083 71.558 L
332.194 71.558 L
332.194 175 L
308.083 175 L
S
GR
GS
0.149 GC
2 setlinecap
10.0 ML
N
416.583 175 M
416.583 57.903 L
440.694 57.903 L
440.694 175 L
416.583 175 L
S
GR
GS
0.8 0.2 0.2 RC
N
115.194 175 M
115.194 44.159 L
139.306 44.159 L
cp
f
GR
GS
0.8 0.2 0.2 RC
N
115.194 175 M
139.306 44.159 L
139.306 175 L
cp
f
GR
GS
0.8 0.2 0.2 RC
N
223.694 175 M
223.694 32.28 L
247.806 32.28 L
cp
f
GR
GS
0.8 0.2 0.2 RC
N
223.694 175 M
247.806 32.28 L
247.806 175 L
cp
f
GR
GS
0.8 0.2 0.2 RC
N
332.194 175 M
332.194 52.962 L
356.306 52.962 L
cp
f
GR
GS
0.8 0.2 0.2 RC
N
332.194 175 M
356.306 52.962 L
356.306 175 L
cp
f
GR
GS
0.8 0.2 0.2 RC
N
440.694 175 M
440.694 41.764 L
464.806 41.764 L
cp
f
GR
GS
0.8 0.2 0.2 RC
N
440.694 175 M
464.806 41.764 L
464.806 175 L
cp
f
GR
GS
0.149 GC
2 setlinecap
10.0 ML
N
115.194 175 M
115.194 44.159 L
139.306 44.159 L
139.306 175 L
115.194 175 L
S
GR
GS
0.149 GC
2 setlinecap
10.0 ML
N
223.694 175 M
223.694 32.28 L
247.806 32.28 L
247.806 175 L
223.694 175 L
S
GR
GS
0.149 GC
2 setlinecap
10.0 ML
N
332.194 175 M
332.194 52.962 L
356.306 52.962 L
356.306 175 L
332.194 175 L
S
GR
GS
0.149 GC
2 setlinecap
10.0 ML
N
440.694 175 M
440.694 41.764 L
464.806 41.764 L
464.806 175 L
440.694 175 L
S
GR
GS
0.8 0.8 0 RC
N
139.306 175 M
139.306 45.033 L
163.417 45.033 L
cp
f
GR
GS
0.8 0.8 0 RC
N
139.306 175 M
163.417 45.033 L
163.417 175 L
cp
f
GR
GS
0.8 0.8 0 RC
N
247.806 175 M
247.806 32.332 L
271.917 32.332 L
cp
f
GR
GS
0.8 0.8 0 RC
N
247.806 175 M
271.917 32.332 L
271.917 175 L
cp
f
GR
GS
0.8 0.8 0 RC
N
356.306 175 M
356.306 52.489 L
380.417 52.489 L
cp
f
GR
GS
0.8 0.8 0 RC
N
356.306 175 M
380.417 52.489 L
380.417 175 L
cp
f
GR
GS
0.8 0.8 0 RC
N
464.806 175 M
464.806 36.483 L
488.917 36.483 L
cp
f
GR
GS
0.8 0.8 0 RC
N
464.806 175 M
488.917 36.483 L
488.917 175 L
cp
f
GR
GS
0.149 GC
2 setlinecap
10.0 ML
N
139.306 175 M
139.306 45.033 L
163.417 45.033 L
163.417 175 L
139.306 175 L
S
GR
GS
0.149 GC
2 setlinecap
10.0 ML
N
247.806 175 M
247.806 32.332 L
271.917 32.332 L
271.917 175 L
247.806 175 L
S
GR
GS
0.149 GC
2 setlinecap
10.0 ML
N
356.306 175 M
356.306 52.489 L
380.417 52.489 L
380.417 175 L
356.306 175 L
S
GR
GS
0.149 GC
2 setlinecap
10.0 ML
N
464.806 175 M
464.806 36.483 L
488.917 36.483 L
488.917 175 L
464.806 175 L
S
GR
GS
1 GC
N
284 45 M
284 10 L
413 10 L
413 45 L
cp
f
GR
GS
[1 0 0 1 323 17] CT
/Helvetica-Bold 9 F
GS
[1 0 0 1 0 0] CT
0 2 moveto 
1 -1 scale
(broadcast) t 
GR
GR
GS
0.2 0.4 0.2 RC
N
290 20.75 M
290 13.25 L
320 13.25 L
320 20.75 L
cp
f
GR
GS
0.149 GC
2 setlinecap
10.0 ML
N
290 20.75 M
290 13.25 L
320 13.25 L
320 20.75 L
290 20.75 L
S
GR
GS
[1 0 0 1 323 27.5] CT
/Helvetica-Bold 9 F
GS
[1 0 0 1 0 0] CT
0 2 moveto 
1 -1 scale
(unicast) t 
GR
GR
GS
0.8 0.2 0.2 RC
N
290 31.25 M
290 23.75 L
320 23.75 L
320 31.25 L
cp
f
GR
GS
0.149 GC
2 setlinecap
10.0 ML
N
290 31.25 M
290 23.75 L
320 23.75 L
320 31.25 L
290 31.25 L
S
GR
GS
[1 0 0 1 323 38] CT
/Helvetica-Bold 9 F
GS
[1 0 0 1 0 0] CT
0 2 moveto 
1 -1 scale
(unicast & broadcast) t 
GR
GR
GS
0.8 0.8 0 RC
N
290 41.75 M
290 34.25 L
320 34.25 L
320 41.75 L
cp
f
GR
GS
0.149 GC
2 setlinecap
10.0 ML
N
290 41.75 M
290 34.25 L
320 34.25 L
320 41.75 L
290 41.75 L
S
GR
GS
0.149 GC
2 setlinecap
10.0 ML
N
284 45 M
284 10 L
413 10 L
413 45 L
284 45 L
S
GR
GS
1 GC
N
73 374 M
507 374 L
507 231 L
73 231 L
cp
f
GR
GS
0.873 GC
2 setlinecap
10.0 ML
N
127.25 374 M
127.25 231 L
S
GR
GS
0.873 GC
2 setlinecap
10.0 ML
N
235.75 374 M
235.75 231 L
S
GR
GS
0.873 GC
2 setlinecap
10.0 ML
N
344.25 374 M
344.25 231 L
S
GR
GS
0.873 GC
2 setlinecap
10.0 ML
N
452.75 374 M
452.75 231 L
S
GR
GS
0.873 GC
2 setlinecap
10.0 ML
N
507 374 M
73 374 L
S
GR
GS
0.873 GC
2 setlinecap
10.0 ML
N
507 350.167 M
73 350.167 L
S
GR
GS
0.873 GC
2 setlinecap
10.0 ML
N
507 326.333 M
73 326.333 L
S
GR
GS
0.873 GC
2 setlinecap
10.0 ML
N
507 302.5 M
73 302.5 L
S
GR
GS
0.873 GC
2 setlinecap
10.0 ML
N
507 278.667 M
73 278.667 L
S
GR
GS
0.873 GC
2 setlinecap
10.0 ML
N
507 254.833 M
73 254.833 L
S
GR
GS
0.873 GC
2 setlinecap
10.0 ML
N
507 231 M
73 231 L
S
GR
GS
[1 0 0 1 290.00021 390] CT
0.149 GC
/Helvetica-Bold 11 F
GS
[1 0 0 1 0 0] CT
-16.5 9 moveto 
1 -1 scale
(Cases) t 
GR
GR
GS
0.149 GC
2 setlinecap
10.0 ML
N
73 374 M
507 374 L
S
GR
GS
0.149 GC
2 setlinecap
10.0 ML
N
73 231 M
507 231 L
S
GR
GS
0.149 GC
2 setlinecap
10.0 ML
N
127.25 374 M
127.25 369.66 L
S
GR
GS
0.149 GC
2 setlinecap
10.0 ML
N
235.75 374 M
235.75 369.66 L
S
GR
GS
0.149 GC
2 setlinecap
10.0 ML
N
344.25 374 M
344.25 369.66 L
S
GR
GS
0.149 GC
2 setlinecap
10.0 ML
N
452.75 374 M
452.75 369.66 L
S
GR
GS
0.149 GC
2 setlinecap
10.0 ML
N
127.25 231 M
127.25 235.34 L
S
GR
GS
0.149 GC
2 setlinecap
10.0 ML
N
235.75 231 M
235.75 235.34 L
S
GR
GS
0.149 GC
2 setlinecap
10.0 ML
N
344.25 231 M
344.25 235.34 L
S
GR
GS
0.149 GC
2 setlinecap
10.0 ML
N
452.75 231 M
452.75 235.34 L
S
GR
GS
[1 0 0 1 127.25 378] CT
0.149 GC
/Helvetica-Bold 10 F
GS
[1 0 0 1 0 0] CT
-11 8 moveto 
1 -1 scale
(Tree) t 
GR
GR
GS
[1 0 0 1 235.75 378] CT
0.149 GC
/Helvetica-Bold 10 F
GS
[1 0 0 1 0 0] CT
-7.5 8 moveto 
1 -1 scale
(NC) t 
GR
GR
GS
[1 0 0 1 344.25 378] CT
0.149 GC
/Helvetica-Bold 10 F
GS
[1 0 0 1 0 0] CT
-19 8 moveto 
1 -1 scale
(TC-Tree) t 
GR
GR
GS
[1 0 0 1 452.75 378] CT
0.149 GC
/Helvetica-Bold 10 F
GS
[1 0 0 1 0 0] CT
-16 8 moveto 
1 -1 scale
(TC-NC) t 
GR
GR
GS
[0 -1 1 0 60 302.49994] CT
0.149 GC
/Helvetica-Bold 11 F
GS
[1 0 0 1 0 0] CT
-33.5 -3 moveto 
1 -1 scale
(Total Energy) t 
GR
GR
GS
0.149 GC
2 setlinecap
10.0 ML
N
73 374 M
73 231 L
S
GR
GS
0.149 GC
2 setlinecap
10.0 ML
N
507 374 M
507 231 L
S
GR
GS
0.149 GC
2 setlinecap
10.0 ML
N
73 374 M
77.34 374 L
S
GR
GS
0.149 GC
2 setlinecap
10.0 ML
N
73 350.167 M
77.34 350.167 L
S
GR
GS
0.149 GC
2 setlinecap
10.0 ML
N
73 326.333 M
77.34 326.333 L
S
GR
GS
0.149 GC
2 setlinecap
10.0 ML
N
73 302.5 M
77.34 302.5 L
S
GR
GS
0.149 GC
2 setlinecap
10.0 ML
N
73 278.667 M
77.34 278.667 L
S
GR
GS
0.149 GC
2 setlinecap
10.0 ML
N
73 254.833 M
77.34 254.833 L
S
GR
GS
0.149 GC
2 setlinecap
10.0 ML
N
73 231 M
77.34 231 L
S
GR
GS
0.149 GC
2 setlinecap
10.0 ML
N
507 374 M
502.66 374 L
S
GR
GS
0.149 GC
2 setlinecap
10.0 ML
N
507 350.167 M
502.66 350.167 L
S
GR
GS
0.149 GC
2 setlinecap
10.0 ML
N
507 326.333 M
502.66 326.333 L
S
GR
GS
0.149 GC
2 setlinecap
10.0 ML
N
507 302.5 M
502.66 302.5 L
S
GR
GS
0.149 GC
2 setlinecap
10.0 ML
N
507 278.667 M
502.66 278.667 L
S
GR
GS
0.149 GC
2 setlinecap
10.0 ML
N
507 254.833 M
502.66 254.833 L
S
GR
GS
0.149 GC
2 setlinecap
10.0 ML
N
507 231 M
502.66 231 L
S
GR
GS
[1 0 0 1 69 374] CT
0.149 GC
/Helvetica-Bold 10 F
GS
[1 0 0 1 0 0] CT
-6 2.5 moveto 
1 -1 scale
(0) t 
GR
GR
GS
[1 0 0 1 69 350.16666] CT
0.149 GC
/Helvetica-Bold 10 F
GS
[1 0 0 1 0 0] CT
-6 2.5 moveto 
1 -1 scale
(1) t 
GR
GR
GS
[1 0 0 1 69 326.33334] CT
0.149 GC
/Helvetica-Bold 10 F
GS
[1 0 0 1 0 0] CT
-6 2.5 moveto 
1 -1 scale
(2) t 
GR
GR
GS
[1 0 0 1 69 302.5] CT
0.149 GC
/Helvetica-Bold 10 F
GS
[1 0 0 1 0 0] CT
-6 2.5 moveto 
1 -1 scale
(3) t 
GR
GR
GS
[1 0 0 1 69 278.66666] CT
0.149 GC
/Helvetica-Bold 10 F
GS
[1 0 0 1 0 0] CT
-6 2.5 moveto 
1 -1 scale
(4) t 
GR
GR
GS
[1 0 0 1 69 254.83333] CT
0.149 GC
/Helvetica-Bold 10 F
GS
[1 0 0 1 0 0] CT
-6 2.5 moveto 
1 -1 scale
(5) t 
GR
GR
GS
[1 0 0 1 69 231] CT
0.149 GC
/Helvetica-Bold 10 F
GS
[1 0 0 1 0 0] CT
-6 2.5 moveto 
1 -1 scale
(6) t 
GR
GR
GS
0.2 0.4 0.2 RC
N
91.083 374 M
91.083 326.139 L
115.194 326.139 L
cp
f
GR
GS
0.2 0.4 0.2 RC
N
91.083 374 M
115.194 326.139 L
115.194 374 L
cp
f
GR
GS
0.2 0.4 0.2 RC
N
199.583 374 M
199.583 253.288 L
223.694 253.288 L
cp
f
GR
GS
0.2 0.4 0.2 RC
N
199.583 374 M
223.694 253.288 L
223.694 374 L
cp
f
GR
GS
0.2 0.4 0.2 RC
N
308.083 374 M
308.083 317.592 L
332.194 317.592 L
cp
f
GR
GS
0.2 0.4 0.2 RC
N
308.083 374 M
332.194 317.592 L
332.194 374 L
cp
f
GR
GS
0.2 0.4 0.2 RC
N
416.583 374 M
416.583 273.716 L
440.694 273.716 L
cp
f
GR
GS
0.2 0.4 0.2 RC
N
416.583 374 M
440.694 273.716 L
440.694 374 L
cp
f
GR
GS
0.149 GC
2 setlinecap
10.0 ML
N
91.083 374 M
91.083 326.139 L
115.194 326.139 L
115.194 374 L
91.083 374 L
S
GR
GS
0.149 GC
2 setlinecap
10.0 ML
N
199.583 374 M
199.583 253.288 L
223.694 253.288 L
223.694 374 L
199.583 374 L
S
GR
GS
0.149 GC
2 setlinecap
10.0 ML
N
308.083 374 M
308.083 317.592 L
332.194 317.592 L
332.194 374 L
308.083 374 L
S
GR
GS
0.149 GC
2 setlinecap
10.0 ML
N
416.583 374 M
416.583 273.716 L
440.694 273.716 L
440.694 374 L
416.583 374 L
S
GR
GS
0.8 0.2 0.2 RC
N
115.194 374 M
115.194 346.552 L
139.306 346.552 L
cp
f
GR
GS
0.8 0.2 0.2 RC
N
115.194 374 M
139.306 346.552 L
139.306 374 L
cp
f
GR
GS
0.8 0.2 0.2 RC
N
223.694 374 M
223.694 331.311 L
247.806 331.311 L
cp
f
GR
GS
0.8 0.2 0.2 RC
N
223.694 374 M
247.806 331.311 L
247.806 374 L
cp
f
GR
GS
0.8 0.2 0.2 RC
N
332.194 374 M
332.194 346.728 L
356.306 346.728 L
cp
f
GR
GS
0.8 0.2 0.2 RC
N
332.194 374 M
356.306 346.728 L
356.306 374 L
cp
f
GR
GS
0.8 0.2 0.2 RC
N
440.694 374 M
440.694 328.349 L
464.806 328.349 L
cp
f
GR
GS
0.8 0.2 0.2 RC
N
440.694 374 M
464.806 328.349 L
464.806 374 L
cp
f
GR
GS
0.149 GC
2 setlinecap
10.0 ML
N
115.194 374 M
115.194 346.552 L
139.306 346.552 L
139.306 374 L
115.194 374 L
S
GR
GS
0.149 GC
2 setlinecap
10.0 ML
N
223.694 374 M
223.694 331.311 L
247.806 331.311 L
247.806 374 L
223.694 374 L
S
GR
GS
0.149 GC
2 setlinecap
10.0 ML
N
332.194 374 M
332.194 346.728 L
356.306 346.728 L
356.306 374 L
332.194 374 L
S
GR
GS
0.149 GC
2 setlinecap
10.0 ML
N
440.694 374 M
440.694 328.349 L
464.806 328.349 L
464.806 374 L
440.694 374 L
S
GR
GS
0.8 0.8 0 RC
N
139.306 374 M
139.306 349.041 L
163.417 349.041 L
cp
f
GR
GS
0.8 0.8 0 RC
N
139.306 374 M
163.417 349.041 L
163.417 374 L
cp
f
GR
GS
0.8 0.8 0 RC
N
247.806 374 M
247.806 326.646 L
271.917 326.646 L
cp
f
GR
GS
0.8 0.8 0 RC
N
247.806 374 M
271.917 326.646 L
271.917 374 L
cp
f
GR
GS
0.8 0.8 0 RC
N
356.306 374 M
356.306 341.272 L
380.417 341.272 L
cp
f
GR
GS
0.8 0.8 0 RC
N
356.306 374 M
380.417 341.272 L
380.417 374 L
cp
f
GR
GS
0.8 0.8 0 RC
N
464.806 374 M
464.806 311.555 L
488.917 311.555 L
cp
f
GR
GS
0.8 0.8 0 RC
N
464.806 374 M
488.917 311.555 L
488.917 374 L
cp
f
GR
GS
0.149 GC
2 setlinecap
10.0 ML
N
139.306 374 M
139.306 349.041 L
163.417 349.041 L
163.417 374 L
139.306 374 L
S
GR
GS
0.149 GC
2 setlinecap
10.0 ML
N
247.806 374 M
247.806 326.646 L
271.917 326.646 L
271.917 374 L
247.806 374 L
S
GR
GS
0.149 GC
2 setlinecap
10.0 ML
N
356.306 374 M
356.306 341.272 L
380.417 341.272 L
380.417 374 L
356.306 374 L
S
GR
GS
0.149 GC
2 setlinecap
10.0 ML
N
464.806 374 M
464.806 311.555 L
488.917 311.555 L
488.917 374 L
464.806 374 L
S
GR
GS
1 GC
N
283 269 M
283 234 L
412 234 L
412 269 L
cp
f
GR
GS
[1 0 0 1 322 241] CT
/Helvetica-Bold 9 F
GS
[1 0 0 1 0 0] CT
0 2 moveto 
1 -1 scale
(broadcast) t 
GR
GR
GS
0.2 0.4 0.2 RC
N
289 244.75 M
289 237.25 L
319 237.25 L
319 244.75 L
cp
f
GR
GS
0.149 GC
2 setlinecap
10.0 ML
N
289 244.75 M
289 237.25 L
319 237.25 L
319 244.75 L
289 244.75 L
S
GR
GS
[1 0 0 1 322 251.5] CT
/Helvetica-Bold 9 F
GS
[1 0 0 1 0 0] CT
0 2 moveto 
1 -1 scale
(unicast) t 
GR
GR
GS
0.8 0.2 0.2 RC
N
289 255.25 M
289 247.75 L
319 247.75 L
319 255.25 L
cp
f
GR
GS
0.149 GC
2 setlinecap
10.0 ML
N
289 255.25 M
289 247.75 L
319 247.75 L
319 255.25 L
289 255.25 L
S
GR
GS
[1 0 0 1 322 262] CT
/Helvetica-Bold 9 F
GS
[1 0 0 1 0 0] CT
0 2 moveto 
1 -1 scale
(unicast & broadcast) t 
GR
GR
GS
0.8 0.8 0 RC
N
289 265.75 M
289 258.25 L
319 258.25 L
319 265.75 L
cp
f
GR
GS
0.149 GC
2 setlinecap
10.0 ML
N
289 265.75 M
289 258.25 L
319 258.25 L
319 265.75 L
289 265.75 L
S
GR
GS
0.149 GC
2 setlinecap
10.0 ML
N
283 269 M
283 234 L
412 234 L
412 269 L
283 269 L
S
GR
%%Trailer
%%Pages: 1
%%EOF
