%!PS-Adobe-3.0 EPSF-3.0
%%Creator: (MATLAB, The Mathworks, Inc. Version 8.5.0.197613 \(R2015a\). Operating System: Mac OS X)
%%Title: /Users/ashwinyakkundimath/Documents/Thesis_Results/plots/phy_mechs/MR_cdf_bbc_energy.eps
%%CreationDate: 2016-01-05T12:34:17
%%Pages: (atend)
%%BoundingBox: 0 0 560 420
%%LanguageLevel: 2
%%EndComments
%%BeginProlog
%%BeginResource: procset (Apache XML Graphics Std ProcSet) 1.2 0
%%Version: 1.2 0
%%Copyright: (Copyright 2001-2003,2010 The Apache Software Foundation. License terms: http://www.apache.org/licenses/LICENSE-2.0)
/bd{bind def}bind def
/ld{load def}bd
/GR/grestore ld
/M/moveto ld
/LJ/setlinejoin ld
/C/curveto ld
/f/fill ld
/LW/setlinewidth ld
/GC/setgray ld
/t/show ld
/N/newpath ld
/CT/concat ld
/cp/closepath ld
/S/stroke ld
/L/lineto ld
/CC/setcmykcolor ld
/A/ashow ld
/GS/gsave ld
/RC/setrgbcolor ld
/RM/rmoveto ld
/ML/setmiterlimit ld
/re {4 2 roll M
1 index 0 rlineto
0 exch rlineto
neg 0 rlineto
cp } bd
/_ctm matrix def
/_tm matrix def
/BT { _ctm currentmatrix pop matrix _tm copy pop 0 0 moveto } bd
/ET { _ctm setmatrix } bd
/iTm { _ctm setmatrix _tm concat } bd
/Tm { _tm astore pop iTm 0 0 moveto } bd
/ux 0.0 def
/uy 0.0 def
/F {
  /Tp exch def
  /Tf exch def
  Tf findfont Tp scalefont setfont
  /cf Tf def  /cs Tp def
} bd
/ULS {currentpoint /uy exch def /ux exch def} bd
/ULE {
  /Tcx currentpoint pop def
  gsave
  newpath
  cf findfont cs scalefont dup
  /FontMatrix get 0 get /Ts exch def /FontInfo get dup
  /UnderlinePosition get Ts mul /To exch def
  /UnderlineThickness get Ts mul /Tt exch def
  ux uy To add moveto  Tcx uy To add lineto
  Tt setlinewidth stroke
  grestore
} bd
/OLE {
  /Tcx currentpoint pop def
  gsave
  newpath
  cf findfont cs scalefont dup
  /FontMatrix get 0 get /Ts exch def /FontInfo get dup
  /UnderlinePosition get Ts mul /To exch def
  /UnderlineThickness get Ts mul /Tt exch def
  ux uy To add cs add moveto Tcx uy To add cs add lineto
  Tt setlinewidth stroke
  grestore
} bd
/SOE {
  /Tcx currentpoint pop def
  gsave
  newpath
  cf findfont cs scalefont dup
  /FontMatrix get 0 get /Ts exch def /FontInfo get dup
  /UnderlinePosition get Ts mul /To exch def
  /UnderlineThickness get Ts mul /Tt exch def
  ux uy To add cs 10 mul 26 idiv add moveto Tcx uy To add cs 10 mul 26 idiv add lineto
  Tt setlinewidth stroke
  grestore
} bd
/QT {
/Y22 exch store
/X22 exch store
/Y21 exch store
/X21 exch store
currentpoint
/Y21 load 2 mul add 3 div exch
/X21 load 2 mul add 3 div exch
/X21 load 2 mul /X22 load add 3 div
/Y21 load 2 mul /Y22 load add 3 div
/X22 load /Y22 load curveto
} bd
/SSPD {
dup length /d exch dict def
{
/v exch def
/k exch def
currentpagedevice k known {
/cpdv currentpagedevice k get def
v cpdv ne {
/upd false def
/nullv v type /nulltype eq def
/nullcpdv cpdv type /nulltype eq def
nullv nullcpdv or
{
/upd true def
} {
/sametype v type cpdv type eq def
sametype {
v type /arraytype eq {
/vlen v length def
/cpdvlen cpdv length def
vlen cpdvlen eq {
0 1 vlen 1 sub {
/i exch def
/obj v i get def
/cpdobj cpdv i get def
obj cpdobj ne {
/upd true def
exit
} if
} for
} {
/upd true def
} ifelse
} {
v type /dicttype eq {
v {
/dv exch def
/dk exch def
/cpddv cpdv dk get def
dv cpddv ne {
/upd true def
exit
} if
} forall
} {
/upd true def
} ifelse
} ifelse
} if
} ifelse
upd true eq {
d k v put
} if
} if
} if
} forall
d length 0 gt {
d setpagedevice
} if
} bd
%%EndResource
%%BeginResource: procset (Apache XML Graphics EPS ProcSet) 1.0 0
%%Version: 1.0 0
%%Copyright: (Copyright 2002-2003 The Apache Software Foundation. License terms: http://www.apache.org/licenses/LICENSE-2.0)
/BeginEPSF { %def
/b4_Inc_state save def         % Save state for cleanup
/dict_count countdictstack def % Count objects on dict stack
/op_count count 1 sub def      % Count objects on operand stack
userdict begin                 % Push userdict on dict stack
/showpage { } def              % Redefine showpage, { } = null proc
0 setgray 0 setlinecap         % Prepare graphics state
1 setlinewidth 0 setlinejoin
10 setmiterlimit [ ] 0 setdash newpath
/languagelevel where           % If level not equal to 1 then
{pop languagelevel             % set strokeadjust and
1 ne                           % overprint to their defaults.
{false setstrokeadjust false setoverprint
} if
} if
} bd
/EndEPSF { %def
count op_count sub {pop} repeat            % Clean up stacks
countdictstack dict_count sub {end} repeat
b4_Inc_state restore
} bd
%%EndResource
%FOPBeginFontDict
%%IncludeResource: font Courier-Bold
%%IncludeResource: font Helvetica
%%IncludeResource: font Courier-BoldOblique
%%IncludeResource: font Courier-Oblique
%%IncludeResource: font Times-Roman
%%IncludeResource: font Helvetica-BoldOblique
%%IncludeResource: font Helvetica-Bold
%%IncludeResource: font Helvetica-Oblique
%%IncludeResource: font Times-BoldItalic
%%IncludeResource: font Courier
%%IncludeResource: font Times-Italic
%%IncludeResource: font Times-Bold
%%IncludeResource: font Symbol
%%IncludeResource: font ZapfDingbats
%FOPEndFontDict
%%BeginResource: encoding WinAnsiEncoding
/WinAnsiEncoding [
/.notdef /.notdef /.notdef /.notdef /.notdef
/.notdef /.notdef /.notdef /.notdef /.notdef
/.notdef /.notdef /.notdef /.notdef /.notdef
/.notdef /.notdef /.notdef /.notdef /.notdef
/.notdef /.notdef /.notdef /.notdef /.notdef
/.notdef /.notdef /.notdef /.notdef /.notdef
/.notdef /.notdef /space /exclam /quotedbl
/numbersign /dollar /percent /ampersand /quotesingle
/parenleft /parenright /asterisk /plus /comma
/hyphen /period /slash /zero /one
/two /three /four /five /six
/seven /eight /nine /colon /semicolon
/less /equal /greater /question /at
/A /B /C /D /E
/F /G /H /I /J
/K /L /M /N /O
/P /Q /R /S /T
/U /V /W /X /Y
/Z /bracketleft /backslash /bracketright /asciicircum
/underscore /quoteleft /a /b /c
/d /e /f /g /h
/i /j /k /l /m
/n /o /p /q /r
/s /t /u /v /w
/x /y /z /braceleft /bar
/braceright /asciitilde /bullet /Euro /bullet
/quotesinglbase /florin /quotedblbase /ellipsis /dagger
/daggerdbl /circumflex /perthousand /Scaron /guilsinglleft
/OE /bullet /Zcaron /bullet /bullet
/quoteleft /quoteright /quotedblleft /quotedblright /bullet
/endash /emdash /asciitilde /trademark /scaron
/guilsinglright /oe /bullet /zcaron /Ydieresis
/space /exclamdown /cent /sterling /currency
/yen /brokenbar /section /dieresis /copyright
/ordfeminine /guillemotleft /logicalnot /sfthyphen /registered
/macron /degree /plusminus /twosuperior /threesuperior
/acute /mu /paragraph /middot /cedilla
/onesuperior /ordmasculine /guillemotright /onequarter /onehalf
/threequarters /questiondown /Agrave /Aacute /Acircumflex
/Atilde /Adieresis /Aring /AE /Ccedilla
/Egrave /Eacute /Ecircumflex /Edieresis /Igrave
/Iacute /Icircumflex /Idieresis /Eth /Ntilde
/Ograve /Oacute /Ocircumflex /Otilde /Odieresis
/multiply /Oslash /Ugrave /Uacute /Ucircumflex
/Udieresis /Yacute /Thorn /germandbls /agrave
/aacute /acircumflex /atilde /adieresis /aring
/ae /ccedilla /egrave /eacute /ecircumflex
/edieresis /igrave /iacute /icircumflex /idieresis
/eth /ntilde /ograve /oacute /ocircumflex
/otilde /odieresis /divide /oslash /ugrave
/uacute /ucircumflex /udieresis /yacute /thorn
/ydieresis
] def
%%EndResource
%FOPBeginFontReencode
/Courier-Bold findfont
dup length dict begin
  {1 index /FID ne {def} {pop pop} ifelse} forall
  /Encoding WinAnsiEncoding def
  currentdict
end
/Courier-Bold exch definefont pop
/Helvetica findfont
dup length dict begin
  {1 index /FID ne {def} {pop pop} ifelse} forall
  /Encoding WinAnsiEncoding def
  currentdict
end
/Helvetica exch definefont pop
/Courier-BoldOblique findfont
dup length dict begin
  {1 index /FID ne {def} {pop pop} ifelse} forall
  /Encoding WinAnsiEncoding def
  currentdict
end
/Courier-BoldOblique exch definefont pop
/Courier-Oblique findfont
dup length dict begin
  {1 index /FID ne {def} {pop pop} ifelse} forall
  /Encoding WinAnsiEncoding def
  currentdict
end
/Courier-Oblique exch definefont pop
/Times-Roman findfont
dup length dict begin
  {1 index /FID ne {def} {pop pop} ifelse} forall
  /Encoding WinAnsiEncoding def
  currentdict
end
/Times-Roman exch definefont pop
/Helvetica-BoldOblique findfont
dup length dict begin
  {1 index /FID ne {def} {pop pop} ifelse} forall
  /Encoding WinAnsiEncoding def
  currentdict
end
/Helvetica-BoldOblique exch definefont pop
/Helvetica-Bold findfont
dup length dict begin
  {1 index /FID ne {def} {pop pop} ifelse} forall
  /Encoding WinAnsiEncoding def
  currentdict
end
/Helvetica-Bold exch definefont pop
/Helvetica-Oblique findfont
dup length dict begin
  {1 index /FID ne {def} {pop pop} ifelse} forall
  /Encoding WinAnsiEncoding def
  currentdict
end
/Helvetica-Oblique exch definefont pop
/Times-BoldItalic findfont
dup length dict begin
  {1 index /FID ne {def} {pop pop} ifelse} forall
  /Encoding WinAnsiEncoding def
  currentdict
end
/Times-BoldItalic exch definefont pop
/Courier findfont
dup length dict begin
  {1 index /FID ne {def} {pop pop} ifelse} forall
  /Encoding WinAnsiEncoding def
  currentdict
end
/Courier exch definefont pop
/Times-Italic findfont
dup length dict begin
  {1 index /FID ne {def} {pop pop} ifelse} forall
  /Encoding WinAnsiEncoding def
  currentdict
end
/Times-Italic exch definefont pop
/Times-Bold findfont
dup length dict begin
  {1 index /FID ne {def} {pop pop} ifelse} forall
  /Encoding WinAnsiEncoding def
  currentdict
end
/Times-Bold exch definefont pop
%FOPEndFontReencode
%%EndProlog
%%Page: 1 1
%%PageBoundingBox: 0 0 560 420
%%BeginPageSetup
[1 0 0 -1 0 420] CT
%%EndPageSetup
GS
1 GC
N
0 0 560 420 re
f
GR
GS
1 GC
N
0 0 560 420 re
f
GR
GS
1 GC
N
73 374 M
507 374 L
507 31 L
73 31 L
cp
f
GR
GS
0.873 GC
2 setlinecap
10.0 ML
N
73 374 M
73 31 L
S
GR
GS
0.873 GC
2 setlinecap
10.0 ML
N
145.333 374 M
145.333 31 L
S
GR
GS
0.873 GC
2 setlinecap
10.0 ML
N
217.667 374 M
217.667 31 L
S
GR
GS
0.873 GC
2 setlinecap
10.0 ML
N
290 374 M
290 31 L
S
GR
GS
0.873 GC
2 setlinecap
10.0 ML
N
362.333 374 M
362.333 31 L
S
GR
GS
0.873 GC
2 setlinecap
10.0 ML
N
434.667 374 M
434.667 31 L
S
GR
GS
0.873 GC
2 setlinecap
10.0 ML
N
507 374 M
507 31 L
S
GR
GS
0.873 GC
2 setlinecap
10.0 ML
N
507 374 M
73 374 L
S
GR
GS
0.873 GC
2 setlinecap
10.0 ML
N
507 339.7 M
73 339.7 L
S
GR
GS
0.873 GC
2 setlinecap
10.0 ML
N
507 305.4 M
73 305.4 L
S
GR
GS
0.873 GC
2 setlinecap
10.0 ML
N
507 271.1 M
73 271.1 L
S
GR
GS
0.873 GC
2 setlinecap
10.0 ML
N
507 236.8 M
73 236.8 L
S
GR
GS
0.873 GC
2 setlinecap
10.0 ML
N
507 202.5 M
73 202.5 L
S
GR
GS
0.873 GC
2 setlinecap
10.0 ML
N
507 168.2 M
73 168.2 L
S
GR
GS
0.873 GC
2 setlinecap
10.0 ML
N
507 133.9 M
73 133.9 L
S
GR
GS
0.873 GC
2 setlinecap
10.0 ML
N
507 99.6 M
73 99.6 L
S
GR
GS
0.873 GC
2 setlinecap
10.0 ML
N
507 65.3 M
73 65.3 L
S
GR
GS
0.873 GC
2 setlinecap
10.0 ML
N
507 31 M
73 31 L
S
GR
GS
[1 0 0 1 290.00021 390] CT
0.149 GC
/Helvetica-Bold 11 F
GS
[1 0 0 1 0 0] CT
-33.5 9 moveto 
1 -1 scale
(Total Energy) t 
GR
GR
GS
0.149 GC
2 setlinecap
10.0 ML
N
73 374 M
507 374 L
S
GR
GS
0.149 GC
2 setlinecap
10.0 ML
N
73 374 M
73 369.66 L
S
GR
GS
0.149 GC
2 setlinecap
10.0 ML
N
145.333 374 M
145.333 369.66 L
S
GR
GS
0.149 GC
2 setlinecap
10.0 ML
N
217.667 374 M
217.667 369.66 L
S
GR
GS
0.149 GC
2 setlinecap
10.0 ML
N
290 374 M
290 369.66 L
S
GR
GS
0.149 GC
2 setlinecap
10.0 ML
N
362.333 374 M
362.333 369.66 L
S
GR
GS
0.149 GC
2 setlinecap
10.0 ML
N
434.667 374 M
434.667 369.66 L
S
GR
GS
0.149 GC
2 setlinecap
10.0 ML
N
507 374 M
507 369.66 L
S
GR
GS
[1 0 0 1 73 378] CT
0.149 GC
/Helvetica-Bold 10 F
GS
[1 0 0 1 0 0] CT
-3 8 moveto 
1 -1 scale
(0) t 
GR
GR
GS
[1 0 0 1 145.33333 378] CT
0.149 GC
/Helvetica-Bold 10 F
GS
[1 0 0 1 0 0] CT
-3 8 moveto 
1 -1 scale
(2) t 
GR
GR
GS
[1 0 0 1 217.66667 378] CT
0.149 GC
/Helvetica-Bold 10 F
GS
[1 0 0 1 0 0] CT
-3 8 moveto 
1 -1 scale
(4) t 
GR
GR
GS
[1 0 0 1 290 378] CT
0.149 GC
/Helvetica-Bold 10 F
GS
[1 0 0 1 0 0] CT
-3 8 moveto 
1 -1 scale
(6) t 
GR
GR
GS
[1 0 0 1 362.33334 378] CT
0.149 GC
/Helvetica-Bold 10 F
GS
[1 0 0 1 0 0] CT
-3 8 moveto 
1 -1 scale
(8) t 
GR
GR
GS
[1 0 0 1 434.66666 378] CT
0.149 GC
/Helvetica-Bold 10 F
GS
[1 0 0 1 0 0] CT
-6 8 moveto 
1 -1 scale
(10) t 
GR
GR
GS
[1 0 0 1 507 378] CT
0.149 GC
/Helvetica-Bold 10 F
GS
[1 0 0 1 0 0] CT
-6 8 moveto 
1 -1 scale
(12) t 
GR
GR
GS
[0 -1 1 0 52 202.49983] CT
0.149 GC
/Helvetica-Bold 11 F
GS
[1 0 0 1 0 0] CT
-60 -3 moveto 
1 -1 scale
(Cumulative Probability) t 
GR
GR
GS
0.149 GC
2 setlinecap
10.0 ML
N
73 374 M
73 31 L
S
GR
GS
0.149 GC
2 setlinecap
10.0 ML
N
73 374 M
77.34 374 L
S
GR
GS
0.149 GC
2 setlinecap
10.0 ML
N
73 339.7 M
77.34 339.7 L
S
GR
GS
0.149 GC
2 setlinecap
10.0 ML
N
73 305.4 M
77.34 305.4 L
S
GR
GS
0.149 GC
2 setlinecap
10.0 ML
N
73 271.1 M
77.34 271.1 L
S
GR
GS
0.149 GC
2 setlinecap
10.0 ML
N
73 236.8 M
77.34 236.8 L
S
GR
GS
0.149 GC
2 setlinecap
10.0 ML
N
73 202.5 M
77.34 202.5 L
S
GR
GS
0.149 GC
2 setlinecap
10.0 ML
N
73 168.2 M
77.34 168.2 L
S
GR
GS
0.149 GC
2 setlinecap
10.0 ML
N
73 133.9 M
77.34 133.9 L
S
GR
GS
0.149 GC
2 setlinecap
10.0 ML
N
73 99.6 M
77.34 99.6 L
S
GR
GS
0.149 GC
2 setlinecap
10.0 ML
N
73 65.3 M
77.34 65.3 L
S
GR
GS
0.149 GC
2 setlinecap
10.0 ML
N
73 31 M
77.34 31 L
S
GR
GS
[1 0 0 1 69 374] CT
0.149 GC
/Helvetica-Bold 10 F
GS
[1 0 0 1 0 0] CT
-6 2.5 moveto 
1 -1 scale
(0) t 
GR
GR
GS
[1 0 0 1 69 339.70001] CT
0.149 GC
/Helvetica-Bold 10 F
GS
[1 0 0 1 0 0] CT
-14 2.5 moveto 
1 -1 scale
(0.1) t 
GR
GR
GS
[1 0 0 1 69 305.39999] CT
0.149 GC
/Helvetica-Bold 10 F
GS
[1 0 0 1 0 0] CT
-14 2.5 moveto 
1 -1 scale
(0.2) t 
GR
GR
GS
[1 0 0 1 69 271.10001] CT
0.149 GC
/Helvetica-Bold 10 F
GS
[1 0 0 1 0 0] CT
-14 2.5 moveto 
1 -1 scale
(0.3) t 
GR
GR
GS
[1 0 0 1 69 236.8] CT
0.149 GC
/Helvetica-Bold 10 F
GS
[1 0 0 1 0 0] CT
-14 2.5 moveto 
1 -1 scale
(0.4) t 
GR
GR
GS
[1 0 0 1 69 202.5] CT
0.149 GC
/Helvetica-Bold 10 F
GS
[1 0 0 1 0 0] CT
-14 2.5 moveto 
1 -1 scale
(0.5) t 
GR
GR
GS
[1 0 0 1 69 168.2] CT
0.149 GC
/Helvetica-Bold 10 F
GS
[1 0 0 1 0 0] CT
-14 2.5 moveto 
1 -1 scale
(0.6) t 
GR
GR
GS
[1 0 0 1 69 133.90001] CT
0.149 GC
/Helvetica-Bold 10 F
GS
[1 0 0 1 0 0] CT
-14 2.5 moveto 
1 -1 scale
(0.7) t 
GR
GR
GS
[1 0 0 1 69 99.6] CT
0.149 GC
/Helvetica-Bold 10 F
GS
[1 0 0 1 0 0] CT
-14 2.5 moveto 
1 -1 scale
(0.8) t 
GR
GR
GS
[1 0 0 1 69 65.30001] CT
0.149 GC
/Helvetica-Bold 10 F
GS
[1 0 0 1 0 0] CT
-14 2.5 moveto 
1 -1 scale
(0.9) t 
GR
GR
GS
[1 0 0 1 69 31] CT
0.149 GC
/Helvetica-Bold 10 F
GS
[1 0 0 1 0 0] CT
-6 2.5 moveto 
1 -1 scale
(1) t 
GR
GR
GS
0.6 0 0 RC
2 setlinecap
10.0 ML
2 LW
N
109.167 374 M
109.167 370.57 L
135.511 367.14 L
145.333 178.49 L
145.406 175.06 L
145.406 171.63 L
145.406 41.29 L
145.406 34.43 L
217.739 31 L
S
GR
GS
0.6 0 0 RC
2 setlinecap
10.0 ML
2 LW
N
105.267 377.9 M
105.267 370.1 L
113.067 370.1 L
113.067 377.9 L
105.267 377.9 L
S
GR
GS
0.6 0 0 RC
2 setlinecap
10.0 ML
2 LW
N
105.267 374.47 M
105.267 366.67 L
113.067 366.67 L
113.067 374.47 L
105.267 374.47 L
S
GR
GS
0.6 0 0 RC
2 setlinecap
10.0 ML
2 LW
N
105.267 374.47 M
105.267 366.67 L
113.067 366.67 L
113.067 374.47 L
105.267 374.47 L
S
GR
GS
0.6 0 0 RC
2 setlinecap
10.0 ML
2 LW
N
131.611 371.04 M
131.611 363.24 L
139.411 363.24 L
139.411 371.04 L
131.611 371.04 L
S
GR
GS
0.6 0 0 RC
2 setlinecap
10.0 ML
2 LW
N
131.611 371.04 M
131.611 363.24 L
139.411 363.24 L
139.411 371.04 L
131.611 371.04 L
S
GR
GS
0.6 0 0 RC
2 setlinecap
10.0 ML
2 LW
N
141.433 182.39 M
141.433 174.59 L
149.233 174.59 L
149.233 182.39 L
141.433 182.39 L
S
GR
GS
0.6 0 0 RC
2 setlinecap
10.0 ML
2 LW
N
141.433 182.39 M
141.433 174.59 L
149.233 174.59 L
149.233 182.39 L
141.433 182.39 L
S
GR
GS
0.6 0 0 RC
2 setlinecap
10.0 ML
2 LW
N
141.506 178.96 M
141.506 171.16 L
149.306 171.16 L
149.306 178.96 L
141.506 178.96 L
S
GR
GS
0.6 0 0 RC
2 setlinecap
10.0 ML
2 LW
N
141.506 175.53 M
141.506 167.73 L
149.306 167.73 L
149.306 175.53 L
141.506 175.53 L
S
GR
GS
0.6 0 0 RC
2 setlinecap
10.0 ML
2 LW
N
141.506 175.53 M
141.506 167.73 L
149.306 167.73 L
149.306 175.53 L
141.506 175.53 L
S
GR
GS
0.6 0 0 RC
2 setlinecap
10.0 ML
2 LW
N
141.506 45.19 M
141.506 37.39 L
149.306 37.39 L
149.306 45.19 L
141.506 45.19 L
S
GR
GS
0.6 0 0 RC
2 setlinecap
10.0 ML
2 LW
N
141.506 45.19 M
141.506 37.39 L
149.306 37.39 L
149.306 45.19 L
141.506 45.19 L
S
GR
GS
0.6 0 0 RC
2 setlinecap
10.0 ML
2 LW
N
141.506 38.33 M
141.506 30.53 L
149.306 30.53 L
149.306 38.33 L
141.506 38.33 L
S
GR
GS
0.6 0 0 RC
2 setlinecap
10.0 ML
2 LW
N
141.506 38.33 M
141.506 30.53 L
149.306 30.53 L
149.306 38.33 L
141.506 38.33 L
S
GR
GS
0.6 0 0 RC
2 setlinecap
10.0 ML
2 LW
N
213.839 34.9 M
213.839 27.1 L
221.639 27.1 L
221.639 34.9 L
213.839 34.9 L
S
GR
GS
0.6 0 0 RC
2 setlinecap
10.0 ML
2 LW
N
105.267 377.9 M
105.267 370.1 L
113.067 370.1 L
113.067 377.9 L
105.267 377.9 L
S
GR
GS
0 0.2 0.4 RC
2 setlinecap
10.0 ML
2 LW
N
145.406 374 M
145.406 367.14 L
145.406 363.71 L
181.609 360.28 L
183.803 356.85 L
183.873 353.42 L
184.084 349.99 L
185.966 346.56 L
187.283 343.13 L
196.917 339.7 L
217.739 315.69 L
217.787 312.26 L
217.811 281.39 L
217.811 277.96 L
217.811 274.53 L
217.811 271.1 L
228.218 267.67 L
228.92 264.24 L
231.716 260.81 L
242.554 257.38 L
242.684 253.95 L
243.106 250.52 L
243.671 247.09 L
244.185 243.66 L
244.96 240.23 L
245.133 236.8 L
245.25 233.37 L
250.511 229.94 L
251.384 223.08 L
253.978 212.79 L
254.283 209.36 L
255.593 205.93 L
263.29 202.5 L
264.94 199.07 L
264.94 195.64 L
268.511 192.21 L
270.255 188.78 L
272.576 185.35 L
272.7 181.92 L
290 178.49 L
290.072 175.06 L
290.072 140.76 L
290.072 137.33 L
290.115 133.9 L
290.118 130.47 L
290.118 127.04 L
290.118 123.61 L
290.125 120.18 L
290.145 113.32 L
290.145 79.02 L
S
GR
GS
0 0.2 0.4 RC
2 setlinecap
10.0 ML
2 LW
N
290.145 79.02 M
290.217 75.59 L
290.217 55.01 L
290.217 51.58 L
305.061 48.15 L
308.212 44.72 L
326.267 41.29 L
326.335 37.86 L
326.352 34.43 L
362.55 31 L
S
GR
GS
0 0.2 0.4 RC
2 setlinecap
10.0 ML
2 LW
N
150.406 374 M
149.451 371.061 L
146.951 369.245 L
143.861 369.245 L
141.361 371.061 L
140.406 374 L
141.361 376.939 L
143.861 378.755 L
146.951 378.755 L
149.451 376.939 L
150.406 374 L
S
GR
GS
0 0.2 0.4 RC
2 setlinecap
10.0 ML
2 LW
N
188.803 356.85 M
187.848 353.911 L
185.348 352.095 L
182.258 352.095 L
179.758 353.911 L
178.803 356.85 L
179.758 359.789 L
182.258 361.605 L
185.348 361.605 L
187.848 359.789 L
188.803 356.85 L
S
GR
GS
0 0.2 0.4 RC
2 setlinecap
10.0 ML
2 LW
N
192.283 343.13 M
191.328 340.191 L
188.828 338.375 L
185.738 338.375 L
183.238 340.191 L
182.283 343.13 L
183.238 346.069 L
185.738 347.885 L
188.828 347.885 L
191.328 346.069 L
192.283 343.13 L
S
GR
GS
0 0.2 0.4 RC
2 setlinecap
10.0 ML
2 LW
N
222.811 281.39 M
221.856 278.451 L
219.356 276.635 L
216.266 276.635 L
213.766 278.451 L
212.811 281.39 L
213.766 284.329 L
216.266 286.145 L
219.356 286.145 L
221.856 284.329 L
222.811 281.39 L
S
GR
GS
0 0.2 0.4 RC
2 setlinecap
10.0 ML
2 LW
N
233.92 264.24 M
232.965 261.301 L
230.465 259.485 L
227.375 259.485 L
224.875 261.301 L
223.92 264.24 L
224.875 267.179 L
227.375 268.995 L
230.465 268.995 L
232.965 267.179 L
233.92 264.24 L
S
GR
GS
0 0.2 0.4 RC
2 setlinecap
10.0 ML
2 LW
N
248.106 250.52 M
247.151 247.581 L
244.651 245.765 L
241.561 245.765 L
239.061 247.581 L
238.106 250.52 L
239.061 253.459 L
241.561 255.275 L
244.651 255.275 L
247.151 253.459 L
248.106 250.52 L
S
GR
GS
0 0.2 0.4 RC
2 setlinecap
10.0 ML
2 LW
N
250.133 236.8 M
249.178 233.861 L
246.678 232.045 L
243.588 232.045 L
241.088 233.861 L
240.133 236.8 L
241.088 239.739 L
243.588 241.555 L
246.678 241.555 L
249.178 239.739 L
250.133 236.8 L
S
GR
GS
0 0.2 0.4 RC
2 setlinecap
10.0 ML
2 LW
N
258.978 212.79 M
258.023 209.851 L
255.523 208.035 L
252.433 208.035 L
249.933 209.851 L
248.978 212.79 L
249.933 215.729 L
252.433 217.545 L
255.523 217.545 L
258.023 215.729 L
258.978 212.79 L
S
GR
GS
0 0.2 0.4 RC
2 setlinecap
10.0 ML
2 LW
N
269.94 199.07 M
268.985 196.131 L
266.485 194.315 L
263.395 194.315 L
260.895 196.131 L
259.94 199.07 L
260.895 202.009 L
263.395 203.825 L
266.485 203.825 L
268.985 202.009 L
269.94 199.07 L
S
GR
GS
0 0.2 0.4 RC
2 setlinecap
10.0 ML
2 LW
N
277.576 185.35 M
276.621 182.411 L
274.121 180.595 L
271.031 180.595 L
268.531 182.411 L
267.576 185.35 L
268.531 188.289 L
271.031 190.105 L
274.121 190.105 L
276.621 188.289 L
277.576 185.35 L
S
GR
GS
0 0.2 0.4 RC
2 setlinecap
10.0 ML
2 LW
N
295.072 140.76 M
294.117 137.821 L
291.617 136.005 L
288.527 136.005 L
286.027 137.821 L
285.072 140.76 L
286.027 143.699 L
288.527 145.515 L
291.617 145.515 L
294.117 143.699 L
295.072 140.76 L
S
GR
GS
0 0.2 0.4 RC
2 setlinecap
10.0 ML
2 LW
N
295.118 123.61 M
294.164 120.671 L
291.664 118.855 L
288.573 118.855 L
286.073 120.671 L
285.118 123.61 L
286.073 126.549 L
288.573 128.365 L
291.664 128.365 L
294.164 126.549 L
295.118 123.61 L
S
GR
GS
0 0.2 0.4 RC
2 setlinecap
10.0 ML
2 LW
N
295.217 75.59 M
294.262 72.651 L
291.762 70.835 L
288.672 70.835 L
286.172 72.651 L
285.217 75.59 L
286.172 78.529 L
288.672 80.345 L
291.762 80.345 L
294.262 78.529 L
295.217 75.59 L
S
GR
GS
0 0.2 0.4 RC
2 setlinecap
10.0 ML
2 LW
N
313.212 44.72 M
312.257 41.781 L
309.757 39.965 L
306.667 39.965 L
304.167 41.781 L
303.212 44.72 L
304.167 47.659 L
306.667 49.475 L
309.757 49.475 L
312.257 47.659 L
313.212 44.72 L
S
GR
GS
0 0.2 0.4 RC
2 setlinecap
10.0 ML
2 LW
N
367.55 31 M
366.595 28.061 L
364.095 26.245 L
361.005 26.245 L
358.505 28.061 L
357.55 31 L
358.505 33.939 L
361.005 35.755 L
364.095 35.755 L
366.595 33.939 L
367.55 31 L
S
GR
GS
0 0.2 0.4 RC
2 setlinecap
10.0 ML
2 LW
N
150.406 374 M
149.451 371.061 L
146.951 369.245 L
143.861 369.245 L
141.361 371.061 L
140.406 374 L
141.361 376.939 L
143.861 378.755 L
146.951 378.755 L
149.451 376.939 L
150.406 374 L
S
GR
GS
0.8 0.6 0.2 RC
2 setlinecap
10.0 ML
2 LW
N
73 374 M
73 367.14 L
109.167 349.99 L
109.239 346.56 L
109.253 343.13 L
109.307 339.7 L
128.72 336.27 L
131.918 332.84 L
132.195 329.41 L
134.658 325.98 L
135.795 322.55 L
136.606 319.12 L
137.778 315.69 L
138.513 312.26 L
139.283 308.83 L
139.326 305.4 L
139.453 301.97 L
139.586 298.54 L
140.013 295.11 L
140.473 291.68 L
145.333 250.52 L
145.369 243.66 L
145.406 229.94 L
145.406 137.33 L
145.406 133.9 L
151.341 130.47 L
156.62 127.04 L
159.706 123.61 L
160.782 120.18 L
164.284 116.75 L
166.387 113.32 L
168.922 109.89 L
169.106 106.46 L
170.047 103.03 L
173.305 99.6 L
176.794 96.17 L
179.967 92.74 L
181.572 89.31 L
183.805 85.88 L
187.014 82.45 L
194.369 79.02 L
207.979 75.59 L
216.69 72.16 L
217.739 68.73 L
217.739 65.3 L
217.739 61.87 L
217.795 58.44 L
233.185 55.01 L
239.903 51.58 L
240.736 48.15 L
S
GR
GS
0.8 0.6 0.2 RC
2 setlinecap
10.0 ML
2 LW
N
240.736 48.15 M
251.573 44.72 L
253.965 41.29 L
290.156 37.86 L
326.36 34.43 L
362.566 31 L
S
GR
GS
0.8 0.6 0.2 RC
2 setlinecap
10.0 ML
2 LW
N
68 374 M
78 374 L
S
GR
GS
0.8 0.6 0.2 RC
2 setlinecap
10.0 ML
2 LW
N
73 379 M
73 369 L
S
GR
GS
0.8 0.6 0.2 RC
2 setlinecap
10.0 ML
2 LW
N
69.464 377.536 M
76.536 370.464 L
S
GR
GS
0.8 0.6 0.2 RC
2 setlinecap
10.0 ML
2 LW
N
69.464 370.464 M
76.536 377.536 L
S
GR
GS
0.8 0.6 0.2 RC
2 setlinecap
10.0 ML
2 LW
N
104.253 343.13 M
114.253 343.13 L
S
GR
GS
0.8 0.6 0.2 RC
2 setlinecap
10.0 ML
2 LW
N
109.253 348.13 M
109.253 338.13 L
S
GR
GS
0.8 0.6 0.2 RC
2 setlinecap
10.0 ML
2 LW
N
105.717 346.666 M
112.788 339.594 L
S
GR
GS
0.8 0.6 0.2 RC
2 setlinecap
10.0 ML
2 LW
N
105.717 339.594 M
112.788 346.666 L
S
GR
GS
0.8 0.6 0.2 RC
2 setlinecap
10.0 ML
2 LW
N
127.195 329.41 M
137.195 329.41 L
S
GR
GS
0.8 0.6 0.2 RC
2 setlinecap
10.0 ML
2 LW
N
132.195 334.41 M
132.195 324.41 L
S
GR
GS
0.8 0.6 0.2 RC
2 setlinecap
10.0 ML
2 LW
N
128.659 332.946 M
135.73 325.874 L
S
GR
GS
0.8 0.6 0.2 RC
2 setlinecap
10.0 ML
2 LW
N
128.659 325.874 M
135.73 332.946 L
S
GR
GS
0.8 0.6 0.2 RC
2 setlinecap
10.0 ML
2 LW
N
132.778 315.69 M
142.778 315.69 L
S
GR
GS
0.8 0.6 0.2 RC
2 setlinecap
10.0 ML
2 LW
N
137.778 320.69 M
137.778 310.69 L
S
GR
GS
0.8 0.6 0.2 RC
2 setlinecap
10.0 ML
2 LW
N
134.243 319.226 M
141.314 312.154 L
S
GR
GS
0.8 0.6 0.2 RC
2 setlinecap
10.0 ML
2 LW
N
134.243 312.154 M
141.314 319.226 L
S
GR
GS
0.8 0.6 0.2 RC
2 setlinecap
10.0 ML
2 LW
N
134.326 305.4 M
144.326 305.4 L
S
GR
GS
0.8 0.6 0.2 RC
2 setlinecap
10.0 ML
2 LW
N
139.326 310.4 M
139.326 300.4 L
S
GR
GS
0.8 0.6 0.2 RC
2 setlinecap
10.0 ML
2 LW
N
135.79 308.936 M
142.861 301.864 L
S
GR
GS
0.8 0.6 0.2 RC
2 setlinecap
10.0 ML
2 LW
N
135.79 301.864 M
142.861 308.936 L
S
GR
GS
0.8 0.6 0.2 RC
2 setlinecap
10.0 ML
2 LW
N
135.473 291.68 M
145.473 291.68 L
S
GR
GS
0.8 0.6 0.2 RC
2 setlinecap
10.0 ML
2 LW
N
140.473 296.68 M
140.473 286.68 L
S
GR
GS
0.8 0.6 0.2 RC
2 setlinecap
10.0 ML
2 LW
N
136.937 295.216 M
144.008 288.144 L
S
GR
GS
0.8 0.6 0.2 RC
2 setlinecap
10.0 ML
2 LW
N
136.937 288.144 M
144.008 295.216 L
S
GR
GS
0.8 0.6 0.2 RC
2 setlinecap
10.0 ML
2 LW
N
140.406 137.33 M
150.406 137.33 L
S
GR
GS
0.8 0.6 0.2 RC
2 setlinecap
10.0 ML
2 LW
N
145.406 142.33 M
145.406 132.33 L
S
GR
GS
0.8 0.6 0.2 RC
2 setlinecap
10.0 ML
2 LW
N
141.87 140.866 M
148.941 133.794 L
S
GR
GS
0.8 0.6 0.2 RC
2 setlinecap
10.0 ML
2 LW
N
141.87 133.794 M
148.941 140.866 L
S
GR
GS
0.8 0.6 0.2 RC
2 setlinecap
10.0 ML
2 LW
N
154.706 123.61 M
164.706 123.61 L
S
GR
GS
0.8 0.6 0.2 RC
2 setlinecap
10.0 ML
2 LW
N
159.706 128.61 M
159.706 118.61 L
S
GR
GS
0.8 0.6 0.2 RC
2 setlinecap
10.0 ML
2 LW
N
156.17 127.146 M
163.241 120.074 L
S
GR
GS
0.8 0.6 0.2 RC
2 setlinecap
10.0 ML
2 LW
N
156.17 120.074 M
163.241 127.146 L
S
GR
GS
0.8 0.6 0.2 RC
2 setlinecap
10.0 ML
2 LW
N
163.922 109.89 M
173.922 109.89 L
S
GR
GS
0.8 0.6 0.2 RC
2 setlinecap
10.0 ML
2 LW
N
168.922 114.89 M
168.922 104.89 L
S
GR
GS
0.8 0.6 0.2 RC
2 setlinecap
10.0 ML
2 LW
N
165.386 113.426 M
172.457 106.354 L
S
GR
GS
0.8 0.6 0.2 RC
2 setlinecap
10.0 ML
2 LW
N
165.386 106.354 M
172.457 113.426 L
S
GR
GS
0.8 0.6 0.2 RC
2 setlinecap
10.0 ML
2 LW
N
171.794 96.17 M
181.794 96.17 L
S
GR
GS
0.8 0.6 0.2 RC
2 setlinecap
10.0 ML
2 LW
N
176.794 101.17 M
176.794 91.17 L
S
GR
GS
0.8 0.6 0.2 RC
2 setlinecap
10.0 ML
2 LW
N
173.259 99.706 M
180.33 92.634 L
S
GR
GS
0.8 0.6 0.2 RC
2 setlinecap
10.0 ML
2 LW
N
173.259 92.634 M
180.33 99.706 L
S
GR
GS
0.8 0.6 0.2 RC
2 setlinecap
10.0 ML
2 LW
N
182.014 82.45 M
192.014 82.45 L
S
GR
GS
0.8 0.6 0.2 RC
2 setlinecap
10.0 ML
2 LW
N
187.014 87.45 M
187.014 77.45 L
S
GR
GS
0.8 0.6 0.2 RC
2 setlinecap
10.0 ML
2 LW
N
183.479 85.986 M
190.55 78.914 L
S
GR
GS
0.8 0.6 0.2 RC
2 setlinecap
10.0 ML
2 LW
N
183.479 78.914 M
190.55 85.986 L
S
GR
GS
0.8 0.6 0.2 RC
2 setlinecap
10.0 ML
2 LW
N
211.69 72.16 M
221.69 72.16 L
S
GR
GS
0.8 0.6 0.2 RC
2 setlinecap
10.0 ML
2 LW
N
216.69 77.16 M
216.69 67.16 L
S
GR
GS
0.8 0.6 0.2 RC
2 setlinecap
10.0 ML
2 LW
N
213.154 75.696 M
220.225 68.624 L
S
GR
GS
0.8 0.6 0.2 RC
2 setlinecap
10.0 ML
2 LW
N
213.154 68.624 M
220.225 75.696 L
S
GR
GS
0.8 0.6 0.2 RC
2 setlinecap
10.0 ML
2 LW
N
212.795 58.44 M
222.795 58.44 L
S
GR
GS
0.8 0.6 0.2 RC
2 setlinecap
10.0 ML
2 LW
N
217.795 63.44 M
217.795 53.44 L
S
GR
GS
0.8 0.6 0.2 RC
2 setlinecap
10.0 ML
2 LW
N
214.259 61.976 M
221.33 54.904 L
S
GR
GS
0.8 0.6 0.2 RC
2 setlinecap
10.0 ML
2 LW
N
214.259 54.904 M
221.33 61.976 L
S
GR
GS
0.8 0.6 0.2 RC
2 setlinecap
10.0 ML
2 LW
N
246.573 44.72 M
256.573 44.72 L
S
GR
GS
0.8 0.6 0.2 RC
2 setlinecap
10.0 ML
2 LW
N
251.573 49.72 M
251.573 39.72 L
S
GR
GS
0.8 0.6 0.2 RC
2 setlinecap
10.0 ML
2 LW
N
248.038 48.256 M
255.109 41.184 L
S
GR
GS
0.8 0.6 0.2 RC
2 setlinecap
10.0 ML
2 LW
N
248.038 41.184 M
255.109 48.256 L
S
GR
GS
0.8 0.6 0.2 RC
2 setlinecap
10.0 ML
2 LW
N
357.566 31 M
367.566 31 L
S
GR
GS
0.8 0.6 0.2 RC
2 setlinecap
10.0 ML
2 LW
N
362.566 36 M
362.566 26 L
S
GR
GS
0.8 0.6 0.2 RC
2 setlinecap
10.0 ML
2 LW
N
359.031 34.536 M
366.102 27.464 L
S
GR
GS
0.8 0.6 0.2 RC
2 setlinecap
10.0 ML
2 LW
N
359.031 27.464 M
366.102 34.536 L
S
GR
GS
0.8 0.6 0.2 RC
2 setlinecap
10.0 ML
2 LW
N
68 374 M
78 374 L
S
GR
GS
0.8 0.6 0.2 RC
2 setlinecap
10.0 ML
2 LW
N
73 379 M
73 369 L
S
GR
GS
0.8 0.6 0.2 RC
2 setlinecap
10.0 ML
2 LW
N
69.464 377.536 M
76.536 370.464 L
S
GR
GS
0.8 0.6 0.2 RC
2 setlinecap
10.0 ML
2 LW
N
69.464 370.464 M
76.536 377.536 L
S
GR
GS
0 0.2 0 RC
2 setlinecap
10.0 ML
2 LW
N
73 374 M
73 360.28 L
109.167 356.85 L
128.72 353.42 L
131.918 349.99 L
132.195 346.56 L
139.283 343.13 L
139.453 339.7 L
140.473 336.27 L
145.333 329.41 L
145.369 325.98 L
145.406 322.55 L
145.406 284.82 L
145.406 281.39 L
145.472 277.96 L
166.387 274.53 L
170.047 271.1 L
176.794 267.67 L
179.771 264.24 L
181.609 260.81 L
181.618 257.38 L
181.658 253.95 L
181.659 250.52 L
181.761 247.09 L
189.663 243.66 L
193.024 240.23 L
194.251 236.8 L
194.369 233.37 L
196.895 229.94 L
197.813 226.51 L
198.462 223.08 L
204.026 219.65 L
204.797 216.22 L
207.979 212.79 L
209.466 209.36 L
213.42 205.93 L
214.495 202.5 L
216.69 199.07 L
217.73 195.64 L
217.739 192.21 L
217.739 181.92 L
217.751 178.49 L
217.751 175.06 L
217.811 171.63 L
223.248 168.2 L
223.481 164.77 L
229.061 161.34 L
231.003 157.91 L
241.678 154.48 L
245.076 151.05 L
S
GR
GS
0 0.2 0 RC
2 setlinecap
10.0 ML
2 LW
N
245.076 151.05 M
245.51 147.62 L
252.252 144.19 L
253.933 140.76 L
253.94 137.33 L
253.954 133.9 L
256.645 130.47 L
259.736 127.04 L
260.748 123.61 L
261.344 120.18 L
264.423 116.75 L
266.178 113.32 L
275.54 109.89 L
290.164 106.46 L
290.206 103.03 L
293.119 99.6 L
301.863 96.17 L
306.11 92.74 L
308.748 89.31 L
319.303 85.88 L
326.243 82.45 L
326.486 79.02 L
334.368 75.59 L
339.708 72.16 L
342.631 68.73 L
345.634 65.3 L
354.709 61.87 L
356.669 58.44 L
362.471 55.01 L
366.541 51.58 L
370.681 48.15 L
382.325 44.72 L
434.888 41.29 L
434.905 37.86 L
471.153 34.43 L
497.592 31 L
S
GR
GS
0 0.2 0 RC
2 setlinecap
10.0 ML
2 LW
N
67.228 377.332 M
78.772 377.332 L
73 367.335 L
67.228 377.332 L
S
GR
GS
0 0.2 0 RC
2 setlinecap
10.0 ML
2 LW
N
133.511 346.462 M
145.055 346.462 L
139.283 336.465 L
133.511 346.462 L
S
GR
GS
0 0.2 0 RC
2 setlinecap
10.0 ML
2 LW
N
139.634 288.152 M
151.178 288.152 L
145.406 278.155 L
139.634 288.152 L
S
GR
GS
0 0.2 0 RC
2 setlinecap
10.0 ML
2 LW
N
174 267.573 M
185.543 267.573 L
179.771 257.575 L
174 267.573 L
S
GR
GS
0 0.2 0 RC
2 setlinecap
10.0 ML
2 LW
N
183.891 246.993 M
195.434 246.993 L
189.663 236.995 L
183.891 246.993 L
S
GR
GS
0 0.2 0 RC
2 setlinecap
10.0 ML
2 LW
N
192.69 226.413 M
204.234 226.413 L
198.462 216.415 L
192.69 226.413 L
S
GR
GS
0 0.2 0 RC
2 setlinecap
10.0 ML
2 LW
N
208.723 205.833 M
220.267 205.833 L
214.495 195.835 L
208.723 205.833 L
S
GR
GS
0 0.2 0 RC
2 setlinecap
10.0 ML
2 LW
N
211.979 178.393 M
223.523 178.393 L
217.751 168.395 L
211.979 178.393 L
S
GR
GS
0 0.2 0 RC
2 setlinecap
10.0 ML
2 LW
N
235.906 157.813 M
247.45 157.813 L
241.678 147.815 L
235.906 157.813 L
S
GR
GS
0 0.2 0 RC
2 setlinecap
10.0 ML
2 LW
N
248.182 137.232 M
259.726 137.232 L
253.954 127.235 L
248.182 137.232 L
S
GR
GS
0 0.2 0 RC
2 setlinecap
10.0 ML
2 LW
N
260.406 116.653 M
271.95 116.653 L
266.178 106.655 L
260.406 116.653 L
S
GR
GS
0 0.2 0 RC
2 setlinecap
10.0 ML
2 LW
N
300.338 96.073 M
311.882 96.073 L
306.11 86.075 L
300.338 96.073 L
S
GR
GS
0 0.2 0 RC
2 setlinecap
10.0 ML
2 LW
N
333.936 75.493 M
345.48 75.493 L
339.708 65.495 L
333.936 75.493 L
S
GR
GS
0 0.2 0 RC
2 setlinecap
10.0 ML
2 LW
N
360.769 54.913 M
372.313 54.913 L
366.541 44.915 L
360.769 54.913 L
S
GR
GS
0 0.2 0 RC
2 setlinecap
10.0 ML
2 LW
N
491.82 34.333 M
503.364 34.333 L
497.592 24.335 L
491.82 34.333 L
S
GR
GS
0 0.2 0 RC
2 setlinecap
10.0 ML
2 LW
N
67.228 377.332 M
78.772 377.332 L
73 367.335 L
67.228 377.332 L
S
GR
GS
1 GC
N
425 125 M
425 72 L
502 72 L
502 125 L
cp
f
GR
GS
[1 0 0 1 464 79.92523] CT
/Helvetica-Bold 11 F
GS
[1 0 0 1 0 0] CT
0 3 moveto 
1 -1 scale
(Tree) t 
GR
GR
GS
0.6 0 0 RC
2 setlinecap
10.0 ML
2 LW
N
431 79.925 M
461 79.925 L
S
GR
GS
0.6 0 0 RC
2 setlinecap
10.0 ML
2 LW
N
442.6 83.4 M
442.6 75.6 L
450.4 75.6 L
450.4 83.4 L
442.6 83.4 L
S
GR
GS
[1 0 0 1 464 92.30841] CT
/Helvetica-Bold 11 F
GS
[1 0 0 1 0 0] CT
0 3 moveto 
1 -1 scale
(NC) t 
GR
GR
GS
0 0.2 0.4 RC
2 setlinecap
10.0 ML
2 LW
N
431 92.308 M
461 92.308 L
S
GR
GS
0 0.2 0.4 RC
2 setlinecap
10.0 ML
2 LW
N
451.5 92.5 M
450.545 89.561 L
448.045 87.745 L
444.955 87.745 L
442.455 89.561 L
441.5 92.5 L
442.455 95.439 L
444.955 97.255 L
448.045 97.255 L
450.545 95.439 L
451.5 92.5 L
S
GR
GS
[1 0 0 1 464 104.69159] CT
/Helvetica-Bold 11 F
GS
[1 0 0 1 0 0] CT
0 3 moveto 
1 -1 scale
(TC) t 
GR
GR
GS
0.8 0.6 0.2 RC
2 setlinecap
10.0 ML
2 LW
N
431 104.692 M
461 104.692 L
S
GR
GS
0.8 0.6 0.2 RC
2 setlinecap
10.0 ML
2 LW
N
441 104.5 M
452 104.5 L
S
GR
GS
0.8 0.6 0.2 RC
2 setlinecap
10.0 ML
2 LW
N
446.5 110 M
446.5 99 L
S
GR
GS
0.8 0.6 0.2 RC
2 setlinecap
10.0 ML
2 LW
N
442 109 M
451 100 L
S
GR
GS
0.8 0.6 0.2 RC
2 setlinecap
10.0 ML
2 LW
N
442 100 M
451 109 L
S
GR
GS
[1 0 0 1 464 117.07477] CT
/Helvetica-Bold 11 F
GS
[1 0 0 1 0 0] CT
0 3 moveto 
1 -1 scale
(NC-TC) t 
GR
GR
GS
0 0.2 0 RC
2 setlinecap
10.0 ML
2 LW
N
431 117.075 M
461 117.075 L
S
GR
GS
0 0.2 0 RC
2 setlinecap
10.0 ML
2 LW
N
440.728 120.832 M
452.272 120.832 L
446.5 110.835 L
440.728 120.832 L
S
GR
GS
0.149 GC
2 setlinecap
10.0 ML
N
425 125 M
425 72 L
502 72 L
502 125 L
425 125 L
S
GR
%%Trailer
%%Pages: 1
%%EOF
