%!PS-Adobe-3.0 EPSF-3.0
%%Creator: (MATLAB, The Mathworks, Inc. Version 8.5.0.197613 \(R2015a\). Operating System: Mac OS X)
%%Title: /Users/ashwinyakkundimath/Documents/Thesis_Results/plots/phy_mechs/MR_cdf_tuc_thr.eps
%%CreationDate: 2016-01-05T12:40:06
%%Pages: (atend)
%%BoundingBox: 0 0 560 420
%%LanguageLevel: 2
%%EndComments
%%BeginProlog
%%BeginResource: procset (Apache XML Graphics Std ProcSet) 1.2 0
%%Version: 1.2 0
%%Copyright: (Copyright 2001-2003,2010 The Apache Software Foundation. License terms: http://www.apache.org/licenses/LICENSE-2.0)
/bd{bind def}bind def
/ld{load def}bd
/GR/grestore ld
/M/moveto ld
/LJ/setlinejoin ld
/C/curveto ld
/f/fill ld
/LW/setlinewidth ld
/GC/setgray ld
/t/show ld
/N/newpath ld
/CT/concat ld
/cp/closepath ld
/S/stroke ld
/L/lineto ld
/CC/setcmykcolor ld
/A/ashow ld
/GS/gsave ld
/RC/setrgbcolor ld
/RM/rmoveto ld
/ML/setmiterlimit ld
/re {4 2 roll M
1 index 0 rlineto
0 exch rlineto
neg 0 rlineto
cp } bd
/_ctm matrix def
/_tm matrix def
/BT { _ctm currentmatrix pop matrix _tm copy pop 0 0 moveto } bd
/ET { _ctm setmatrix } bd
/iTm { _ctm setmatrix _tm concat } bd
/Tm { _tm astore pop iTm 0 0 moveto } bd
/ux 0.0 def
/uy 0.0 def
/F {
  /Tp exch def
  /Tf exch def
  Tf findfont Tp scalefont setfont
  /cf Tf def  /cs Tp def
} bd
/ULS {currentpoint /uy exch def /ux exch def} bd
/ULE {
  /Tcx currentpoint pop def
  gsave
  newpath
  cf findfont cs scalefont dup
  /FontMatrix get 0 get /Ts exch def /FontInfo get dup
  /UnderlinePosition get Ts mul /To exch def
  /UnderlineThickness get Ts mul /Tt exch def
  ux uy To add moveto  Tcx uy To add lineto
  Tt setlinewidth stroke
  grestore
} bd
/OLE {
  /Tcx currentpoint pop def
  gsave
  newpath
  cf findfont cs scalefont dup
  /FontMatrix get 0 get /Ts exch def /FontInfo get dup
  /UnderlinePosition get Ts mul /To exch def
  /UnderlineThickness get Ts mul /Tt exch def
  ux uy To add cs add moveto Tcx uy To add cs add lineto
  Tt setlinewidth stroke
  grestore
} bd
/SOE {
  /Tcx currentpoint pop def
  gsave
  newpath
  cf findfont cs scalefont dup
  /FontMatrix get 0 get /Ts exch def /FontInfo get dup
  /UnderlinePosition get Ts mul /To exch def
  /UnderlineThickness get Ts mul /Tt exch def
  ux uy To add cs 10 mul 26 idiv add moveto Tcx uy To add cs 10 mul 26 idiv add lineto
  Tt setlinewidth stroke
  grestore
} bd
/QT {
/Y22 exch store
/X22 exch store
/Y21 exch store
/X21 exch store
currentpoint
/Y21 load 2 mul add 3 div exch
/X21 load 2 mul add 3 div exch
/X21 load 2 mul /X22 load add 3 div
/Y21 load 2 mul /Y22 load add 3 div
/X22 load /Y22 load curveto
} bd
/SSPD {
dup length /d exch dict def
{
/v exch def
/k exch def
currentpagedevice k known {
/cpdv currentpagedevice k get def
v cpdv ne {
/upd false def
/nullv v type /nulltype eq def
/nullcpdv cpdv type /nulltype eq def
nullv nullcpdv or
{
/upd true def
} {
/sametype v type cpdv type eq def
sametype {
v type /arraytype eq {
/vlen v length def
/cpdvlen cpdv length def
vlen cpdvlen eq {
0 1 vlen 1 sub {
/i exch def
/obj v i get def
/cpdobj cpdv i get def
obj cpdobj ne {
/upd true def
exit
} if
} for
} {
/upd true def
} ifelse
} {
v type /dicttype eq {
v {
/dv exch def
/dk exch def
/cpddv cpdv dk get def
dv cpddv ne {
/upd true def
exit
} if
} forall
} {
/upd true def
} ifelse
} ifelse
} if
} ifelse
upd true eq {
d k v put
} if
} if
} if
} forall
d length 0 gt {
d setpagedevice
} if
} bd
%%EndResource
%%BeginResource: procset (Apache XML Graphics EPS ProcSet) 1.0 0
%%Version: 1.0 0
%%Copyright: (Copyright 2002-2003 The Apache Software Foundation. License terms: http://www.apache.org/licenses/LICENSE-2.0)
/BeginEPSF { %def
/b4_Inc_state save def         % Save state for cleanup
/dict_count countdictstack def % Count objects on dict stack
/op_count count 1 sub def      % Count objects on operand stack
userdict begin                 % Push userdict on dict stack
/showpage { } def              % Redefine showpage, { } = null proc
0 setgray 0 setlinecap         % Prepare graphics state
1 setlinewidth 0 setlinejoin
10 setmiterlimit [ ] 0 setdash newpath
/languagelevel where           % If level not equal to 1 then
{pop languagelevel             % set strokeadjust and
1 ne                           % overprint to their defaults.
{false setstrokeadjust false setoverprint
} if
} if
} bd
/EndEPSF { %def
count op_count sub {pop} repeat            % Clean up stacks
countdictstack dict_count sub {end} repeat
b4_Inc_state restore
} bd
%%EndResource
%FOPBeginFontDict
%%IncludeResource: font Courier-Bold
%%IncludeResource: font Helvetica
%%IncludeResource: font Courier-BoldOblique
%%IncludeResource: font Courier-Oblique
%%IncludeResource: font Times-Roman
%%IncludeResource: font Helvetica-BoldOblique
%%IncludeResource: font Helvetica-Bold
%%IncludeResource: font Helvetica-Oblique
%%IncludeResource: font Times-BoldItalic
%%IncludeResource: font Courier
%%IncludeResource: font Times-Italic
%%IncludeResource: font Times-Bold
%%IncludeResource: font Symbol
%%IncludeResource: font ZapfDingbats
%FOPEndFontDict
%%BeginResource: encoding WinAnsiEncoding
/WinAnsiEncoding [
/.notdef /.notdef /.notdef /.notdef /.notdef
/.notdef /.notdef /.notdef /.notdef /.notdef
/.notdef /.notdef /.notdef /.notdef /.notdef
/.notdef /.notdef /.notdef /.notdef /.notdef
/.notdef /.notdef /.notdef /.notdef /.notdef
/.notdef /.notdef /.notdef /.notdef /.notdef
/.notdef /.notdef /space /exclam /quotedbl
/numbersign /dollar /percent /ampersand /quotesingle
/parenleft /parenright /asterisk /plus /comma
/hyphen /period /slash /zero /one
/two /three /four /five /six
/seven /eight /nine /colon /semicolon
/less /equal /greater /question /at
/A /B /C /D /E
/F /G /H /I /J
/K /L /M /N /O
/P /Q /R /S /T
/U /V /W /X /Y
/Z /bracketleft /backslash /bracketright /asciicircum
/underscore /quoteleft /a /b /c
/d /e /f /g /h
/i /j /k /l /m
/n /o /p /q /r
/s /t /u /v /w
/x /y /z /braceleft /bar
/braceright /asciitilde /bullet /Euro /bullet
/quotesinglbase /florin /quotedblbase /ellipsis /dagger
/daggerdbl /circumflex /perthousand /Scaron /guilsinglleft
/OE /bullet /Zcaron /bullet /bullet
/quoteleft /quoteright /quotedblleft /quotedblright /bullet
/endash /emdash /asciitilde /trademark /scaron
/guilsinglright /oe /bullet /zcaron /Ydieresis
/space /exclamdown /cent /sterling /currency
/yen /brokenbar /section /dieresis /copyright
/ordfeminine /guillemotleft /logicalnot /sfthyphen /registered
/macron /degree /plusminus /twosuperior /threesuperior
/acute /mu /paragraph /middot /cedilla
/onesuperior /ordmasculine /guillemotright /onequarter /onehalf
/threequarters /questiondown /Agrave /Aacute /Acircumflex
/Atilde /Adieresis /Aring /AE /Ccedilla
/Egrave /Eacute /Ecircumflex /Edieresis /Igrave
/Iacute /Icircumflex /Idieresis /Eth /Ntilde
/Ograve /Oacute /Ocircumflex /Otilde /Odieresis
/multiply /Oslash /Ugrave /Uacute /Ucircumflex
/Udieresis /Yacute /Thorn /germandbls /agrave
/aacute /acircumflex /atilde /adieresis /aring
/ae /ccedilla /egrave /eacute /ecircumflex
/edieresis /igrave /iacute /icircumflex /idieresis
/eth /ntilde /ograve /oacute /ocircumflex
/otilde /odieresis /divide /oslash /ugrave
/uacute /ucircumflex /udieresis /yacute /thorn
/ydieresis
] def
%%EndResource
%FOPBeginFontReencode
/Courier-Bold findfont
dup length dict begin
  {1 index /FID ne {def} {pop pop} ifelse} forall
  /Encoding WinAnsiEncoding def
  currentdict
end
/Courier-Bold exch definefont pop
/Helvetica findfont
dup length dict begin
  {1 index /FID ne {def} {pop pop} ifelse} forall
  /Encoding WinAnsiEncoding def
  currentdict
end
/Helvetica exch definefont pop
/Courier-BoldOblique findfont
dup length dict begin
  {1 index /FID ne {def} {pop pop} ifelse} forall
  /Encoding WinAnsiEncoding def
  currentdict
end
/Courier-BoldOblique exch definefont pop
/Courier-Oblique findfont
dup length dict begin
  {1 index /FID ne {def} {pop pop} ifelse} forall
  /Encoding WinAnsiEncoding def
  currentdict
end
/Courier-Oblique exch definefont pop
/Times-Roman findfont
dup length dict begin
  {1 index /FID ne {def} {pop pop} ifelse} forall
  /Encoding WinAnsiEncoding def
  currentdict
end
/Times-Roman exch definefont pop
/Helvetica-BoldOblique findfont
dup length dict begin
  {1 index /FID ne {def} {pop pop} ifelse} forall
  /Encoding WinAnsiEncoding def
  currentdict
end
/Helvetica-BoldOblique exch definefont pop
/Helvetica-Bold findfont
dup length dict begin
  {1 index /FID ne {def} {pop pop} ifelse} forall
  /Encoding WinAnsiEncoding def
  currentdict
end
/Helvetica-Bold exch definefont pop
/Helvetica-Oblique findfont
dup length dict begin
  {1 index /FID ne {def} {pop pop} ifelse} forall
  /Encoding WinAnsiEncoding def
  currentdict
end
/Helvetica-Oblique exch definefont pop
/Times-BoldItalic findfont
dup length dict begin
  {1 index /FID ne {def} {pop pop} ifelse} forall
  /Encoding WinAnsiEncoding def
  currentdict
end
/Times-BoldItalic exch definefont pop
/Courier findfont
dup length dict begin
  {1 index /FID ne {def} {pop pop} ifelse} forall
  /Encoding WinAnsiEncoding def
  currentdict
end
/Courier exch definefont pop
/Times-Italic findfont
dup length dict begin
  {1 index /FID ne {def} {pop pop} ifelse} forall
  /Encoding WinAnsiEncoding def
  currentdict
end
/Times-Italic exch definefont pop
/Times-Bold findfont
dup length dict begin
  {1 index /FID ne {def} {pop pop} ifelse} forall
  /Encoding WinAnsiEncoding def
  currentdict
end
/Times-Bold exch definefont pop
%FOPEndFontReencode
%%EndProlog
%%Page: 1 1
%%PageBoundingBox: 0 0 560 420
%%BeginPageSetup
[1 0 0 -1 0 420] CT
%%EndPageSetup
GS
1 GC
N
0 0 560 420 re
f
GR
GS
1 GC
N
0 0 560 420 re
f
GR
GS
1 GC
N
73 374 M
507 374 L
507 31 L
73 31 L
cp
f
GR
GS
0.873 GC
2 setlinecap
10.0 ML
N
73 374 M
73 31 L
S
GR
GS
0.873 GC
2 setlinecap
10.0 ML
N
116.4 374 M
116.4 31 L
S
GR
GS
0.873 GC
2 setlinecap
10.0 ML
N
159.8 374 M
159.8 31 L
S
GR
GS
0.873 GC
2 setlinecap
10.0 ML
N
203.2 374 M
203.2 31 L
S
GR
GS
0.873 GC
2 setlinecap
10.0 ML
N
246.6 374 M
246.6 31 L
S
GR
GS
0.873 GC
2 setlinecap
10.0 ML
N
290 374 M
290 31 L
S
GR
GS
0.873 GC
2 setlinecap
10.0 ML
N
333.4 374 M
333.4 31 L
S
GR
GS
0.873 GC
2 setlinecap
10.0 ML
N
376.8 374 M
376.8 31 L
S
GR
GS
0.873 GC
2 setlinecap
10.0 ML
N
420.2 374 M
420.2 31 L
S
GR
GS
0.873 GC
2 setlinecap
10.0 ML
N
463.6 374 M
463.6 31 L
S
GR
GS
0.873 GC
2 setlinecap
10.0 ML
N
507 374 M
507 31 L
S
GR
GS
0.873 GC
2 setlinecap
10.0 ML
N
507 374 M
73 374 L
S
GR
GS
0.873 GC
2 setlinecap
10.0 ML
N
507 339.7 M
73 339.7 L
S
GR
GS
0.873 GC
2 setlinecap
10.0 ML
N
507 305.4 M
73 305.4 L
S
GR
GS
0.873 GC
2 setlinecap
10.0 ML
N
507 271.1 M
73 271.1 L
S
GR
GS
0.873 GC
2 setlinecap
10.0 ML
N
507 236.8 M
73 236.8 L
S
GR
GS
0.873 GC
2 setlinecap
10.0 ML
N
507 202.5 M
73 202.5 L
S
GR
GS
0.873 GC
2 setlinecap
10.0 ML
N
507 168.2 M
73 168.2 L
S
GR
GS
0.873 GC
2 setlinecap
10.0 ML
N
507 133.9 M
73 133.9 L
S
GR
GS
0.873 GC
2 setlinecap
10.0 ML
N
507 99.6 M
73 99.6 L
S
GR
GS
0.873 GC
2 setlinecap
10.0 ML
N
507 65.3 M
73 65.3 L
S
GR
GS
0.873 GC
2 setlinecap
10.0 ML
N
507 31 M
73 31 L
S
GR
GS
[1 0 0 1 290.00021 390] CT
0.149 GC
/Helvetica-Bold 11 F
GS
[1 0 0 1 0 0] CT
-52 9 moveto 
1 -1 scale
(System Throughput) t 
GR
GR
GS
0.149 GC
2 setlinecap
10.0 ML
N
73 374 M
507 374 L
S
GR
GS
0.149 GC
2 setlinecap
10.0 ML
N
73 374 M
73 369.66 L
S
GR
GS
0.149 GC
2 setlinecap
10.0 ML
N
116.4 374 M
116.4 369.66 L
S
GR
GS
0.149 GC
2 setlinecap
10.0 ML
N
159.8 374 M
159.8 369.66 L
S
GR
GS
0.149 GC
2 setlinecap
10.0 ML
N
203.2 374 M
203.2 369.66 L
S
GR
GS
0.149 GC
2 setlinecap
10.0 ML
N
246.6 374 M
246.6 369.66 L
S
GR
GS
0.149 GC
2 setlinecap
10.0 ML
N
290 374 M
290 369.66 L
S
GR
GS
0.149 GC
2 setlinecap
10.0 ML
N
333.4 374 M
333.4 369.66 L
S
GR
GS
0.149 GC
2 setlinecap
10.0 ML
N
376.8 374 M
376.8 369.66 L
S
GR
GS
0.149 GC
2 setlinecap
10.0 ML
N
420.2 374 M
420.2 369.66 L
S
GR
GS
0.149 GC
2 setlinecap
10.0 ML
N
463.6 374 M
463.6 369.66 L
S
GR
GS
0.149 GC
2 setlinecap
10.0 ML
N
507 374 M
507 369.66 L
S
GR
GS
[1 0 0 1 73 378] CT
0.149 GC
/Helvetica-Bold 10 F
GS
[1 0 0 1 0 0] CT
-3 8 moveto 
1 -1 scale
(0) t 
GR
GR
GS
[1 0 0 1 116.4 378] CT
0.149 GC
/Helvetica-Bold 10 F
GS
[1 0 0 1 0 0] CT
-7 8 moveto 
1 -1 scale
(0.1) t 
GR
GR
GS
[1 0 0 1 159.8 378] CT
0.149 GC
/Helvetica-Bold 10 F
GS
[1 0 0 1 0 0] CT
-7 8 moveto 
1 -1 scale
(0.2) t 
GR
GR
GS
[1 0 0 1 203.20001 378] CT
0.149 GC
/Helvetica-Bold 10 F
GS
[1 0 0 1 0 0] CT
-7 8 moveto 
1 -1 scale
(0.3) t 
GR
GR
GS
[1 0 0 1 246.60001 378] CT
0.149 GC
/Helvetica-Bold 10 F
GS
[1 0 0 1 0 0] CT
-7 8 moveto 
1 -1 scale
(0.4) t 
GR
GR
GS
[1 0 0 1 290 378] CT
0.149 GC
/Helvetica-Bold 10 F
GS
[1 0 0 1 0 0] CT
-7 8 moveto 
1 -1 scale
(0.5) t 
GR
GR
GS
[1 0 0 1 333.40002 378] CT
0.149 GC
/Helvetica-Bold 10 F
GS
[1 0 0 1 0 0] CT
-7 8 moveto 
1 -1 scale
(0.6) t 
GR
GR
GS
[1 0 0 1 376.79999 378] CT
0.149 GC
/Helvetica-Bold 10 F
GS
[1 0 0 1 0 0] CT
-7 8 moveto 
1 -1 scale
(0.7) t 
GR
GR
GS
[1 0 0 1 420.20001 378] CT
0.149 GC
/Helvetica-Bold 10 F
GS
[1 0 0 1 0 0] CT
-7 8 moveto 
1 -1 scale
(0.8) t 
GR
GR
GS
[1 0 0 1 463.59998 378] CT
0.149 GC
/Helvetica-Bold 10 F
GS
[1 0 0 1 0 0] CT
-7 8 moveto 
1 -1 scale
(0.9) t 
GR
GR
GS
[1 0 0 1 507 378] CT
0.149 GC
/Helvetica-Bold 10 F
GS
[1 0 0 1 0 0] CT
-3 8 moveto 
1 -1 scale
(1) t 
GR
GR
GS
[0 -1 1 0 52 202.49983] CT
0.149 GC
/Helvetica-Bold 11 F
GS
[1 0 0 1 0 0] CT
-60 -3 moveto 
1 -1 scale
(Cumulative Probability) t 
GR
GR
GS
0.149 GC
2 setlinecap
10.0 ML
N
73 374 M
73 31 L
S
GR
GS
0.149 GC
2 setlinecap
10.0 ML
N
73 374 M
77.34 374 L
S
GR
GS
0.149 GC
2 setlinecap
10.0 ML
N
73 339.7 M
77.34 339.7 L
S
GR
GS
0.149 GC
2 setlinecap
10.0 ML
N
73 305.4 M
77.34 305.4 L
S
GR
GS
0.149 GC
2 setlinecap
10.0 ML
N
73 271.1 M
77.34 271.1 L
S
GR
GS
0.149 GC
2 setlinecap
10.0 ML
N
73 236.8 M
77.34 236.8 L
S
GR
GS
0.149 GC
2 setlinecap
10.0 ML
N
73 202.5 M
77.34 202.5 L
S
GR
GS
0.149 GC
2 setlinecap
10.0 ML
N
73 168.2 M
77.34 168.2 L
S
GR
GS
0.149 GC
2 setlinecap
10.0 ML
N
73 133.9 M
77.34 133.9 L
S
GR
GS
0.149 GC
2 setlinecap
10.0 ML
N
73 99.6 M
77.34 99.6 L
S
GR
GS
0.149 GC
2 setlinecap
10.0 ML
N
73 65.3 M
77.34 65.3 L
S
GR
GS
0.149 GC
2 setlinecap
10.0 ML
N
73 31 M
77.34 31 L
S
GR
GS
[1 0 0 1 69 374] CT
0.149 GC
/Helvetica-Bold 10 F
GS
[1 0 0 1 0 0] CT
-6 2.5 moveto 
1 -1 scale
(0) t 
GR
GR
GS
[1 0 0 1 69 339.70001] CT
0.149 GC
/Helvetica-Bold 10 F
GS
[1 0 0 1 0 0] CT
-14 2.5 moveto 
1 -1 scale
(0.1) t 
GR
GR
GS
[1 0 0 1 69 305.39999] CT
0.149 GC
/Helvetica-Bold 10 F
GS
[1 0 0 1 0 0] CT
-14 2.5 moveto 
1 -1 scale
(0.2) t 
GR
GR
GS
[1 0 0 1 69 271.10001] CT
0.149 GC
/Helvetica-Bold 10 F
GS
[1 0 0 1 0 0] CT
-14 2.5 moveto 
1 -1 scale
(0.3) t 
GR
GR
GS
[1 0 0 1 69 236.8] CT
0.149 GC
/Helvetica-Bold 10 F
GS
[1 0 0 1 0 0] CT
-14 2.5 moveto 
1 -1 scale
(0.4) t 
GR
GR
GS
[1 0 0 1 69 202.5] CT
0.149 GC
/Helvetica-Bold 10 F
GS
[1 0 0 1 0 0] CT
-14 2.5 moveto 
1 -1 scale
(0.5) t 
GR
GR
GS
[1 0 0 1 69 168.2] CT
0.149 GC
/Helvetica-Bold 10 F
GS
[1 0 0 1 0 0] CT
-14 2.5 moveto 
1 -1 scale
(0.6) t 
GR
GR
GS
[1 0 0 1 69 133.90001] CT
0.149 GC
/Helvetica-Bold 10 F
GS
[1 0 0 1 0 0] CT
-14 2.5 moveto 
1 -1 scale
(0.7) t 
GR
GR
GS
[1 0 0 1 69 99.6] CT
0.149 GC
/Helvetica-Bold 10 F
GS
[1 0 0 1 0 0] CT
-14 2.5 moveto 
1 -1 scale
(0.8) t 
GR
GR
GS
[1 0 0 1 69 65.30001] CT
0.149 GC
/Helvetica-Bold 10 F
GS
[1 0 0 1 0 0] CT
-14 2.5 moveto 
1 -1 scale
(0.9) t 
GR
GR
GS
[1 0 0 1 69 31] CT
0.149 GC
/Helvetica-Bold 10 F
GS
[1 0 0 1 0 0] CT
-6 2.5 moveto 
1 -1 scale
(1) t 
GR
GR
GS
0.6 0 0 RC
2 LJ
2 LW
N
102.397 374 M
102.397 370.57 L
107.162 367.14 L
109.409 363.71 L
116.08 360.28 L
117.067 356.85 L
117.638 353.42 L
119.304 349.99 L
119.717 346.56 L
122.773 343.13 L
123.689 339.7 L
124.807 336.27 L
126.005 332.84 L
126.303 329.41 L
131.102 325.98 L
132.486 322.55 L
132.955 319.12 L
133.257 315.69 L
134.842 312.26 L
136.778 308.83 L
136.925 305.4 L
139.415 301.97 L
139.602 298.54 L
140.36 295.11 L
140.457 291.68 L
141.702 288.25 L
141.976 284.82 L
142.085 281.39 L
142.575 277.96 L
144.721 274.53 L
144.91 271.1 L
146.058 267.67 L
147.516 264.24 L
148.62 260.81 L
148.8 257.38 L
150.207 253.95 L
150.57 250.52 L
160.115 247.09 L
160.138 243.66 L
163.051 240.23 L
167.55 236.8 L
172.19 233.37 L
177.861 229.94 L
182.535 226.51 L
182.979 223.08 L
194.555 212.79 L
196.181 209.36 L
201.715 202.5 L
202.446 199.07 L
210.411 195.64 L
S
GR
GS
0.6 0 0 RC
2 LJ
2 LW
N
210.411 195.64 M
210.438 192.21 L
210.455 188.78 L
210.463 181.92 L
220.819 178.49 L
220.896 175.06 L
220.906 171.63 L
220.929 164.77 L
221.303 161.34 L
230.113 157.91 L
232.744 154.48 L
261.342 151.05 L
261.353 147.62 L
261.361 144.19 L
261.383 140.76 L
261.396 137.33 L
261.426 130.47 L
279.212 127.04 L
279.232 123.61 L
279.251 120.18 L
279.263 116.75 L
279.29 113.32 L
326.369 109.89 L
326.378 106.46 L
326.403 99.6 L
326.461 92.74 L
326.462 89.31 L
359.597 85.88 L
359.598 82.45 L
359.604 79.02 L
359.623 75.59 L
359.66 72.16 L
359.662 68.73 L
359.662 65.3 L
359.673 61.87 L
479.129 58.44 L
479.137 51.58 L
479.146 34.43 L
479.253 31 L
S
GR
GS
0.6 0 0 RC
2 LJ
2 LW
N
98.497 377.9 M
98.497 370.1 L
106.297 370.1 L
106.297 377.9 L
98.497 377.9 L
S
GR
GS
0.6 0 0 RC
2 LJ
2 LW
N
113.738 357.32 M
113.738 349.52 L
121.538 349.52 L
121.538 357.32 L
113.738 357.32 L
S
GR
GS
0.6 0 0 RC
2 LJ
2 LW
N
122.105 336.74 M
122.105 328.94 L
129.905 328.94 L
129.905 336.74 L
122.105 336.74 L
S
GR
GS
0.6 0 0 RC
2 LJ
2 LW
N
132.878 312.73 M
132.878 304.93 L
140.678 304.93 L
140.678 312.73 L
132.878 312.73 L
S
GR
GS
0.6 0 0 RC
2 LJ
2 LW
N
137.802 292.15 M
137.802 284.35 L
145.602 284.35 L
145.602 292.15 L
137.802 292.15 L
S
GR
GS
0.6 0 0 RC
2 LJ
2 LW
N
142.158 271.57 M
142.158 263.77 L
149.958 263.77 L
149.958 271.57 L
142.158 271.57 L
S
GR
GS
0.6 0 0 RC
2 LJ
2 LW
N
156.215 250.99 M
156.215 243.19 L
164.015 243.19 L
164.015 250.99 L
156.215 250.99 L
S
GR
GS
0.6 0 0 RC
2 LJ
2 LW
N
179.079 226.98 M
179.079 219.18 L
186.879 219.18 L
186.879 226.98 L
179.079 226.98 L
S
GR
GS
0.6 0 0 RC
2 LJ
2 LW
N
206.538 196.11 M
206.538 188.31 L
214.338 188.31 L
214.338 196.11 L
206.538 196.11 L
S
GR
GS
0.6 0 0 RC
2 LJ
2 LW
N
217.029 168.67 M
217.029 160.87 L
224.829 160.87 L
224.829 168.67 L
217.029 168.67 L
S
GR
GS
0.6 0 0 RC
2 LJ
2 LW
N
257.461 148.09 M
257.461 140.29 L
265.261 140.29 L
265.261 148.09 L
257.461 148.09 L
S
GR
GS
0.6 0 0 RC
2 LJ
2 LW
N
275.351 124.08 M
275.351 116.28 L
283.151 116.28 L
283.151 124.08 L
275.351 124.08 L
S
GR
GS
0.6 0 0 RC
2 LJ
2 LW
N
322.562 93.21 M
322.562 85.41 L
330.362 85.41 L
330.362 93.21 L
322.562 93.21 L
S
GR
GS
0.6 0 0 RC
2 LJ
2 LW
N
355.762 72.63 M
355.762 64.83 L
363.562 64.83 L
363.562 72.63 L
355.762 72.63 L
S
GR
GS
0.6 0 0 RC
2 LJ
2 LW
N
475.353 34.9 M
475.353 27.1 L
483.153 27.1 L
483.153 34.9 L
475.353 34.9 L
S
GR
GS
0.6 0 0 RC
2 LJ
2 LW
N
98.497 377.9 M
98.497 370.1 L
106.297 370.1 L
106.297 377.9 L
98.497 377.9 L
S
GR
GS
0 0.2 0.4 RC
2 LJ
2 LW
N
102.397 374 M
102.397 370.57 L
121.753 367.14 L
124.359 363.71 L
133.257 360.28 L
140.003 356.85 L
140.457 353.42 L
140.57 349.99 L
141.232 346.56 L
144.91 343.13 L
145.161 339.7 L
147.74 336.27 L
149.506 332.84 L
154.696 329.41 L
156.296 325.98 L
157.8 322.55 L
160.115 319.12 L
160.138 315.69 L
161.512 312.26 L
163.114 308.83 L
163.136 305.4 L
165.137 301.97 L
165.822 298.54 L
165.823 295.11 L
167.681 291.68 L
169.89 288.25 L
169.967 284.82 L
172.19 281.39 L
173.191 277.96 L
174.922 274.53 L
175.084 271.1 L
175.505 267.67 L
176.417 264.24 L
177.735 260.81 L
179.102 257.38 L
179.377 253.95 L
182.535 250.52 L
183.908 247.09 L
185.961 243.66 L
187.165 240.23 L
187.895 236.8 L
188.51 233.37 L
191.299 229.94 L
194.555 226.51 L
196.518 223.08 L
201.715 219.65 L
201.715 216.22 L
202.446 212.79 L
205.739 209.36 L
210.438 205.93 L
S
GR
GS
0 0.2 0.4 RC
2 LJ
2 LW
N
210.438 205.93 M
210.451 202.5 L
212.303 199.07 L
217.048 195.64 L
220.896 192.21 L
220.912 188.78 L
220.931 185.35 L
220.946 181.92 L
222.772 178.49 L
230.113 175.06 L
232.744 171.63 L
232.884 168.2 L
243.209 164.77 L
251.662 161.34 L
261.353 157.91 L
261.358 154.48 L
261.363 151.05 L
261.383 147.62 L
261.396 144.19 L
261.426 140.76 L
261.443 137.33 L
263.19 133.9 L
279.212 130.47 L
279.232 127.04 L
279.26 123.61 L
279.29 120.18 L
280.877 116.75 L
326.386 113.32 L
326.396 109.89 L
326.403 103.03 L
326.461 96.17 L
326.507 92.74 L
331.893 89.31 L
359.604 85.88 L
359.609 82.45 L
359.615 79.02 L
359.66 75.59 L
359.663 72.16 L
359.673 68.73 L
387.225 61.87 L
479.137 58.44 L
479.141 55.01 L
479.146 41.29 L
479.166 37.86 L
479.17 34.43 L
479.253 31 L
S
GR
GS
0 0.2 0.4 RC
2 LJ
2 LW
N
107.397 374 M
106.442 371.061 L
103.942 369.245 L
100.852 369.245 L
98.352 371.061 L
97.397 374 L
98.352 376.939 L
100.852 378.755 L
103.942 378.755 L
106.442 376.939 L
107.397 374 L
S
GR
GS
0 0.2 0.4 RC
2 LJ
2 LW
N
145.57 349.99 M
144.615 347.051 L
142.115 345.235 L
139.025 345.235 L
136.525 347.051 L
135.57 349.99 L
136.525 352.929 L
139.025 354.745 L
142.115 354.745 L
144.615 352.929 L
145.57 349.99 L
S
GR
GS
0 0.2 0.4 RC
2 LJ
2 LW
N
159.696 329.41 M
158.741 326.471 L
156.241 324.655 L
153.15 324.655 L
150.65 326.471 L
149.696 329.41 L
150.65 332.349 L
153.15 334.165 L
156.241 334.165 L
158.741 332.349 L
159.696 329.41 L
S
GR
GS
0 0.2 0.4 RC
2 LJ
2 LW
N
168.136 305.4 M
167.181 302.461 L
164.681 300.645 L
161.591 300.645 L
159.091 302.461 L
158.136 305.4 L
159.091 308.339 L
161.591 310.155 L
164.681 310.155 L
167.181 308.339 L
168.136 305.4 L
S
GR
GS
0 0.2 0.4 RC
2 LJ
2 LW
N
177.19 281.39 M
176.235 278.451 L
173.735 276.635 L
170.645 276.635 L
168.145 278.451 L
167.19 281.39 L
168.145 284.329 L
170.645 286.145 L
173.735 286.145 L
176.235 284.329 L
177.19 281.39 L
S
GR
GS
0 0.2 0.4 RC
2 LJ
2 LW
N
184.102 257.38 M
183.147 254.441 L
180.647 252.625 L
177.557 252.625 L
175.057 254.441 L
174.102 257.38 L
175.057 260.319 L
177.557 262.135 L
180.647 262.135 L
183.147 260.319 L
184.102 257.38 L
S
GR
GS
0 0.2 0.4 RC
2 LJ
2 LW
N
192.895 236.8 M
191.94 233.861 L
189.44 232.045 L
186.35 232.045 L
183.85 233.861 L
182.895 236.8 L
183.85 239.739 L
186.35 241.555 L
189.44 241.555 L
191.94 239.739 L
192.895 236.8 L
S
GR
GS
0 0.2 0.4 RC
2 LJ
2 LW
N
207.446 212.79 M
206.491 209.851 L
203.991 208.035 L
200.901 208.035 L
198.401 209.851 L
197.446 212.79 L
198.401 215.729 L
200.901 217.545 L
203.991 217.545 L
206.491 215.729 L
207.446 212.79 L
S
GR
GS
0 0.2 0.4 RC
2 LJ
2 LW
N
225.912 188.78 M
224.957 185.841 L
222.457 184.025 L
219.367 184.025 L
216.867 185.841 L
215.912 188.78 L
216.867 191.719 L
219.367 193.535 L
222.457 193.535 L
224.957 191.719 L
225.912 188.78 L
S
GR
GS
0 0.2 0.4 RC
2 LJ
2 LW
N
237.884 168.2 M
236.929 165.261 L
234.429 163.445 L
231.339 163.445 L
228.839 165.261 L
227.884 168.2 L
228.839 171.139 L
231.339 172.955 L
234.429 172.955 L
236.929 171.139 L
237.884 168.2 L
S
GR
GS
0 0.2 0.4 RC
2 LJ
2 LW
N
266.396 144.19 M
265.441 141.251 L
262.941 139.435 L
259.851 139.435 L
257.351 141.251 L
256.396 144.19 L
257.351 147.129 L
259.851 148.945 L
262.941 148.945 L
265.441 147.129 L
266.396 144.19 L
S
GR
GS
0 0.2 0.4 RC
2 LJ
2 LW
N
284.29 120.18 M
283.335 117.241 L
280.835 115.425 L
277.745 115.425 L
275.245 117.241 L
274.29 120.18 L
275.245 123.119 L
277.745 124.935 L
280.835 124.935 L
283.335 123.119 L
284.29 120.18 L
S
GR
GS
0 0.2 0.4 RC
2 LJ
2 LW
N
336.893 89.31 M
335.938 86.371 L
333.438 84.555 L
330.348 84.555 L
327.848 86.371 L
326.893 89.31 L
327.848 92.249 L
330.348 94.065 L
333.438 94.065 L
335.938 92.249 L
336.893 89.31 L
S
GR
GS
0 0.2 0.4 RC
2 LJ
2 LW
N
364.673 68.73 M
363.718 65.791 L
361.218 63.975 L
358.127 63.975 L
355.627 65.791 L
354.673 68.73 L
355.627 71.669 L
358.127 73.485 L
361.218 73.485 L
363.718 71.669 L
364.673 68.73 L
S
GR
GS
0 0.2 0.4 RC
2 LJ
2 LW
N
484.253 31 M
483.298 28.061 L
480.798 26.245 L
477.708 26.245 L
475.208 28.061 L
474.253 31 L
475.208 33.939 L
477.708 35.755 L
480.798 35.755 L
483.298 33.939 L
484.253 31 L
S
GR
GS
0 0.2 0.4 RC
2 LJ
2 LW
N
107.397 374 M
106.442 371.061 L
103.942 369.245 L
100.852 369.245 L
98.352 371.061 L
97.397 374 L
98.352 376.939 L
100.852 378.755 L
103.942 378.755 L
106.442 376.939 L
107.397 374 L
S
GR
GS
0.8 0.6 0.2 RC
2 LJ
2 LW
N
73 374 M
73 360.28 L
110.507 356.85 L
111.967 353.42 L
112.001 349.99 L
113.143 346.56 L
113.601 343.13 L
116.314 339.7 L
116.827 336.27 L
118.545 332.84 L
120.576 329.41 L
121.61 325.98 L
127.241 322.55 L
128.043 319.12 L
129.37 315.69 L
129.448 312.26 L
130.995 308.83 L
131.461 305.4 L
132.589 301.97 L
134.95 298.54 L
135.353 295.11 L
135.704 291.68 L
135.937 288.25 L
136.446 284.82 L
138.128 281.39 L
139.856 277.96 L
139.981 274.53 L
140.28 271.1 L
140.3 267.67 L
140.893 264.24 L
142.481 260.81 L
143.941 257.38 L
147.946 253.95 L
150.377 250.52 L
150.874 247.09 L
152.417 243.66 L
153.113 240.23 L
156.002 236.8 L
157.718 233.37 L
163.051 229.94 L
165.271 226.51 L
168.196 223.08 L
171.221 219.65 L
176.087 216.22 L
176.938 212.79 L
182.054 209.36 L
182.979 205.93 L
183.497 202.5 L
188.232 199.07 L
194.555 195.64 L
S
GR
GS
0.8 0.6 0.2 RC
2 LJ
2 LW
N
194.555 195.64 M
201.715 188.78 L
201.715 185.35 L
202.446 178.49 L
202.446 175.06 L
210.409 171.63 L
219.575 168.2 L
220.819 164.77 L
220.896 161.34 L
220.908 157.91 L
221.303 151.05 L
221.303 147.62 L
224.437 144.19 L
230.113 140.76 L
260.311 130.47 L
261.267 127.04 L
261.293 123.61 L
261.317 120.18 L
261.321 116.75 L
261.353 113.32 L
261.363 109.89 L
279.166 106.46 L
286.22 103.03 L
326.326 99.6 L
326.338 96.17 L
326.362 92.74 L
326.378 89.31 L
359.514 82.45 L
359.559 79.02 L
359.58 75.59 L
359.597 72.16 L
359.597 68.73 L
359.64 65.3 L
359.662 61.87 L
479 48.15 L
479.072 44.72 L
479.086 41.29 L
479.1 37.86 L
479.108 34.43 L
479.187 31 L
S
GR
GS
0.8 0.6 0.2 RC
2 LJ
2 LW
N
68 374 M
78 374 L
S
GR
GS
0.8 0.6 0.2 RC
2 LJ
2 LW
N
73 379 M
73 369 L
S
GR
GS
0.8 0.6 0.2 RC
2 LJ
2 LW
N
69.464 377.536 M
76.536 370.464 L
S
GR
GS
0.8 0.6 0.2 RC
2 LJ
2 LW
N
69.464 370.464 M
76.536 377.536 L
S
GR
GS
0.8 0.6 0.2 RC
2 LJ
2 LW
N
108.601 343.13 M
118.601 343.13 L
S
GR
GS
0.8 0.6 0.2 RC
2 LJ
2 LW
N
113.601 348.13 M
113.601 338.13 L
S
GR
GS
0.8 0.6 0.2 RC
2 LJ
2 LW
N
110.065 346.666 M
117.136 339.594 L
S
GR
GS
0.8 0.6 0.2 RC
2 LJ
2 LW
N
110.065 339.594 M
117.136 346.666 L
S
GR
GS
0.8 0.6 0.2 RC
2 LJ
2 LW
N
123.043 319.12 M
133.043 319.12 L
S
GR
GS
0.8 0.6 0.2 RC
2 LJ
2 LW
N
128.043 324.12 M
128.043 314.12 L
S
GR
GS
0.8 0.6 0.2 RC
2 LJ
2 LW
N
124.507 322.656 M
131.578 315.584 L
S
GR
GS
0.8 0.6 0.2 RC
2 LJ
2 LW
N
124.507 315.584 M
131.578 322.656 L
S
GR
GS
0.8 0.6 0.2 RC
2 LJ
2 LW
N
129.95 298.54 M
139.95 298.54 L
S
GR
GS
0.8 0.6 0.2 RC
2 LJ
2 LW
N
134.95 303.54 M
134.95 293.54 L
S
GR
GS
0.8 0.6 0.2 RC
2 LJ
2 LW
N
131.414 302.076 M
138.485 295.004 L
S
GR
GS
0.8 0.6 0.2 RC
2 LJ
2 LW
N
131.414 295.004 M
138.485 302.076 L
S
GR
GS
0.8 0.6 0.2 RC
2 LJ
2 LW
N
134.856 277.96 M
144.856 277.96 L
S
GR
GS
0.8 0.6 0.2 RC
2 LJ
2 LW
N
139.856 282.96 M
139.856 272.96 L
S
GR
GS
0.8 0.6 0.2 RC
2 LJ
2 LW
N
136.32 281.496 M
143.391 274.424 L
S
GR
GS
0.8 0.6 0.2 RC
2 LJ
2 LW
N
136.32 274.424 M
143.391 281.496 L
S
GR
GS
0.8 0.6 0.2 RC
2 LJ
2 LW
N
138.941 257.38 M
148.941 257.38 L
S
GR
GS
0.8 0.6 0.2 RC
2 LJ
2 LW
N
143.941 262.38 M
143.941 252.38 L
S
GR
GS
0.8 0.6 0.2 RC
2 LJ
2 LW
N
140.405 260.916 M
147.476 253.844 L
S
GR
GS
0.8 0.6 0.2 RC
2 LJ
2 LW
N
140.405 253.844 M
147.476 260.916 L
S
GR
GS
0.8 0.6 0.2 RC
2 LJ
2 LW
N
152.718 233.37 M
162.718 233.37 L
S
GR
GS
0.8 0.6 0.2 RC
2 LJ
2 LW
N
157.718 238.37 M
157.718 228.37 L
S
GR
GS
0.8 0.6 0.2 RC
2 LJ
2 LW
N
154.182 236.906 M
161.253 229.834 L
S
GR
GS
0.8 0.6 0.2 RC
2 LJ
2 LW
N
154.182 229.834 M
161.253 236.906 L
S
GR
GS
0.8 0.6 0.2 RC
2 LJ
2 LW
N
171.938 212.79 M
181.938 212.79 L
S
GR
GS
0.8 0.6 0.2 RC
2 LJ
2 LW
N
176.938 217.79 M
176.938 207.79 L
S
GR
GS
0.8 0.6 0.2 RC
2 LJ
2 LW
N
173.403 216.326 M
180.474 209.254 L
S
GR
GS
0.8 0.6 0.2 RC
2 LJ
2 LW
N
173.403 209.254 M
180.474 216.326 L
S
GR
GS
0.8 0.6 0.2 RC
2 LJ
2 LW
N
196.715 188.78 M
206.715 188.78 L
S
GR
GS
0.8 0.6 0.2 RC
2 LJ
2 LW
N
201.715 193.78 M
201.715 183.78 L
S
GR
GS
0.8 0.6 0.2 RC
2 LJ
2 LW
N
198.179 192.316 M
205.25 185.244 L
S
GR
GS
0.8 0.6 0.2 RC
2 LJ
2 LW
N
198.179 185.244 M
205.25 192.316 L
S
GR
GS
0.8 0.6 0.2 RC
2 LJ
2 LW
N
215.896 161.34 M
225.896 161.34 L
S
GR
GS
0.8 0.6 0.2 RC
2 LJ
2 LW
N
220.896 166.34 M
220.896 156.34 L
S
GR
GS
0.8 0.6 0.2 RC
2 LJ
2 LW
N
217.361 164.876 M
224.432 157.804 L
S
GR
GS
0.8 0.6 0.2 RC
2 LJ
2 LW
N
217.361 157.804 M
224.432 164.876 L
S
GR
GS
0.8 0.6 0.2 RC
2 LJ
2 LW
N
255.311 130.47 M
265.311 130.47 L
S
GR
GS
0.8 0.6 0.2 RC
2 LJ
2 LW
N
260.311 135.47 M
260.311 125.47 L
S
GR
GS
0.8 0.6 0.2 RC
2 LJ
2 LW
N
256.776 134.006 M
263.847 126.934 L
S
GR
GS
0.8 0.6 0.2 RC
2 LJ
2 LW
N
256.776 126.934 M
263.847 134.006 L
S
GR
GS
0.8 0.6 0.2 RC
2 LJ
2 LW
N
256.363 109.89 M
266.363 109.89 L
S
GR
GS
0.8 0.6 0.2 RC
2 LJ
2 LW
N
261.363 114.89 M
261.363 104.89 L
S
GR
GS
0.8 0.6 0.2 RC
2 LJ
2 LW
N
257.828 113.426 M
264.899 106.354 L
S
GR
GS
0.8 0.6 0.2 RC
2 LJ
2 LW
N
257.828 106.354 M
264.899 113.426 L
S
GR
GS
0.8 0.6 0.2 RC
2 LJ
2 LW
N
321.378 89.31 M
331.378 89.31 L
S
GR
GS
0.8 0.6 0.2 RC
2 LJ
2 LW
N
326.378 94.31 M
326.378 84.31 L
S
GR
GS
0.8 0.6 0.2 RC
2 LJ
2 LW
N
322.842 92.846 M
329.914 85.774 L
S
GR
GS
0.8 0.6 0.2 RC
2 LJ
2 LW
N
322.842 85.774 M
329.914 92.846 L
S
GR
GS
0.8 0.6 0.2 RC
2 LJ
2 LW
N
354.662 61.87 M
364.662 61.87 L
S
GR
GS
0.8 0.6 0.2 RC
2 LJ
2 LW
N
359.662 66.87 M
359.662 56.87 L
S
GR
GS
0.8 0.6 0.2 RC
2 LJ
2 LW
N
356.126 65.406 M
363.197 58.334 L
S
GR
GS
0.8 0.6 0.2 RC
2 LJ
2 LW
N
356.126 58.334 M
363.197 65.406 L
S
GR
GS
0.8 0.6 0.2 RC
2 LJ
2 LW
N
474.187 31 M
484.187 31 L
S
GR
GS
0.8 0.6 0.2 RC
2 LJ
2 LW
N
479.187 36 M
479.187 26 L
S
GR
GS
0.8 0.6 0.2 RC
2 LJ
2 LW
N
475.652 34.536 M
482.723 27.464 L
S
GR
GS
0.8 0.6 0.2 RC
2 LJ
2 LW
N
475.652 27.464 M
482.723 34.536 L
S
GR
GS
0.8 0.6 0.2 RC
2 LJ
2 LW
N
68 374 M
78 374 L
S
GR
GS
0.8 0.6 0.2 RC
2 LJ
2 LW
N
73 379 M
73 369 L
S
GR
GS
0.8 0.6 0.2 RC
2 LJ
2 LW
N
69.464 377.536 M
76.536 370.464 L
S
GR
GS
0.8 0.6 0.2 RC
2 LJ
2 LW
N
69.464 370.464 M
76.536 377.536 L
S
GR
GS
0 0.2 0 RC
2 LJ
2 LW
N
73 374 M
73 360.28 L
111.967 356.85 L
112.001 353.42 L
113.143 349.99 L
116.314 346.56 L
131.461 343.13 L
132.589 339.7 L
139.875 336.27 L
140.3 332.84 L
146.295 329.41 L
146.803 325.98 L
147.811 322.55 L
148.665 319.12 L
149.223 315.69 L
149.936 312.26 L
150.874 308.83 L
153.543 305.4 L
157.511 301.97 L
157.718 298.54 L
158.121 295.11 L
161.447 291.68 L
162.197 288.25 L
162.553 284.82 L
163.051 281.39 L
164.693 277.96 L
164.802 274.53 L
165.823 271.1 L
165.861 267.67 L
169.835 264.24 L
171.221 260.81 L
172.781 257.38 L
176.938 253.95 L
177.102 250.52 L
177.786 247.09 L
179.1 243.66 L
183.497 240.23 L
183.775 236.8 L
184.286 233.37 L
184.633 229.94 L
185.271 226.51 L
185.653 223.08 L
188.171 219.65 L
192.553 216.22 L
194.555 212.79 L
196.296 209.36 L
201.715 202.5 L
201.715 199.07 L
202.446 195.64 L
210.463 192.21 L
S
GR
GS
0 0.2 0 RC
2 LJ
2 LW
N
210.463 192.21 M
211.07 188.78 L
212.303 185.35 L
219.575 181.92 L
220.381 178.49 L
220.896 175.06 L
220.911 171.63 L
224.687 168.2 L
226.536 164.77 L
230.113 161.34 L
232.292 157.91 L
233.387 154.48 L
234.335 151.05 L
241.748 147.62 L
260.311 137.33 L
261.293 133.9 L
261.321 130.47 L
261.353 127.04 L
261.365 123.61 L
261.443 120.18 L
271.981 116.75 L
279.202 113.32 L
280.877 106.46 L
295.907 103.03 L
326.346 99.6 L
326.373 96.17 L
326.38 92.74 L
326.388 89.31 L
359.514 85.88 L
359.559 82.45 L
359.583 79.02 L
359.586 75.59 L
359.616 72.16 L
359.66 68.73 L
387.225 61.87 L
479.055 58.44 L
479.058 55.01 L
479.074 51.58 L
479.086 48.15 L
479.108 44.72 L
479.11 41.29 L
479.119 37.86 L
479.148 34.43 L
479.23 31 L
S
GR
GS
0 0.2 0 RC
2 LJ
2 LW
N
67.228 377.332 M
78.772 377.332 L
73 367.335 L
67.228 377.332 L
S
GR
GS
0 0.2 0 RC
2 LJ
2 LW
N
126.817 343.033 M
138.361 343.033 L
132.589 333.035 L
126.817 343.033 L
S
GR
GS
0 0.2 0 RC
2 LJ
2 LW
N
142.893 322.453 M
154.437 322.453 L
148.665 312.455 L
142.893 322.453 L
S
GR
GS
0 0.2 0 RC
2 LJ
2 LW
N
152.349 298.443 M
163.893 298.443 L
158.121 288.445 L
152.349 298.443 L
S
GR
GS
0 0.2 0 RC
2 LJ
2 LW
N
159.03 277.862 M
170.574 277.862 L
164.802 267.865 L
159.03 277.862 L
S
GR
GS
0 0.2 0 RC
2 LJ
2 LW
N
171.33 253.852 M
182.874 253.852 L
177.102 243.855 L
171.33 253.852 L
S
GR
GS
0 0.2 0 RC
2 LJ
2 LW
N
178.861 233.273 M
190.405 233.273 L
184.633 223.275 L
178.861 233.273 L
S
GR
GS
0 0.2 0 RC
2 LJ
2 LW
N
195.943 205.833 M
207.487 205.833 L
201.715 195.835 L
195.943 205.833 L
S
GR
GS
0 0.2 0 RC
2 LJ
2 LW
N
214.609 181.823 M
226.153 181.823 L
220.381 171.825 L
214.609 181.823 L
S
GR
GS
0 0.2 0 RC
2 LJ
2 LW
N
226.52 161.243 M
238.064 161.243 L
232.292 151.245 L
226.52 161.243 L
S
GR
GS
0 0.2 0 RC
2 LJ
2 LW
N
255.581 130.372 M
267.125 130.372 L
261.353 120.375 L
255.581 130.372 L
S
GR
GS
0 0.2 0 RC
2 LJ
2 LW
N
290.135 106.362 M
301.678 106.362 L
295.907 96.365 L
290.135 106.362 L
S
GR
GS
0 0.2 0 RC
2 LJ
2 LW
N
353.812 82.352 M
365.355 82.352 L
359.583 72.355 L
353.812 82.352 L
S
GR
GS
0 0.2 0 RC
2 LJ
2 LW
N
473.286 58.342 M
484.83 58.342 L
479.058 48.345 L
473.286 58.342 L
S
GR
GS
0 0.2 0 RC
2 LJ
2 LW
N
473.458 34.333 M
485.002 34.333 L
479.23 24.335 L
473.458 34.333 L
S
GR
GS
0 0.2 0 RC
2 LJ
2 LW
N
67.228 377.332 M
78.772 377.332 L
73 367.335 L
67.228 377.332 L
S
GR
GS
1 GC
N
426 126 M
426 73 L
503 73 L
503 126 L
cp
f
GR
GS
[1 0 0 1 465 80.92523] CT
/Helvetica-Bold 11 F
GS
[1 0 0 1 0 0] CT
0 3 moveto 
1 -1 scale
(Tree) t 
GR
GR
GS
0.6 0 0 RC
2 setlinecap
10.0 ML
2 LW
N
432 80.925 M
462 80.925 L
S
GR
GS
0.6 0 0 RC
2 setlinecap
10.0 ML
2 LW
N
443.6 84.4 M
443.6 76.6 L
451.4 76.6 L
451.4 84.4 L
443.6 84.4 L
S
GR
GS
[1 0 0 1 465 93.30841] CT
/Helvetica-Bold 11 F
GS
[1 0 0 1 0 0] CT
0 3 moveto 
1 -1 scale
(NC) t 
GR
GR
GS
0 0.2 0.4 RC
2 setlinecap
10.0 ML
2 LW
N
432 93.308 M
462 93.308 L
S
GR
GS
0 0.2 0.4 RC
2 setlinecap
10.0 ML
2 LW
N
452.5 93.5 M
451.545 90.561 L
449.045 88.745 L
445.955 88.745 L
443.455 90.561 L
442.5 93.5 L
443.455 96.439 L
445.955 98.255 L
449.045 98.255 L
451.545 96.439 L
452.5 93.5 L
S
GR
GS
[1 0 0 1 465 105.69159] CT
/Helvetica-Bold 11 F
GS
[1 0 0 1 0 0] CT
0 3 moveto 
1 -1 scale
(TC) t 
GR
GR
GS
0.8 0.6 0.2 RC
2 setlinecap
10.0 ML
2 LW
N
432 105.692 M
462 105.692 L
S
GR
GS
0.8 0.6 0.2 RC
2 setlinecap
10.0 ML
2 LW
N
442 105.5 M
453 105.5 L
S
GR
GS
0.8 0.6 0.2 RC
2 setlinecap
10.0 ML
2 LW
N
447.5 111 M
447.5 100 L
S
GR
GS
0.8 0.6 0.2 RC
2 setlinecap
10.0 ML
2 LW
N
443 110 M
452 101 L
S
GR
GS
0.8 0.6 0.2 RC
2 setlinecap
10.0 ML
2 LW
N
443 101 M
452 110 L
S
GR
GS
[1 0 0 1 465 118.07477] CT
/Helvetica-Bold 11 F
GS
[1 0 0 1 0 0] CT
0 3 moveto 
1 -1 scale
(NC-TC) t 
GR
GR
GS
0 0.2 0 RC
2 setlinecap
10.0 ML
2 LW
N
432 118.075 M
462 118.075 L
S
GR
GS
0 0.2 0 RC
2 setlinecap
10.0 ML
2 LW
N
441.728 121.832 M
453.272 121.832 L
447.5 111.835 L
441.728 121.832 L
S
GR
GS
0.149 GC
2 setlinecap
10.0 ML
N
426 126 M
426 73 L
503 73 L
503 126 L
426 126 L
S
GR
%%Trailer
%%Pages: 1
%%EOF
