%!PS-Adobe-3.0 EPSF-3.0
%%Creator: (MATLAB, The Mathworks, Inc. Version 8.5.0.197613 \(R2015a\). Operating System: Mac OS X)
%%Title: /Users/ashwinyakkundimath/Documents/Thesis_Results/plots/phy_mechs/MR_cdf_bbc_thr.eps
%%CreationDate: 2016-01-05T12:33:58
%%Pages: (atend)
%%BoundingBox: 0 0 560 420
%%LanguageLevel: 2
%%EndComments
%%BeginProlog
%%BeginResource: procset (Apache XML Graphics Std ProcSet) 1.2 0
%%Version: 1.2 0
%%Copyright: (Copyright 2001-2003,2010 The Apache Software Foundation. License terms: http://www.apache.org/licenses/LICENSE-2.0)
/bd{bind def}bind def
/ld{load def}bd
/GR/grestore ld
/M/moveto ld
/LJ/setlinejoin ld
/C/curveto ld
/f/fill ld
/LW/setlinewidth ld
/GC/setgray ld
/t/show ld
/N/newpath ld
/CT/concat ld
/cp/closepath ld
/S/stroke ld
/L/lineto ld
/CC/setcmykcolor ld
/A/ashow ld
/GS/gsave ld
/RC/setrgbcolor ld
/RM/rmoveto ld
/ML/setmiterlimit ld
/re {4 2 roll M
1 index 0 rlineto
0 exch rlineto
neg 0 rlineto
cp } bd
/_ctm matrix def
/_tm matrix def
/BT { _ctm currentmatrix pop matrix _tm copy pop 0 0 moveto } bd
/ET { _ctm setmatrix } bd
/iTm { _ctm setmatrix _tm concat } bd
/Tm { _tm astore pop iTm 0 0 moveto } bd
/ux 0.0 def
/uy 0.0 def
/F {
  /Tp exch def
  /Tf exch def
  Tf findfont Tp scalefont setfont
  /cf Tf def  /cs Tp def
} bd
/ULS {currentpoint /uy exch def /ux exch def} bd
/ULE {
  /Tcx currentpoint pop def
  gsave
  newpath
  cf findfont cs scalefont dup
  /FontMatrix get 0 get /Ts exch def /FontInfo get dup
  /UnderlinePosition get Ts mul /To exch def
  /UnderlineThickness get Ts mul /Tt exch def
  ux uy To add moveto  Tcx uy To add lineto
  Tt setlinewidth stroke
  grestore
} bd
/OLE {
  /Tcx currentpoint pop def
  gsave
  newpath
  cf findfont cs scalefont dup
  /FontMatrix get 0 get /Ts exch def /FontInfo get dup
  /UnderlinePosition get Ts mul /To exch def
  /UnderlineThickness get Ts mul /Tt exch def
  ux uy To add cs add moveto Tcx uy To add cs add lineto
  Tt setlinewidth stroke
  grestore
} bd
/SOE {
  /Tcx currentpoint pop def
  gsave
  newpath
  cf findfont cs scalefont dup
  /FontMatrix get 0 get /Ts exch def /FontInfo get dup
  /UnderlinePosition get Ts mul /To exch def
  /UnderlineThickness get Ts mul /Tt exch def
  ux uy To add cs 10 mul 26 idiv add moveto Tcx uy To add cs 10 mul 26 idiv add lineto
  Tt setlinewidth stroke
  grestore
} bd
/QT {
/Y22 exch store
/X22 exch store
/Y21 exch store
/X21 exch store
currentpoint
/Y21 load 2 mul add 3 div exch
/X21 load 2 mul add 3 div exch
/X21 load 2 mul /X22 load add 3 div
/Y21 load 2 mul /Y22 load add 3 div
/X22 load /Y22 load curveto
} bd
/SSPD {
dup length /d exch dict def
{
/v exch def
/k exch def
currentpagedevice k known {
/cpdv currentpagedevice k get def
v cpdv ne {
/upd false def
/nullv v type /nulltype eq def
/nullcpdv cpdv type /nulltype eq def
nullv nullcpdv or
{
/upd true def
} {
/sametype v type cpdv type eq def
sametype {
v type /arraytype eq {
/vlen v length def
/cpdvlen cpdv length def
vlen cpdvlen eq {
0 1 vlen 1 sub {
/i exch def
/obj v i get def
/cpdobj cpdv i get def
obj cpdobj ne {
/upd true def
exit
} if
} for
} {
/upd true def
} ifelse
} {
v type /dicttype eq {
v {
/dv exch def
/dk exch def
/cpddv cpdv dk get def
dv cpddv ne {
/upd true def
exit
} if
} forall
} {
/upd true def
} ifelse
} ifelse
} if
} ifelse
upd true eq {
d k v put
} if
} if
} if
} forall
d length 0 gt {
d setpagedevice
} if
} bd
%%EndResource
%%BeginResource: procset (Apache XML Graphics EPS ProcSet) 1.0 0
%%Version: 1.0 0
%%Copyright: (Copyright 2002-2003 The Apache Software Foundation. License terms: http://www.apache.org/licenses/LICENSE-2.0)
/BeginEPSF { %def
/b4_Inc_state save def         % Save state for cleanup
/dict_count countdictstack def % Count objects on dict stack
/op_count count 1 sub def      % Count objects on operand stack
userdict begin                 % Push userdict on dict stack
/showpage { } def              % Redefine showpage, { } = null proc
0 setgray 0 setlinecap         % Prepare graphics state
1 setlinewidth 0 setlinejoin
10 setmiterlimit [ ] 0 setdash newpath
/languagelevel where           % If level not equal to 1 then
{pop languagelevel             % set strokeadjust and
1 ne                           % overprint to their defaults.
{false setstrokeadjust false setoverprint
} if
} if
} bd
/EndEPSF { %def
count op_count sub {pop} repeat            % Clean up stacks
countdictstack dict_count sub {end} repeat
b4_Inc_state restore
} bd
%%EndResource
%FOPBeginFontDict
%%IncludeResource: font Courier-Bold
%%IncludeResource: font Helvetica
%%IncludeResource: font Courier-BoldOblique
%%IncludeResource: font Courier-Oblique
%%IncludeResource: font Times-Roman
%%IncludeResource: font Helvetica-BoldOblique
%%IncludeResource: font Helvetica-Bold
%%IncludeResource: font Helvetica-Oblique
%%IncludeResource: font Times-BoldItalic
%%IncludeResource: font Courier
%%IncludeResource: font Times-Italic
%%IncludeResource: font Times-Bold
%%IncludeResource: font Symbol
%%IncludeResource: font ZapfDingbats
%FOPEndFontDict
%%BeginResource: encoding WinAnsiEncoding
/WinAnsiEncoding [
/.notdef /.notdef /.notdef /.notdef /.notdef
/.notdef /.notdef /.notdef /.notdef /.notdef
/.notdef /.notdef /.notdef /.notdef /.notdef
/.notdef /.notdef /.notdef /.notdef /.notdef
/.notdef /.notdef /.notdef /.notdef /.notdef
/.notdef /.notdef /.notdef /.notdef /.notdef
/.notdef /.notdef /space /exclam /quotedbl
/numbersign /dollar /percent /ampersand /quotesingle
/parenleft /parenright /asterisk /plus /comma
/hyphen /period /slash /zero /one
/two /three /four /five /six
/seven /eight /nine /colon /semicolon
/less /equal /greater /question /at
/A /B /C /D /E
/F /G /H /I /J
/K /L /M /N /O
/P /Q /R /S /T
/U /V /W /X /Y
/Z /bracketleft /backslash /bracketright /asciicircum
/underscore /quoteleft /a /b /c
/d /e /f /g /h
/i /j /k /l /m
/n /o /p /q /r
/s /t /u /v /w
/x /y /z /braceleft /bar
/braceright /asciitilde /bullet /Euro /bullet
/quotesinglbase /florin /quotedblbase /ellipsis /dagger
/daggerdbl /circumflex /perthousand /Scaron /guilsinglleft
/OE /bullet /Zcaron /bullet /bullet
/quoteleft /quoteright /quotedblleft /quotedblright /bullet
/endash /emdash /asciitilde /trademark /scaron
/guilsinglright /oe /bullet /zcaron /Ydieresis
/space /exclamdown /cent /sterling /currency
/yen /brokenbar /section /dieresis /copyright
/ordfeminine /guillemotleft /logicalnot /sfthyphen /registered
/macron /degree /plusminus /twosuperior /threesuperior
/acute /mu /paragraph /middot /cedilla
/onesuperior /ordmasculine /guillemotright /onequarter /onehalf
/threequarters /questiondown /Agrave /Aacute /Acircumflex
/Atilde /Adieresis /Aring /AE /Ccedilla
/Egrave /Eacute /Ecircumflex /Edieresis /Igrave
/Iacute /Icircumflex /Idieresis /Eth /Ntilde
/Ograve /Oacute /Ocircumflex /Otilde /Odieresis
/multiply /Oslash /Ugrave /Uacute /Ucircumflex
/Udieresis /Yacute /Thorn /germandbls /agrave
/aacute /acircumflex /atilde /adieresis /aring
/ae /ccedilla /egrave /eacute /ecircumflex
/edieresis /igrave /iacute /icircumflex /idieresis
/eth /ntilde /ograve /oacute /ocircumflex
/otilde /odieresis /divide /oslash /ugrave
/uacute /ucircumflex /udieresis /yacute /thorn
/ydieresis
] def
%%EndResource
%FOPBeginFontReencode
/Courier-Bold findfont
dup length dict begin
  {1 index /FID ne {def} {pop pop} ifelse} forall
  /Encoding WinAnsiEncoding def
  currentdict
end
/Courier-Bold exch definefont pop
/Helvetica findfont
dup length dict begin
  {1 index /FID ne {def} {pop pop} ifelse} forall
  /Encoding WinAnsiEncoding def
  currentdict
end
/Helvetica exch definefont pop
/Courier-BoldOblique findfont
dup length dict begin
  {1 index /FID ne {def} {pop pop} ifelse} forall
  /Encoding WinAnsiEncoding def
  currentdict
end
/Courier-BoldOblique exch definefont pop
/Courier-Oblique findfont
dup length dict begin
  {1 index /FID ne {def} {pop pop} ifelse} forall
  /Encoding WinAnsiEncoding def
  currentdict
end
/Courier-Oblique exch definefont pop
/Times-Roman findfont
dup length dict begin
  {1 index /FID ne {def} {pop pop} ifelse} forall
  /Encoding WinAnsiEncoding def
  currentdict
end
/Times-Roman exch definefont pop
/Helvetica-BoldOblique findfont
dup length dict begin
  {1 index /FID ne {def} {pop pop} ifelse} forall
  /Encoding WinAnsiEncoding def
  currentdict
end
/Helvetica-BoldOblique exch definefont pop
/Helvetica-Bold findfont
dup length dict begin
  {1 index /FID ne {def} {pop pop} ifelse} forall
  /Encoding WinAnsiEncoding def
  currentdict
end
/Helvetica-Bold exch definefont pop
/Helvetica-Oblique findfont
dup length dict begin
  {1 index /FID ne {def} {pop pop} ifelse} forall
  /Encoding WinAnsiEncoding def
  currentdict
end
/Helvetica-Oblique exch definefont pop
/Times-BoldItalic findfont
dup length dict begin
  {1 index /FID ne {def} {pop pop} ifelse} forall
  /Encoding WinAnsiEncoding def
  currentdict
end
/Times-BoldItalic exch definefont pop
/Courier findfont
dup length dict begin
  {1 index /FID ne {def} {pop pop} ifelse} forall
  /Encoding WinAnsiEncoding def
  currentdict
end
/Courier exch definefont pop
/Times-Italic findfont
dup length dict begin
  {1 index /FID ne {def} {pop pop} ifelse} forall
  /Encoding WinAnsiEncoding def
  currentdict
end
/Times-Italic exch definefont pop
/Times-Bold findfont
dup length dict begin
  {1 index /FID ne {def} {pop pop} ifelse} forall
  /Encoding WinAnsiEncoding def
  currentdict
end
/Times-Bold exch definefont pop
%FOPEndFontReencode
%%EndProlog
%%Page: 1 1
%%PageBoundingBox: 0 0 560 420
%%BeginPageSetup
[1 0 0 -1 0 420] CT
%%EndPageSetup
GS
1 GC
N
0 0 560 420 re
f
GR
GS
1 GC
N
0 0 560 420 re
f
GR
GS
1 GC
N
73 374 M
507 374 L
507 31 L
73 31 L
cp
f
GR
GS
0.873 GC
2 setlinecap
10.0 ML
N
73 374 M
73 31 L
S
GR
GS
0.873 GC
2 setlinecap
10.0 ML
N
116.4 374 M
116.4 31 L
S
GR
GS
0.873 GC
2 setlinecap
10.0 ML
N
159.8 374 M
159.8 31 L
S
GR
GS
0.873 GC
2 setlinecap
10.0 ML
N
203.2 374 M
203.2 31 L
S
GR
GS
0.873 GC
2 setlinecap
10.0 ML
N
246.6 374 M
246.6 31 L
S
GR
GS
0.873 GC
2 setlinecap
10.0 ML
N
290 374 M
290 31 L
S
GR
GS
0.873 GC
2 setlinecap
10.0 ML
N
333.4 374 M
333.4 31 L
S
GR
GS
0.873 GC
2 setlinecap
10.0 ML
N
376.8 374 M
376.8 31 L
S
GR
GS
0.873 GC
2 setlinecap
10.0 ML
N
420.2 374 M
420.2 31 L
S
GR
GS
0.873 GC
2 setlinecap
10.0 ML
N
463.6 374 M
463.6 31 L
S
GR
GS
0.873 GC
2 setlinecap
10.0 ML
N
507 374 M
507 31 L
S
GR
GS
0.873 GC
2 setlinecap
10.0 ML
N
507 374 M
73 374 L
S
GR
GS
0.873 GC
2 setlinecap
10.0 ML
N
507 339.7 M
73 339.7 L
S
GR
GS
0.873 GC
2 setlinecap
10.0 ML
N
507 305.4 M
73 305.4 L
S
GR
GS
0.873 GC
2 setlinecap
10.0 ML
N
507 271.1 M
73 271.1 L
S
GR
GS
0.873 GC
2 setlinecap
10.0 ML
N
507 236.8 M
73 236.8 L
S
GR
GS
0.873 GC
2 setlinecap
10.0 ML
N
507 202.5 M
73 202.5 L
S
GR
GS
0.873 GC
2 setlinecap
10.0 ML
N
507 168.2 M
73 168.2 L
S
GR
GS
0.873 GC
2 setlinecap
10.0 ML
N
507 133.9 M
73 133.9 L
S
GR
GS
0.873 GC
2 setlinecap
10.0 ML
N
507 99.6 M
73 99.6 L
S
GR
GS
0.873 GC
2 setlinecap
10.0 ML
N
507 65.3 M
73 65.3 L
S
GR
GS
0.873 GC
2 setlinecap
10.0 ML
N
507 31 M
73 31 L
S
GR
GS
[1 0 0 1 290.00021 390] CT
0.149 GC
/Helvetica-Bold 11 F
GS
[1 0 0 1 0 0] CT
-52 9 moveto 
1 -1 scale
(System Throughput) t 
GR
GR
GS
0.149 GC
2 setlinecap
10.0 ML
N
73 374 M
507 374 L
S
GR
GS
0.149 GC
2 setlinecap
10.0 ML
N
73 374 M
73 369.66 L
S
GR
GS
0.149 GC
2 setlinecap
10.0 ML
N
116.4 374 M
116.4 369.66 L
S
GR
GS
0.149 GC
2 setlinecap
10.0 ML
N
159.8 374 M
159.8 369.66 L
S
GR
GS
0.149 GC
2 setlinecap
10.0 ML
N
203.2 374 M
203.2 369.66 L
S
GR
GS
0.149 GC
2 setlinecap
10.0 ML
N
246.6 374 M
246.6 369.66 L
S
GR
GS
0.149 GC
2 setlinecap
10.0 ML
N
290 374 M
290 369.66 L
S
GR
GS
0.149 GC
2 setlinecap
10.0 ML
N
333.4 374 M
333.4 369.66 L
S
GR
GS
0.149 GC
2 setlinecap
10.0 ML
N
376.8 374 M
376.8 369.66 L
S
GR
GS
0.149 GC
2 setlinecap
10.0 ML
N
420.2 374 M
420.2 369.66 L
S
GR
GS
0.149 GC
2 setlinecap
10.0 ML
N
463.6 374 M
463.6 369.66 L
S
GR
GS
0.149 GC
2 setlinecap
10.0 ML
N
507 374 M
507 369.66 L
S
GR
GS
[1 0 0 1 73 378] CT
0.149 GC
/Helvetica-Bold 10 F
GS
[1 0 0 1 0 0] CT
-3 8 moveto 
1 -1 scale
(0) t 
GR
GR
GS
[1 0 0 1 116.4 378] CT
0.149 GC
/Helvetica-Bold 10 F
GS
[1 0 0 1 0 0] CT
-7 8 moveto 
1 -1 scale
(0.1) t 
GR
GR
GS
[1 0 0 1 159.8 378] CT
0.149 GC
/Helvetica-Bold 10 F
GS
[1 0 0 1 0 0] CT
-7 8 moveto 
1 -1 scale
(0.2) t 
GR
GR
GS
[1 0 0 1 203.20001 378] CT
0.149 GC
/Helvetica-Bold 10 F
GS
[1 0 0 1 0 0] CT
-7 8 moveto 
1 -1 scale
(0.3) t 
GR
GR
GS
[1 0 0 1 246.60001 378] CT
0.149 GC
/Helvetica-Bold 10 F
GS
[1 0 0 1 0 0] CT
-7 8 moveto 
1 -1 scale
(0.4) t 
GR
GR
GS
[1 0 0 1 290 378] CT
0.149 GC
/Helvetica-Bold 10 F
GS
[1 0 0 1 0 0] CT
-7 8 moveto 
1 -1 scale
(0.5) t 
GR
GR
GS
[1 0 0 1 333.40002 378] CT
0.149 GC
/Helvetica-Bold 10 F
GS
[1 0 0 1 0 0] CT
-7 8 moveto 
1 -1 scale
(0.6) t 
GR
GR
GS
[1 0 0 1 376.79999 378] CT
0.149 GC
/Helvetica-Bold 10 F
GS
[1 0 0 1 0 0] CT
-7 8 moveto 
1 -1 scale
(0.7) t 
GR
GR
GS
[1 0 0 1 420.20001 378] CT
0.149 GC
/Helvetica-Bold 10 F
GS
[1 0 0 1 0 0] CT
-7 8 moveto 
1 -1 scale
(0.8) t 
GR
GR
GS
[1 0 0 1 463.59998 378] CT
0.149 GC
/Helvetica-Bold 10 F
GS
[1 0 0 1 0 0] CT
-7 8 moveto 
1 -1 scale
(0.9) t 
GR
GR
GS
[1 0 0 1 507 378] CT
0.149 GC
/Helvetica-Bold 10 F
GS
[1 0 0 1 0 0] CT
-3 8 moveto 
1 -1 scale
(1) t 
GR
GR
GS
[0 -1 1 0 52 202.49983] CT
0.149 GC
/Helvetica-Bold 11 F
GS
[1 0 0 1 0 0] CT
-60 -3 moveto 
1 -1 scale
(Cumulative Probability) t 
GR
GR
GS
0.149 GC
2 setlinecap
10.0 ML
N
73 374 M
73 31 L
S
GR
GS
0.149 GC
2 setlinecap
10.0 ML
N
73 374 M
77.34 374 L
S
GR
GS
0.149 GC
2 setlinecap
10.0 ML
N
73 339.7 M
77.34 339.7 L
S
GR
GS
0.149 GC
2 setlinecap
10.0 ML
N
73 305.4 M
77.34 305.4 L
S
GR
GS
0.149 GC
2 setlinecap
10.0 ML
N
73 271.1 M
77.34 271.1 L
S
GR
GS
0.149 GC
2 setlinecap
10.0 ML
N
73 236.8 M
77.34 236.8 L
S
GR
GS
0.149 GC
2 setlinecap
10.0 ML
N
73 202.5 M
77.34 202.5 L
S
GR
GS
0.149 GC
2 setlinecap
10.0 ML
N
73 168.2 M
77.34 168.2 L
S
GR
GS
0.149 GC
2 setlinecap
10.0 ML
N
73 133.9 M
77.34 133.9 L
S
GR
GS
0.149 GC
2 setlinecap
10.0 ML
N
73 99.6 M
77.34 99.6 L
S
GR
GS
0.149 GC
2 setlinecap
10.0 ML
N
73 65.3 M
77.34 65.3 L
S
GR
GS
0.149 GC
2 setlinecap
10.0 ML
N
73 31 M
77.34 31 L
S
GR
GS
[1 0 0 1 69 374] CT
0.149 GC
/Helvetica-Bold 10 F
GS
[1 0 0 1 0 0] CT
-6 2.5 moveto 
1 -1 scale
(0) t 
GR
GR
GS
[1 0 0 1 69 339.70001] CT
0.149 GC
/Helvetica-Bold 10 F
GS
[1 0 0 1 0 0] CT
-14 2.5 moveto 
1 -1 scale
(0.1) t 
GR
GR
GS
[1 0 0 1 69 305.39999] CT
0.149 GC
/Helvetica-Bold 10 F
GS
[1 0 0 1 0 0] CT
-14 2.5 moveto 
1 -1 scale
(0.2) t 
GR
GR
GS
[1 0 0 1 69 271.10001] CT
0.149 GC
/Helvetica-Bold 10 F
GS
[1 0 0 1 0 0] CT
-14 2.5 moveto 
1 -1 scale
(0.3) t 
GR
GR
GS
[1 0 0 1 69 236.8] CT
0.149 GC
/Helvetica-Bold 10 F
GS
[1 0 0 1 0 0] CT
-14 2.5 moveto 
1 -1 scale
(0.4) t 
GR
GR
GS
[1 0 0 1 69 202.5] CT
0.149 GC
/Helvetica-Bold 10 F
GS
[1 0 0 1 0 0] CT
-14 2.5 moveto 
1 -1 scale
(0.5) t 
GR
GR
GS
[1 0 0 1 69 168.2] CT
0.149 GC
/Helvetica-Bold 10 F
GS
[1 0 0 1 0 0] CT
-14 2.5 moveto 
1 -1 scale
(0.6) t 
GR
GR
GS
[1 0 0 1 69 133.90001] CT
0.149 GC
/Helvetica-Bold 10 F
GS
[1 0 0 1 0 0] CT
-14 2.5 moveto 
1 -1 scale
(0.7) t 
GR
GR
GS
[1 0 0 1 69 99.6] CT
0.149 GC
/Helvetica-Bold 10 F
GS
[1 0 0 1 0 0] CT
-14 2.5 moveto 
1 -1 scale
(0.8) t 
GR
GR
GS
[1 0 0 1 69 65.30001] CT
0.149 GC
/Helvetica-Bold 10 F
GS
[1 0 0 1 0 0] CT
-14 2.5 moveto 
1 -1 scale
(0.9) t 
GR
GR
GS
[1 0 0 1 69 31] CT
0.149 GC
/Helvetica-Bold 10 F
GS
[1 0 0 1 0 0] CT
-6 2.5 moveto 
1 -1 scale
(1) t 
GR
GR
GS
0.6 0 0 RC
2 setlinecap
10.0 ML
2 LW
N
91.492 374 M
91.492 370.57 L
94.458 367.14 L
95.016 363.71 L
95.345 360.28 L
95.87 356.85 L
96.019 353.42 L
96.019 346.56 L
98.14 343.13 L
98.376 339.7 L
99.133 336.27 L
100.532 332.84 L
101.941 329.41 L
102.484 325.98 L
105.225 315.69 L
106.057 312.26 L
108.575 308.83 L
108.575 298.54 L
109.924 291.68 L
111.198 288.25 L
111.198 284.82 L
112.961 277.96 L
114.39 274.53 L
116.663 271.1 L
116.764 264.24 L
116.929 260.81 L
116.929 257.38 L
117.225 250.52 L
121 247.09 L
122.233 243.66 L
122.574 240.23 L
123.783 236.8 L
137.529 233.37 L
142.43 168.2 L
160.124 89.31 L
171.368 61.87 L
177.762 55.01 L
210.334 44.72 L
220.819 37.86 L
232.598 31 L
S
GR
GS
0.6 0 0 RC
2 setlinecap
10.0 ML
2 LW
N
87.592 377.9 M
87.592 370.1 L
95.392 370.1 L
95.392 377.9 L
87.592 377.9 L
S
GR
GS
0.6 0 0 RC
2 setlinecap
10.0 ML
2 LW
N
91.116 367.61 M
91.116 359.81 L
98.916 359.81 L
98.916 367.61 L
91.116 367.61 L
S
GR
GS
0.6 0 0 RC
2 setlinecap
10.0 ML
2 LW
N
92.119 357.32 M
92.119 349.52 L
99.919 349.52 L
99.919 357.32 L
92.119 357.32 L
S
GR
GS
0.6 0 0 RC
2 setlinecap
10.0 ML
2 LW
N
94.24 347.03 M
94.24 339.23 L
102.04 339.23 L
102.04 347.03 L
94.24 347.03 L
S
GR
GS
0.6 0 0 RC
2 setlinecap
10.0 ML
2 LW
N
96.632 336.74 M
96.632 328.94 L
104.432 328.94 L
104.432 336.74 L
96.632 336.74 L
S
GR
GS
0.6 0 0 RC
2 setlinecap
10.0 ML
2 LW
N
101.325 319.59 M
101.325 311.79 L
109.125 311.79 L
109.125 319.59 L
101.325 319.59 L
S
GR
GS
0.6 0 0 RC
2 setlinecap
10.0 ML
2 LW
N
104.675 302.44 M
104.675 294.64 L
112.475 294.64 L
112.475 302.44 L
104.675 302.44 L
S
GR
GS
0.6 0 0 RC
2 setlinecap
10.0 ML
2 LW
N
107.298 288.72 M
107.298 280.92 L
115.098 280.92 L
115.098 288.72 L
107.298 288.72 L
S
GR
GS
0.6 0 0 RC
2 setlinecap
10.0 ML
2 LW
N
110.49 278.43 M
110.49 270.63 L
118.289 270.63 L
118.289 278.43 L
110.49 278.43 L
S
GR
GS
0.6 0 0 RC
2 setlinecap
10.0 ML
2 LW
N
113.029 264.71 M
113.029 256.91 L
120.829 256.91 L
120.829 264.71 L
113.029 264.71 L
S
GR
GS
0.6 0 0 RC
2 setlinecap
10.0 ML
2 LW
N
117.1 250.99 M
117.1 243.19 L
124.9 243.19 L
124.9 250.99 L
117.1 250.99 L
S
GR
GS
0.6 0 0 RC
2 setlinecap
10.0 ML
2 LW
N
119.883 240.7 M
119.883 232.9 L
127.683 232.9 L
127.683 240.7 L
119.883 240.7 L
S
GR
GS
0.6 0 0 RC
2 setlinecap
10.0 ML
2 LW
N
138.53 172.1 M
138.53 164.3 L
146.33 164.3 L
146.33 172.1 L
138.53 172.1 L
S
GR
GS
0.6 0 0 RC
2 setlinecap
10.0 ML
2 LW
N
173.862 58.91 M
173.862 51.11 L
181.662 51.11 L
181.662 58.91 L
173.862 58.91 L
S
GR
GS
0.6 0 0 RC
2 setlinecap
10.0 ML
2 LW
N
228.698 34.9 M
228.698 27.1 L
236.498 27.1 L
236.498 34.9 L
228.698 34.9 L
S
GR
GS
0.6 0 0 RC
2 setlinecap
10.0 ML
2 LW
N
87.592 377.9 M
87.592 370.1 L
95.392 370.1 L
95.392 377.9 L
87.592 377.9 L
S
GR
GS
0 0.2 0.4 RC
2 setlinecap
10.0 ML
2 LW
N
91.492 374 M
91.492 370.57 L
104.622 367.14 L
107.678 363.71 L
108.448 360.28 L
110.227 356.85 L
111.323 353.42 L
116.764 349.99 L
117.01 346.56 L
119.038 343.13 L
121 339.7 L
122.694 336.27 L
124.448 332.84 L
125.266 329.41 L
125.482 325.98 L
127.038 322.55 L
128.185 319.12 L
128.533 315.69 L
129.077 308.83 L
129.118 305.4 L
129.333 301.97 L
130.174 298.54 L
130.58 295.11 L
132.166 291.68 L
132.796 288.25 L
133.424 284.82 L
135.926 281.39 L
135.926 277.96 L
137.45 274.53 L
137.45 271.1 L
139.113 267.67 L
140.034 264.24 L
141.33 260.81 L
141.609 257.38 L
142.456 253.95 L
142.47 250.52 L
142.473 247.09 L
142.477 243.66 L
142.48 240.23 L
142.48 236.8 L
142.49 233.37 L
142.498 229.94 L
144.15 226.51 L
145.837 223.08 L
146.522 219.65 L
146.847 216.22 L
147.643 212.79 L
148.861 209.36 L
148.962 205.93 L
150.428 202.5 L
S
GR
GS
0 0.2 0.4 RC
2 setlinecap
10.0 ML
2 LW
N
150.428 202.5 M
150.864 199.07 L
160.164 192.21 L
160.167 188.78 L
160.168 185.35 L
160.184 175.06 L
160.197 171.63 L
160.202 164.77 L
160.211 157.91 L
160.527 154.48 L
165.497 151.05 L
166.175 147.62 L
169.675 144.19 L
169.675 140.76 L
171.418 137.33 L
171.427 133.9 L
171.447 127.04 L
171.456 123.61 L
184.944 120.18 L
187.595 116.75 L
197.169 113.32 L
204.788 109.89 L
210.374 106.46 L
210.377 103.03 L
210.454 99.6 L
211.882 96.17 L
211.896 89.31 L
211.907 85.88 L
211.929 82.45 L
211.938 79.02 L
212.84 75.59 L
220.859 72.16 L
220.879 68.73 L
232.638 65.3 L
232.641 61.87 L
247.269 58.44 L
247.279 55.01 L
247.284 51.58 L
247.307 44.72 L
247.341 41.29 L
269.796 37.86 L
282.619 34.43 L
334.371 31 L
S
GR
GS
0 0.2 0.4 RC
2 setlinecap
10.0 ML
2 LW
N
96.492 374 M
95.537 371.061 L
93.037 369.245 L
89.947 369.245 L
87.447 371.061 L
86.492 374 L
87.447 376.939 L
89.947 378.755 L
93.037 378.755 L
95.537 376.939 L
96.492 374 L
S
GR
GS
0 0.2 0.4 RC
2 setlinecap
10.0 ML
2 LW
N
121.764 349.99 M
120.809 347.051 L
118.309 345.235 L
115.219 345.235 L
112.719 347.051 L
111.764 349.99 L
112.719 352.929 L
115.219 354.745 L
118.309 354.745 L
120.809 352.929 L
121.764 349.99 L
S
GR
GS
0 0.2 0.4 RC
2 setlinecap
10.0 ML
2 LW
N
130.266 329.41 M
129.311 326.471 L
126.811 324.655 L
123.721 324.655 L
121.221 326.471 L
120.266 329.41 L
121.221 332.349 L
123.721 334.165 L
126.811 334.165 L
129.311 332.349 L
130.266 329.41 L
S
GR
GS
0 0.2 0.4 RC
2 setlinecap
10.0 ML
2 LW
N
134.333 301.97 M
133.378 299.031 L
130.878 297.215 L
127.787 297.215 L
125.287 299.031 L
124.333 301.97 L
125.287 304.909 L
127.787 306.725 L
130.878 306.725 L
133.378 304.909 L
134.333 301.97 L
S
GR
GS
0 0.2 0.4 RC
2 setlinecap
10.0 ML
2 LW
N
140.926 281.39 M
139.971 278.451 L
137.471 276.635 L
134.381 276.635 L
131.881 278.451 L
130.926 281.39 L
131.881 284.329 L
134.381 286.145 L
137.471 286.145 L
139.971 284.329 L
140.926 281.39 L
S
GR
GS
0 0.2 0.4 RC
2 setlinecap
10.0 ML
2 LW
N
146.609 257.38 M
145.654 254.441 L
143.154 252.625 L
140.064 252.625 L
137.564 254.441 L
136.609 257.38 L
137.564 260.319 L
140.064 262.135 L
143.154 262.135 L
145.654 260.319 L
146.609 257.38 L
S
GR
GS
0 0.2 0.4 RC
2 setlinecap
10.0 ML
2 LW
N
147.48 236.8 M
146.525 233.861 L
144.025 232.045 L
140.935 232.045 L
138.435 233.861 L
137.48 236.8 L
138.435 239.739 L
140.935 241.555 L
144.025 241.555 L
146.525 239.739 L
147.48 236.8 L
S
GR
GS
0 0.2 0.4 RC
2 setlinecap
10.0 ML
2 LW
N
152.643 212.79 M
151.688 209.851 L
149.188 208.035 L
146.098 208.035 L
143.598 209.851 L
142.643 212.79 L
143.598 215.729 L
146.098 217.545 L
149.188 217.545 L
151.688 215.729 L
152.643 212.79 L
S
GR
GS
0 0.2 0.4 RC
2 setlinecap
10.0 ML
2 LW
N
165.167 188.78 M
164.212 185.841 L
161.712 184.025 L
158.622 184.025 L
156.122 185.841 L
155.167 188.78 L
156.122 191.719 L
158.622 193.535 L
161.712 193.535 L
164.212 191.719 L
165.167 188.78 L
S
GR
GS
0 0.2 0.4 RC
2 setlinecap
10.0 ML
2 LW
N
170.497 151.05 M
169.543 148.111 L
167.043 146.295 L
163.952 146.295 L
161.452 148.111 L
160.497 151.05 L
161.452 153.989 L
163.952 155.805 L
167.043 155.805 L
169.543 153.989 L
170.497 151.05 L
S
GR
GS
0 0.2 0.4 RC
2 setlinecap
10.0 ML
2 LW
N
176.447 127.04 M
175.492 124.101 L
172.992 122.285 L
169.902 122.285 L
167.402 124.101 L
166.447 127.04 L
167.402 129.979 L
169.902 131.795 L
172.992 131.795 L
175.492 129.979 L
176.447 127.04 L
S
GR
GS
0 0.2 0.4 RC
2 setlinecap
10.0 ML
2 LW
N
215.377 103.03 M
214.422 100.091 L
211.922 98.275 L
208.832 98.275 L
206.332 100.091 L
205.377 103.03 L
206.332 105.969 L
208.832 107.785 L
211.922 107.785 L
214.422 105.969 L
215.377 103.03 L
S
GR
GS
0 0.2 0.4 RC
2 setlinecap
10.0 ML
2 LW
N
216.938 79.02 M
215.983 76.081 L
213.483 74.265 L
210.393 74.265 L
207.893 76.081 L
206.938 79.02 L
207.893 81.959 L
210.393 83.775 L
213.483 83.775 L
215.983 81.959 L
216.938 79.02 L
S
GR
GS
0 0.2 0.4 RC
2 setlinecap
10.0 ML
2 LW
N
252.279 55.01 M
251.324 52.071 L
248.824 50.255 L
245.734 50.255 L
243.234 52.071 L
242.279 55.01 L
243.234 57.949 L
245.734 59.765 L
248.824 59.765 L
251.324 57.949 L
252.279 55.01 L
S
GR
GS
0 0.2 0.4 RC
2 setlinecap
10.0 ML
2 LW
N
339.371 31 M
338.416 28.061 L
335.916 26.245 L
332.826 26.245 L
330.326 28.061 L
329.371 31 L
330.326 33.939 L
332.826 35.755 L
335.916 35.755 L
338.416 33.939 L
339.371 31 L
S
GR
GS
0 0.2 0.4 RC
2 setlinecap
10.0 ML
2 LW
N
96.492 374 M
95.537 371.061 L
93.037 369.245 L
89.947 369.245 L
87.447 371.061 L
86.492 374 L
87.447 376.939 L
89.947 378.755 L
93.037 378.755 L
95.537 376.939 L
96.492 374 L
S
GR
GS
0.8 0.6 0.2 RC
2 setlinecap
10.0 ML
2 LW
N
73 374 M
73 360.28 L
101.072 356.85 L
103.42 353.42 L
103.481 349.99 L
103.865 346.56 L
104.486 343.13 L
108.996 339.7 L
109.168 336.27 L
111.159 332.84 L
111.732 329.41 L
112.704 325.98 L
113.641 322.55 L
115.578 319.12 L
119.119 315.69 L
119.442 312.26 L
120.43 308.83 L
121.505 305.4 L
121.587 301.97 L
122.591 298.54 L
123.932 295.11 L
124.172 291.68 L
125.538 288.25 L
125.837 284.82 L
126.174 281.39 L
127.768 277.96 L
128.377 274.53 L
129.144 271.1 L
129.291 267.67 L
129.468 264.24 L
129.516 260.81 L
130.566 257.38 L
133.871 253.95 L
134.251 250.52 L
135.865 247.09 L
138.327 243.66 L
138.451 240.23 L
138.59 236.8 L
139.819 233.37 L
147.576 229.94 L
150.377 226.51 L
152.942 223.08 L
153.619 219.65 L
155.243 216.22 L
157.476 212.79 L
160.115 209.36 L
163.7 205.93 L
167.55 202.5 L
168.196 199.07 L
171.788 195.64 L
S
GR
GS
0.8 0.6 0.2 RC
2 setlinecap
10.0 ML
2 LW
N
171.788 195.64 M
176.155 192.21 L
177.762 188.78 L
182.535 185.35 L
182.535 181.92 L
186.726 178.49 L
194.555 175.06 L
194.555 161.34 L
194.555 157.91 L
195.183 154.48 L
201.715 151.05 L
201.715 147.62 L
202.446 144.19 L
210.334 140.76 L
220.819 133.9 L
221.303 130.47 L
260.311 127.04 L
261.267 96.17 L
261.455 89.31 L
279.103 79.02 L
326.274 65.3 L
359.514 48.15 L
479 31 L
S
GR
GS
0.8 0.6 0.2 RC
2 setlinecap
10.0 ML
2 LW
N
68 374 M
78 374 L
S
GR
GS
0.8 0.6 0.2 RC
2 setlinecap
10.0 ML
2 LW
N
73 379 M
73 369 L
S
GR
GS
0.8 0.6 0.2 RC
2 setlinecap
10.0 ML
2 LW
N
69.464 377.536 M
76.536 370.464 L
S
GR
GS
0.8 0.6 0.2 RC
2 setlinecap
10.0 ML
2 LW
N
69.464 370.464 M
76.536 377.536 L
S
GR
GS
0.8 0.6 0.2 RC
2 setlinecap
10.0 ML
2 LW
N
98.865 346.56 M
108.865 346.56 L
S
GR
GS
0.8 0.6 0.2 RC
2 setlinecap
10.0 ML
2 LW
N
103.865 351.56 M
103.865 341.56 L
S
GR
GS
0.8 0.6 0.2 RC
2 setlinecap
10.0 ML
2 LW
N
100.33 350.096 M
107.401 343.024 L
S
GR
GS
0.8 0.6 0.2 RC
2 setlinecap
10.0 ML
2 LW
N
100.33 343.024 M
107.401 350.096 L
S
GR
GS
0.8 0.6 0.2 RC
2 setlinecap
10.0 ML
2 LW
N
106.732 329.41 M
116.732 329.41 L
S
GR
GS
0.8 0.6 0.2 RC
2 setlinecap
10.0 ML
2 LW
N
111.732 334.41 M
111.732 324.41 L
S
GR
GS
0.8 0.6 0.2 RC
2 setlinecap
10.0 ML
2 LW
N
108.196 332.946 M
115.267 325.874 L
S
GR
GS
0.8 0.6 0.2 RC
2 setlinecap
10.0 ML
2 LW
N
108.196 325.874 M
115.267 332.946 L
S
GR
GS
0.8 0.6 0.2 RC
2 setlinecap
10.0 ML
2 LW
N
114.442 312.26 M
124.442 312.26 L
S
GR
GS
0.8 0.6 0.2 RC
2 setlinecap
10.0 ML
2 LW
N
119.442 317.26 M
119.442 307.26 L
S
GR
GS
0.8 0.6 0.2 RC
2 setlinecap
10.0 ML
2 LW
N
115.907 315.796 M
122.978 308.724 L
S
GR
GS
0.8 0.6 0.2 RC
2 setlinecap
10.0 ML
2 LW
N
115.907 308.724 M
122.978 315.796 L
S
GR
GS
0.8 0.6 0.2 RC
2 setlinecap
10.0 ML
2 LW
N
118.932 295.11 M
128.932 295.11 L
S
GR
GS
0.8 0.6 0.2 RC
2 setlinecap
10.0 ML
2 LW
N
123.932 300.11 M
123.932 290.11 L
S
GR
GS
0.8 0.6 0.2 RC
2 setlinecap
10.0 ML
2 LW
N
120.396 298.646 M
127.467 291.574 L
S
GR
GS
0.8 0.6 0.2 RC
2 setlinecap
10.0 ML
2 LW
N
120.396 291.574 M
127.467 298.646 L
S
GR
GS
0.8 0.6 0.2 RC
2 setlinecap
10.0 ML
2 LW
N
122.768 277.96 M
132.768 277.96 L
S
GR
GS
0.8 0.6 0.2 RC
2 setlinecap
10.0 ML
2 LW
N
127.768 282.96 M
127.768 272.96 L
S
GR
GS
0.8 0.6 0.2 RC
2 setlinecap
10.0 ML
2 LW
N
124.232 281.496 M
131.303 274.424 L
S
GR
GS
0.8 0.6 0.2 RC
2 setlinecap
10.0 ML
2 LW
N
124.232 274.424 M
131.303 281.496 L
S
GR
GS
0.8 0.6 0.2 RC
2 setlinecap
10.0 ML
2 LW
N
124.516 260.81 M
134.516 260.81 L
S
GR
GS
0.8 0.6 0.2 RC
2 setlinecap
10.0 ML
2 LW
N
129.516 265.81 M
129.516 255.81 L
S
GR
GS
0.8 0.6 0.2 RC
2 setlinecap
10.0 ML
2 LW
N
125.98 264.346 M
133.051 257.274 L
S
GR
GS
0.8 0.6 0.2 RC
2 setlinecap
10.0 ML
2 LW
N
125.98 257.274 M
133.051 264.346 L
S
GR
GS
0.8 0.6 0.2 RC
2 setlinecap
10.0 ML
2 LW
N
133.451 240.23 M
143.451 240.23 L
S
GR
GS
0.8 0.6 0.2 RC
2 setlinecap
10.0 ML
2 LW
N
138.451 245.23 M
138.451 235.23 L
S
GR
GS
0.8 0.6 0.2 RC
2 setlinecap
10.0 ML
2 LW
N
134.915 243.766 M
141.986 236.694 L
S
GR
GS
0.8 0.6 0.2 RC
2 setlinecap
10.0 ML
2 LW
N
134.915 236.694 M
141.986 243.766 L
S
GR
GS
0.8 0.6 0.2 RC
2 setlinecap
10.0 ML
2 LW
N
147.942 223.08 M
157.942 223.08 L
S
GR
GS
0.8 0.6 0.2 RC
2 setlinecap
10.0 ML
2 LW
N
152.942 228.08 M
152.942 218.08 L
S
GR
GS
0.8 0.6 0.2 RC
2 setlinecap
10.0 ML
2 LW
N
149.406 226.616 M
156.477 219.544 L
S
GR
GS
0.8 0.6 0.2 RC
2 setlinecap
10.0 ML
2 LW
N
149.406 219.544 M
156.477 226.616 L
S
GR
GS
0.8 0.6 0.2 RC
2 setlinecap
10.0 ML
2 LW
N
158.7 205.93 M
168.7 205.93 L
S
GR
GS
0.8 0.6 0.2 RC
2 setlinecap
10.0 ML
2 LW
N
163.7 210.93 M
163.7 200.93 L
S
GR
GS
0.8 0.6 0.2 RC
2 setlinecap
10.0 ML
2 LW
N
160.165 209.466 M
167.236 202.394 L
S
GR
GS
0.8 0.6 0.2 RC
2 setlinecap
10.0 ML
2 LW
N
160.165 202.394 M
167.236 209.466 L
S
GR
GS
0.8 0.6 0.2 RC
2 setlinecap
10.0 ML
2 LW
N
172.762 188.78 M
182.762 188.78 L
S
GR
GS
0.8 0.6 0.2 RC
2 setlinecap
10.0 ML
2 LW
N
177.762 193.78 M
177.762 183.78 L
S
GR
GS
0.8 0.6 0.2 RC
2 setlinecap
10.0 ML
2 LW
N
174.227 192.316 M
181.298 185.244 L
S
GR
GS
0.8 0.6 0.2 RC
2 setlinecap
10.0 ML
2 LW
N
174.227 185.244 M
181.298 192.316 L
S
GR
GS
0.8 0.6 0.2 RC
2 setlinecap
10.0 ML
2 LW
N
189.555 161.34 M
199.555 161.34 L
S
GR
GS
0.8 0.6 0.2 RC
2 setlinecap
10.0 ML
2 LW
N
194.555 166.34 M
194.555 156.34 L
S
GR
GS
0.8 0.6 0.2 RC
2 setlinecap
10.0 ML
2 LW
N
191.02 164.876 M
198.091 157.804 L
S
GR
GS
0.8 0.6 0.2 RC
2 setlinecap
10.0 ML
2 LW
N
191.02 157.804 M
198.091 164.876 L
S
GR
GS
0.8 0.6 0.2 RC
2 setlinecap
10.0 ML
2 LW
N
197.446 144.19 M
207.446 144.19 L
S
GR
GS
0.8 0.6 0.2 RC
2 setlinecap
10.0 ML
2 LW
N
202.446 149.19 M
202.446 139.19 L
S
GR
GS
0.8 0.6 0.2 RC
2 setlinecap
10.0 ML
2 LW
N
198.911 147.726 M
205.982 140.654 L
S
GR
GS
0.8 0.6 0.2 RC
2 setlinecap
10.0 ML
2 LW
N
198.911 140.654 M
205.982 147.726 L
S
GR
GS
0.8 0.6 0.2 RC
2 setlinecap
10.0 ML
2 LW
N
256.267 96.17 M
266.267 96.17 L
S
GR
GS
0.8 0.6 0.2 RC
2 setlinecap
10.0 ML
2 LW
N
261.267 101.17 M
261.267 91.17 L
S
GR
GS
0.8 0.6 0.2 RC
2 setlinecap
10.0 ML
2 LW
N
257.731 99.706 M
264.802 92.634 L
S
GR
GS
0.8 0.6 0.2 RC
2 setlinecap
10.0 ML
2 LW
N
257.731 92.634 M
264.802 99.706 L
S
GR
GS
0.8 0.6 0.2 RC
2 setlinecap
10.0 ML
2 LW
N
474 31 M
484 31 L
S
GR
GS
0.8 0.6 0.2 RC
2 setlinecap
10.0 ML
2 LW
N
479 36 M
479 26 L
S
GR
GS
0.8 0.6 0.2 RC
2 setlinecap
10.0 ML
2 LW
N
475.465 34.536 M
482.536 27.464 L
S
GR
GS
0.8 0.6 0.2 RC
2 setlinecap
10.0 ML
2 LW
N
475.465 27.464 M
482.536 34.536 L
S
GR
GS
0.8 0.6 0.2 RC
2 setlinecap
10.0 ML
2 LW
N
68 374 M
78 374 L
S
GR
GS
0.8 0.6 0.2 RC
2 setlinecap
10.0 ML
2 LW
N
73 379 M
73 369 L
S
GR
GS
0.8 0.6 0.2 RC
2 setlinecap
10.0 ML
2 LW
N
69.464 377.536 M
76.536 370.464 L
S
GR
GS
0.8 0.6 0.2 RC
2 setlinecap
10.0 ML
2 LW
N
69.464 370.464 M
76.536 377.536 L
S
GR
GS
0 0.2 0 RC
2 setlinecap
10.0 ML
2 LW
N
73 374 M
73 360.28 L
103.865 356.85 L
104.486 353.42 L
111.159 349.99 L
113.641 346.56 L
121.505 343.13 L
126.174 339.7 L
126.828 336.27 L
128.377 332.84 L
129.144 329.41 L
132.43 325.98 L
133.523 322.55 L
134.046 319.12 L
136.54 315.69 L
138.392 312.26 L
138.451 308.83 L
138.632 305.4 L
139.546 301.97 L
139.819 298.54 L
140.869 295.11 L
141.537 291.68 L
143.778 288.25 L
147.576 284.82 L
147.642 281.39 L
150.92 277.96 L
151.558 274.53 L
151.8 271.1 L
153.761 267.67 L
154.447 264.24 L
157.476 260.81 L
160.115 257.38 L
162.315 253.95 L
163.726 250.52 L
164.245 247.09 L
168.196 243.66 L
169.39 240.23 L
175.344 236.8 L
176.893 233.37 L
178.951 229.94 L
182.535 226.51 L
184.631 223.08 L
188.086 219.65 L
188.63 216.22 L
191.347 212.79 L
194.555 202.5 L
195.183 199.07 L
198.953 195.64 L
201.715 192.21 L
202.446 188.78 L
S
GR
GS
0 0.2 0 RC
2 setlinecap
10.0 ML
2 LW
N
202.446 188.78 M
202.501 185.35 L
207.694 181.92 L
207.817 178.49 L
209.908 175.06 L
210.428 171.63 L
220.819 168.2 L
220.887 164.77 L
221.303 161.34 L
226.139 157.91 L
226.825 154.48 L
227.386 151.05 L
227.755 147.62 L
232.884 144.19 L
246.471 140.76 L
247.229 137.33 L
248.062 133.9 L
253.102 130.47 L
260.311 127.04 L
261.302 123.61 L
261.309 120.18 L
261.354 116.75 L
261.374 113.32 L
261.397 109.89 L
261.427 106.46 L
261.43 103.03 L
261.443 99.6 L
261.455 92.74 L
279.103 89.31 L
279.191 85.88 L
279.28 82.45 L
302.438 79.02 L
326.331 75.59 L
326.35 72.16 L
326.367 68.73 L
326.391 65.3 L
359.514 61.87 L
359.551 58.44 L
359.552 55.01 L
359.578 51.58 L
359.8 48.15 L
479.043 44.72 L
479.048 41.29 L
479.068 37.86 L
479.093 34.43 L
479.233 31 L
S
GR
GS
0 0.2 0 RC
2 setlinecap
10.0 ML
2 LW
N
67.228 377.332 M
78.772 377.332 L
73 367.335 L
67.228 377.332 L
S
GR
GS
0 0.2 0 RC
2 setlinecap
10.0 ML
2 LW
N
120.402 343.033 M
131.946 343.033 L
126.174 333.035 L
120.402 343.033 L
S
GR
GS
0 0.2 0 RC
2 setlinecap
10.0 ML
2 LW
N
128.275 322.453 M
139.818 322.453 L
134.046 312.455 L
128.275 322.453 L
S
GR
GS
0 0.2 0 RC
2 setlinecap
10.0 ML
2 LW
N
135.097 298.443 M
146.641 298.443 L
140.869 288.445 L
135.097 298.443 L
S
GR
GS
0 0.2 0 RC
2 setlinecap
10.0 ML
2 LW
N
146.028 274.432 M
157.571 274.432 L
151.8 264.435 L
146.028 274.432 L
S
GR
GS
0 0.2 0 RC
2 setlinecap
10.0 ML
2 LW
N
158.473 250.423 M
170.017 250.423 L
164.245 240.425 L
158.473 250.423 L
S
GR
GS
0 0.2 0 RC
2 setlinecap
10.0 ML
2 LW
N
176.764 229.842 M
188.307 229.842 L
182.535 219.845 L
176.764 229.842 L
S
GR
GS
0 0.2 0 RC
2 setlinecap
10.0 ML
2 LW
N
193.181 198.973 M
204.725 198.973 L
198.953 188.975 L
193.181 198.973 L
S
GR
GS
0 0.2 0 RC
2 setlinecap
10.0 ML
2 LW
N
204.656 174.963 M
216.2 174.963 L
210.428 164.965 L
204.656 174.963 L
S
GR
GS
0 0.2 0 RC
2 setlinecap
10.0 ML
2 LW
N
221.615 154.383 M
233.158 154.383 L
227.386 144.385 L
221.615 154.383 L
S
GR
GS
0 0.2 0 RC
2 setlinecap
10.0 ML
2 LW
N
254.539 130.372 M
266.083 130.372 L
260.311 120.375 L
254.539 130.372 L
S
GR
GS
0 0.2 0 RC
2 setlinecap
10.0 ML
2 LW
N
255.658 106.362 M
267.202 106.362 L
261.43 96.365 L
255.658 106.362 L
S
GR
GS
0 0.2 0 RC
2 setlinecap
10.0 ML
2 LW
N
320.559 78.923 M
332.103 78.923 L
326.331 68.925 L
320.559 78.923 L
S
GR
GS
0 0.2 0 RC
2 setlinecap
10.0 ML
2 LW
N
353.78 58.342 M
365.324 58.342 L
359.552 48.345 L
353.78 58.342 L
S
GR
GS
0 0.2 0 RC
2 setlinecap
10.0 ML
2 LW
N
473.461 34.333 M
485.005 34.333 L
479.233 24.335 L
473.461 34.333 L
S
GR
GS
0 0.2 0 RC
2 setlinecap
10.0 ML
2 LW
N
67.228 377.332 M
78.772 377.332 L
73 367.335 L
67.228 377.332 L
S
GR
GS
1 GC
N
423 125 M
423 72 L
500 72 L
500 125 L
cp
f
GR
GS
[1 0 0 1 462 79.92523] CT
/Helvetica-Bold 11 F
GS
[1 0 0 1 0 0] CT
0 3 moveto 
1 -1 scale
(Tree) t 
GR
GR
GS
0.6 0 0 RC
2 setlinecap
10.0 ML
2 LW
N
429 79.925 M
459 79.925 L
S
GR
GS
0.6 0 0 RC
2 setlinecap
10.0 ML
2 LW
N
440.6 83.4 M
440.6 75.6 L
448.4 75.6 L
448.4 83.4 L
440.6 83.4 L
S
GR
GS
[1 0 0 1 462 92.30841] CT
/Helvetica-Bold 11 F
GS
[1 0 0 1 0 0] CT
0 3 moveto 
1 -1 scale
(NC) t 
GR
GR
GS
0 0.2 0.4 RC
2 setlinecap
10.0 ML
2 LW
N
429 92.308 M
459 92.308 L
S
GR
GS
0 0.2 0.4 RC
2 setlinecap
10.0 ML
2 LW
N
449.5 92.5 M
448.545 89.561 L
446.045 87.745 L
442.955 87.745 L
440.455 89.561 L
439.5 92.5 L
440.455 95.439 L
442.955 97.255 L
446.045 97.255 L
448.545 95.439 L
449.5 92.5 L
S
GR
GS
[1 0 0 1 462 104.69159] CT
/Helvetica-Bold 11 F
GS
[1 0 0 1 0 0] CT
0 3 moveto 
1 -1 scale
(TC) t 
GR
GR
GS
0.8 0.6 0.2 RC
2 setlinecap
10.0 ML
2 LW
N
429 104.692 M
459 104.692 L
S
GR
GS
0.8 0.6 0.2 RC
2 setlinecap
10.0 ML
2 LW
N
439 104.5 M
450 104.5 L
S
GR
GS
0.8 0.6 0.2 RC
2 setlinecap
10.0 ML
2 LW
N
444.5 110 M
444.5 99 L
S
GR
GS
0.8 0.6 0.2 RC
2 setlinecap
10.0 ML
2 LW
N
440 109 M
449 100 L
S
GR
GS
0.8 0.6 0.2 RC
2 setlinecap
10.0 ML
2 LW
N
440 100 M
449 109 L
S
GR
GS
[1 0 0 1 462 117.07477] CT
/Helvetica-Bold 11 F
GS
[1 0 0 1 0 0] CT
0 3 moveto 
1 -1 scale
(NC-TC) t 
GR
GR
GS
0 0.2 0 RC
2 setlinecap
10.0 ML
2 LW
N
429 117.075 M
459 117.075 L
S
GR
GS
0 0.2 0 RC
2 setlinecap
10.0 ML
2 LW
N
438.728 120.832 M
450.272 120.832 L
444.5 110.835 L
438.728 120.832 L
S
GR
GS
0.149 GC
2 setlinecap
10.0 ML
N
423 125 M
423 72 L
500 72 L
500 125 L
423 125 L
S
GR
%%Trailer
%%Pages: 1
%%EOF
