%!PS-Adobe-3.0 EPSF-3.0
%%Creator: (MATLAB, The Mathworks, Inc. Version 8.5.0.197613 \(R2015a\). Operating System: Mac OS X)
%%Title: /Users/ashwinyakkundimath/Documents/Thesis_Results/plots/phy_mechs/MR_cdf_crosslayer_thr.eps
%%CreationDate: 2016-01-05T11:50:56
%%Pages: (atend)
%%BoundingBox: 0 0 560 420
%%LanguageLevel: 2
%%EndComments
%%BeginProlog
%%BeginResource: procset (Apache XML Graphics Std ProcSet) 1.2 0
%%Version: 1.2 0
%%Copyright: (Copyright 2001-2003,2010 The Apache Software Foundation. License terms: http://www.apache.org/licenses/LICENSE-2.0)
/bd{bind def}bind def
/ld{load def}bd
/GR/grestore ld
/M/moveto ld
/LJ/setlinejoin ld
/C/curveto ld
/f/fill ld
/LW/setlinewidth ld
/GC/setgray ld
/t/show ld
/N/newpath ld
/CT/concat ld
/cp/closepath ld
/S/stroke ld
/L/lineto ld
/CC/setcmykcolor ld
/A/ashow ld
/GS/gsave ld
/RC/setrgbcolor ld
/RM/rmoveto ld
/ML/setmiterlimit ld
/re {4 2 roll M
1 index 0 rlineto
0 exch rlineto
neg 0 rlineto
cp } bd
/_ctm matrix def
/_tm matrix def
/BT { _ctm currentmatrix pop matrix _tm copy pop 0 0 moveto } bd
/ET { _ctm setmatrix } bd
/iTm { _ctm setmatrix _tm concat } bd
/Tm { _tm astore pop iTm 0 0 moveto } bd
/ux 0.0 def
/uy 0.0 def
/F {
  /Tp exch def
  /Tf exch def
  Tf findfont Tp scalefont setfont
  /cf Tf def  /cs Tp def
} bd
/ULS {currentpoint /uy exch def /ux exch def} bd
/ULE {
  /Tcx currentpoint pop def
  gsave
  newpath
  cf findfont cs scalefont dup
  /FontMatrix get 0 get /Ts exch def /FontInfo get dup
  /UnderlinePosition get Ts mul /To exch def
  /UnderlineThickness get Ts mul /Tt exch def
  ux uy To add moveto  Tcx uy To add lineto
  Tt setlinewidth stroke
  grestore
} bd
/OLE {
  /Tcx currentpoint pop def
  gsave
  newpath
  cf findfont cs scalefont dup
  /FontMatrix get 0 get /Ts exch def /FontInfo get dup
  /UnderlinePosition get Ts mul /To exch def
  /UnderlineThickness get Ts mul /Tt exch def
  ux uy To add cs add moveto Tcx uy To add cs add lineto
  Tt setlinewidth stroke
  grestore
} bd
/SOE {
  /Tcx currentpoint pop def
  gsave
  newpath
  cf findfont cs scalefont dup
  /FontMatrix get 0 get /Ts exch def /FontInfo get dup
  /UnderlinePosition get Ts mul /To exch def
  /UnderlineThickness get Ts mul /Tt exch def
  ux uy To add cs 10 mul 26 idiv add moveto Tcx uy To add cs 10 mul 26 idiv add lineto
  Tt setlinewidth stroke
  grestore
} bd
/QT {
/Y22 exch store
/X22 exch store
/Y21 exch store
/X21 exch store
currentpoint
/Y21 load 2 mul add 3 div exch
/X21 load 2 mul add 3 div exch
/X21 load 2 mul /X22 load add 3 div
/Y21 load 2 mul /Y22 load add 3 div
/X22 load /Y22 load curveto
} bd
/SSPD {
dup length /d exch dict def
{
/v exch def
/k exch def
currentpagedevice k known {
/cpdv currentpagedevice k get def
v cpdv ne {
/upd false def
/nullv v type /nulltype eq def
/nullcpdv cpdv type /nulltype eq def
nullv nullcpdv or
{
/upd true def
} {
/sametype v type cpdv type eq def
sametype {
v type /arraytype eq {
/vlen v length def
/cpdvlen cpdv length def
vlen cpdvlen eq {
0 1 vlen 1 sub {
/i exch def
/obj v i get def
/cpdobj cpdv i get def
obj cpdobj ne {
/upd true def
exit
} if
} for
} {
/upd true def
} ifelse
} {
v type /dicttype eq {
v {
/dv exch def
/dk exch def
/cpddv cpdv dk get def
dv cpddv ne {
/upd true def
exit
} if
} forall
} {
/upd true def
} ifelse
} ifelse
} if
} ifelse
upd true eq {
d k v put
} if
} if
} if
} forall
d length 0 gt {
d setpagedevice
} if
} bd
%%EndResource
%%BeginResource: procset (Apache XML Graphics EPS ProcSet) 1.0 0
%%Version: 1.0 0
%%Copyright: (Copyright 2002-2003 The Apache Software Foundation. License terms: http://www.apache.org/licenses/LICENSE-2.0)
/BeginEPSF { %def
/b4_Inc_state save def         % Save state for cleanup
/dict_count countdictstack def % Count objects on dict stack
/op_count count 1 sub def      % Count objects on operand stack
userdict begin                 % Push userdict on dict stack
/showpage { } def              % Redefine showpage, { } = null proc
0 setgray 0 setlinecap         % Prepare graphics state
1 setlinewidth 0 setlinejoin
10 setmiterlimit [ ] 0 setdash newpath
/languagelevel where           % If level not equal to 1 then
{pop languagelevel             % set strokeadjust and
1 ne                           % overprint to their defaults.
{false setstrokeadjust false setoverprint
} if
} if
} bd
/EndEPSF { %def
count op_count sub {pop} repeat            % Clean up stacks
countdictstack dict_count sub {end} repeat
b4_Inc_state restore
} bd
%%EndResource
%FOPBeginFontDict
%%IncludeResource: font Courier-Bold
%%IncludeResource: font Helvetica
%%IncludeResource: font Courier-BoldOblique
%%IncludeResource: font Courier-Oblique
%%IncludeResource: font Times-Roman
%%IncludeResource: font Helvetica-BoldOblique
%%IncludeResource: font Helvetica-Bold
%%IncludeResource: font Helvetica-Oblique
%%IncludeResource: font Times-BoldItalic
%%IncludeResource: font Courier
%%IncludeResource: font Times-Italic
%%IncludeResource: font Times-Bold
%%IncludeResource: font Symbol
%%IncludeResource: font ZapfDingbats
%FOPEndFontDict
%%BeginResource: encoding WinAnsiEncoding
/WinAnsiEncoding [
/.notdef /.notdef /.notdef /.notdef /.notdef
/.notdef /.notdef /.notdef /.notdef /.notdef
/.notdef /.notdef /.notdef /.notdef /.notdef
/.notdef /.notdef /.notdef /.notdef /.notdef
/.notdef /.notdef /.notdef /.notdef /.notdef
/.notdef /.notdef /.notdef /.notdef /.notdef
/.notdef /.notdef /space /exclam /quotedbl
/numbersign /dollar /percent /ampersand /quotesingle
/parenleft /parenright /asterisk /plus /comma
/hyphen /period /slash /zero /one
/two /three /four /five /six
/seven /eight /nine /colon /semicolon
/less /equal /greater /question /at
/A /B /C /D /E
/F /G /H /I /J
/K /L /M /N /O
/P /Q /R /S /T
/U /V /W /X /Y
/Z /bracketleft /backslash /bracketright /asciicircum
/underscore /quoteleft /a /b /c
/d /e /f /g /h
/i /j /k /l /m
/n /o /p /q /r
/s /t /u /v /w
/x /y /z /braceleft /bar
/braceright /asciitilde /bullet /Euro /bullet
/quotesinglbase /florin /quotedblbase /ellipsis /dagger
/daggerdbl /circumflex /perthousand /Scaron /guilsinglleft
/OE /bullet /Zcaron /bullet /bullet
/quoteleft /quoteright /quotedblleft /quotedblright /bullet
/endash /emdash /asciitilde /trademark /scaron
/guilsinglright /oe /bullet /zcaron /Ydieresis
/space /exclamdown /cent /sterling /currency
/yen /brokenbar /section /dieresis /copyright
/ordfeminine /guillemotleft /logicalnot /sfthyphen /registered
/macron /degree /plusminus /twosuperior /threesuperior
/acute /mu /paragraph /middot /cedilla
/onesuperior /ordmasculine /guillemotright /onequarter /onehalf
/threequarters /questiondown /Agrave /Aacute /Acircumflex
/Atilde /Adieresis /Aring /AE /Ccedilla
/Egrave /Eacute /Ecircumflex /Edieresis /Igrave
/Iacute /Icircumflex /Idieresis /Eth /Ntilde
/Ograve /Oacute /Ocircumflex /Otilde /Odieresis
/multiply /Oslash /Ugrave /Uacute /Ucircumflex
/Udieresis /Yacute /Thorn /germandbls /agrave
/aacute /acircumflex /atilde /adieresis /aring
/ae /ccedilla /egrave /eacute /ecircumflex
/edieresis /igrave /iacute /icircumflex /idieresis
/eth /ntilde /ograve /oacute /ocircumflex
/otilde /odieresis /divide /oslash /ugrave
/uacute /ucircumflex /udieresis /yacute /thorn
/ydieresis
] def
%%EndResource
%FOPBeginFontReencode
/Courier-Bold findfont
dup length dict begin
  {1 index /FID ne {def} {pop pop} ifelse} forall
  /Encoding WinAnsiEncoding def
  currentdict
end
/Courier-Bold exch definefont pop
/Helvetica findfont
dup length dict begin
  {1 index /FID ne {def} {pop pop} ifelse} forall
  /Encoding WinAnsiEncoding def
  currentdict
end
/Helvetica exch definefont pop
/Courier-BoldOblique findfont
dup length dict begin
  {1 index /FID ne {def} {pop pop} ifelse} forall
  /Encoding WinAnsiEncoding def
  currentdict
end
/Courier-BoldOblique exch definefont pop
/Courier-Oblique findfont
dup length dict begin
  {1 index /FID ne {def} {pop pop} ifelse} forall
  /Encoding WinAnsiEncoding def
  currentdict
end
/Courier-Oblique exch definefont pop
/Times-Roman findfont
dup length dict begin
  {1 index /FID ne {def} {pop pop} ifelse} forall
  /Encoding WinAnsiEncoding def
  currentdict
end
/Times-Roman exch definefont pop
/Helvetica-BoldOblique findfont
dup length dict begin
  {1 index /FID ne {def} {pop pop} ifelse} forall
  /Encoding WinAnsiEncoding def
  currentdict
end
/Helvetica-BoldOblique exch definefont pop
/Helvetica-Bold findfont
dup length dict begin
  {1 index /FID ne {def} {pop pop} ifelse} forall
  /Encoding WinAnsiEncoding def
  currentdict
end
/Helvetica-Bold exch definefont pop
/Helvetica-Oblique findfont
dup length dict begin
  {1 index /FID ne {def} {pop pop} ifelse} forall
  /Encoding WinAnsiEncoding def
  currentdict
end
/Helvetica-Oblique exch definefont pop
/Times-BoldItalic findfont
dup length dict begin
  {1 index /FID ne {def} {pop pop} ifelse} forall
  /Encoding WinAnsiEncoding def
  currentdict
end
/Times-BoldItalic exch definefont pop
/Courier findfont
dup length dict begin
  {1 index /FID ne {def} {pop pop} ifelse} forall
  /Encoding WinAnsiEncoding def
  currentdict
end
/Courier exch definefont pop
/Times-Italic findfont
dup length dict begin
  {1 index /FID ne {def} {pop pop} ifelse} forall
  /Encoding WinAnsiEncoding def
  currentdict
end
/Times-Italic exch definefont pop
/Times-Bold findfont
dup length dict begin
  {1 index /FID ne {def} {pop pop} ifelse} forall
  /Encoding WinAnsiEncoding def
  currentdict
end
/Times-Bold exch definefont pop
%FOPEndFontReencode
%%EndProlog
%%Page: 1 1
%%PageBoundingBox: 0 0 560 420
%%BeginPageSetup
[1 0 0 -1 0 420] CT
%%EndPageSetup
GS
1 GC
N
0 0 560 420 re
f
GR
GS
1 GC
N
0 0 560 420 re
f
GR
GS
1 GC
N
73 374 M
507 374 L
507 31 L
73 31 L
cp
f
GR
GS
0.873 GC
2 setlinecap
10.0 ML
N
73 374 M
73 31 L
S
GR
GS
0.873 GC
2 setlinecap
10.0 ML
N
116.4 374 M
116.4 31 L
S
GR
GS
0.873 GC
2 setlinecap
10.0 ML
N
159.8 374 M
159.8 31 L
S
GR
GS
0.873 GC
2 setlinecap
10.0 ML
N
203.2 374 M
203.2 31 L
S
GR
GS
0.873 GC
2 setlinecap
10.0 ML
N
246.6 374 M
246.6 31 L
S
GR
GS
0.873 GC
2 setlinecap
10.0 ML
N
290 374 M
290 31 L
S
GR
GS
0.873 GC
2 setlinecap
10.0 ML
N
333.4 374 M
333.4 31 L
S
GR
GS
0.873 GC
2 setlinecap
10.0 ML
N
376.8 374 M
376.8 31 L
S
GR
GS
0.873 GC
2 setlinecap
10.0 ML
N
420.2 374 M
420.2 31 L
S
GR
GS
0.873 GC
2 setlinecap
10.0 ML
N
463.6 374 M
463.6 31 L
S
GR
GS
0.873 GC
2 setlinecap
10.0 ML
N
507 374 M
507 31 L
S
GR
GS
0.873 GC
2 setlinecap
10.0 ML
N
507 374 M
73 374 L
S
GR
GS
0.873 GC
2 setlinecap
10.0 ML
N
507 339.7 M
73 339.7 L
S
GR
GS
0.873 GC
2 setlinecap
10.0 ML
N
507 305.4 M
73 305.4 L
S
GR
GS
0.873 GC
2 setlinecap
10.0 ML
N
507 271.1 M
73 271.1 L
S
GR
GS
0.873 GC
2 setlinecap
10.0 ML
N
507 236.8 M
73 236.8 L
S
GR
GS
0.873 GC
2 setlinecap
10.0 ML
N
507 202.5 M
73 202.5 L
S
GR
GS
0.873 GC
2 setlinecap
10.0 ML
N
507 168.2 M
73 168.2 L
S
GR
GS
0.873 GC
2 setlinecap
10.0 ML
N
507 133.9 M
73 133.9 L
S
GR
GS
0.873 GC
2 setlinecap
10.0 ML
N
507 99.6 M
73 99.6 L
S
GR
GS
0.873 GC
2 setlinecap
10.0 ML
N
507 65.3 M
73 65.3 L
S
GR
GS
0.873 GC
2 setlinecap
10.0 ML
N
507 31 M
73 31 L
S
GR
GS
[1 0 0 1 290.00021 390] CT
0.149 GC
/Helvetica-Bold 11 F
GS
[1 0 0 1 0 0] CT
-52 9 moveto 
1 -1 scale
(System Throughput) t 
GR
GR
GS
0.149 GC
2 setlinecap
10.0 ML
N
73 374 M
507 374 L
S
GR
GS
0.149 GC
2 setlinecap
10.0 ML
N
73 374 M
73 369.66 L
S
GR
GS
0.149 GC
2 setlinecap
10.0 ML
N
116.4 374 M
116.4 369.66 L
S
GR
GS
0.149 GC
2 setlinecap
10.0 ML
N
159.8 374 M
159.8 369.66 L
S
GR
GS
0.149 GC
2 setlinecap
10.0 ML
N
203.2 374 M
203.2 369.66 L
S
GR
GS
0.149 GC
2 setlinecap
10.0 ML
N
246.6 374 M
246.6 369.66 L
S
GR
GS
0.149 GC
2 setlinecap
10.0 ML
N
290 374 M
290 369.66 L
S
GR
GS
0.149 GC
2 setlinecap
10.0 ML
N
333.4 374 M
333.4 369.66 L
S
GR
GS
0.149 GC
2 setlinecap
10.0 ML
N
376.8 374 M
376.8 369.66 L
S
GR
GS
0.149 GC
2 setlinecap
10.0 ML
N
420.2 374 M
420.2 369.66 L
S
GR
GS
0.149 GC
2 setlinecap
10.0 ML
N
463.6 374 M
463.6 369.66 L
S
GR
GS
0.149 GC
2 setlinecap
10.0 ML
N
507 374 M
507 369.66 L
S
GR
GS
[1 0 0 1 73 378] CT
0.149 GC
/Helvetica-Bold 10 F
GS
[1 0 0 1 0 0] CT
-3 8 moveto 
1 -1 scale
(0) t 
GR
GR
GS
[1 0 0 1 116.4 378] CT
0.149 GC
/Helvetica-Bold 10 F
GS
[1 0 0 1 0 0] CT
-7 8 moveto 
1 -1 scale
(0.1) t 
GR
GR
GS
[1 0 0 1 159.8 378] CT
0.149 GC
/Helvetica-Bold 10 F
GS
[1 0 0 1 0 0] CT
-7 8 moveto 
1 -1 scale
(0.2) t 
GR
GR
GS
[1 0 0 1 203.20001 378] CT
0.149 GC
/Helvetica-Bold 10 F
GS
[1 0 0 1 0 0] CT
-7 8 moveto 
1 -1 scale
(0.3) t 
GR
GR
GS
[1 0 0 1 246.60001 378] CT
0.149 GC
/Helvetica-Bold 10 F
GS
[1 0 0 1 0 0] CT
-7 8 moveto 
1 -1 scale
(0.4) t 
GR
GR
GS
[1 0 0 1 290 378] CT
0.149 GC
/Helvetica-Bold 10 F
GS
[1 0 0 1 0 0] CT
-7 8 moveto 
1 -1 scale
(0.5) t 
GR
GR
GS
[1 0 0 1 333.40002 378] CT
0.149 GC
/Helvetica-Bold 10 F
GS
[1 0 0 1 0 0] CT
-7 8 moveto 
1 -1 scale
(0.6) t 
GR
GR
GS
[1 0 0 1 376.79999 378] CT
0.149 GC
/Helvetica-Bold 10 F
GS
[1 0 0 1 0 0] CT
-7 8 moveto 
1 -1 scale
(0.7) t 
GR
GR
GS
[1 0 0 1 420.20001 378] CT
0.149 GC
/Helvetica-Bold 10 F
GS
[1 0 0 1 0 0] CT
-7 8 moveto 
1 -1 scale
(0.8) t 
GR
GR
GS
[1 0 0 1 463.59998 378] CT
0.149 GC
/Helvetica-Bold 10 F
GS
[1 0 0 1 0 0] CT
-7 8 moveto 
1 -1 scale
(0.9) t 
GR
GR
GS
[1 0 0 1 507 378] CT
0.149 GC
/Helvetica-Bold 10 F
GS
[1 0 0 1 0 0] CT
-3 8 moveto 
1 -1 scale
(1) t 
GR
GR
GS
[0 -1 1 0 52 202.49983] CT
0.149 GC
/Helvetica-Bold 11 F
GS
[1 0 0 1 0 0] CT
-60 -3 moveto 
1 -1 scale
(Cumulative Probability) t 
GR
GR
GS
0.149 GC
2 setlinecap
10.0 ML
N
73 374 M
73 31 L
S
GR
GS
0.149 GC
2 setlinecap
10.0 ML
N
73 374 M
77.34 374 L
S
GR
GS
0.149 GC
2 setlinecap
10.0 ML
N
73 339.7 M
77.34 339.7 L
S
GR
GS
0.149 GC
2 setlinecap
10.0 ML
N
73 305.4 M
77.34 305.4 L
S
GR
GS
0.149 GC
2 setlinecap
10.0 ML
N
73 271.1 M
77.34 271.1 L
S
GR
GS
0.149 GC
2 setlinecap
10.0 ML
N
73 236.8 M
77.34 236.8 L
S
GR
GS
0.149 GC
2 setlinecap
10.0 ML
N
73 202.5 M
77.34 202.5 L
S
GR
GS
0.149 GC
2 setlinecap
10.0 ML
N
73 168.2 M
77.34 168.2 L
S
GR
GS
0.149 GC
2 setlinecap
10.0 ML
N
73 133.9 M
77.34 133.9 L
S
GR
GS
0.149 GC
2 setlinecap
10.0 ML
N
73 99.6 M
77.34 99.6 L
S
GR
GS
0.149 GC
2 setlinecap
10.0 ML
N
73 65.3 M
77.34 65.3 L
S
GR
GS
0.149 GC
2 setlinecap
10.0 ML
N
73 31 M
77.34 31 L
S
GR
GS
[1 0 0 1 69 374] CT
0.149 GC
/Helvetica-Bold 10 F
GS
[1 0 0 1 0 0] CT
-6 2.5 moveto 
1 -1 scale
(0) t 
GR
GR
GS
[1 0 0 1 69 339.70001] CT
0.149 GC
/Helvetica-Bold 10 F
GS
[1 0 0 1 0 0] CT
-14 2.5 moveto 
1 -1 scale
(0.1) t 
GR
GR
GS
[1 0 0 1 69 305.39999] CT
0.149 GC
/Helvetica-Bold 10 F
GS
[1 0 0 1 0 0] CT
-14 2.5 moveto 
1 -1 scale
(0.2) t 
GR
GR
GS
[1 0 0 1 69 271.10001] CT
0.149 GC
/Helvetica-Bold 10 F
GS
[1 0 0 1 0 0] CT
-14 2.5 moveto 
1 -1 scale
(0.3) t 
GR
GR
GS
[1 0 0 1 69 236.8] CT
0.149 GC
/Helvetica-Bold 10 F
GS
[1 0 0 1 0 0] CT
-14 2.5 moveto 
1 -1 scale
(0.4) t 
GR
GR
GS
[1 0 0 1 69 202.5] CT
0.149 GC
/Helvetica-Bold 10 F
GS
[1 0 0 1 0 0] CT
-14 2.5 moveto 
1 -1 scale
(0.5) t 
GR
GR
GS
[1 0 0 1 69 168.2] CT
0.149 GC
/Helvetica-Bold 10 F
GS
[1 0 0 1 0 0] CT
-14 2.5 moveto 
1 -1 scale
(0.6) t 
GR
GR
GS
[1 0 0 1 69 133.90001] CT
0.149 GC
/Helvetica-Bold 10 F
GS
[1 0 0 1 0 0] CT
-14 2.5 moveto 
1 -1 scale
(0.7) t 
GR
GR
GS
[1 0 0 1 69 99.6] CT
0.149 GC
/Helvetica-Bold 10 F
GS
[1 0 0 1 0 0] CT
-14 2.5 moveto 
1 -1 scale
(0.8) t 
GR
GR
GS
[1 0 0 1 69 65.30001] CT
0.149 GC
/Helvetica-Bold 10 F
GS
[1 0 0 1 0 0] CT
-14 2.5 moveto 
1 -1 scale
(0.9) t 
GR
GR
GS
[1 0 0 1 69 31] CT
0.149 GC
/Helvetica-Bold 10 F
GS
[1 0 0 1 0 0] CT
-6 2.5 moveto 
1 -1 scale
(1) t 
GR
GR
GS
0.6 0 0 RC
2 LJ
2 LW
N
98.342 374 M
98.342 370.57 L
106.348 367.14 L
107.582 363.71 L
111.617 360.28 L
111.748 356.85 L
113.395 353.42 L
115.462 349.99 L
117.638 346.56 L
120.628 343.13 L
121.602 339.7 L
122.862 336.27 L
124.366 332.84 L
125.532 329.41 L
126.303 325.98 L
127.96 322.55 L
128.143 319.12 L
129.308 315.69 L
129.517 312.26 L
132.955 305.4 L
134.731 301.97 L
135.185 298.54 L
135.937 295.11 L
136.446 291.68 L
136.594 288.25 L
138.502 284.82 L
140.36 281.39 L
140.457 277.96 L
142.575 274.53 L
144.721 271.1 L
144.91 267.67 L
145.024 264.24 L
145.371 260.81 L
147.516 257.38 L
150.57 253.95 L
151.547 250.52 L
160.115 247.09 L
160.138 243.66 L
163.051 240.23 L
167.55 236.8 L
172.19 233.37 L
177.867 229.94 L
182.535 226.51 L
182.979 223.08 L
194.555 219.65 L
194.555 212.79 L
196.181 209.36 L
201.715 205.93 L
201.715 202.5 L
202.446 199.07 L
S
GR
GS
0.6 0 0 RC
2 LJ
2 LW
N
202.446 199.07 M
210.411 195.64 L
210.438 192.21 L
210.455 188.78 L
210.463 181.92 L
220.819 178.49 L
220.896 175.06 L
220.917 171.63 L
220.929 168.2 L
220.967 164.77 L
221.303 161.34 L
230.113 157.91 L
232.744 154.48 L
261.353 151.05 L
261.354 147.62 L
261.361 144.19 L
261.383 140.76 L
261.396 137.33 L
261.426 130.47 L
279.212 127.04 L
279.251 123.61 L
279.263 116.75 L
279.29 113.32 L
326.369 109.89 L
326.378 106.46 L
326.403 103.03 L
326.434 99.6 L
326.461 92.74 L
326.462 89.31 L
359.601 82.45 L
359.604 79.02 L
359.623 75.59 L
359.66 72.16 L
359.662 68.73 L
359.662 65.3 L
359.673 61.87 L
479.129 58.44 L
479.137 51.58 L
479.146 34.43 L
479.253 31 L
S
GR
GS
0.6 0 0 RC
2 LJ
2 LW
N
94.442 377.9 M
94.442 370.1 L
102.242 370.1 L
102.242 377.9 L
94.442 377.9 L
S
GR
GS
0.6 0 0 RC
2 LJ
2 LW
N
109.495 357.32 M
109.495 349.52 L
117.295 349.52 L
117.295 357.32 L
109.495 357.32 L
S
GR
GS
0.6 0 0 RC
2 LJ
2 LW
N
121.632 333.31 M
121.632 325.51 L
129.432 325.51 L
129.432 333.31 L
121.632 333.31 L
S
GR
GS
0.6 0 0 RC
2 LJ
2 LW
N
129.055 309.3 M
129.055 301.5 L
136.855 301.5 L
136.855 309.3 L
129.055 309.3 L
S
GR
GS
0.6 0 0 RC
2 LJ
2 LW
N
134.602 288.72 M
134.602 280.92 L
142.402 280.92 L
142.402 288.72 L
134.602 288.72 L
S
GR
GS
0.6 0 0 RC
2 LJ
2 LW
N
141.124 268.14 M
141.124 260.34 L
148.924 260.34 L
148.924 268.14 L
141.124 268.14 L
S
GR
GS
0.6 0 0 RC
2 LJ
2 LW
N
159.151 244.13 M
159.151 236.33 L
166.951 236.33 L
166.951 244.13 L
159.151 244.13 L
S
GR
GS
0.6 0 0 RC
2 LJ
2 LW
N
190.655 223.55 M
190.655 215.75 L
198.455 215.75 L
198.455 223.55 L
190.655 223.55 L
S
GR
GS
0.6 0 0 RC
2 LJ
2 LW
N
206.511 199.54 M
206.511 191.74 L
214.311 191.74 L
214.311 199.54 L
206.511 199.54 L
S
GR
GS
0.6 0 0 RC
2 LJ
2 LW
N
217.029 172.1 M
217.029 164.3 L
224.829 164.3 L
224.829 172.1 L
217.029 172.1 L
S
GR
GS
0.6 0 0 RC
2 LJ
2 LW
N
257.454 151.52 M
257.454 143.72 L
265.254 143.72 L
265.254 151.52 L
257.454 151.52 L
S
GR
GS
0.6 0 0 RC
2 LJ
2 LW
N
275.351 127.51 M
275.351 119.71 L
283.151 119.71 L
283.151 127.51 L
275.351 127.51 L
S
GR
GS
0.6 0 0 RC
2 LJ
2 LW
N
322.534 103.5 M
322.534 95.7 L
330.334 95.7 L
330.334 103.5 L
322.534 103.5 L
S
GR
GS
0.6 0 0 RC
2 LJ
2 LW
N
355.762 72.63 M
355.762 64.83 L
363.562 64.83 L
363.562 72.63 L
355.762 72.63 L
S
GR
GS
0.6 0 0 RC
2 LJ
2 LW
N
475.353 34.9 M
475.353 27.1 L
483.153 27.1 L
483.153 34.9 L
475.353 34.9 L
S
GR
GS
0.6 0 0 RC
2 LJ
2 LW
N
94.442 377.9 M
94.442 370.1 L
102.242 370.1 L
102.242 377.9 L
94.442 377.9 L
S
GR
GS
0 0.2 0.4 RC
2 LJ
2 LW
N
98.342 374 M
98.342 370.57 L
123.003 367.14 L
126.851 363.71 L
130.793 360.28 L
134.688 356.85 L
135.418 353.42 L
143.889 349.99 L
144.91 346.56 L
145.414 343.13 L
147.083 339.7 L
149.668 336.27 L
153.458 332.84 L
153.692 329.41 L
156.924 325.98 L
157.105 322.55 L
157.209 319.12 L
158.191 315.69 L
160.115 312.26 L
160.138 308.83 L
164.329 305.4 L
164.604 301.97 L
165.986 298.54 L
167.707 295.11 L
167.968 291.68 L
168.598 288.25 L
168.833 284.82 L
169.967 281.39 L
169.995 277.96 L
170.801 274.53 L
172.19 271.1 L
172.781 267.67 L
174.69 264.24 L
175.084 260.81 L
175.42 257.38 L
176.273 253.95 L
178.489 250.52 L
179.102 247.09 L
179.915 243.66 L
181.836 240.23 L
182.535 236.8 L
182.863 233.37 L
188.789 229.94 L
192.359 226.51 L
194.555 219.65 L
201.715 212.79 L
202.446 209.36 L
210.438 205.93 L
210.457 202.5 L
215.553 199.07 L
S
GR
GS
0 0.2 0.4 RC
2 LJ
2 LW
N
215.553 199.07 M
220.896 195.64 L
220.896 192.21 L
222.362 188.78 L
226.446 185.35 L
230.113 181.92 L
231.012 178.49 L
232.744 175.06 L
232.884 171.63 L
247.387 168.2 L
247.391 164.77 L
261.353 161.34 L
261.361 157.91 L
261.377 154.48 L
261.383 151.05 L
261.396 147.62 L
261.441 144.19 L
263.19 140.76 L
266.76 137.33 L
269.924 133.9 L
279.212 130.47 L
279.251 127.04 L
279.263 123.61 L
279.29 120.18 L
280.877 116.75 L
326.39 113.32 L
326.403 109.89 L
326.413 106.46 L
326.434 103.03 L
326.461 96.17 L
326.507 92.74 L
331.893 89.31 L
359.604 85.88 L
359.621 82.45 L
359.627 79.02 L
359.66 75.59 L
359.673 72.16 L
359.688 68.73 L
387.225 61.87 L
479.137 58.44 L
479.14 55.01 L
479.146 41.29 L
479.165 37.86 L
479.174 34.43 L
479.253 31 L
S
GR
GS
0 0.2 0.4 RC
2 LJ
2 LW
N
103.342 374 M
102.387 371.061 L
99.887 369.245 L
96.797 369.245 L
94.297 371.061 L
93.342 374 L
94.297 376.939 L
96.797 378.755 L
99.887 378.755 L
102.387 376.939 L
103.342 374 L
S
GR
GS
0 0.2 0.4 RC
2 LJ
2 LW
N
148.889 349.99 M
147.934 347.051 L
145.434 345.235 L
142.344 345.235 L
139.844 347.051 L
138.889 349.99 L
139.844 352.929 L
142.344 354.745 L
145.434 354.745 L
147.934 352.929 L
148.889 349.99 L
S
GR
GS
0 0.2 0.4 RC
2 LJ
2 LW
N
158.692 329.41 M
157.737 326.471 L
155.237 324.655 L
152.147 324.655 L
149.647 326.471 L
148.692 329.41 L
149.647 332.349 L
152.147 334.165 L
155.237 334.165 L
157.737 332.349 L
158.692 329.41 L
S
GR
GS
0 0.2 0.4 RC
2 LJ
2 LW
N
169.329 305.4 M
168.374 302.461 L
165.874 300.645 L
162.784 300.645 L
160.284 302.461 L
159.329 305.4 L
160.284 308.339 L
162.784 310.155 L
165.874 310.155 L
168.374 308.339 L
169.329 305.4 L
S
GR
GS
0 0.2 0.4 RC
2 LJ
2 LW
N
174.967 281.39 M
174.012 278.451 L
171.512 276.635 L
168.422 276.635 L
165.922 278.451 L
164.967 281.39 L
165.922 284.329 L
168.422 286.145 L
171.512 286.145 L
174.012 284.329 L
174.967 281.39 L
S
GR
GS
0 0.2 0.4 RC
2 LJ
2 LW
N
180.084 260.81 M
179.129 257.871 L
176.629 256.055 L
173.539 256.055 L
171.039 257.871 L
170.084 260.81 L
171.039 263.749 L
173.539 265.565 L
176.629 265.565 L
179.129 263.749 L
180.084 260.81 L
S
GR
GS
0 0.2 0.4 RC
2 LJ
2 LW
N
187.535 236.8 M
186.581 233.861 L
184.081 232.045 L
180.99 232.045 L
178.49 233.861 L
177.535 236.8 L
178.49 239.739 L
180.99 241.555 L
184.081 241.555 L
186.581 239.739 L
187.535 236.8 L
S
GR
GS
0 0.2 0.4 RC
2 LJ
2 LW
N
215.438 205.93 M
214.483 202.991 L
211.983 201.175 L
208.893 201.175 L
206.393 202.991 L
205.438 205.93 L
206.393 208.869 L
208.893 210.685 L
211.983 210.685 L
214.483 208.869 L
215.438 205.93 L
S
GR
GS
0 0.2 0.4 RC
2 LJ
2 LW
N
231.446 185.35 M
230.492 182.411 L
227.992 180.595 L
224.901 180.595 L
222.401 182.411 L
221.446 185.35 L
222.401 188.289 L
224.901 190.105 L
227.992 190.105 L
230.492 188.289 L
231.446 185.35 L
S
GR
GS
0 0.2 0.4 RC
2 LJ
2 LW
N
266.353 161.34 M
265.398 158.401 L
262.898 156.585 L
259.808 156.585 L
257.308 158.401 L
256.353 161.34 L
257.308 164.279 L
259.808 166.095 L
262.898 166.095 L
265.398 164.279 L
266.353 161.34 L
S
GR
GS
0 0.2 0.4 RC
2 LJ
2 LW
N
268.19 140.76 M
267.236 137.821 L
264.736 136.005 L
261.645 136.005 L
259.145 137.821 L
258.19 140.76 L
259.145 143.699 L
261.645 145.515 L
264.736 145.515 L
267.236 143.699 L
268.19 140.76 L
S
GR
GS
0 0.2 0.4 RC
2 LJ
2 LW
N
285.877 116.75 M
284.922 113.811 L
282.422 111.995 L
279.332 111.995 L
276.832 113.811 L
275.877 116.75 L
276.832 119.689 L
279.332 121.505 L
282.422 121.505 L
284.922 119.689 L
285.877 116.75 L
S
GR
GS
0 0.2 0.4 RC
2 LJ
2 LW
N
336.893 89.31 M
335.938 86.371 L
333.438 84.555 L
330.348 84.555 L
327.848 86.371 L
326.893 89.31 L
327.848 92.249 L
330.348 94.065 L
333.438 94.065 L
335.938 92.249 L
336.893 89.31 L
S
GR
GS
0 0.2 0.4 RC
2 LJ
2 LW
N
364.688 68.73 M
363.733 65.791 L
361.233 63.975 L
358.143 63.975 L
355.643 65.791 L
354.688 68.73 L
355.643 71.669 L
358.143 73.485 L
361.233 73.485 L
363.733 71.669 L
364.688 68.73 L
S
GR
GS
0 0.2 0.4 RC
2 LJ
2 LW
N
484.253 31 M
483.298 28.061 L
480.798 26.245 L
477.708 26.245 L
475.208 28.061 L
474.253 31 L
475.208 33.939 L
477.708 35.755 L
480.798 35.755 L
483.298 33.939 L
484.253 31 L
S
GR
GS
0 0.2 0.4 RC
2 LJ
2 LW
N
103.342 374 M
102.387 371.061 L
99.887 369.245 L
96.797 369.245 L
94.297 371.061 L
93.342 374 L
94.297 376.939 L
96.797 378.755 L
99.887 378.755 L
102.387 376.939 L
103.342 374 L
S
GR
GS
0.8 0.6 0.2 RC
2 LJ
2 LW
N
73 374 M
73 360.28 L
107.719 356.85 L
110.557 353.42 L
111.953 349.99 L
116.866 346.56 L
117.863 343.13 L
118.48 339.7 L
118.545 336.27 L
120.166 332.84 L
122.576 329.41 L
124.451 325.98 L
125.418 322.55 L
127.025 319.12 L
129.24 315.69 L
129.49 312.26 L
130.86 308.83 L
132.589 305.4 L
135.446 301.97 L
135.704 298.54 L
136.137 295.11 L
136.446 291.68 L
136.857 288.25 L
137.036 284.82 L
137.287 281.39 L
138.451 277.96 L
139.981 274.53 L
140.526 271.1 L
141.992 267.67 L
142.383 264.24 L
143.873 260.81 L
146.673 257.38 L
147.792 253.95 L
148.307 250.52 L
150.354 247.09 L
150.377 243.66 L
156.002 240.23 L
156.823 236.8 L
163.051 233.37 L
167.412 229.94 L
168.853 226.51 L
168.94 223.08 L
173.002 219.65 L
176.938 216.22 L
177.308 212.79 L
180.065 209.36 L
182.054 205.93 L
182.979 202.5 L
188.232 199.07 L
190.322 195.64 L
S
GR
GS
0.8 0.6 0.2 RC
2 LJ
2 LW
N
190.322 195.64 M
201.715 192.21 L
201.715 188.78 L
202.446 181.92 L
202.446 178.49 L
210.471 175.06 L
216.215 171.63 L
219.575 168.2 L
220.819 164.77 L
220.924 161.34 L
220.967 157.91 L
221.303 151.05 L
221.303 147.62 L
230.113 144.19 L
231.338 140.76 L
260.311 130.47 L
261.267 127.04 L
261.455 109.89 L
279.309 106.46 L
286.22 103.03 L
326.462 99.6 L
326.527 89.31 L
359.514 82.45 L
359.702 72.16 L
359.72 65.3 L
359.8 61.87 L
479 48.15 L
479.188 44.72 L
479.253 41.29 L
479.287 34.43 L
479.406 31 L
S
GR
GS
0.8 0.6 0.2 RC
2 LJ
2 LW
N
68 374 M
78 374 L
S
GR
GS
0.8 0.6 0.2 RC
2 LJ
2 LW
N
73 379 M
73 369 L
S
GR
GS
0.8 0.6 0.2 RC
2 LJ
2 LW
N
69.464 377.536 M
76.536 370.464 L
S
GR
GS
0.8 0.6 0.2 RC
2 LJ
2 LW
N
69.464 370.464 M
76.536 377.536 L
S
GR
GS
0.8 0.6 0.2 RC
2 LJ
2 LW
N
112.863 343.13 M
122.863 343.13 L
S
GR
GS
0.8 0.6 0.2 RC
2 LJ
2 LW
N
117.863 348.13 M
117.863 338.13 L
S
GR
GS
0.8 0.6 0.2 RC
2 LJ
2 LW
N
114.327 346.666 M
121.398 339.594 L
S
GR
GS
0.8 0.6 0.2 RC
2 LJ
2 LW
N
114.327 339.594 M
121.398 346.666 L
S
GR
GS
0.8 0.6 0.2 RC
2 LJ
2 LW
N
119.451 325.98 M
129.451 325.98 L
S
GR
GS
0.8 0.6 0.2 RC
2 LJ
2 LW
N
124.451 330.98 M
124.451 320.98 L
S
GR
GS
0.8 0.6 0.2 RC
2 LJ
2 LW
N
120.916 329.516 M
127.987 322.444 L
S
GR
GS
0.8 0.6 0.2 RC
2 LJ
2 LW
N
120.916 322.444 M
127.987 329.516 L
S
GR
GS
0.8 0.6 0.2 RC
2 LJ
2 LW
N
127.589 305.4 M
137.589 305.4 L
S
GR
GS
0.8 0.6 0.2 RC
2 LJ
2 LW
N
132.589 310.4 M
132.589 300.4 L
S
GR
GS
0.8 0.6 0.2 RC
2 LJ
2 LW
N
129.054 308.936 M
136.125 301.864 L
S
GR
GS
0.8 0.6 0.2 RC
2 LJ
2 LW
N
129.054 301.864 M
136.125 308.936 L
S
GR
GS
0.8 0.6 0.2 RC
2 LJ
2 LW
N
132.036 284.82 M
142.036 284.82 L
S
GR
GS
0.8 0.6 0.2 RC
2 LJ
2 LW
N
137.036 289.82 M
137.036 279.82 L
S
GR
GS
0.8 0.6 0.2 RC
2 LJ
2 LW
N
133.501 288.356 M
140.572 281.284 L
S
GR
GS
0.8 0.6 0.2 RC
2 LJ
2 LW
N
133.501 281.284 M
140.572 288.356 L
S
GR
GS
0.8 0.6 0.2 RC
2 LJ
2 LW
N
136.992 267.67 M
146.992 267.67 L
S
GR
GS
0.8 0.6 0.2 RC
2 LJ
2 LW
N
141.992 272.67 M
141.992 262.67 L
S
GR
GS
0.8 0.6 0.2 RC
2 LJ
2 LW
N
138.457 271.206 M
145.528 264.134 L
S
GR
GS
0.8 0.6 0.2 RC
2 LJ
2 LW
N
138.457 264.134 M
145.528 271.206 L
S
GR
GS
0.8 0.6 0.2 RC
2 LJ
2 LW
N
145.354 247.09 M
155.354 247.09 L
S
GR
GS
0.8 0.6 0.2 RC
2 LJ
2 LW
N
150.354 252.09 M
150.354 242.09 L
S
GR
GS
0.8 0.6 0.2 RC
2 LJ
2 LW
N
146.819 250.626 M
153.89 243.554 L
S
GR
GS
0.8 0.6 0.2 RC
2 LJ
2 LW
N
146.819 243.554 M
153.89 250.626 L
S
GR
GS
0.8 0.6 0.2 RC
2 LJ
2 LW
N
163.853 226.51 M
173.853 226.51 L
S
GR
GS
0.8 0.6 0.2 RC
2 LJ
2 LW
N
168.853 231.51 M
168.853 221.51 L
S
GR
GS
0.8 0.6 0.2 RC
2 LJ
2 LW
N
165.317 230.046 M
172.388 222.974 L
S
GR
GS
0.8 0.6 0.2 RC
2 LJ
2 LW
N
165.317 222.974 M
172.388 230.046 L
S
GR
GS
0.8 0.6 0.2 RC
2 LJ
2 LW
N
175.065 209.36 M
185.065 209.36 L
S
GR
GS
0.8 0.6 0.2 RC
2 LJ
2 LW
N
180.065 214.36 M
180.065 204.36 L
S
GR
GS
0.8 0.6 0.2 RC
2 LJ
2 LW
N
176.529 212.896 M
183.601 205.824 L
S
GR
GS
0.8 0.6 0.2 RC
2 LJ
2 LW
N
176.529 205.824 M
183.601 212.896 L
S
GR
GS
0.8 0.6 0.2 RC
2 LJ
2 LW
N
196.715 188.78 M
206.715 188.78 L
S
GR
GS
0.8 0.6 0.2 RC
2 LJ
2 LW
N
201.715 193.78 M
201.715 183.78 L
S
GR
GS
0.8 0.6 0.2 RC
2 LJ
2 LW
N
198.179 192.316 M
205.25 185.244 L
S
GR
GS
0.8 0.6 0.2 RC
2 LJ
2 LW
N
198.179 185.244 M
205.25 192.316 L
S
GR
GS
0.8 0.6 0.2 RC
2 LJ
2 LW
N
214.575 168.2 M
224.575 168.2 L
S
GR
GS
0.8 0.6 0.2 RC
2 LJ
2 LW
N
219.575 173.2 M
219.575 163.2 L
S
GR
GS
0.8 0.6 0.2 RC
2 LJ
2 LW
N
216.039 171.736 M
223.11 164.664 L
S
GR
GS
0.8 0.6 0.2 RC
2 LJ
2 LW
N
216.039 164.664 M
223.11 171.736 L
S
GR
GS
0.8 0.6 0.2 RC
2 LJ
2 LW
N
225.113 144.19 M
235.113 144.19 L
S
GR
GS
0.8 0.6 0.2 RC
2 LJ
2 LW
N
230.113 149.19 M
230.113 139.19 L
S
GR
GS
0.8 0.6 0.2 RC
2 LJ
2 LW
N
226.577 147.726 M
233.648 140.654 L
S
GR
GS
0.8 0.6 0.2 RC
2 LJ
2 LW
N
226.577 140.654 M
233.648 147.726 L
S
GR
GS
0.8 0.6 0.2 RC
2 LJ
2 LW
N
281.22 103.03 M
291.22 103.03 L
S
GR
GS
0.8 0.6 0.2 RC
2 LJ
2 LW
N
286.22 108.03 M
286.22 98.03 L
S
GR
GS
0.8 0.6 0.2 RC
2 LJ
2 LW
N
282.684 106.566 M
289.755 99.494 L
S
GR
GS
0.8 0.6 0.2 RC
2 LJ
2 LW
N
282.684 99.494 M
289.755 106.566 L
S
GR
GS
0.8 0.6 0.2 RC
2 LJ
2 LW
N
354.72 65.3 M
364.72 65.3 L
S
GR
GS
0.8 0.6 0.2 RC
2 LJ
2 LW
N
359.72 70.3 M
359.72 60.3 L
S
GR
GS
0.8 0.6 0.2 RC
2 LJ
2 LW
N
356.184 68.836 M
363.255 61.764 L
S
GR
GS
0.8 0.6 0.2 RC
2 LJ
2 LW
N
356.184 61.764 M
363.255 68.836 L
S
GR
GS
0.8 0.6 0.2 RC
2 LJ
2 LW
N
474.406 31 M
484.406 31 L
S
GR
GS
0.8 0.6 0.2 RC
2 LJ
2 LW
N
479.406 36 M
479.406 26 L
S
GR
GS
0.8 0.6 0.2 RC
2 LJ
2 LW
N
475.871 34.536 M
482.942 27.464 L
S
GR
GS
0.8 0.6 0.2 RC
2 LJ
2 LW
N
475.871 27.464 M
482.942 34.536 L
S
GR
GS
0.8 0.6 0.2 RC
2 LJ
2 LW
N
68 374 M
78 374 L
S
GR
GS
0.8 0.6 0.2 RC
2 LJ
2 LW
N
73 379 M
73 369 L
S
GR
GS
0.8 0.6 0.2 RC
2 LJ
2 LW
N
69.464 377.536 M
76.536 370.464 L
S
GR
GS
0.8 0.6 0.2 RC
2 LJ
2 LW
N
69.464 370.464 M
76.536 377.536 L
S
GR
GS
0 0.2 0 RC
2 LJ
2 LW
N
73 374 M
73 360.28 L
117.863 356.85 L
118.48 353.42 L
120.166 349.99 L
124.451 346.56 L
127.025 343.13 L
132.589 339.7 L
138.451 336.27 L
139.023 332.84 L
141.088 329.41 L
146.388 325.98 L
147.792 322.55 L
148.694 319.12 L
149.223 315.69 L
154.82 312.26 L
158.207 308.83 L
162.099 305.4 L
164.009 301.97 L
166.935 298.54 L
167.412 295.11 L
168.611 291.68 L
168.853 288.25 L
170.429 284.82 L
170.586 281.39 L
170.72 277.96 L
171.068 274.53 L
171.295 271.1 L
171.786 267.67 L
172.781 264.24 L
176.938 260.81 L
177.998 257.38 L
179.132 253.95 L
179.565 250.52 L
181.499 247.09 L
187.374 243.66 L
194.324 240.23 L
196.703 236.8 L
198.66 233.37 L
202.223 229.94 L
202.446 226.51 L
203.003 223.08 L
205.734 219.65 L
206.906 216.22 L
207.843 212.79 L
209.354 209.36 L
210.263 205.93 L
216.215 202.5 L
219.575 199.07 L
219.646 195.64 L
S
GR
GS
0 0.2 0 RC
2 LJ
2 LW
N
219.646 195.64 M
220.912 192.21 L
220.96 188.78 L
220.967 185.35 L
229.231 181.92 L
230.113 178.49 L
231.338 175.06 L
233.16 171.63 L
236.326 168.2 L
239.477 164.77 L
247.229 161.34 L
248.069 157.91 L
251.164 154.48 L
260.311 147.62 L
261.443 144.19 L
261.455 127.04 L
266.255 123.61 L
276.659 120.18 L
279.309 116.75 L
280.877 109.89 L
281.07 106.46 L
322.674 103.03 L
326.462 99.6 L
326.527 89.31 L
359.514 85.88 L
359.593 82.45 L
359.702 75.59 L
359.72 72.16 L
359.755 68.73 L
394.74 65.3 L
413.202 61.87 L
479.049 58.44 L
479.068 55.01 L
479.075 51.58 L
479.127 48.15 L
479.188 44.72 L
479.253 41.29 L
479.287 34.43 L
479.406 31 L
S
GR
GS
0 0.2 0 RC
2 LJ
2 LW
N
67.228 377.332 M
78.772 377.332 L
73 367.335 L
67.228 377.332 L
S
GR
GS
0 0.2 0 RC
2 LJ
2 LW
N
121.253 346.462 M
132.797 346.462 L
127.025 336.465 L
121.253 346.462 L
S
GR
GS
0 0.2 0 RC
2 LJ
2 LW
N
142.02 325.883 M
153.564 325.883 L
147.792 315.885 L
142.02 325.883 L
S
GR
GS
0 0.2 0 RC
2 LJ
2 LW
N
161.163 301.872 M
172.707 301.872 L
166.935 291.875 L
161.163 301.872 L
S
GR
GS
0 0.2 0 RC
2 LJ
2 LW
N
164.948 281.293 M
176.492 281.293 L
170.72 271.295 L
164.948 281.293 L
S
GR
GS
0 0.2 0 RC
2 LJ
2 LW
N
172.227 260.712 M
183.77 260.712 L
177.998 250.715 L
172.227 260.712 L
S
GR
GS
0 0.2 0 RC
2 LJ
2 LW
N
190.931 240.132 M
202.475 240.132 L
196.703 230.135 L
190.931 240.132 L
S
GR
GS
0 0.2 0 RC
2 LJ
2 LW
N
202.071 216.122 M
213.614 216.122 L
207.843 206.125 L
202.071 216.122 L
S
GR
GS
0 0.2 0 RC
2 LJ
2 LW
N
215.14 195.543 M
226.684 195.543 L
220.912 185.545 L
215.14 195.543 L
S
GR
GS
0 0.2 0 RC
2 LJ
2 LW
N
227.388 174.963 M
238.932 174.963 L
233.16 164.965 L
227.388 174.963 L
S
GR
GS
0 0.2 0 RC
2 LJ
2 LW
N
254.539 150.952 M
266.083 150.952 L
260.311 140.955 L
254.539 150.952 L
S
GR
GS
0 0.2 0 RC
2 LJ
2 LW
N
275.105 113.223 M
286.649 113.223 L
280.877 103.225 L
275.105 113.223 L
S
GR
GS
0 0.2 0 RC
2 LJ
2 LW
N
353.93 78.923 M
365.474 78.923 L
359.702 68.925 L
353.93 78.923 L
S
GR
GS
0 0.2 0 RC
2 LJ
2 LW
N
473.296 58.342 M
484.84 58.342 L
479.068 48.345 L
473.296 58.342 L
S
GR
GS
0 0.2 0 RC
2 LJ
2 LW
N
473.634 34.333 M
485.178 34.333 L
479.406 24.335 L
473.634 34.333 L
S
GR
GS
0 0.2 0 RC
2 LJ
2 LW
N
67.228 377.332 M
78.772 377.332 L
73 367.335 L
67.228 377.332 L
S
GR
GS
1 GC
N
424 133 M
424 80 L
501 80 L
501 133 L
cp
f
GR
GS
[1 0 0 1 463 87.92523] CT
/Helvetica-Bold 11 F
GS
[1 0 0 1 0 0] CT
0 3 moveto 
1 -1 scale
(Tree) t 
GR
GR
GS
0.6 0 0 RC
2 setlinecap
10.0 ML
2 LW
N
430 87.925 M
460 87.925 L
S
GR
GS
0.6 0 0 RC
2 setlinecap
10.0 ML
2 LW
N
441.6 91.4 M
441.6 83.6 L
449.4 83.6 L
449.4 91.4 L
441.6 91.4 L
S
GR
GS
[1 0 0 1 463 100.30841] CT
/Helvetica-Bold 11 F
GS
[1 0 0 1 0 0] CT
0 3 moveto 
1 -1 scale
(NC) t 
GR
GR
GS
0 0.2 0.4 RC
2 setlinecap
10.0 ML
2 LW
N
430 100.308 M
460 100.308 L
S
GR
GS
0 0.2 0.4 RC
2 setlinecap
10.0 ML
2 LW
N
450.5 100.5 M
449.545 97.561 L
447.045 95.745 L
443.955 95.745 L
441.455 97.561 L
440.5 100.5 L
441.455 103.439 L
443.955 105.255 L
447.045 105.255 L
449.545 103.439 L
450.5 100.5 L
S
GR
GS
[1 0 0 1 463 112.69159] CT
/Helvetica-Bold 11 F
GS
[1 0 0 1 0 0] CT
0 3 moveto 
1 -1 scale
(TC) t 
GR
GR
GS
0.8 0.6 0.2 RC
2 setlinecap
10.0 ML
2 LW
N
430 112.692 M
460 112.692 L
S
GR
GS
0.8 0.6 0.2 RC
2 setlinecap
10.0 ML
2 LW
N
440 112.5 M
451 112.5 L
S
GR
GS
0.8 0.6 0.2 RC
2 setlinecap
10.0 ML
2 LW
N
445.5 118 M
445.5 107 L
S
GR
GS
0.8 0.6 0.2 RC
2 setlinecap
10.0 ML
2 LW
N
441 117 M
450 108 L
S
GR
GS
0.8 0.6 0.2 RC
2 setlinecap
10.0 ML
2 LW
N
441 108 M
450 117 L
S
GR
GS
[1 0 0 1 463 125.07477] CT
/Helvetica-Bold 11 F
GS
[1 0 0 1 0 0] CT
0 3 moveto 
1 -1 scale
(NC-TC) t 
GR
GR
GS
0 0.2 0 RC
2 setlinecap
10.0 ML
2 LW
N
430 125.075 M
460 125.075 L
S
GR
GS
0 0.2 0 RC
2 setlinecap
10.0 ML
2 LW
N
439.728 128.833 M
451.272 128.833 L
445.5 118.835 L
439.728 128.833 L
S
GR
GS
0.149 GC
2 setlinecap
10.0 ML
N
424 133 M
424 80 L
501 80 L
501 133 L
424 133 L
S
GR
%%Trailer
%%Pages: 1
%%EOF
