%!PS-Adobe-3.0 EPSF-3.0
%%Creator: (MATLAB, The Mathworks, Inc. Version 8.5.0.197613 \(R2015a\). Operating System: Mac OS X)
%%Title: /Users/ashwinyakkundimath/Documents/Thesis_Results/plots/phy_mechs/MR_cdf_tuc_energy.eps
%%CreationDate: 2016-01-05T12:40:19
%%Pages: (atend)
%%BoundingBox: 0 0 560 420
%%LanguageLevel: 2
%%EndComments
%%BeginProlog
%%BeginResource: procset (Apache XML Graphics Std ProcSet) 1.2 0
%%Version: 1.2 0
%%Copyright: (Copyright 2001-2003,2010 The Apache Software Foundation. License terms: http://www.apache.org/licenses/LICENSE-2.0)
/bd{bind def}bind def
/ld{load def}bd
/GR/grestore ld
/M/moveto ld
/LJ/setlinejoin ld
/C/curveto ld
/f/fill ld
/LW/setlinewidth ld
/GC/setgray ld
/t/show ld
/N/newpath ld
/CT/concat ld
/cp/closepath ld
/S/stroke ld
/L/lineto ld
/CC/setcmykcolor ld
/A/ashow ld
/GS/gsave ld
/RC/setrgbcolor ld
/RM/rmoveto ld
/ML/setmiterlimit ld
/re {4 2 roll M
1 index 0 rlineto
0 exch rlineto
neg 0 rlineto
cp } bd
/_ctm matrix def
/_tm matrix def
/BT { _ctm currentmatrix pop matrix _tm copy pop 0 0 moveto } bd
/ET { _ctm setmatrix } bd
/iTm { _ctm setmatrix _tm concat } bd
/Tm { _tm astore pop iTm 0 0 moveto } bd
/ux 0.0 def
/uy 0.0 def
/F {
  /Tp exch def
  /Tf exch def
  Tf findfont Tp scalefont setfont
  /cf Tf def  /cs Tp def
} bd
/ULS {currentpoint /uy exch def /ux exch def} bd
/ULE {
  /Tcx currentpoint pop def
  gsave
  newpath
  cf findfont cs scalefont dup
  /FontMatrix get 0 get /Ts exch def /FontInfo get dup
  /UnderlinePosition get Ts mul /To exch def
  /UnderlineThickness get Ts mul /Tt exch def
  ux uy To add moveto  Tcx uy To add lineto
  Tt setlinewidth stroke
  grestore
} bd
/OLE {
  /Tcx currentpoint pop def
  gsave
  newpath
  cf findfont cs scalefont dup
  /FontMatrix get 0 get /Ts exch def /FontInfo get dup
  /UnderlinePosition get Ts mul /To exch def
  /UnderlineThickness get Ts mul /Tt exch def
  ux uy To add cs add moveto Tcx uy To add cs add lineto
  Tt setlinewidth stroke
  grestore
} bd
/SOE {
  /Tcx currentpoint pop def
  gsave
  newpath
  cf findfont cs scalefont dup
  /FontMatrix get 0 get /Ts exch def /FontInfo get dup
  /UnderlinePosition get Ts mul /To exch def
  /UnderlineThickness get Ts mul /Tt exch def
  ux uy To add cs 10 mul 26 idiv add moveto Tcx uy To add cs 10 mul 26 idiv add lineto
  Tt setlinewidth stroke
  grestore
} bd
/QT {
/Y22 exch store
/X22 exch store
/Y21 exch store
/X21 exch store
currentpoint
/Y21 load 2 mul add 3 div exch
/X21 load 2 mul add 3 div exch
/X21 load 2 mul /X22 load add 3 div
/Y21 load 2 mul /Y22 load add 3 div
/X22 load /Y22 load curveto
} bd
/SSPD {
dup length /d exch dict def
{
/v exch def
/k exch def
currentpagedevice k known {
/cpdv currentpagedevice k get def
v cpdv ne {
/upd false def
/nullv v type /nulltype eq def
/nullcpdv cpdv type /nulltype eq def
nullv nullcpdv or
{
/upd true def
} {
/sametype v type cpdv type eq def
sametype {
v type /arraytype eq {
/vlen v length def
/cpdvlen cpdv length def
vlen cpdvlen eq {
0 1 vlen 1 sub {
/i exch def
/obj v i get def
/cpdobj cpdv i get def
obj cpdobj ne {
/upd true def
exit
} if
} for
} {
/upd true def
} ifelse
} {
v type /dicttype eq {
v {
/dv exch def
/dk exch def
/cpddv cpdv dk get def
dv cpddv ne {
/upd true def
exit
} if
} forall
} {
/upd true def
} ifelse
} ifelse
} if
} ifelse
upd true eq {
d k v put
} if
} if
} if
} forall
d length 0 gt {
d setpagedevice
} if
} bd
%%EndResource
%%BeginResource: procset (Apache XML Graphics EPS ProcSet) 1.0 0
%%Version: 1.0 0
%%Copyright: (Copyright 2002-2003 The Apache Software Foundation. License terms: http://www.apache.org/licenses/LICENSE-2.0)
/BeginEPSF { %def
/b4_Inc_state save def         % Save state for cleanup
/dict_count countdictstack def % Count objects on dict stack
/op_count count 1 sub def      % Count objects on operand stack
userdict begin                 % Push userdict on dict stack
/showpage { } def              % Redefine showpage, { } = null proc
0 setgray 0 setlinecap         % Prepare graphics state
1 setlinewidth 0 setlinejoin
10 setmiterlimit [ ] 0 setdash newpath
/languagelevel where           % If level not equal to 1 then
{pop languagelevel             % set strokeadjust and
1 ne                           % overprint to their defaults.
{false setstrokeadjust false setoverprint
} if
} if
} bd
/EndEPSF { %def
count op_count sub {pop} repeat            % Clean up stacks
countdictstack dict_count sub {end} repeat
b4_Inc_state restore
} bd
%%EndResource
%FOPBeginFontDict
%%IncludeResource: font Courier-Bold
%%IncludeResource: font Helvetica
%%IncludeResource: font Courier-BoldOblique
%%IncludeResource: font Courier-Oblique
%%IncludeResource: font Times-Roman
%%IncludeResource: font Helvetica-BoldOblique
%%IncludeResource: font Helvetica-Bold
%%IncludeResource: font Helvetica-Oblique
%%IncludeResource: font Times-BoldItalic
%%IncludeResource: font Courier
%%IncludeResource: font Times-Italic
%%IncludeResource: font Times-Bold
%%IncludeResource: font Symbol
%%IncludeResource: font ZapfDingbats
%FOPEndFontDict
%%BeginResource: encoding WinAnsiEncoding
/WinAnsiEncoding [
/.notdef /.notdef /.notdef /.notdef /.notdef
/.notdef /.notdef /.notdef /.notdef /.notdef
/.notdef /.notdef /.notdef /.notdef /.notdef
/.notdef /.notdef /.notdef /.notdef /.notdef
/.notdef /.notdef /.notdef /.notdef /.notdef
/.notdef /.notdef /.notdef /.notdef /.notdef
/.notdef /.notdef /space /exclam /quotedbl
/numbersign /dollar /percent /ampersand /quotesingle
/parenleft /parenright /asterisk /plus /comma
/hyphen /period /slash /zero /one
/two /three /four /five /six
/seven /eight /nine /colon /semicolon
/less /equal /greater /question /at
/A /B /C /D /E
/F /G /H /I /J
/K /L /M /N /O
/P /Q /R /S /T
/U /V /W /X /Y
/Z /bracketleft /backslash /bracketright /asciicircum
/underscore /quoteleft /a /b /c
/d /e /f /g /h
/i /j /k /l /m
/n /o /p /q /r
/s /t /u /v /w
/x /y /z /braceleft /bar
/braceright /asciitilde /bullet /Euro /bullet
/quotesinglbase /florin /quotedblbase /ellipsis /dagger
/daggerdbl /circumflex /perthousand /Scaron /guilsinglleft
/OE /bullet /Zcaron /bullet /bullet
/quoteleft /quoteright /quotedblleft /quotedblright /bullet
/endash /emdash /asciitilde /trademark /scaron
/guilsinglright /oe /bullet /zcaron /Ydieresis
/space /exclamdown /cent /sterling /currency
/yen /brokenbar /section /dieresis /copyright
/ordfeminine /guillemotleft /logicalnot /sfthyphen /registered
/macron /degree /plusminus /twosuperior /threesuperior
/acute /mu /paragraph /middot /cedilla
/onesuperior /ordmasculine /guillemotright /onequarter /onehalf
/threequarters /questiondown /Agrave /Aacute /Acircumflex
/Atilde /Adieresis /Aring /AE /Ccedilla
/Egrave /Eacute /Ecircumflex /Edieresis /Igrave
/Iacute /Icircumflex /Idieresis /Eth /Ntilde
/Ograve /Oacute /Ocircumflex /Otilde /Odieresis
/multiply /Oslash /Ugrave /Uacute /Ucircumflex
/Udieresis /Yacute /Thorn /germandbls /agrave
/aacute /acircumflex /atilde /adieresis /aring
/ae /ccedilla /egrave /eacute /ecircumflex
/edieresis /igrave /iacute /icircumflex /idieresis
/eth /ntilde /ograve /oacute /ocircumflex
/otilde /odieresis /divide /oslash /ugrave
/uacute /ucircumflex /udieresis /yacute /thorn
/ydieresis
] def
%%EndResource
%FOPBeginFontReencode
/Courier-Bold findfont
dup length dict begin
  {1 index /FID ne {def} {pop pop} ifelse} forall
  /Encoding WinAnsiEncoding def
  currentdict
end
/Courier-Bold exch definefont pop
/Helvetica findfont
dup length dict begin
  {1 index /FID ne {def} {pop pop} ifelse} forall
  /Encoding WinAnsiEncoding def
  currentdict
end
/Helvetica exch definefont pop
/Courier-BoldOblique findfont
dup length dict begin
  {1 index /FID ne {def} {pop pop} ifelse} forall
  /Encoding WinAnsiEncoding def
  currentdict
end
/Courier-BoldOblique exch definefont pop
/Courier-Oblique findfont
dup length dict begin
  {1 index /FID ne {def} {pop pop} ifelse} forall
  /Encoding WinAnsiEncoding def
  currentdict
end
/Courier-Oblique exch definefont pop
/Times-Roman findfont
dup length dict begin
  {1 index /FID ne {def} {pop pop} ifelse} forall
  /Encoding WinAnsiEncoding def
  currentdict
end
/Times-Roman exch definefont pop
/Helvetica-BoldOblique findfont
dup length dict begin
  {1 index /FID ne {def} {pop pop} ifelse} forall
  /Encoding WinAnsiEncoding def
  currentdict
end
/Helvetica-BoldOblique exch definefont pop
/Helvetica-Bold findfont
dup length dict begin
  {1 index /FID ne {def} {pop pop} ifelse} forall
  /Encoding WinAnsiEncoding def
  currentdict
end
/Helvetica-Bold exch definefont pop
/Helvetica-Oblique findfont
dup length dict begin
  {1 index /FID ne {def} {pop pop} ifelse} forall
  /Encoding WinAnsiEncoding def
  currentdict
end
/Helvetica-Oblique exch definefont pop
/Times-BoldItalic findfont
dup length dict begin
  {1 index /FID ne {def} {pop pop} ifelse} forall
  /Encoding WinAnsiEncoding def
  currentdict
end
/Times-BoldItalic exch definefont pop
/Courier findfont
dup length dict begin
  {1 index /FID ne {def} {pop pop} ifelse} forall
  /Encoding WinAnsiEncoding def
  currentdict
end
/Courier exch definefont pop
/Times-Italic findfont
dup length dict begin
  {1 index /FID ne {def} {pop pop} ifelse} forall
  /Encoding WinAnsiEncoding def
  currentdict
end
/Times-Italic exch definefont pop
/Times-Bold findfont
dup length dict begin
  {1 index /FID ne {def} {pop pop} ifelse} forall
  /Encoding WinAnsiEncoding def
  currentdict
end
/Times-Bold exch definefont pop
%FOPEndFontReencode
%%EndProlog
%%Page: 1 1
%%PageBoundingBox: 0 0 560 420
%%BeginPageSetup
[1 0 0 -1 0 420] CT
%%EndPageSetup
GS
1 GC
N
0 0 560 420 re
f
GR
GS
1 GC
N
0 0 560 420 re
f
GR
GS
1 GC
N
73 374 M
507 374 L
507 31 L
73 31 L
cp
f
GR
GS
0.873 GC
2 setlinecap
10.0 ML
N
73 374 M
73 31 L
S
GR
GS
0.873 GC
2 setlinecap
10.0 ML
N
121.222 374 M
121.222 31 L
S
GR
GS
0.873 GC
2 setlinecap
10.0 ML
N
169.444 374 M
169.444 31 L
S
GR
GS
0.873 GC
2 setlinecap
10.0 ML
N
217.667 374 M
217.667 31 L
S
GR
GS
0.873 GC
2 setlinecap
10.0 ML
N
265.889 374 M
265.889 31 L
S
GR
GS
0.873 GC
2 setlinecap
10.0 ML
N
314.111 374 M
314.111 31 L
S
GR
GS
0.873 GC
2 setlinecap
10.0 ML
N
362.333 374 M
362.333 31 L
S
GR
GS
0.873 GC
2 setlinecap
10.0 ML
N
410.556 374 M
410.556 31 L
S
GR
GS
0.873 GC
2 setlinecap
10.0 ML
N
458.778 374 M
458.778 31 L
S
GR
GS
0.873 GC
2 setlinecap
10.0 ML
N
507 374 M
507 31 L
S
GR
GS
0.873 GC
2 setlinecap
10.0 ML
N
507 374 M
73 374 L
S
GR
GS
0.873 GC
2 setlinecap
10.0 ML
N
507 339.7 M
73 339.7 L
S
GR
GS
0.873 GC
2 setlinecap
10.0 ML
N
507 305.4 M
73 305.4 L
S
GR
GS
0.873 GC
2 setlinecap
10.0 ML
N
507 271.1 M
73 271.1 L
S
GR
GS
0.873 GC
2 setlinecap
10.0 ML
N
507 236.8 M
73 236.8 L
S
GR
GS
0.873 GC
2 setlinecap
10.0 ML
N
507 202.5 M
73 202.5 L
S
GR
GS
0.873 GC
2 setlinecap
10.0 ML
N
507 168.2 M
73 168.2 L
S
GR
GS
0.873 GC
2 setlinecap
10.0 ML
N
507 133.9 M
73 133.9 L
S
GR
GS
0.873 GC
2 setlinecap
10.0 ML
N
507 99.6 M
73 99.6 L
S
GR
GS
0.873 GC
2 setlinecap
10.0 ML
N
507 65.3 M
73 65.3 L
S
GR
GS
0.873 GC
2 setlinecap
10.0 ML
N
507 31 M
73 31 L
S
GR
GS
[1 0 0 1 290.00021 390] CT
0.149 GC
/Helvetica-Bold 11 F
GS
[1 0 0 1 0 0] CT
-33.5 9 moveto 
1 -1 scale
(Total Energy) t 
GR
GR
GS
0.149 GC
2 setlinecap
10.0 ML
N
73 374 M
507 374 L
S
GR
GS
0.149 GC
2 setlinecap
10.0 ML
N
73 374 M
73 369.66 L
S
GR
GS
0.149 GC
2 setlinecap
10.0 ML
N
121.222 374 M
121.222 369.66 L
S
GR
GS
0.149 GC
2 setlinecap
10.0 ML
N
169.444 374 M
169.444 369.66 L
S
GR
GS
0.149 GC
2 setlinecap
10.0 ML
N
217.667 374 M
217.667 369.66 L
S
GR
GS
0.149 GC
2 setlinecap
10.0 ML
N
265.889 374 M
265.889 369.66 L
S
GR
GS
0.149 GC
2 setlinecap
10.0 ML
N
314.111 374 M
314.111 369.66 L
S
GR
GS
0.149 GC
2 setlinecap
10.0 ML
N
362.333 374 M
362.333 369.66 L
S
GR
GS
0.149 GC
2 setlinecap
10.0 ML
N
410.556 374 M
410.556 369.66 L
S
GR
GS
0.149 GC
2 setlinecap
10.0 ML
N
458.778 374 M
458.778 369.66 L
S
GR
GS
0.149 GC
2 setlinecap
10.0 ML
N
507 374 M
507 369.66 L
S
GR
GS
[1 0 0 1 73 378] CT
0.149 GC
/Helvetica-Bold 10 F
GS
[1 0 0 1 0 0] CT
-3 8 moveto 
1 -1 scale
(0) t 
GR
GR
GS
[1 0 0 1 121.22222 378] CT
0.149 GC
/Helvetica-Bold 10 F
GS
[1 0 0 1 0 0] CT
-7 8 moveto 
1 -1 scale
(0.5) t 
GR
GR
GS
[1 0 0 1 169.44444 378] CT
0.149 GC
/Helvetica-Bold 10 F
GS
[1 0 0 1 0 0] CT
-3 8 moveto 
1 -1 scale
(1) t 
GR
GR
GS
[1 0 0 1 217.66667 378] CT
0.149 GC
/Helvetica-Bold 10 F
GS
[1 0 0 1 0 0] CT
-7 8 moveto 
1 -1 scale
(1.5) t 
GR
GR
GS
[1 0 0 1 265.88889 378] CT
0.149 GC
/Helvetica-Bold 10 F
GS
[1 0 0 1 0 0] CT
-3 8 moveto 
1 -1 scale
(2) t 
GR
GR
GS
[1 0 0 1 314.11111 378] CT
0.149 GC
/Helvetica-Bold 10 F
GS
[1 0 0 1 0 0] CT
-7 8 moveto 
1 -1 scale
(2.5) t 
GR
GR
GS
[1 0 0 1 362.33334 378] CT
0.149 GC
/Helvetica-Bold 10 F
GS
[1 0 0 1 0 0] CT
-3 8 moveto 
1 -1 scale
(3) t 
GR
GR
GS
[1 0 0 1 410.55554 378] CT
0.149 GC
/Helvetica-Bold 10 F
GS
[1 0 0 1 0 0] CT
-7 8 moveto 
1 -1 scale
(3.5) t 
GR
GR
GS
[1 0 0 1 458.77777 378] CT
0.149 GC
/Helvetica-Bold 10 F
GS
[1 0 0 1 0 0] CT
-3 8 moveto 
1 -1 scale
(4) t 
GR
GR
GS
[1 0 0 1 507 378] CT
0.149 GC
/Helvetica-Bold 10 F
GS
[1 0 0 1 0 0] CT
-7 8 moveto 
1 -1 scale
(4.5) t 
GR
GR
GS
[0 -1 1 0 52 202.49983] CT
0.149 GC
/Helvetica-Bold 11 F
GS
[1 0 0 1 0 0] CT
-60 -3 moveto 
1 -1 scale
(Cumulative Probability) t 
GR
GR
GS
0.149 GC
2 setlinecap
10.0 ML
N
73 374 M
73 31 L
S
GR
GS
0.149 GC
2 setlinecap
10.0 ML
N
73 374 M
77.34 374 L
S
GR
GS
0.149 GC
2 setlinecap
10.0 ML
N
73 339.7 M
77.34 339.7 L
S
GR
GS
0.149 GC
2 setlinecap
10.0 ML
N
73 305.4 M
77.34 305.4 L
S
GR
GS
0.149 GC
2 setlinecap
10.0 ML
N
73 271.1 M
77.34 271.1 L
S
GR
GS
0.149 GC
2 setlinecap
10.0 ML
N
73 236.8 M
77.34 236.8 L
S
GR
GS
0.149 GC
2 setlinecap
10.0 ML
N
73 202.5 M
77.34 202.5 L
S
GR
GS
0.149 GC
2 setlinecap
10.0 ML
N
73 168.2 M
77.34 168.2 L
S
GR
GS
0.149 GC
2 setlinecap
10.0 ML
N
73 133.9 M
77.34 133.9 L
S
GR
GS
0.149 GC
2 setlinecap
10.0 ML
N
73 99.6 M
77.34 99.6 L
S
GR
GS
0.149 GC
2 setlinecap
10.0 ML
N
73 65.3 M
77.34 65.3 L
S
GR
GS
0.149 GC
2 setlinecap
10.0 ML
N
73 31 M
77.34 31 L
S
GR
GS
[1 0 0 1 69 374] CT
0.149 GC
/Helvetica-Bold 10 F
GS
[1 0 0 1 0 0] CT
-6 2.5 moveto 
1 -1 scale
(0) t 
GR
GR
GS
[1 0 0 1 69 339.70001] CT
0.149 GC
/Helvetica-Bold 10 F
GS
[1 0 0 1 0 0] CT
-14 2.5 moveto 
1 -1 scale
(0.1) t 
GR
GR
GS
[1 0 0 1 69 305.39999] CT
0.149 GC
/Helvetica-Bold 10 F
GS
[1 0 0 1 0 0] CT
-14 2.5 moveto 
1 -1 scale
(0.2) t 
GR
GR
GS
[1 0 0 1 69 271.10001] CT
0.149 GC
/Helvetica-Bold 10 F
GS
[1 0 0 1 0 0] CT
-14 2.5 moveto 
1 -1 scale
(0.3) t 
GR
GR
GS
[1 0 0 1 69 236.8] CT
0.149 GC
/Helvetica-Bold 10 F
GS
[1 0 0 1 0 0] CT
-14 2.5 moveto 
1 -1 scale
(0.4) t 
GR
GR
GS
[1 0 0 1 69 202.5] CT
0.149 GC
/Helvetica-Bold 10 F
GS
[1 0 0 1 0 0] CT
-14 2.5 moveto 
1 -1 scale
(0.5) t 
GR
GR
GS
[1 0 0 1 69 168.2] CT
0.149 GC
/Helvetica-Bold 10 F
GS
[1 0 0 1 0 0] CT
-14 2.5 moveto 
1 -1 scale
(0.6) t 
GR
GR
GS
[1 0 0 1 69 133.90001] CT
0.149 GC
/Helvetica-Bold 10 F
GS
[1 0 0 1 0 0] CT
-14 2.5 moveto 
1 -1 scale
(0.7) t 
GR
GR
GS
[1 0 0 1 69 99.6] CT
0.149 GC
/Helvetica-Bold 10 F
GS
[1 0 0 1 0 0] CT
-14 2.5 moveto 
1 -1 scale
(0.8) t 
GR
GR
GS
[1 0 0 1 69 65.30001] CT
0.149 GC
/Helvetica-Bold 10 F
GS
[1 0 0 1 0 0] CT
-14 2.5 moveto 
1 -1 scale
(0.9) t 
GR
GR
GS
[1 0 0 1 69 31] CT
0.149 GC
/Helvetica-Bold 10 F
GS
[1 0 0 1 0 0] CT
-6 2.5 moveto 
1 -1 scale
(1) t 
GR
GR
GS
0.6 0 0 RC
2 setlinecap
10.0 ML
2 LW
N
169.444 374 M
169.444 370.57 L
169.541 367.14 L
169.541 363.71 L
169.541 123.61 L
169.541 120.18 L
169.56 116.75 L
180.079 113.32 L
187.661 109.89 L
188.538 106.46 L
191.476 103.03 L
198.548 99.6 L
198.735 96.17 L
200.947 92.74 L
203.192 89.31 L
207.3 85.88 L
209.277 82.45 L
215.07 79.02 L
218.433 75.59 L
228.266 72.16 L
233.499 68.73 L
235.689 65.3 L
237.032 61.87 L
238.293 58.44 L
247.945 55.01 L
247.996 51.58 L
254.167 48.15 L
255.414 44.72 L
267.735 41.29 L
271.893 37.86 L
281.281 34.43 L
293.158 31 L
S
GR
GS
0.6 0 0 RC
2 setlinecap
10.0 ML
2 LW
N
165.544 377.9 M
165.544 370.1 L
173.344 370.1 L
173.344 377.9 L
165.544 377.9 L
S
GR
GS
0.6 0 0 RC
2 setlinecap
10.0 ML
2 LW
N
165.641 371.04 M
165.641 363.24 L
173.441 363.24 L
173.441 371.04 L
165.641 371.04 L
S
GR
GS
0.6 0 0 RC
2 setlinecap
10.0 ML
2 LW
N
165.641 127.51 M
165.641 119.71 L
173.441 119.71 L
173.441 127.51 L
165.641 127.51 L
S
GR
GS
0.6 0 0 RC
2 setlinecap
10.0 ML
2 LW
N
176.179 117.22 M
176.179 109.42 L
183.979 109.42 L
183.979 117.22 L
176.179 117.22 L
S
GR
GS
0.6 0 0 RC
2 setlinecap
10.0 ML
2 LW
N
184.638 110.36 M
184.638 102.56 L
192.438 102.56 L
192.438 110.36 L
184.638 110.36 L
S
GR
GS
0.6 0 0 RC
2 setlinecap
10.0 ML
2 LW
N
194.648 103.5 M
194.648 95.7 L
202.448 95.7 L
202.448 103.5 L
194.648 103.5 L
S
GR
GS
0.6 0 0 RC
2 setlinecap
10.0 ML
2 LW
N
197.046 96.64 M
197.046 88.84 L
204.846 88.84 L
204.846 96.64 L
197.046 96.64 L
S
GR
GS
0.6 0 0 RC
2 setlinecap
10.0 ML
2 LW
N
205.377 86.35 M
205.377 78.55 L
213.177 78.55 L
213.177 86.35 L
205.377 86.35 L
S
GR
GS
0.6 0 0 RC
2 setlinecap
10.0 ML
2 LW
N
214.533 79.49 M
214.533 71.69 L
222.333 71.69 L
222.333 79.49 L
214.533 79.49 L
S
GR
GS
0.6 0 0 RC
2 setlinecap
10.0 ML
2 LW
N
229.599 72.63 M
229.599 64.83 L
237.399 64.83 L
237.399 72.63 L
229.599 72.63 L
S
GR
GS
0.6 0 0 RC
2 setlinecap
10.0 ML
2 LW
N
233.132 65.77 M
233.132 57.97 L
240.932 57.97 L
240.932 65.77 L
233.132 65.77 L
S
GR
GS
0.6 0 0 RC
2 setlinecap
10.0 ML
2 LW
N
244.045 58.91 M
244.045 51.11 L
251.845 51.11 L
251.845 58.91 L
244.045 58.91 L
S
GR
GS
0.6 0 0 RC
2 setlinecap
10.0 ML
2 LW
N
251.514 48.62 M
251.514 40.82 L
259.314 40.82 L
259.314 48.62 L
251.514 48.62 L
S
GR
GS
0.6 0 0 RC
2 setlinecap
10.0 ML
2 LW
N
267.993 41.76 M
267.993 33.96 L
275.793 33.96 L
275.793 41.76 L
267.993 41.76 L
S
GR
GS
0.6 0 0 RC
2 setlinecap
10.0 ML
2 LW
N
289.258 34.9 M
289.258 27.1 L
297.058 27.1 L
297.058 34.9 L
289.258 34.9 L
S
GR
GS
0.6 0 0 RC
2 setlinecap
10.0 ML
2 LW
N
165.544 377.9 M
165.544 370.1 L
173.344 370.1 L
173.344 377.9 L
165.544 377.9 L
S
GR
GS
0 0.2 0.4 RC
2 setlinecap
10.0 ML
2 LW
N
169.541 374 M
169.541 257.38 L
169.577 253.95 L
169.58 250.52 L
169.586 247.09 L
169.607 243.66 L
169.61 240.23 L
169.666 236.8 L
187.661 233.37 L
196.967 229.94 L
199.982 226.51 L
202.134 223.08 L
207.3 219.65 L
212.653 216.22 L
221.657 212.79 L
222.427 209.36 L
222.427 205.93 L
223.567 202.5 L
230.114 199.07 L
230.306 195.64 L
237.202 192.21 L
239.517 188.78 L
240.477 185.35 L
243.217 181.92 L
250.518 178.49 L
253.83 175.06 L
260.586 171.63 L
265.985 161.34 L
266.129 157.91 L
271.423 154.48 L
275.179 151.05 L
278.691 147.62 L
282.135 144.19 L
282.944 140.76 L
283.827 137.33 L
288.72 133.9 L
289.83 130.47 L
292.151 127.04 L
294.354 123.61 L
296.034 120.18 L
297.522 116.75 L
315.829 113.32 L
318.334 109.89 L
323.682 106.46 L
331.075 103.03 L
334.861 99.6 L
336.024 96.17 L
344.008 92.74 L
344.295 89.31 L
353.054 85.88 L
S
GR
GS
0 0.2 0.4 RC
2 setlinecap
10.0 ML
2 LW
N
353.054 85.88 M
362.482 82.45 L
362.539 79.02 L
362.549 75.59 L
362.555 72.16 L
362.593 68.73 L
362.605 65.3 L
362.619 61.87 L
363.527 58.44 L
363.825 55.01 L
368.528 51.58 L
371.695 48.15 L
376.46 44.72 L
385.909 41.29 L
392.497 37.86 L
406.615 34.43 L
445.04 31 L
S
GR
GS
0 0.2 0.4 RC
2 setlinecap
10.0 ML
2 LW
N
174.541 374 M
173.586 371.061 L
171.086 369.245 L
167.996 369.245 L
165.496 371.061 L
164.541 374 L
165.496 376.939 L
167.996 378.755 L
171.086 378.755 L
173.586 376.939 L
174.541 374 L
S
GR
GS
0 0.2 0.4 RC
2 setlinecap
10.0 ML
2 LW
N
174.607 243.66 M
173.652 240.721 L
171.152 238.905 L
168.062 238.905 L
165.562 240.721 L
164.607 243.66 L
165.562 246.599 L
168.062 248.415 L
171.152 248.415 L
173.652 246.599 L
174.607 243.66 L
S
GR
GS
0 0.2 0.4 RC
2 setlinecap
10.0 ML
2 LW
N
201.967 229.94 M
201.012 227.001 L
198.512 225.185 L
195.422 225.185 L
192.922 227.001 L
191.967 229.94 L
192.922 232.879 L
195.422 234.695 L
198.512 234.695 L
201.012 232.879 L
201.967 229.94 L
S
GR
GS
0 0.2 0.4 RC
2 setlinecap
10.0 ML
2 LW
N
226.657 212.79 M
225.702 209.851 L
223.202 208.035 L
220.112 208.035 L
217.612 209.851 L
216.657 212.79 L
217.612 215.729 L
220.112 217.545 L
223.202 217.545 L
225.702 215.729 L
226.657 212.79 L
S
GR
GS
0 0.2 0.4 RC
2 setlinecap
10.0 ML
2 LW
N
235.306 195.64 M
234.351 192.701 L
231.851 190.885 L
228.761 190.885 L
226.261 192.701 L
225.306 195.64 L
226.261 198.579 L
228.761 200.395 L
231.851 200.395 L
234.351 198.579 L
235.306 195.64 L
S
GR
GS
0 0.2 0.4 RC
2 setlinecap
10.0 ML
2 LW
N
248.217 181.92 M
247.262 178.981 L
244.762 177.165 L
241.672 177.165 L
239.172 178.981 L
238.217 181.92 L
239.172 184.859 L
241.672 186.675 L
244.762 186.675 L
247.262 184.859 L
248.217 181.92 L
S
GR
GS
0 0.2 0.4 RC
2 setlinecap
10.0 ML
2 LW
N
271.129 157.91 M
270.174 154.971 L
267.674 153.155 L
264.584 153.155 L
262.084 154.971 L
261.129 157.91 L
262.084 160.849 L
264.584 162.665 L
267.674 162.665 L
270.174 160.849 L
271.129 157.91 L
S
GR
GS
0 0.2 0.4 RC
2 setlinecap
10.0 ML
2 LW
N
287.944 140.76 M
286.989 137.821 L
284.489 136.005 L
281.399 136.005 L
278.899 137.821 L
277.944 140.76 L
278.899 143.699 L
281.399 145.515 L
284.489 145.515 L
286.989 143.699 L
287.944 140.76 L
S
GR
GS
0 0.2 0.4 RC
2 setlinecap
10.0 ML
2 LW
N
297.151 127.04 M
296.196 124.101 L
293.696 122.285 L
290.606 122.285 L
288.106 124.101 L
287.151 127.04 L
288.106 129.979 L
290.606 131.795 L
293.696 131.795 L
296.196 129.979 L
297.151 127.04 L
S
GR
GS
0 0.2 0.4 RC
2 setlinecap
10.0 ML
2 LW
N
323.334 109.89 M
322.379 106.951 L
319.879 105.135 L
316.789 105.135 L
314.289 106.951 L
313.334 109.89 L
314.289 112.829 L
316.789 114.645 L
319.879 114.645 L
322.379 112.829 L
323.334 109.89 L
S
GR
GS
0 0.2 0.4 RC
2 setlinecap
10.0 ML
2 LW
N
341.024 96.17 M
340.069 93.231 L
337.569 91.415 L
334.479 91.415 L
331.979 93.231 L
331.024 96.17 L
331.979 99.109 L
334.479 100.925 L
337.569 100.925 L
340.069 99.109 L
341.024 96.17 L
S
GR
GS
0 0.2 0.4 RC
2 setlinecap
10.0 ML
2 LW
N
367.539 79.02 M
366.584 76.081 L
364.084 74.265 L
360.994 74.265 L
358.494 76.081 L
357.539 79.02 L
358.494 81.959 L
360.994 83.775 L
364.084 83.775 L
366.584 81.959 L
367.539 79.02 L
S
GR
GS
0 0.2 0.4 RC
2 setlinecap
10.0 ML
2 LW
N
367.619 61.87 M
366.664 58.931 L
364.164 57.115 L
361.074 57.115 L
358.574 58.931 L
357.619 61.87 L
358.574 64.809 L
361.074 66.625 L
364.164 66.625 L
366.664 64.809 L
367.619 61.87 L
S
GR
GS
0 0.2 0.4 RC
2 setlinecap
10.0 ML
2 LW
N
376.695 48.15 M
375.74 45.211 L
373.24 43.395 L
370.149 43.395 L
367.649 45.211 L
366.695 48.15 L
367.649 51.089 L
370.149 52.905 L
373.24 52.905 L
375.74 51.089 L
376.695 48.15 L
S
GR
GS
0 0.2 0.4 RC
2 setlinecap
10.0 ML
2 LW
N
450.04 31 M
449.085 28.061 L
446.585 26.245 L
443.495 26.245 L
440.995 28.061 L
440.04 31 L
440.995 33.939 L
443.495 35.755 L
446.585 35.755 L
449.085 33.939 L
450.04 31 L
S
GR
GS
0 0.2 0.4 RC
2 setlinecap
10.0 ML
2 LW
N
174.541 374 M
173.586 371.061 L
171.086 369.245 L
167.996 369.245 L
165.496 371.061 L
164.541 374 L
165.496 376.939 L
167.996 378.755 L
171.086 378.755 L
173.586 376.939 L
174.541 374 L
S
GR
GS
0.8 0.6 0.2 RC
2 setlinecap
10.0 ML
2 LW
N
73 374 M
73 360.28 L
169.444 332.84 L
169.541 329.41 L
169.541 319.12 L
169.541 202.5 L
169.541 195.64 L
169.546 192.21 L
169.555 188.78 L
169.564 185.35 L
169.567 181.92 L
169.57 178.49 L
169.578 175.06 L
169.603 171.63 L
169.612 168.2 L
169.613 164.77 L
169.65 161.34 L
169.657 157.91 L
169.676 154.48 L
169.74 151.05 L
177.154 147.62 L
180.258 144.19 L
180.266 140.76 L
180.721 137.33 L
181.311 133.9 L
182.43 130.47 L
182.999 127.04 L
183.946 123.61 L
187.623 120.18 L
187.866 116.75 L
187.899 113.32 L
188.12 109.89 L
190.971 106.46 L
191.111 103.03 L
192.878 99.6 L
194.232 96.17 L
202.894 92.74 L
203.37 89.31 L
203.812 85.88 L
205.729 82.45 L
209.441 79.02 L
212.034 75.59 L
233.835 72.16 L
234.019 68.73 L
242.77 65.3 L
243.337 61.87 L
245.56 58.44 L
259.758 55.01 L
260.871 51.58 L
269.398 48.15 L
S
GR
GS
0.8 0.6 0.2 RC
2 setlinecap
10.0 ML
2 LW
N
269.398 48.15 M
287.623 44.72 L
287.847 41.29 L
289.267 37.86 L
290.759 34.43 L
349.866 31 L
S
GR
GS
0.8 0.6 0.2 RC
2 setlinecap
10.0 ML
2 LW
N
68 374 M
78 374 L
S
GR
GS
0.8 0.6 0.2 RC
2 setlinecap
10.0 ML
2 LW
N
73 379 M
73 369 L
S
GR
GS
0.8 0.6 0.2 RC
2 setlinecap
10.0 ML
2 LW
N
69.464 377.536 M
76.536 370.464 L
S
GR
GS
0.8 0.6 0.2 RC
2 setlinecap
10.0 ML
2 LW
N
69.464 370.464 M
76.536 377.536 L
S
GR
GS
0.8 0.6 0.2 RC
2 setlinecap
10.0 ML
2 LW
N
164.541 319.12 M
174.541 319.12 L
S
GR
GS
0.8 0.6 0.2 RC
2 setlinecap
10.0 ML
2 LW
N
169.541 324.12 M
169.541 314.12 L
S
GR
GS
0.8 0.6 0.2 RC
2 setlinecap
10.0 ML
2 LW
N
166.005 322.656 M
173.076 315.584 L
S
GR
GS
0.8 0.6 0.2 RC
2 setlinecap
10.0 ML
2 LW
N
166.005 315.584 M
173.076 322.656 L
S
GR
GS
0.8 0.6 0.2 RC
2 setlinecap
10.0 ML
2 LW
N
164.555 188.78 M
174.555 188.78 L
S
GR
GS
0.8 0.6 0.2 RC
2 setlinecap
10.0 ML
2 LW
N
169.555 193.78 M
169.555 183.78 L
S
GR
GS
0.8 0.6 0.2 RC
2 setlinecap
10.0 ML
2 LW
N
166.019 192.316 M
173.09 185.244 L
S
GR
GS
0.8 0.6 0.2 RC
2 setlinecap
10.0 ML
2 LW
N
166.019 185.244 M
173.09 192.316 L
S
GR
GS
0.8 0.6 0.2 RC
2 setlinecap
10.0 ML
2 LW
N
164.578 175.06 M
174.578 175.06 L
S
GR
GS
0.8 0.6 0.2 RC
2 setlinecap
10.0 ML
2 LW
N
169.578 180.06 M
169.578 170.06 L
S
GR
GS
0.8 0.6 0.2 RC
2 setlinecap
10.0 ML
2 LW
N
166.043 178.596 M
173.114 171.524 L
S
GR
GS
0.8 0.6 0.2 RC
2 setlinecap
10.0 ML
2 LW
N
166.043 171.524 M
173.114 178.596 L
S
GR
GS
0.8 0.6 0.2 RC
2 setlinecap
10.0 ML
2 LW
N
164.613 164.77 M
174.613 164.77 L
S
GR
GS
0.8 0.6 0.2 RC
2 setlinecap
10.0 ML
2 LW
N
169.613 169.77 M
169.613 159.77 L
S
GR
GS
0.8 0.6 0.2 RC
2 setlinecap
10.0 ML
2 LW
N
166.077 168.306 M
173.148 161.234 L
S
GR
GS
0.8 0.6 0.2 RC
2 setlinecap
10.0 ML
2 LW
N
166.077 161.234 M
173.148 168.306 L
S
GR
GS
0.8 0.6 0.2 RC
2 setlinecap
10.0 ML
2 LW
N
164.74 151.05 M
174.74 151.05 L
S
GR
GS
0.8 0.6 0.2 RC
2 setlinecap
10.0 ML
2 LW
N
169.74 156.05 M
169.74 146.05 L
S
GR
GS
0.8 0.6 0.2 RC
2 setlinecap
10.0 ML
2 LW
N
166.205 154.586 M
173.276 147.514 L
S
GR
GS
0.8 0.6 0.2 RC
2 setlinecap
10.0 ML
2 LW
N
166.205 147.514 M
173.276 154.586 L
S
GR
GS
0.8 0.6 0.2 RC
2 setlinecap
10.0 ML
2 LW
N
175.721 137.33 M
185.721 137.33 L
S
GR
GS
0.8 0.6 0.2 RC
2 setlinecap
10.0 ML
2 LW
N
180.721 142.33 M
180.721 132.33 L
S
GR
GS
0.8 0.6 0.2 RC
2 setlinecap
10.0 ML
2 LW
N
177.186 140.866 M
184.257 133.794 L
S
GR
GS
0.8 0.6 0.2 RC
2 setlinecap
10.0 ML
2 LW
N
177.186 133.794 M
184.257 140.866 L
S
GR
GS
0.8 0.6 0.2 RC
2 setlinecap
10.0 ML
2 LW
N
178.946 123.61 M
188.946 123.61 L
S
GR
GS
0.8 0.6 0.2 RC
2 setlinecap
10.0 ML
2 LW
N
183.946 128.61 M
183.946 118.61 L
S
GR
GS
0.8 0.6 0.2 RC
2 setlinecap
10.0 ML
2 LW
N
180.411 127.146 M
187.482 120.074 L
S
GR
GS
0.8 0.6 0.2 RC
2 setlinecap
10.0 ML
2 LW
N
180.411 120.074 M
187.482 127.146 L
S
GR
GS
0.8 0.6 0.2 RC
2 setlinecap
10.0 ML
2 LW
N
183.12 109.89 M
193.12 109.89 L
S
GR
GS
0.8 0.6 0.2 RC
2 setlinecap
10.0 ML
2 LW
N
188.12 114.89 M
188.12 104.89 L
S
GR
GS
0.8 0.6 0.2 RC
2 setlinecap
10.0 ML
2 LW
N
184.584 113.426 M
191.655 106.354 L
S
GR
GS
0.8 0.6 0.2 RC
2 setlinecap
10.0 ML
2 LW
N
184.584 106.354 M
191.655 113.426 L
S
GR
GS
0.8 0.6 0.2 RC
2 setlinecap
10.0 ML
2 LW
N
189.232 96.17 M
199.232 96.17 L
S
GR
GS
0.8 0.6 0.2 RC
2 setlinecap
10.0 ML
2 LW
N
194.232 101.17 M
194.232 91.17 L
S
GR
GS
0.8 0.6 0.2 RC
2 setlinecap
10.0 ML
2 LW
N
190.696 99.706 M
197.767 92.634 L
S
GR
GS
0.8 0.6 0.2 RC
2 setlinecap
10.0 ML
2 LW
N
190.696 92.634 M
197.767 99.706 L
S
GR
GS
0.8 0.6 0.2 RC
2 setlinecap
10.0 ML
2 LW
N
200.729 82.45 M
210.729 82.45 L
S
GR
GS
0.8 0.6 0.2 RC
2 setlinecap
10.0 ML
2 LW
N
205.729 87.45 M
205.729 77.45 L
S
GR
GS
0.8 0.6 0.2 RC
2 setlinecap
10.0 ML
2 LW
N
202.193 85.986 M
209.264 78.914 L
S
GR
GS
0.8 0.6 0.2 RC
2 setlinecap
10.0 ML
2 LW
N
202.193 78.914 M
209.264 85.986 L
S
GR
GS
0.8 0.6 0.2 RC
2 setlinecap
10.0 ML
2 LW
N
228.835 72.16 M
238.835 72.16 L
S
GR
GS
0.8 0.6 0.2 RC
2 setlinecap
10.0 ML
2 LW
N
233.835 77.16 M
233.835 67.16 L
S
GR
GS
0.8 0.6 0.2 RC
2 setlinecap
10.0 ML
2 LW
N
230.299 75.696 M
237.37 68.624 L
S
GR
GS
0.8 0.6 0.2 RC
2 setlinecap
10.0 ML
2 LW
N
230.299 68.624 M
237.37 75.696 L
S
GR
GS
0.8 0.6 0.2 RC
2 setlinecap
10.0 ML
2 LW
N
240.56 58.44 M
250.56 58.44 L
S
GR
GS
0.8 0.6 0.2 RC
2 setlinecap
10.0 ML
2 LW
N
245.56 63.44 M
245.56 53.44 L
S
GR
GS
0.8 0.6 0.2 RC
2 setlinecap
10.0 ML
2 LW
N
242.024 61.976 M
249.095 54.904 L
S
GR
GS
0.8 0.6 0.2 RC
2 setlinecap
10.0 ML
2 LW
N
242.024 54.904 M
249.095 61.976 L
S
GR
GS
0.8 0.6 0.2 RC
2 setlinecap
10.0 ML
2 LW
N
282.623 44.72 M
292.623 44.72 L
S
GR
GS
0.8 0.6 0.2 RC
2 setlinecap
10.0 ML
2 LW
N
287.623 49.72 M
287.623 39.72 L
S
GR
GS
0.8 0.6 0.2 RC
2 setlinecap
10.0 ML
2 LW
N
284.087 48.256 M
291.158 41.184 L
S
GR
GS
0.8 0.6 0.2 RC
2 setlinecap
10.0 ML
2 LW
N
284.087 41.184 M
291.158 48.256 L
S
GR
GS
0.8 0.6 0.2 RC
2 setlinecap
10.0 ML
2 LW
N
344.866 31 M
354.866 31 L
S
GR
GS
0.8 0.6 0.2 RC
2 setlinecap
10.0 ML
2 LW
N
349.866 36 M
349.866 26 L
S
GR
GS
0.8 0.6 0.2 RC
2 setlinecap
10.0 ML
2 LW
N
346.331 34.536 M
353.402 27.464 L
S
GR
GS
0.8 0.6 0.2 RC
2 setlinecap
10.0 ML
2 LW
N
346.331 27.464 M
353.402 34.536 L
S
GR
GS
0.8 0.6 0.2 RC
2 setlinecap
10.0 ML
2 LW
N
68 374 M
78 374 L
S
GR
GS
0.8 0.6 0.2 RC
2 setlinecap
10.0 ML
2 LW
N
73 379 M
73 369 L
S
GR
GS
0.8 0.6 0.2 RC
2 setlinecap
10.0 ML
2 LW
N
69.464 377.536 M
76.536 370.464 L
S
GR
GS
0.8 0.6 0.2 RC
2 setlinecap
10.0 ML
2 LW
N
69.464 370.464 M
76.536 377.536 L
S
GR
GS
0 0.2 0 RC
2 setlinecap
10.0 ML
2 LW
N
73 374 M
73 360.28 L
169.444 356.85 L
169.541 349.99 L
169.541 298.54 L
169.546 295.11 L
169.564 291.68 L
169.604 288.25 L
169.612 284.82 L
169.644 281.39 L
169.673 277.96 L
169.682 274.53 L
169.729 271.1 L
169.777 267.67 L
177.154 264.24 L
181.311 260.81 L
182.999 257.38 L
187.866 253.95 L
188.12 250.52 L
190.917 247.09 L
191.111 243.66 L
202.134 240.23 L
202.894 236.8 L
209.441 233.37 L
212.034 229.94 L
222.427 223.08 L
223.567 219.65 L
223.728 216.22 L
224.061 212.79 L
237.202 205.93 L
245.456 202.5 L
248.11 199.07 L
255.371 195.64 L
264.183 192.21 L
265.985 188.78 L
266.003 185.35 L
266.023 181.92 L
266.029 178.49 L
266.034 175.06 L
266.082 171.63 L
266.184 168.2 L
268.262 164.77 L
281.276 161.34 L
287.136 157.91 L
289.966 154.48 L
292.893 151.05 L
295.237 147.62 L
303.792 144.19 L
304.818 140.76 L
307.534 137.33 L
S
GR
GS
0 0.2 0 RC
2 setlinecap
10.0 ML
2 LW
N
307.534 137.33 M
316.353 133.9 L
317.891 130.47 L
326.477 127.04 L
329.75 123.61 L
331.633 120.18 L
332.336 116.75 L
343.495 113.32 L
353.592 109.89 L
354.725 106.46 L
355.255 103.03 L
357.477 99.6 L
361.557 96.17 L
362.486 92.74 L
362.516 89.31 L
362.618 85.88 L
362.621 82.45 L
362.623 79.02 L
362.647 75.59 L
362.647 72.16 L
362.774 68.73 L
369.888 65.3 L
376.475 61.87 L
405.504 58.44 L
420.889 55.01 L
423.172 51.58 L
428.989 48.15 L
440.7 44.72 L
441.285 41.29 L
459.359 37.86 L
460.988 34.43 L
470.872 31 L
S
GR
GS
0 0.2 0 RC
2 setlinecap
10.0 ML
2 LW
N
67.228 377.332 M
78.772 377.332 L
73 367.335 L
67.228 377.332 L
S
GR
GS
0 0.2 0 RC
2 setlinecap
10.0 ML
2 LW
N
163.792 295.013 M
175.336 295.013 L
169.564 285.015 L
163.792 295.013 L
S
GR
GS
0 0.2 0 RC
2 setlinecap
10.0 ML
2 LW
N
163.91 277.862 M
175.454 277.862 L
169.682 267.865 L
163.91 277.862 L
S
GR
GS
0 0.2 0 RC
2 setlinecap
10.0 ML
2 LW
N
182.094 257.283 M
193.637 257.283 L
187.866 247.285 L
182.094 257.283 L
S
GR
GS
0 0.2 0 RC
2 setlinecap
10.0 ML
2 LW
N
203.669 236.702 M
215.213 236.702 L
209.441 226.705 L
203.669 236.702 L
S
GR
GS
0 0.2 0 RC
2 setlinecap
10.0 ML
2 LW
N
231.43 209.262 M
242.974 209.262 L
237.202 199.265 L
231.43 209.262 L
S
GR
GS
0 0.2 0 RC
2 setlinecap
10.0 ML
2 LW
N
260.213 192.112 M
271.757 192.112 L
265.985 182.115 L
260.213 192.112 L
S
GR
GS
0 0.2 0 RC
2 setlinecap
10.0 ML
2 LW
N
260.413 171.532 M
271.956 171.532 L
266.184 161.535 L
260.413 171.532 L
S
GR
GS
0 0.2 0 RC
2 setlinecap
10.0 ML
2 LW
N
289.465 150.952 M
301.009 150.952 L
295.237 140.955 L
289.465 150.952 L
S
GR
GS
0 0.2 0 RC
2 setlinecap
10.0 ML
2 LW
N
312.119 133.803 M
323.663 133.803 L
317.891 123.805 L
312.119 133.803 L
S
GR
GS
0 0.2 0 RC
2 setlinecap
10.0 ML
2 LW
N
347.82 113.223 M
359.364 113.223 L
353.592 103.225 L
347.82 113.223 L
S
GR
GS
0 0.2 0 RC
2 setlinecap
10.0 ML
2 LW
N
356.744 92.643 M
368.288 92.643 L
362.516 82.645 L
356.744 92.643 L
S
GR
GS
0 0.2 0 RC
2 setlinecap
10.0 ML
2 LW
N
357.003 72.063 M
368.546 72.063 L
362.774 62.065 L
357.003 72.063 L
S
GR
GS
0 0.2 0 RC
2 setlinecap
10.0 ML
2 LW
N
417.4 54.913 M
428.944 54.913 L
423.172 44.915 L
417.4 54.913 L
S
GR
GS
0 0.2 0 RC
2 setlinecap
10.0 ML
2 LW
N
465.1 34.333 M
476.644 34.333 L
470.872 24.335 L
465.1 34.333 L
S
GR
GS
0 0.2 0 RC
2 setlinecap
10.0 ML
2 LW
N
67.228 377.332 M
78.772 377.332 L
73 367.335 L
67.228 377.332 L
S
GR
GS
1 GC
N
424 124 M
424 71 L
501 71 L
501 124 L
cp
f
GR
GS
[1 0 0 1 463 78.92523] CT
/Helvetica-Bold 11 F
GS
[1 0 0 1 0 0] CT
0 3 moveto 
1 -1 scale
(Tree) t 
GR
GR
GS
0.6 0 0 RC
2 setlinecap
10.0 ML
2 LW
N
430 78.925 M
460 78.925 L
S
GR
GS
0.6 0 0 RC
2 setlinecap
10.0 ML
2 LW
N
441.6 82.4 M
441.6 74.6 L
449.4 74.6 L
449.4 82.4 L
441.6 82.4 L
S
GR
GS
[1 0 0 1 463 91.30841] CT
/Helvetica-Bold 11 F
GS
[1 0 0 1 0 0] CT
0 3 moveto 
1 -1 scale
(NC) t 
GR
GR
GS
0 0.2 0.4 RC
2 setlinecap
10.0 ML
2 LW
N
430 91.308 M
460 91.308 L
S
GR
GS
0 0.2 0.4 RC
2 setlinecap
10.0 ML
2 LW
N
450.5 91.5 M
449.545 88.561 L
447.045 86.745 L
443.955 86.745 L
441.455 88.561 L
440.5 91.5 L
441.455 94.439 L
443.955 96.255 L
447.045 96.255 L
449.545 94.439 L
450.5 91.5 L
S
GR
GS
[1 0 0 1 463 103.69159] CT
/Helvetica-Bold 11 F
GS
[1 0 0 1 0 0] CT
0 3 moveto 
1 -1 scale
(TC) t 
GR
GR
GS
0.8 0.6 0.2 RC
2 setlinecap
10.0 ML
2 LW
N
430 103.692 M
460 103.692 L
S
GR
GS
0.8 0.6 0.2 RC
2 setlinecap
10.0 ML
2 LW
N
440 103.5 M
451 103.5 L
S
GR
GS
0.8 0.6 0.2 RC
2 setlinecap
10.0 ML
2 LW
N
445.5 109 M
445.5 98 L
S
GR
GS
0.8 0.6 0.2 RC
2 setlinecap
10.0 ML
2 LW
N
441 108 M
450 99 L
S
GR
GS
0.8 0.6 0.2 RC
2 setlinecap
10.0 ML
2 LW
N
441 99 M
450 108 L
S
GR
GS
[1 0 0 1 463 116.07477] CT
/Helvetica-Bold 11 F
GS
[1 0 0 1 0 0] CT
0 3 moveto 
1 -1 scale
(NC-TC) t 
GR
GR
GS
0 0.2 0 RC
2 setlinecap
10.0 ML
2 LW
N
430 116.075 M
460 116.075 L
S
GR
GS
0 0.2 0 RC
2 setlinecap
10.0 ML
2 LW
N
439.728 119.832 M
451.272 119.832 L
445.5 109.835 L
439.728 119.832 L
S
GR
GS
0.149 GC
2 setlinecap
10.0 ML
N
424 124 M
424 71 L
501 71 L
501 124 L
424 124 L
S
GR
%%Trailer
%%Pages: 1
%%EOF
