%!PS-Adobe-3.0 EPSF-3.0
%%Creator: (MATLAB, The Mathworks, Inc. Version 8.5.0.197613 \(R2015a\). Operating System: Mac OS X)
%%Title: /Users/ashwinyakkundimath/Documents/Thesis_Results/plots/phy_mechs/MR_cdf_crosslayer_energy.eps
%%CreationDate: 2016-01-05T11:51:24
%%Pages: (atend)
%%BoundingBox: 0 0 560 420
%%LanguageLevel: 2
%%EndComments
%%BeginProlog
%%BeginResource: procset (Apache XML Graphics Std ProcSet) 1.2 0
%%Version: 1.2 0
%%Copyright: (Copyright 2001-2003,2010 The Apache Software Foundation. License terms: http://www.apache.org/licenses/LICENSE-2.0)
/bd{bind def}bind def
/ld{load def}bd
/GR/grestore ld
/M/moveto ld
/LJ/setlinejoin ld
/C/curveto ld
/f/fill ld
/LW/setlinewidth ld
/GC/setgray ld
/t/show ld
/N/newpath ld
/CT/concat ld
/cp/closepath ld
/S/stroke ld
/L/lineto ld
/CC/setcmykcolor ld
/A/ashow ld
/GS/gsave ld
/RC/setrgbcolor ld
/RM/rmoveto ld
/ML/setmiterlimit ld
/re {4 2 roll M
1 index 0 rlineto
0 exch rlineto
neg 0 rlineto
cp } bd
/_ctm matrix def
/_tm matrix def
/BT { _ctm currentmatrix pop matrix _tm copy pop 0 0 moveto } bd
/ET { _ctm setmatrix } bd
/iTm { _ctm setmatrix _tm concat } bd
/Tm { _tm astore pop iTm 0 0 moveto } bd
/ux 0.0 def
/uy 0.0 def
/F {
  /Tp exch def
  /Tf exch def
  Tf findfont Tp scalefont setfont
  /cf Tf def  /cs Tp def
} bd
/ULS {currentpoint /uy exch def /ux exch def} bd
/ULE {
  /Tcx currentpoint pop def
  gsave
  newpath
  cf findfont cs scalefont dup
  /FontMatrix get 0 get /Ts exch def /FontInfo get dup
  /UnderlinePosition get Ts mul /To exch def
  /UnderlineThickness get Ts mul /Tt exch def
  ux uy To add moveto  Tcx uy To add lineto
  Tt setlinewidth stroke
  grestore
} bd
/OLE {
  /Tcx currentpoint pop def
  gsave
  newpath
  cf findfont cs scalefont dup
  /FontMatrix get 0 get /Ts exch def /FontInfo get dup
  /UnderlinePosition get Ts mul /To exch def
  /UnderlineThickness get Ts mul /Tt exch def
  ux uy To add cs add moveto Tcx uy To add cs add lineto
  Tt setlinewidth stroke
  grestore
} bd
/SOE {
  /Tcx currentpoint pop def
  gsave
  newpath
  cf findfont cs scalefont dup
  /FontMatrix get 0 get /Ts exch def /FontInfo get dup
  /UnderlinePosition get Ts mul /To exch def
  /UnderlineThickness get Ts mul /Tt exch def
  ux uy To add cs 10 mul 26 idiv add moveto Tcx uy To add cs 10 mul 26 idiv add lineto
  Tt setlinewidth stroke
  grestore
} bd
/QT {
/Y22 exch store
/X22 exch store
/Y21 exch store
/X21 exch store
currentpoint
/Y21 load 2 mul add 3 div exch
/X21 load 2 mul add 3 div exch
/X21 load 2 mul /X22 load add 3 div
/Y21 load 2 mul /Y22 load add 3 div
/X22 load /Y22 load curveto
} bd
/SSPD {
dup length /d exch dict def
{
/v exch def
/k exch def
currentpagedevice k known {
/cpdv currentpagedevice k get def
v cpdv ne {
/upd false def
/nullv v type /nulltype eq def
/nullcpdv cpdv type /nulltype eq def
nullv nullcpdv or
{
/upd true def
} {
/sametype v type cpdv type eq def
sametype {
v type /arraytype eq {
/vlen v length def
/cpdvlen cpdv length def
vlen cpdvlen eq {
0 1 vlen 1 sub {
/i exch def
/obj v i get def
/cpdobj cpdv i get def
obj cpdobj ne {
/upd true def
exit
} if
} for
} {
/upd true def
} ifelse
} {
v type /dicttype eq {
v {
/dv exch def
/dk exch def
/cpddv cpdv dk get def
dv cpddv ne {
/upd true def
exit
} if
} forall
} {
/upd true def
} ifelse
} ifelse
} if
} ifelse
upd true eq {
d k v put
} if
} if
} if
} forall
d length 0 gt {
d setpagedevice
} if
} bd
%%EndResource
%%BeginResource: procset (Apache XML Graphics EPS ProcSet) 1.0 0
%%Version: 1.0 0
%%Copyright: (Copyright 2002-2003 The Apache Software Foundation. License terms: http://www.apache.org/licenses/LICENSE-2.0)
/BeginEPSF { %def
/b4_Inc_state save def         % Save state for cleanup
/dict_count countdictstack def % Count objects on dict stack
/op_count count 1 sub def      % Count objects on operand stack
userdict begin                 % Push userdict on dict stack
/showpage { } def              % Redefine showpage, { } = null proc
0 setgray 0 setlinecap         % Prepare graphics state
1 setlinewidth 0 setlinejoin
10 setmiterlimit [ ] 0 setdash newpath
/languagelevel where           % If level not equal to 1 then
{pop languagelevel             % set strokeadjust and
1 ne                           % overprint to their defaults.
{false setstrokeadjust false setoverprint
} if
} if
} bd
/EndEPSF { %def
count op_count sub {pop} repeat            % Clean up stacks
countdictstack dict_count sub {end} repeat
b4_Inc_state restore
} bd
%%EndResource
%FOPBeginFontDict
%%IncludeResource: font Courier-Bold
%%IncludeResource: font Helvetica
%%IncludeResource: font Courier-BoldOblique
%%IncludeResource: font Courier-Oblique
%%IncludeResource: font Times-Roman
%%IncludeResource: font Helvetica-BoldOblique
%%IncludeResource: font Helvetica-Bold
%%IncludeResource: font Helvetica-Oblique
%%IncludeResource: font Times-BoldItalic
%%IncludeResource: font Courier
%%IncludeResource: font Times-Italic
%%IncludeResource: font Times-Bold
%%IncludeResource: font Symbol
%%IncludeResource: font ZapfDingbats
%FOPEndFontDict
%%BeginResource: encoding WinAnsiEncoding
/WinAnsiEncoding [
/.notdef /.notdef /.notdef /.notdef /.notdef
/.notdef /.notdef /.notdef /.notdef /.notdef
/.notdef /.notdef /.notdef /.notdef /.notdef
/.notdef /.notdef /.notdef /.notdef /.notdef
/.notdef /.notdef /.notdef /.notdef /.notdef
/.notdef /.notdef /.notdef /.notdef /.notdef
/.notdef /.notdef /space /exclam /quotedbl
/numbersign /dollar /percent /ampersand /quotesingle
/parenleft /parenright /asterisk /plus /comma
/hyphen /period /slash /zero /one
/two /three /four /five /six
/seven /eight /nine /colon /semicolon
/less /equal /greater /question /at
/A /B /C /D /E
/F /G /H /I /J
/K /L /M /N /O
/P /Q /R /S /T
/U /V /W /X /Y
/Z /bracketleft /backslash /bracketright /asciicircum
/underscore /quoteleft /a /b /c
/d /e /f /g /h
/i /j /k /l /m
/n /o /p /q /r
/s /t /u /v /w
/x /y /z /braceleft /bar
/braceright /asciitilde /bullet /Euro /bullet
/quotesinglbase /florin /quotedblbase /ellipsis /dagger
/daggerdbl /circumflex /perthousand /Scaron /guilsinglleft
/OE /bullet /Zcaron /bullet /bullet
/quoteleft /quoteright /quotedblleft /quotedblright /bullet
/endash /emdash /asciitilde /trademark /scaron
/guilsinglright /oe /bullet /zcaron /Ydieresis
/space /exclamdown /cent /sterling /currency
/yen /brokenbar /section /dieresis /copyright
/ordfeminine /guillemotleft /logicalnot /sfthyphen /registered
/macron /degree /plusminus /twosuperior /threesuperior
/acute /mu /paragraph /middot /cedilla
/onesuperior /ordmasculine /guillemotright /onequarter /onehalf
/threequarters /questiondown /Agrave /Aacute /Acircumflex
/Atilde /Adieresis /Aring /AE /Ccedilla
/Egrave /Eacute /Ecircumflex /Edieresis /Igrave
/Iacute /Icircumflex /Idieresis /Eth /Ntilde
/Ograve /Oacute /Ocircumflex /Otilde /Odieresis
/multiply /Oslash /Ugrave /Uacute /Ucircumflex
/Udieresis /Yacute /Thorn /germandbls /agrave
/aacute /acircumflex /atilde /adieresis /aring
/ae /ccedilla /egrave /eacute /ecircumflex
/edieresis /igrave /iacute /icircumflex /idieresis
/eth /ntilde /ograve /oacute /ocircumflex
/otilde /odieresis /divide /oslash /ugrave
/uacute /ucircumflex /udieresis /yacute /thorn
/ydieresis
] def
%%EndResource
%FOPBeginFontReencode
/Courier-Bold findfont
dup length dict begin
  {1 index /FID ne {def} {pop pop} ifelse} forall
  /Encoding WinAnsiEncoding def
  currentdict
end
/Courier-Bold exch definefont pop
/Helvetica findfont
dup length dict begin
  {1 index /FID ne {def} {pop pop} ifelse} forall
  /Encoding WinAnsiEncoding def
  currentdict
end
/Helvetica exch definefont pop
/Courier-BoldOblique findfont
dup length dict begin
  {1 index /FID ne {def} {pop pop} ifelse} forall
  /Encoding WinAnsiEncoding def
  currentdict
end
/Courier-BoldOblique exch definefont pop
/Courier-Oblique findfont
dup length dict begin
  {1 index /FID ne {def} {pop pop} ifelse} forall
  /Encoding WinAnsiEncoding def
  currentdict
end
/Courier-Oblique exch definefont pop
/Times-Roman findfont
dup length dict begin
  {1 index /FID ne {def} {pop pop} ifelse} forall
  /Encoding WinAnsiEncoding def
  currentdict
end
/Times-Roman exch definefont pop
/Helvetica-BoldOblique findfont
dup length dict begin
  {1 index /FID ne {def} {pop pop} ifelse} forall
  /Encoding WinAnsiEncoding def
  currentdict
end
/Helvetica-BoldOblique exch definefont pop
/Helvetica-Bold findfont
dup length dict begin
  {1 index /FID ne {def} {pop pop} ifelse} forall
  /Encoding WinAnsiEncoding def
  currentdict
end
/Helvetica-Bold exch definefont pop
/Helvetica-Oblique findfont
dup length dict begin
  {1 index /FID ne {def} {pop pop} ifelse} forall
  /Encoding WinAnsiEncoding def
  currentdict
end
/Helvetica-Oblique exch definefont pop
/Times-BoldItalic findfont
dup length dict begin
  {1 index /FID ne {def} {pop pop} ifelse} forall
  /Encoding WinAnsiEncoding def
  currentdict
end
/Times-BoldItalic exch definefont pop
/Courier findfont
dup length dict begin
  {1 index /FID ne {def} {pop pop} ifelse} forall
  /Encoding WinAnsiEncoding def
  currentdict
end
/Courier exch definefont pop
/Times-Italic findfont
dup length dict begin
  {1 index /FID ne {def} {pop pop} ifelse} forall
  /Encoding WinAnsiEncoding def
  currentdict
end
/Times-Italic exch definefont pop
/Times-Bold findfont
dup length dict begin
  {1 index /FID ne {def} {pop pop} ifelse} forall
  /Encoding WinAnsiEncoding def
  currentdict
end
/Times-Bold exch definefont pop
%FOPEndFontReencode
%%EndProlog
%%Page: 1 1
%%PageBoundingBox: 0 0 560 420
%%BeginPageSetup
[1 0 0 -1 0 420] CT
%%EndPageSetup
GS
1 GC
N
0 0 560 420 re
f
GR
GS
1 GC
N
0 0 560 420 re
f
GR
GS
1 GC
N
73 374 M
507 374 L
507 31 L
73 31 L
cp
f
GR
GS
0.873 GC
2 setlinecap
10.0 ML
N
73 374 M
73 31 L
S
GR
GS
0.873 GC
2 setlinecap
10.0 ML
N
127.25 374 M
127.25 31 L
S
GR
GS
0.873 GC
2 setlinecap
10.0 ML
N
181.5 374 M
181.5 31 L
S
GR
GS
0.873 GC
2 setlinecap
10.0 ML
N
235.75 374 M
235.75 31 L
S
GR
GS
0.873 GC
2 setlinecap
10.0 ML
N
290 374 M
290 31 L
S
GR
GS
0.873 GC
2 setlinecap
10.0 ML
N
344.25 374 M
344.25 31 L
S
GR
GS
0.873 GC
2 setlinecap
10.0 ML
N
398.5 374 M
398.5 31 L
S
GR
GS
0.873 GC
2 setlinecap
10.0 ML
N
452.75 374 M
452.75 31 L
S
GR
GS
0.873 GC
2 setlinecap
10.0 ML
N
507 374 M
507 31 L
S
GR
GS
0.873 GC
2 setlinecap
10.0 ML
N
507 374 M
73 374 L
S
GR
GS
0.873 GC
2 setlinecap
10.0 ML
N
507 339.7 M
73 339.7 L
S
GR
GS
0.873 GC
2 setlinecap
10.0 ML
N
507 305.4 M
73 305.4 L
S
GR
GS
0.873 GC
2 setlinecap
10.0 ML
N
507 271.1 M
73 271.1 L
S
GR
GS
0.873 GC
2 setlinecap
10.0 ML
N
507 236.8 M
73 236.8 L
S
GR
GS
0.873 GC
2 setlinecap
10.0 ML
N
507 202.5 M
73 202.5 L
S
GR
GS
0.873 GC
2 setlinecap
10.0 ML
N
507 168.2 M
73 168.2 L
S
GR
GS
0.873 GC
2 setlinecap
10.0 ML
N
507 133.9 M
73 133.9 L
S
GR
GS
0.873 GC
2 setlinecap
10.0 ML
N
507 99.6 M
73 99.6 L
S
GR
GS
0.873 GC
2 setlinecap
10.0 ML
N
507 65.3 M
73 65.3 L
S
GR
GS
0.873 GC
2 setlinecap
10.0 ML
N
507 31 M
73 31 L
S
GR
GS
[1 0 0 1 290.00021 390] CT
0.149 GC
/Helvetica-Bold 11 F
GS
[1 0 0 1 0 0] CT
-33.5 9 moveto 
1 -1 scale
(Total Energy) t 
GR
GR
GS
0.149 GC
2 setlinecap
10.0 ML
N
73 374 M
507 374 L
S
GR
GS
0.149 GC
2 setlinecap
10.0 ML
N
73 374 M
73 369.66 L
S
GR
GS
0.149 GC
2 setlinecap
10.0 ML
N
127.25 374 M
127.25 369.66 L
S
GR
GS
0.149 GC
2 setlinecap
10.0 ML
N
181.5 374 M
181.5 369.66 L
S
GR
GS
0.149 GC
2 setlinecap
10.0 ML
N
235.75 374 M
235.75 369.66 L
S
GR
GS
0.149 GC
2 setlinecap
10.0 ML
N
290 374 M
290 369.66 L
S
GR
GS
0.149 GC
2 setlinecap
10.0 ML
N
344.25 374 M
344.25 369.66 L
S
GR
GS
0.149 GC
2 setlinecap
10.0 ML
N
398.5 374 M
398.5 369.66 L
S
GR
GS
0.149 GC
2 setlinecap
10.0 ML
N
452.75 374 M
452.75 369.66 L
S
GR
GS
0.149 GC
2 setlinecap
10.0 ML
N
507 374 M
507 369.66 L
S
GR
GS
[1 0 0 1 73 378] CT
0.149 GC
/Helvetica-Bold 10 F
GS
[1 0 0 1 0 0] CT
-3 8 moveto 
1 -1 scale
(0) t 
GR
GR
GS
[1 0 0 1 127.25 378] CT
0.149 GC
/Helvetica-Bold 10 F
GS
[1 0 0 1 0 0] CT
-3 8 moveto 
1 -1 scale
(1) t 
GR
GR
GS
[1 0 0 1 181.5 378] CT
0.149 GC
/Helvetica-Bold 10 F
GS
[1 0 0 1 0 0] CT
-3 8 moveto 
1 -1 scale
(2) t 
GR
GR
GS
[1 0 0 1 235.75 378] CT
0.149 GC
/Helvetica-Bold 10 F
GS
[1 0 0 1 0 0] CT
-3 8 moveto 
1 -1 scale
(3) t 
GR
GR
GS
[1 0 0 1 290 378] CT
0.149 GC
/Helvetica-Bold 10 F
GS
[1 0 0 1 0 0] CT
-3 8 moveto 
1 -1 scale
(4) t 
GR
GR
GS
[1 0 0 1 344.25 378] CT
0.149 GC
/Helvetica-Bold 10 F
GS
[1 0 0 1 0 0] CT
-3 8 moveto 
1 -1 scale
(5) t 
GR
GR
GS
[1 0 0 1 398.5 378] CT
0.149 GC
/Helvetica-Bold 10 F
GS
[1 0 0 1 0 0] CT
-3 8 moveto 
1 -1 scale
(6) t 
GR
GR
GS
[1 0 0 1 452.75 378] CT
0.149 GC
/Helvetica-Bold 10 F
GS
[1 0 0 1 0 0] CT
-3 8 moveto 
1 -1 scale
(7) t 
GR
GR
GS
[1 0 0 1 507 378] CT
0.149 GC
/Helvetica-Bold 10 F
GS
[1 0 0 1 0 0] CT
-3 8 moveto 
1 -1 scale
(8) t 
GR
GR
GS
[0 -1 1 0 52 202.49983] CT
0.149 GC
/Helvetica-Bold 11 F
GS
[1 0 0 1 0 0] CT
-60 -3 moveto 
1 -1 scale
(Cumulative Probability) t 
GR
GR
GS
0.149 GC
2 setlinecap
10.0 ML
N
73 374 M
73 31 L
S
GR
GS
0.149 GC
2 setlinecap
10.0 ML
N
73 374 M
77.34 374 L
S
GR
GS
0.149 GC
2 setlinecap
10.0 ML
N
73 339.7 M
77.34 339.7 L
S
GR
GS
0.149 GC
2 setlinecap
10.0 ML
N
73 305.4 M
77.34 305.4 L
S
GR
GS
0.149 GC
2 setlinecap
10.0 ML
N
73 271.1 M
77.34 271.1 L
S
GR
GS
0.149 GC
2 setlinecap
10.0 ML
N
73 236.8 M
77.34 236.8 L
S
GR
GS
0.149 GC
2 setlinecap
10.0 ML
N
73 202.5 M
77.34 202.5 L
S
GR
GS
0.149 GC
2 setlinecap
10.0 ML
N
73 168.2 M
77.34 168.2 L
S
GR
GS
0.149 GC
2 setlinecap
10.0 ML
N
73 133.9 M
77.34 133.9 L
S
GR
GS
0.149 GC
2 setlinecap
10.0 ML
N
73 99.6 M
77.34 99.6 L
S
GR
GS
0.149 GC
2 setlinecap
10.0 ML
N
73 65.3 M
77.34 65.3 L
S
GR
GS
0.149 GC
2 setlinecap
10.0 ML
N
73 31 M
77.34 31 L
S
GR
GS
[1 0 0 1 69 374] CT
0.149 GC
/Helvetica-Bold 10 F
GS
[1 0 0 1 0 0] CT
-6 2.5 moveto 
1 -1 scale
(0) t 
GR
GR
GS
[1 0 0 1 69 339.70001] CT
0.149 GC
/Helvetica-Bold 10 F
GS
[1 0 0 1 0 0] CT
-14 2.5 moveto 
1 -1 scale
(0.1) t 
GR
GR
GS
[1 0 0 1 69 305.39999] CT
0.149 GC
/Helvetica-Bold 10 F
GS
[1 0 0 1 0 0] CT
-14 2.5 moveto 
1 -1 scale
(0.2) t 
GR
GR
GS
[1 0 0 1 69 271.10001] CT
0.149 GC
/Helvetica-Bold 10 F
GS
[1 0 0 1 0 0] CT
-14 2.5 moveto 
1 -1 scale
(0.3) t 
GR
GR
GS
[1 0 0 1 69 236.8] CT
0.149 GC
/Helvetica-Bold 10 F
GS
[1 0 0 1 0 0] CT
-14 2.5 moveto 
1 -1 scale
(0.4) t 
GR
GR
GS
[1 0 0 1 69 202.5] CT
0.149 GC
/Helvetica-Bold 10 F
GS
[1 0 0 1 0 0] CT
-14 2.5 moveto 
1 -1 scale
(0.5) t 
GR
GR
GS
[1 0 0 1 69 168.2] CT
0.149 GC
/Helvetica-Bold 10 F
GS
[1 0 0 1 0 0] CT
-14 2.5 moveto 
1 -1 scale
(0.6) t 
GR
GR
GS
[1 0 0 1 69 133.90001] CT
0.149 GC
/Helvetica-Bold 10 F
GS
[1 0 0 1 0 0] CT
-14 2.5 moveto 
1 -1 scale
(0.7) t 
GR
GR
GS
[1 0 0 1 69 99.6] CT
0.149 GC
/Helvetica-Bold 10 F
GS
[1 0 0 1 0 0] CT
-14 2.5 moveto 
1 -1 scale
(0.8) t 
GR
GR
GS
[1 0 0 1 69 65.30001] CT
0.149 GC
/Helvetica-Bold 10 F
GS
[1 0 0 1 0 0] CT
-14 2.5 moveto 
1 -1 scale
(0.9) t 
GR
GR
GS
[1 0 0 1 69 31] CT
0.149 GC
/Helvetica-Bold 10 F
GS
[1 0 0 1 0 0] CT
-6 2.5 moveto 
1 -1 scale
(1) t 
GR
GR
GS
0.6 0 0 RC
2 setlinecap
10.0 ML
2 LW
N
127.25 374 M
127.25 370.57 L
127.304 367.14 L
127.304 349.99 L
127.304 109.89 L
127.304 103.03 L
127.358 79.02 L
133.835 75.59 L
134.485 72.16 L
135.699 68.73 L
136.181 65.3 L
139.543 61.87 L
139.857 58.44 L
142.391 55.01 L
146.009 51.58 L
146.953 48.15 L
147.601 44.72 L
147.684 41.29 L
150.209 37.86 L
150.755 34.43 L
181.554 31 L
S
GR
GS
0.6 0 0 RC
2 setlinecap
10.0 ML
2 LW
N
123.35 377.9 M
123.35 370.1 L
131.15 370.1 L
131.15 377.9 L
123.35 377.9 L
S
GR
GS
0.6 0 0 RC
2 setlinecap
10.0 ML
2 LW
N
123.35 374.47 M
123.35 366.67 L
131.15 366.67 L
131.15 374.47 L
123.35 374.47 L
S
GR
GS
0.6 0 0 RC
2 setlinecap
10.0 ML
2 LW
N
123.404 353.89 M
123.404 346.09 L
131.204 346.09 L
131.204 353.89 L
123.404 353.89 L
S
GR
GS
0.6 0 0 RC
2 setlinecap
10.0 ML
2 LW
N
123.404 113.79 M
123.404 105.99 L
131.204 105.99 L
131.204 113.79 L
123.404 113.79 L
S
GR
GS
0.6 0 0 RC
2 setlinecap
10.0 ML
2 LW
N
123.458 82.92 M
123.458 75.12 L
131.258 75.12 L
131.258 82.92 L
123.458 82.92 L
S
GR
GS
0.6 0 0 RC
2 setlinecap
10.0 ML
2 LW
N
129.935 79.49 M
129.935 71.69 L
137.735 71.69 L
137.735 79.49 L
129.935 79.49 L
S
GR
GS
0.6 0 0 RC
2 setlinecap
10.0 ML
2 LW
N
131.799 72.63 M
131.799 64.83 L
139.599 64.83 L
139.599 72.63 L
131.799 72.63 L
S
GR
GS
0.6 0 0 RC
2 setlinecap
10.0 ML
2 LW
N
132.281 69.2 M
132.281 61.4 L
140.081 61.4 L
140.081 69.2 L
132.281 69.2 L
S
GR
GS
0.6 0 0 RC
2 setlinecap
10.0 ML
2 LW
N
135.643 65.77 M
135.643 57.97 L
143.443 57.97 L
143.443 65.77 L
135.643 65.77 L
S
GR
GS
0.6 0 0 RC
2 setlinecap
10.0 ML
2 LW
N
138.491 58.91 M
138.491 51.11 L
146.291 51.11 L
146.291 58.91 L
138.491 58.91 L
S
GR
GS
0.6 0 0 RC
2 setlinecap
10.0 ML
2 LW
N
142.109 55.48 M
142.109 47.68 L
149.909 47.68 L
149.909 55.48 L
142.109 55.48 L
S
GR
GS
0.6 0 0 RC
2 setlinecap
10.0 ML
2 LW
N
143.701 48.62 M
143.701 40.82 L
151.501 40.82 L
151.501 48.62 L
143.701 48.62 L
S
GR
GS
0.6 0 0 RC
2 setlinecap
10.0 ML
2 LW
N
143.784 45.19 M
143.784 37.39 L
151.584 37.39 L
151.584 45.19 L
143.784 45.19 L
S
GR
GS
0.6 0 0 RC
2 setlinecap
10.0 ML
2 LW
N
146.855 38.33 M
146.855 30.53 L
154.655 30.53 L
154.655 38.33 L
146.855 38.33 L
S
GR
GS
0.6 0 0 RC
2 setlinecap
10.0 ML
2 LW
N
177.654 34.9 M
177.654 27.1 L
185.454 27.1 L
185.454 34.9 L
177.654 34.9 L
S
GR
GS
0.6 0 0 RC
2 setlinecap
10.0 ML
2 LW
N
123.35 377.9 M
123.35 370.1 L
131.15 370.1 L
131.15 377.9 L
123.35 377.9 L
S
GR
GS
0 0.2 0.4 RC
2 setlinecap
10.0 ML
2 LW
N
127.304 374 M
127.304 370.57 L
127.304 260.81 L
127.358 253.95 L
127.395 250.52 L
127.41 247.09 L
127.433 243.66 L
127.467 229.94 L
127.472 226.51 L
127.475 223.08 L
127.498 219.65 L
144.427 216.22 L
150.209 212.79 L
156.62 209.36 L
157.053 202.5 L
159.831 199.07 L
161.377 195.64 L
165.163 192.21 L
165.364 188.78 L
170.006 185.35 L
172.253 181.92 L
173.012 178.49 L
180.537 175.06 L
180.683 171.63 L
181.554 168.2 L
181.671 164.77 L
186.348 161.34 L
190.486 157.91 L
191.59 154.48 L
191.787 151.05 L
194.915 147.62 L
194.967 144.19 L
199.051 140.76 L
200.775 137.33 L
202.68 133.9 L
204.01 130.47 L
205.091 127.04 L
206.203 123.61 L
208.757 120.18 L
209.529 116.75 L
211 113.32 L
211.73 109.89 L
218.377 106.46 L
226.801 103.03 L
235.852 99.6 L
239.212 96.17 L
244.188 92.74 L
244.478 89.31 L
254.243 85.88 L
270.091 82.45 L
S
GR
GS
0 0.2 0.4 RC
2 setlinecap
10.0 ML
2 LW
N
270.091 82.45 M
279.906 79.02 L
284.679 75.59 L
290.054 72.16 L
290.07 68.73 L
290.073 65.3 L
290.364 61.87 L
294.639 58.44 L
294.706 55.01 L
295.068 51.58 L
299.889 48.15 L
301.361 44.72 L
322.923 41.29 L
333.282 37.86 L
334.764 34.43 L
347.824 31 L
S
GR
GS
0 0.2 0.4 RC
2 setlinecap
10.0 ML
2 LW
N
132.304 374 M
131.349 371.061 L
128.849 369.245 L
125.759 369.245 L
123.259 371.061 L
122.304 374 L
123.259 376.939 L
125.759 378.755 L
128.849 378.755 L
131.349 376.939 L
132.304 374 L
S
GR
GS
0 0.2 0.4 RC
2 setlinecap
10.0 ML
2 LW
N
132.41 247.09 M
131.455 244.151 L
128.955 242.335 L
125.865 242.335 L
123.365 244.151 L
122.41 247.09 L
123.365 250.029 L
125.865 251.845 L
128.955 251.845 L
131.455 250.029 L
132.41 247.09 L
S
GR
GS
0 0.2 0.4 RC
2 setlinecap
10.0 ML
2 LW
N
132.475 223.08 M
131.521 220.141 L
129.021 218.325 L
125.93 218.325 L
123.43 220.141 L
122.475 223.08 L
123.43 226.019 L
125.93 227.835 L
129.021 227.835 L
131.521 226.019 L
132.475 223.08 L
S
GR
GS
0 0.2 0.4 RC
2 setlinecap
10.0 ML
2 LW
N
162.053 202.5 M
161.098 199.561 L
158.598 197.745 L
155.508 197.745 L
153.008 199.561 L
152.053 202.5 L
153.008 205.439 L
155.508 207.255 L
158.598 207.255 L
161.098 205.439 L
162.053 202.5 L
S
GR
GS
0 0.2 0.4 RC
2 setlinecap
10.0 ML
2 LW
N
170.364 188.78 M
169.409 185.841 L
166.909 184.025 L
163.818 184.025 L
161.318 185.841 L
160.364 188.78 L
161.318 191.719 L
163.818 193.535 L
166.909 193.535 L
169.409 191.719 L
170.364 188.78 L
S
GR
GS
0 0.2 0.4 RC
2 setlinecap
10.0 ML
2 LW
N
185.683 171.63 M
184.728 168.691 L
182.228 166.875 L
179.138 166.875 L
176.638 168.691 L
175.683 171.63 L
176.638 174.569 L
179.138 176.385 L
182.228 176.385 L
184.728 174.569 L
185.683 171.63 L
S
GR
GS
0 0.2 0.4 RC
2 setlinecap
10.0 ML
2 LW
N
195.486 157.91 M
194.531 154.971 L
192.031 153.155 L
188.941 153.155 L
186.441 154.971 L
185.486 157.91 L
186.441 160.849 L
188.941 162.665 L
192.031 162.665 L
194.531 160.849 L
195.486 157.91 L
S
GR
GS
0 0.2 0.4 RC
2 setlinecap
10.0 ML
2 LW
N
204.051 140.76 M
203.096 137.821 L
200.596 136.005 L
197.506 136.005 L
195.006 137.821 L
194.051 140.76 L
195.006 143.699 L
197.506 145.515 L
200.596 145.515 L
203.096 143.699 L
204.051 140.76 L
S
GR
GS
0 0.2 0.4 RC
2 setlinecap
10.0 ML
2 LW
N
211.203 123.61 M
210.249 120.671 L
207.749 118.855 L
204.658 118.855 L
202.158 120.671 L
201.203 123.61 L
202.158 126.549 L
204.658 128.365 L
207.749 128.365 L
210.249 126.549 L
211.203 123.61 L
S
GR
GS
0 0.2 0.4 RC
2 setlinecap
10.0 ML
2 LW
N
216.73 109.89 M
215.775 106.951 L
213.275 105.135 L
210.185 105.135 L
207.685 106.951 L
206.73 109.89 L
207.685 112.829 L
210.185 114.645 L
213.275 114.645 L
215.775 112.829 L
216.73 109.89 L
S
GR
GS
0 0.2 0.4 RC
2 setlinecap
10.0 ML
2 LW
N
249.188 92.74 M
248.233 89.801 L
245.733 87.985 L
242.643 87.985 L
240.143 89.801 L
239.188 92.74 L
240.143 95.679 L
242.643 97.495 L
245.733 97.495 L
248.233 95.679 L
249.188 92.74 L
S
GR
GS
0 0.2 0.4 RC
2 setlinecap
10.0 ML
2 LW
N
284.906 79.02 M
283.951 76.081 L
281.451 74.265 L
278.361 74.265 L
275.861 76.081 L
274.906 79.02 L
275.861 81.959 L
278.361 83.775 L
281.451 83.775 L
283.951 81.959 L
284.906 79.02 L
S
GR
GS
0 0.2 0.4 RC
2 setlinecap
10.0 ML
2 LW
N
295.364 61.87 M
294.409 58.931 L
291.909 57.115 L
288.819 57.115 L
286.319 58.931 L
285.364 61.87 L
286.319 64.809 L
288.819 66.625 L
291.909 66.625 L
294.409 64.809 L
295.364 61.87 L
S
GR
GS
0 0.2 0.4 RC
2 setlinecap
10.0 ML
2 LW
N
304.889 48.15 M
303.934 45.211 L
301.434 43.395 L
298.344 43.395 L
295.844 45.211 L
294.889 48.15 L
295.844 51.089 L
298.344 52.905 L
301.434 52.905 L
303.934 51.089 L
304.889 48.15 L
S
GR
GS
0 0.2 0.4 RC
2 setlinecap
10.0 ML
2 LW
N
352.824 31 M
351.87 28.061 L
349.37 26.245 L
346.279 26.245 L
343.779 28.061 L
342.824 31 L
343.779 33.939 L
346.279 35.755 L
349.37 35.755 L
351.87 33.939 L
352.824 31 L
S
GR
GS
0 0.2 0.4 RC
2 setlinecap
10.0 ML
2 LW
N
132.304 374 M
131.349 371.061 L
128.849 369.245 L
125.759 369.245 L
123.259 371.061 L
122.304 374 L
123.259 376.939 L
125.759 378.755 L
128.849 378.755 L
131.349 376.939 L
132.304 374 L
S
GR
GS
0.8 0.6 0.2 RC
2 setlinecap
10.0 ML
2 LW
N
73 374 M
73 363.71 L
73.054 360.28 L
127.25 336.27 L
127.304 329.41 L
127.304 257.38 L
127.358 202.5 L
133.333 199.07 L
134.008 195.64 L
134.729 192.21 L
136.613 188.78 L
138.833 185.35 L
139.005 181.92 L
140.289 178.49 L
140.585 175.06 L
145.466 171.63 L
146.261 168.2 L
146.333 164.77 L
147.275 161.34 L
150.154 157.91 L
151.248 154.48 L
151.475 151.05 L
151.676 147.62 L
156.905 144.19 L
157.4 140.76 L
158.713 137.33 L
158.955 133.9 L
161.377 130.47 L
161.792 123.61 L
162.99 120.18 L
163.416 116.75 L
163.874 113.32 L
168.754 109.89 L
174.661 106.46 L
177.137 103.03 L
179.14 99.6 L
181.554 72.16 L
182.881 68.73 L
184.376 65.3 L
189.277 61.87 L
193.007 58.44 L
197.316 55.01 L
198.565 51.58 L
209.434 48.15 L
214.452 44.72 L
217.139 41.29 L
226.485 37.86 L
234.325 34.43 L
307.251 31 L
S
GR
GS
0.8 0.6 0.2 RC
2 setlinecap
10.0 ML
2 LW
N
68 374 M
78 374 L
S
GR
GS
0.8 0.6 0.2 RC
2 setlinecap
10.0 ML
2 LW
N
73 379 M
73 369 L
S
GR
GS
0.8 0.6 0.2 RC
2 setlinecap
10.0 ML
2 LW
N
69.464 377.536 M
76.536 370.464 L
S
GR
GS
0.8 0.6 0.2 RC
2 setlinecap
10.0 ML
2 LW
N
69.464 370.464 M
76.536 377.536 L
S
GR
GS
0.8 0.6 0.2 RC
2 setlinecap
10.0 ML
2 LW
N
122.25 336.27 M
132.25 336.27 L
S
GR
GS
0.8 0.6 0.2 RC
2 setlinecap
10.0 ML
2 LW
N
127.25 341.27 M
127.25 331.27 L
S
GR
GS
0.8 0.6 0.2 RC
2 setlinecap
10.0 ML
2 LW
N
123.714 339.806 M
130.786 332.734 L
S
GR
GS
0.8 0.6 0.2 RC
2 setlinecap
10.0 ML
2 LW
N
123.714 332.734 M
130.786 339.806 L
S
GR
GS
0.8 0.6 0.2 RC
2 setlinecap
10.0 ML
2 LW
N
128.333 199.07 M
138.333 199.07 L
S
GR
GS
0.8 0.6 0.2 RC
2 setlinecap
10.0 ML
2 LW
N
133.333 204.07 M
133.333 194.07 L
S
GR
GS
0.8 0.6 0.2 RC
2 setlinecap
10.0 ML
2 LW
N
129.797 202.606 M
136.868 195.534 L
S
GR
GS
0.8 0.6 0.2 RC
2 setlinecap
10.0 ML
2 LW
N
129.797 195.534 M
136.868 202.606 L
S
GR
GS
0.8 0.6 0.2 RC
2 setlinecap
10.0 ML
2 LW
N
131.613 188.78 M
141.613 188.78 L
S
GR
GS
0.8 0.6 0.2 RC
2 setlinecap
10.0 ML
2 LW
N
136.613 193.78 M
136.613 183.78 L
S
GR
GS
0.8 0.6 0.2 RC
2 setlinecap
10.0 ML
2 LW
N
133.078 192.316 M
140.149 185.244 L
S
GR
GS
0.8 0.6 0.2 RC
2 setlinecap
10.0 ML
2 LW
N
133.078 185.244 M
140.149 192.316 L
S
GR
GS
0.8 0.6 0.2 RC
2 setlinecap
10.0 ML
2 LW
N
135.585 175.06 M
145.585 175.06 L
S
GR
GS
0.8 0.6 0.2 RC
2 setlinecap
10.0 ML
2 LW
N
140.585 180.06 M
140.585 170.06 L
S
GR
GS
0.8 0.6 0.2 RC
2 setlinecap
10.0 ML
2 LW
N
137.05 178.596 M
144.121 171.524 L
S
GR
GS
0.8 0.6 0.2 RC
2 setlinecap
10.0 ML
2 LW
N
137.05 171.524 M
144.121 178.596 L
S
GR
GS
0.8 0.6 0.2 RC
2 setlinecap
10.0 ML
2 LW
N
141.333 164.77 M
151.333 164.77 L
S
GR
GS
0.8 0.6 0.2 RC
2 setlinecap
10.0 ML
2 LW
N
146.333 169.77 M
146.333 159.77 L
S
GR
GS
0.8 0.6 0.2 RC
2 setlinecap
10.0 ML
2 LW
N
142.798 168.306 M
149.869 161.234 L
S
GR
GS
0.8 0.6 0.2 RC
2 setlinecap
10.0 ML
2 LW
N
142.798 161.234 M
149.869 168.306 L
S
GR
GS
0.8 0.6 0.2 RC
2 setlinecap
10.0 ML
2 LW
N
146.475 151.05 M
156.475 151.05 L
S
GR
GS
0.8 0.6 0.2 RC
2 setlinecap
10.0 ML
2 LW
N
151.475 156.05 M
151.475 146.05 L
S
GR
GS
0.8 0.6 0.2 RC
2 setlinecap
10.0 ML
2 LW
N
147.94 154.586 M
155.011 147.514 L
S
GR
GS
0.8 0.6 0.2 RC
2 setlinecap
10.0 ML
2 LW
N
147.94 147.514 M
155.011 154.586 L
S
GR
GS
0.8 0.6 0.2 RC
2 setlinecap
10.0 ML
2 LW
N
152.4 140.76 M
162.4 140.76 L
S
GR
GS
0.8 0.6 0.2 RC
2 setlinecap
10.0 ML
2 LW
N
157.4 145.76 M
157.4 135.76 L
S
GR
GS
0.8 0.6 0.2 RC
2 setlinecap
10.0 ML
2 LW
N
153.864 144.296 M
160.936 137.224 L
S
GR
GS
0.8 0.6 0.2 RC
2 setlinecap
10.0 ML
2 LW
N
153.864 137.224 M
160.936 144.296 L
S
GR
GS
0.8 0.6 0.2 RC
2 setlinecap
10.0 ML
2 LW
N
156.377 130.47 M
166.377 130.47 L
S
GR
GS
0.8 0.6 0.2 RC
2 setlinecap
10.0 ML
2 LW
N
161.377 135.47 M
161.377 125.47 L
S
GR
GS
0.8 0.6 0.2 RC
2 setlinecap
10.0 ML
2 LW
N
157.841 134.006 M
164.912 126.934 L
S
GR
GS
0.8 0.6 0.2 RC
2 setlinecap
10.0 ML
2 LW
N
157.841 126.934 M
164.912 134.006 L
S
GR
GS
0.8 0.6 0.2 RC
2 setlinecap
10.0 ML
2 LW
N
158.874 113.32 M
168.874 113.32 L
S
GR
GS
0.8 0.6 0.2 RC
2 setlinecap
10.0 ML
2 LW
N
163.874 118.32 M
163.874 108.32 L
S
GR
GS
0.8 0.6 0.2 RC
2 setlinecap
10.0 ML
2 LW
N
160.339 116.856 M
167.41 109.784 L
S
GR
GS
0.8 0.6 0.2 RC
2 setlinecap
10.0 ML
2 LW
N
160.339 109.784 M
167.41 116.856 L
S
GR
GS
0.8 0.6 0.2 RC
2 setlinecap
10.0 ML
2 LW
N
172.137 103.03 M
182.137 103.03 L
S
GR
GS
0.8 0.6 0.2 RC
2 setlinecap
10.0 ML
2 LW
N
177.137 108.03 M
177.137 98.03 L
S
GR
GS
0.8 0.6 0.2 RC
2 setlinecap
10.0 ML
2 LW
N
173.601 106.566 M
180.672 99.494 L
S
GR
GS
0.8 0.6 0.2 RC
2 setlinecap
10.0 ML
2 LW
N
173.601 99.494 M
180.672 106.566 L
S
GR
GS
0.8 0.6 0.2 RC
2 setlinecap
10.0 ML
2 LW
N
179.376 65.3 M
189.376 65.3 L
S
GR
GS
0.8 0.6 0.2 RC
2 setlinecap
10.0 ML
2 LW
N
184.376 70.3 M
184.376 60.3 L
S
GR
GS
0.8 0.6 0.2 RC
2 setlinecap
10.0 ML
2 LW
N
180.84 68.836 M
187.911 61.764 L
S
GR
GS
0.8 0.6 0.2 RC
2 setlinecap
10.0 ML
2 LW
N
180.84 61.764 M
187.911 68.836 L
S
GR
GS
0.8 0.6 0.2 RC
2 setlinecap
10.0 ML
2 LW
N
192.316 55.01 M
202.316 55.01 L
S
GR
GS
0.8 0.6 0.2 RC
2 setlinecap
10.0 ML
2 LW
N
197.316 60.01 M
197.316 50.01 L
S
GR
GS
0.8 0.6 0.2 RC
2 setlinecap
10.0 ML
2 LW
N
193.78 58.546 M
200.851 51.474 L
S
GR
GS
0.8 0.6 0.2 RC
2 setlinecap
10.0 ML
2 LW
N
193.78 51.474 M
200.851 58.546 L
S
GR
GS
0.8 0.6 0.2 RC
2 setlinecap
10.0 ML
2 LW
N
212.139 41.29 M
222.139 41.29 L
S
GR
GS
0.8 0.6 0.2 RC
2 setlinecap
10.0 ML
2 LW
N
217.139 46.29 M
217.139 36.29 L
S
GR
GS
0.8 0.6 0.2 RC
2 setlinecap
10.0 ML
2 LW
N
213.603 44.826 M
220.674 37.754 L
S
GR
GS
0.8 0.6 0.2 RC
2 setlinecap
10.0 ML
2 LW
N
213.603 37.754 M
220.674 44.826 L
S
GR
GS
0.8 0.6 0.2 RC
2 setlinecap
10.0 ML
2 LW
N
302.251 31 M
312.251 31 L
S
GR
GS
0.8 0.6 0.2 RC
2 setlinecap
10.0 ML
2 LW
N
307.251 36 M
307.251 26 L
S
GR
GS
0.8 0.6 0.2 RC
2 setlinecap
10.0 ML
2 LW
N
303.715 34.536 M
310.786 27.464 L
S
GR
GS
0.8 0.6 0.2 RC
2 setlinecap
10.0 ML
2 LW
N
303.715 27.464 M
310.786 34.536 L
S
GR
GS
0.8 0.6 0.2 RC
2 setlinecap
10.0 ML
2 LW
N
68 374 M
78 374 L
S
GR
GS
0.8 0.6 0.2 RC
2 setlinecap
10.0 ML
2 LW
N
73 379 M
73 369 L
S
GR
GS
0.8 0.6 0.2 RC
2 setlinecap
10.0 ML
2 LW
N
69.464 377.536 M
76.536 370.464 L
S
GR
GS
0.8 0.6 0.2 RC
2 setlinecap
10.0 ML
2 LW
N
69.464 370.464 M
76.536 377.536 L
S
GR
GS
0 0.2 0 RC
2 setlinecap
10.0 ML
2 LW
N
73 374 M
73 360.28 L
127.25 356.85 L
127.304 349.99 L
127.304 339.7 L
127.358 295.11 L
127.442 291.68 L
136.618 288.25 L
142.105 284.82 L
151.095 281.39 L
156.58 277.96 L
157.4 274.53 L
158.7 271.1 L
158.713 267.67 L
163.721 264.24 L
179.14 260.81 L
181.554 236.8 L
181.566 233.37 L
181.63 229.94 L
182.835 226.51 L
184.376 223.08 L
184.528 219.65 L
187.607 216.22 L
188.355 212.79 L
188.533 209.36 L
188.947 205.93 L
190.142 202.5 L
195.044 199.07 L
196.271 195.64 L
212.913 192.21 L
213.706 185.35 L
215.128 181.92 L
218.664 178.49 L
222.037 175.06 L
222.7 171.63 L
225.768 168.2 L
230.046 164.77 L
235.843 161.34 L
235.907 157.91 L
235.947 154.48 L
236.001 151.05 L
236.006 147.62 L
236.46 144.19 L
239.617 140.76 L
240.247 137.33 L
244.357 133.9 L
247.319 130.47 L
247.705 127.04 L
249.366 123.61 L
249.752 120.18 L
S
GR
GS
0 0.2 0 RC
2 setlinecap
10.0 ML
2 LW
N
249.752 120.18 M
251.523 116.75 L
257.489 113.32 L
258.09 109.89 L
261.856 106.46 L
263.749 103.03 L
265.52 99.6 L
268.658 96.17 L
271.595 92.74 L
287.77 89.31 L
291.489 85.88 L
317.275 82.45 L
322.96 79.02 L
323.344 75.59 L
323.879 72.16 L
325.437 68.73 L
337.068 65.3 L
349.982 61.87 L
353.37 58.44 L
360.756 55.01 L
392.551 51.58 L
405.716 48.15 L
412.516 44.72 L
412.949 41.29 L
432.265 37.86 L
432.372 34.43 L
460.941 31 L
S
GR
GS
0 0.2 0 RC
2 setlinecap
10.0 ML
2 LW
N
67.228 377.332 M
78.772 377.332 L
73 367.335 L
67.228 377.332 L
S
GR
GS
0 0.2 0 RC
2 setlinecap
10.0 ML
2 LW
N
121.587 298.443 M
133.13 298.443 L
127.358 288.445 L
121.587 298.443 L
S
GR
GS
0 0.2 0 RC
2 setlinecap
10.0 ML
2 LW
N
151.628 277.862 M
163.172 277.862 L
157.4 267.865 L
151.628 277.862 L
S
GR
GS
0 0.2 0 RC
2 setlinecap
10.0 ML
2 LW
N
175.782 240.132 M
187.326 240.132 L
181.554 230.135 L
175.782 240.132 L
S
GR
GS
0 0.2 0 RC
2 setlinecap
10.0 ML
2 LW
N
178.756 222.982 M
190.3 222.982 L
184.528 212.985 L
178.756 222.982 L
S
GR
GS
0 0.2 0 RC
2 setlinecap
10.0 ML
2 LW
N
189.272 202.402 M
200.815 202.402 L
195.044 192.405 L
189.272 202.402 L
S
GR
GS
0 0.2 0 RC
2 setlinecap
10.0 ML
2 LW
N
212.893 181.823 M
224.436 181.823 L
218.664 171.825 L
212.893 181.823 L
S
GR
GS
0 0.2 0 RC
2 setlinecap
10.0 ML
2 LW
N
230.135 161.243 M
241.678 161.243 L
235.907 151.245 L
230.135 161.243 L
S
GR
GS
0 0.2 0 RC
2 setlinecap
10.0 ML
2 LW
N
233.845 144.092 M
245.389 144.092 L
239.617 134.095 L
233.845 144.092 L
S
GR
GS
0 0.2 0 RC
2 setlinecap
10.0 ML
2 LW
N
243.594 126.942 M
255.138 126.942 L
249.366 116.945 L
243.594 126.942 L
S
GR
GS
0 0.2 0 RC
2 setlinecap
10.0 ML
2 LW
N
257.978 106.362 M
269.521 106.362 L
263.749 96.365 L
257.978 106.362 L
S
GR
GS
0 0.2 0 RC
2 setlinecap
10.0 ML
2 LW
N
285.717 89.213 M
297.26 89.213 L
291.489 79.215 L
285.717 89.213 L
S
GR
GS
0 0.2 0 RC
2 setlinecap
10.0 ML
2 LW
N
319.666 72.063 M
331.209 72.063 L
325.437 62.065 L
319.666 72.063 L
S
GR
GS
0 0.2 0 RC
2 setlinecap
10.0 ML
2 LW
N
399.944 51.483 M
411.488 51.483 L
405.716 41.485 L
399.944 51.483 L
S
GR
GS
0 0.2 0 RC
2 setlinecap
10.0 ML
2 LW
N
455.169 34.333 M
466.713 34.333 L
460.941 24.335 L
455.169 34.333 L
S
GR
GS
0 0.2 0 RC
2 setlinecap
10.0 ML
2 LW
N
67.228 377.332 M
78.772 377.332 L
73 367.335 L
67.228 377.332 L
S
GR
GS
1 GC
N
425 124 M
425 71 L
502 71 L
502 124 L
cp
f
GR
GS
[1 0 0 1 464 78.92523] CT
/Helvetica-Bold 11 F
GS
[1 0 0 1 0 0] CT
0 3 moveto 
1 -1 scale
(Tree) t 
GR
GR
GS
0.6 0 0 RC
2 setlinecap
10.0 ML
2 LW
N
431 78.925 M
461 78.925 L
S
GR
GS
0.6 0 0 RC
2 setlinecap
10.0 ML
2 LW
N
442.6 82.4 M
442.6 74.6 L
450.4 74.6 L
450.4 82.4 L
442.6 82.4 L
S
GR
GS
[1 0 0 1 464 91.30841] CT
/Helvetica-Bold 11 F
GS
[1 0 0 1 0 0] CT
0 3 moveto 
1 -1 scale
(NC) t 
GR
GR
GS
0 0.2 0.4 RC
2 setlinecap
10.0 ML
2 LW
N
431 91.308 M
461 91.308 L
S
GR
GS
0 0.2 0.4 RC
2 setlinecap
10.0 ML
2 LW
N
451.5 91.5 M
450.545 88.561 L
448.045 86.745 L
444.955 86.745 L
442.455 88.561 L
441.5 91.5 L
442.455 94.439 L
444.955 96.255 L
448.045 96.255 L
450.545 94.439 L
451.5 91.5 L
S
GR
GS
[1 0 0 1 464 103.69159] CT
/Helvetica-Bold 11 F
GS
[1 0 0 1 0 0] CT
0 3 moveto 
1 -1 scale
(TC) t 
GR
GR
GS
0.8 0.6 0.2 RC
2 setlinecap
10.0 ML
2 LW
N
431 103.692 M
461 103.692 L
S
GR
GS
0.8 0.6 0.2 RC
2 setlinecap
10.0 ML
2 LW
N
441 103.5 M
452 103.5 L
S
GR
GS
0.8 0.6 0.2 RC
2 setlinecap
10.0 ML
2 LW
N
446.5 109 M
446.5 98 L
S
GR
GS
0.8 0.6 0.2 RC
2 setlinecap
10.0 ML
2 LW
N
442 108 M
451 99 L
S
GR
GS
0.8 0.6 0.2 RC
2 setlinecap
10.0 ML
2 LW
N
442 99 M
451 108 L
S
GR
GS
[1 0 0 1 464 116.07477] CT
/Helvetica-Bold 11 F
GS
[1 0 0 1 0 0] CT
0 3 moveto 
1 -1 scale
(NC-TC) t 
GR
GR
GS
0 0.2 0 RC
2 setlinecap
10.0 ML
2 LW
N
431 116.075 M
461 116.075 L
S
GR
GS
0 0.2 0 RC
2 setlinecap
10.0 ML
2 LW
N
440.728 119.832 M
452.272 119.832 L
446.5 109.835 L
440.728 119.832 L
S
GR
GS
0.149 GC
2 setlinecap
10.0 ML
N
425 124 M
425 71 L
502 71 L
502 124 L
425 124 L
S
GR
%%Trailer
%%Pages: 1
%%EOF
