%!PS-Adobe-3.0 EPSF-3.0
%%Creator: (MATLAB, The Mathworks, Inc. Version 8.5.0.197613 \(R2015a\). Operating System: Mac OS X)
%%Title: /Users/ashwinyakkundimath/Documents/Thesis_Data/phymechs_errorbar.eps
%%CreationDate: 2016-03-31T12:56:18
%%Pages: (atend)
%%BoundingBox: 0 0 560 420
%%LanguageLevel: 2
%%EndComments
%%BeginProlog
%%BeginResource: procset (Apache XML Graphics Std ProcSet) 1.2 0
%%Version: 1.2 0
%%Copyright: (Copyright 2001-2003,2010 The Apache Software Foundation. License terms: http://www.apache.org/licenses/LICENSE-2.0)
/bd{bind def}bind def
/ld{load def}bd
/GR/grestore ld
/M/moveto ld
/LJ/setlinejoin ld
/C/curveto ld
/f/fill ld
/LW/setlinewidth ld
/GC/setgray ld
/t/show ld
/N/newpath ld
/CT/concat ld
/cp/closepath ld
/S/stroke ld
/L/lineto ld
/CC/setcmykcolor ld
/A/ashow ld
/GS/gsave ld
/RC/setrgbcolor ld
/RM/rmoveto ld
/ML/setmiterlimit ld
/re {4 2 roll M
1 index 0 rlineto
0 exch rlineto
neg 0 rlineto
cp } bd
/_ctm matrix def
/_tm matrix def
/BT { _ctm currentmatrix pop matrix _tm copy pop 0 0 moveto } bd
/ET { _ctm setmatrix } bd
/iTm { _ctm setmatrix _tm concat } bd
/Tm { _tm astore pop iTm 0 0 moveto } bd
/ux 0.0 def
/uy 0.0 def
/F {
  /Tp exch def
  /Tf exch def
  Tf findfont Tp scalefont setfont
  /cf Tf def  /cs Tp def
} bd
/ULS {currentpoint /uy exch def /ux exch def} bd
/ULE {
  /Tcx currentpoint pop def
  gsave
  newpath
  cf findfont cs scalefont dup
  /FontMatrix get 0 get /Ts exch def /FontInfo get dup
  /UnderlinePosition get Ts mul /To exch def
  /UnderlineThickness get Ts mul /Tt exch def
  ux uy To add moveto  Tcx uy To add lineto
  Tt setlinewidth stroke
  grestore
} bd
/OLE {
  /Tcx currentpoint pop def
  gsave
  newpath
  cf findfont cs scalefont dup
  /FontMatrix get 0 get /Ts exch def /FontInfo get dup
  /UnderlinePosition get Ts mul /To exch def
  /UnderlineThickness get Ts mul /Tt exch def
  ux uy To add cs add moveto Tcx uy To add cs add lineto
  Tt setlinewidth stroke
  grestore
} bd
/SOE {
  /Tcx currentpoint pop def
  gsave
  newpath
  cf findfont cs scalefont dup
  /FontMatrix get 0 get /Ts exch def /FontInfo get dup
  /UnderlinePosition get Ts mul /To exch def
  /UnderlineThickness get Ts mul /Tt exch def
  ux uy To add cs 10 mul 26 idiv add moveto Tcx uy To add cs 10 mul 26 idiv add lineto
  Tt setlinewidth stroke
  grestore
} bd
/QT {
/Y22 exch store
/X22 exch store
/Y21 exch store
/X21 exch store
currentpoint
/Y21 load 2 mul add 3 div exch
/X21 load 2 mul add 3 div exch
/X21 load 2 mul /X22 load add 3 div
/Y21 load 2 mul /Y22 load add 3 div
/X22 load /Y22 load curveto
} bd
/SSPD {
dup length /d exch dict def
{
/v exch def
/k exch def
currentpagedevice k known {
/cpdv currentpagedevice k get def
v cpdv ne {
/upd false def
/nullv v type /nulltype eq def
/nullcpdv cpdv type /nulltype eq def
nullv nullcpdv or
{
/upd true def
} {
/sametype v type cpdv type eq def
sametype {
v type /arraytype eq {
/vlen v length def
/cpdvlen cpdv length def
vlen cpdvlen eq {
0 1 vlen 1 sub {
/i exch def
/obj v i get def
/cpdobj cpdv i get def
obj cpdobj ne {
/upd true def
exit
} if
} for
} {
/upd true def
} ifelse
} {
v type /dicttype eq {
v {
/dv exch def
/dk exch def
/cpddv cpdv dk get def
dv cpddv ne {
/upd true def
exit
} if
} forall
} {
/upd true def
} ifelse
} ifelse
} if
} ifelse
upd true eq {
d k v put
} if
} if
} if
} forall
d length 0 gt {
d setpagedevice
} if
} bd
%%EndResource
%%BeginResource: procset (Apache XML Graphics EPS ProcSet) 1.0 0
%%Version: 1.0 0
%%Copyright: (Copyright 2002-2003 The Apache Software Foundation. License terms: http://www.apache.org/licenses/LICENSE-2.0)
/BeginEPSF { %def
/b4_Inc_state save def         % Save state for cleanup
/dict_count countdictstack def % Count objects on dict stack
/op_count count 1 sub def      % Count objects on operand stack
userdict begin                 % Push userdict on dict stack
/showpage { } def              % Redefine showpage, { } = null proc
0 setgray 0 setlinecap         % Prepare graphics state
1 setlinewidth 0 setlinejoin
10 setmiterlimit [ ] 0 setdash newpath
/languagelevel where           % If level not equal to 1 then
{pop languagelevel             % set strokeadjust and
1 ne                           % overprint to their defaults.
{false setstrokeadjust false setoverprint
} if
} if
} bd
/EndEPSF { %def
count op_count sub {pop} repeat            % Clean up stacks
countdictstack dict_count sub {end} repeat
b4_Inc_state restore
} bd
%%EndResource
%FOPBeginFontDict
%%IncludeResource: font Courier-Bold
%%IncludeResource: font Helvetica
%%IncludeResource: font Courier-BoldOblique
%%IncludeResource: font Courier-Oblique
%%IncludeResource: font Times-Roman
%%IncludeResource: font Helvetica-BoldOblique
%%IncludeResource: font Helvetica-Bold
%%IncludeResource: font Helvetica-Oblique
%%IncludeResource: font Times-BoldItalic
%%IncludeResource: font Courier
%%IncludeResource: font Times-Italic
%%IncludeResource: font Times-Bold
%%IncludeResource: font Symbol
%%IncludeResource: font ZapfDingbats
%FOPEndFontDict
%%BeginResource: encoding WinAnsiEncoding
/WinAnsiEncoding [
/.notdef /.notdef /.notdef /.notdef /.notdef
/.notdef /.notdef /.notdef /.notdef /.notdef
/.notdef /.notdef /.notdef /.notdef /.notdef
/.notdef /.notdef /.notdef /.notdef /.notdef
/.notdef /.notdef /.notdef /.notdef /.notdef
/.notdef /.notdef /.notdef /.notdef /.notdef
/.notdef /.notdef /space /exclam /quotedbl
/numbersign /dollar /percent /ampersand /quotesingle
/parenleft /parenright /asterisk /plus /comma
/hyphen /period /slash /zero /one
/two /three /four /five /six
/seven /eight /nine /colon /semicolon
/less /equal /greater /question /at
/A /B /C /D /E
/F /G /H /I /J
/K /L /M /N /O
/P /Q /R /S /T
/U /V /W /X /Y
/Z /bracketleft /backslash /bracketright /asciicircum
/underscore /quoteleft /a /b /c
/d /e /f /g /h
/i /j /k /l /m
/n /o /p /q /r
/s /t /u /v /w
/x /y /z /braceleft /bar
/braceright /asciitilde /bullet /Euro /bullet
/quotesinglbase /florin /quotedblbase /ellipsis /dagger
/daggerdbl /circumflex /perthousand /Scaron /guilsinglleft
/OE /bullet /Zcaron /bullet /bullet
/quoteleft /quoteright /quotedblleft /quotedblright /bullet
/endash /emdash /asciitilde /trademark /scaron
/guilsinglright /oe /bullet /zcaron /Ydieresis
/space /exclamdown /cent /sterling /currency
/yen /brokenbar /section /dieresis /copyright
/ordfeminine /guillemotleft /logicalnot /sfthyphen /registered
/macron /degree /plusminus /twosuperior /threesuperior
/acute /mu /paragraph /middot /cedilla
/onesuperior /ordmasculine /guillemotright /onequarter /onehalf
/threequarters /questiondown /Agrave /Aacute /Acircumflex
/Atilde /Adieresis /Aring /AE /Ccedilla
/Egrave /Eacute /Ecircumflex /Edieresis /Igrave
/Iacute /Icircumflex /Idieresis /Eth /Ntilde
/Ograve /Oacute /Ocircumflex /Otilde /Odieresis
/multiply /Oslash /Ugrave /Uacute /Ucircumflex
/Udieresis /Yacute /Thorn /germandbls /agrave
/aacute /acircumflex /atilde /adieresis /aring
/ae /ccedilla /egrave /eacute /ecircumflex
/edieresis /igrave /iacute /icircumflex /idieresis
/eth /ntilde /ograve /oacute /ocircumflex
/otilde /odieresis /divide /oslash /ugrave
/uacute /ucircumflex /udieresis /yacute /thorn
/ydieresis
] def
%%EndResource
%FOPBeginFontReencode
/Courier-Bold findfont
dup length dict begin
  {1 index /FID ne {def} {pop pop} ifelse} forall
  /Encoding WinAnsiEncoding def
  currentdict
end
/Courier-Bold exch definefont pop
/Helvetica findfont
dup length dict begin
  {1 index /FID ne {def} {pop pop} ifelse} forall
  /Encoding WinAnsiEncoding def
  currentdict
end
/Helvetica exch definefont pop
/Courier-BoldOblique findfont
dup length dict begin
  {1 index /FID ne {def} {pop pop} ifelse} forall
  /Encoding WinAnsiEncoding def
  currentdict
end
/Courier-BoldOblique exch definefont pop
/Courier-Oblique findfont
dup length dict begin
  {1 index /FID ne {def} {pop pop} ifelse} forall
  /Encoding WinAnsiEncoding def
  currentdict
end
/Courier-Oblique exch definefont pop
/Times-Roman findfont
dup length dict begin
  {1 index /FID ne {def} {pop pop} ifelse} forall
  /Encoding WinAnsiEncoding def
  currentdict
end
/Times-Roman exch definefont pop
/Helvetica-BoldOblique findfont
dup length dict begin
  {1 index /FID ne {def} {pop pop} ifelse} forall
  /Encoding WinAnsiEncoding def
  currentdict
end
/Helvetica-BoldOblique exch definefont pop
/Helvetica-Bold findfont
dup length dict begin
  {1 index /FID ne {def} {pop pop} ifelse} forall
  /Encoding WinAnsiEncoding def
  currentdict
end
/Helvetica-Bold exch definefont pop
/Helvetica-Oblique findfont
dup length dict begin
  {1 index /FID ne {def} {pop pop} ifelse} forall
  /Encoding WinAnsiEncoding def
  currentdict
end
/Helvetica-Oblique exch definefont pop
/Times-BoldItalic findfont
dup length dict begin
  {1 index /FID ne {def} {pop pop} ifelse} forall
  /Encoding WinAnsiEncoding def
  currentdict
end
/Times-BoldItalic exch definefont pop
/Courier findfont
dup length dict begin
  {1 index /FID ne {def} {pop pop} ifelse} forall
  /Encoding WinAnsiEncoding def
  currentdict
end
/Courier exch definefont pop
/Times-Italic findfont
dup length dict begin
  {1 index /FID ne {def} {pop pop} ifelse} forall
  /Encoding WinAnsiEncoding def
  currentdict
end
/Times-Italic exch definefont pop
/Times-Bold findfont
dup length dict begin
  {1 index /FID ne {def} {pop pop} ifelse} forall
  /Encoding WinAnsiEncoding def
  currentdict
end
/Times-Bold exch definefont pop
%FOPEndFontReencode
%%EndProlog
%%Page: 1 1
%%PageBoundingBox: 0 0 560 420
%%BeginPageSetup
[1 0 0 -1 0 420] CT
%%EndPageSetup
GS
1 GC
N
0 0 560 420 re
f
GR
GS
1 GC
N
0 0 560 420 re
f
GR
GS
1 GC
N
73 175 M
507 175 L
507 31 L
73 31 L
cp
f
GR
GS
0.873 GC
2 setlinecap
10.0 ML
2 LW
N
127.25 175 M
127.25 31 L
S
GR
GS
0.873 GC
2 setlinecap
10.0 ML
2 LW
N
235.75 175 M
235.75 31 L
S
GR
GS
0.873 GC
2 setlinecap
10.0 ML
2 LW
N
344.25 175 M
344.25 31 L
S
GR
GS
0.873 GC
2 setlinecap
10.0 ML
2 LW
N
452.75 175 M
452.75 31 L
S
GR
GS
0.873 GC
2 setlinecap
10.0 ML
2 LW
N
507 175 M
73 175 L
S
GR
GS
0.873 GC
2 setlinecap
10.0 ML
2 LW
N
507 154.191 M
73 154.191 L
S
GR
GS
0.873 GC
2 setlinecap
10.0 ML
2 LW
N
507 133.382 M
73 133.382 L
S
GR
GS
0.873 GC
2 setlinecap
10.0 ML
2 LW
N
507 112.573 M
73 112.573 L
S
GR
GS
0.873 GC
2 setlinecap
10.0 ML
2 LW
N
507 91.764 M
73 91.764 L
S
GR
GS
0.873 GC
2 setlinecap
10.0 ML
2 LW
N
507 70.955 M
73 70.955 L
S
GR
GS
0.873 GC
2 setlinecap
10.0 ML
2 LW
N
507 50.146 M
73 50.146 L
S
GR
GS
[1 0 0 1 290.00021 193.39999] CT
0.149 GC
/Helvetica-Bold 13 F
GS
[1 0 0 1 0 0] CT
-19.5 11 moveto 
1 -1 scale
(Cases) t 
GR
GR
GS
0.149 GC
2 setlinecap
10.0 ML
2 LW
N
73 175 M
507 175 L
S
GR
GS
0.149 GC
2 setlinecap
10.0 ML
2 LW
N
127.25 175 M
127.25 175 L
S
GR
GS
0.149 GC
2 setlinecap
10.0 ML
2 LW
N
235.75 175 M
235.75 175 L
S
GR
GS
0.149 GC
2 setlinecap
10.0 ML
2 LW
N
344.25 175 M
344.25 175 L
S
GR
GS
0.149 GC
2 setlinecap
10.0 ML
2 LW
N
452.75 175 M
452.75 175 L
S
GR
GS
[1 0 0 1 127.25 179.39999] CT
0.149 GC
/Helvetica-Bold 12 F
GS
[1 0 0 1 0 0] CT
-13 10 moveto 
1 -1 scale
(Tree) t 
GR
GR
GS
[1 0 0 1 235.75 179.39999] CT
0.149 GC
/Helvetica-Bold 12 F
GS
[1 0 0 1 0 0] CT
-9 10 moveto 
1 -1 scale
(NC) t 
GR
GR
GS
[1 0 0 1 344.25 179.39999] CT
0.149 GC
/Helvetica-Bold 12 F
GS
[1 0 0 1 0 0] CT
-23 10 moveto 
1 -1 scale
(TC-Tree) t 
GR
GR
GS
[1 0 0 1 452.75 179.39999] CT
0.149 GC
/Helvetica-Bold 12 F
GS
[1 0 0 1 0 0] CT
-19 10 moveto 
1 -1 scale
(TC-NC) t 
GR
GR
GS
[0 -1 1 0 48.6 102.99993] CT
0.149 GC
/Helvetica-Bold 13 F
GS
[1 0 0 1 0 0] CT
-61.5 -3 moveto 
1 -1 scale
(System Throughput) t 
GR
GR
GS
0.149 GC
2 setlinecap
10.0 ML
2 LW
N
73 175 M
73 31 L
S
GR
GS
0.149 GC
2 setlinecap
10.0 ML
2 LW
N
73 175 M
73 175 L
S
GR
GS
0.149 GC
2 setlinecap
10.0 ML
2 LW
N
73 154.191 M
73 154.191 L
S
GR
GS
0.149 GC
2 setlinecap
10.0 ML
2 LW
N
73 133.382 M
73 133.382 L
S
GR
GS
0.149 GC
2 setlinecap
10.0 ML
2 LW
N
73 112.573 M
73 112.573 L
S
GR
GS
0.149 GC
2 setlinecap
10.0 ML
2 LW
N
73 91.764 M
73 91.764 L
S
GR
GS
0.149 GC
2 setlinecap
10.0 ML
2 LW
N
73 70.955 M
73 70.955 L
S
GR
GS
0.149 GC
2 setlinecap
10.0 ML
2 LW
N
73 50.146 M
73 50.146 L
S
GR
GS
[1 0 0 1 68.6 175] CT
0.149 GC
/Helvetica-Bold 12 F
GS
[1 0 0 1 0 0] CT
-7 3.5 moveto 
1 -1 scale
(0) t 
GR
GR
GS
[1 0 0 1 68.6 154.19102] CT
0.149 GC
/Helvetica-Bold 12 F
GS
[1 0 0 1 0 0] CT
-17 3.5 moveto 
1 -1 scale
(0.1) t 
GR
GR
GS
[1 0 0 1 68.6 133.38206] CT
0.149 GC
/Helvetica-Bold 12 F
GS
[1 0 0 1 0 0] CT
-17 3.5 moveto 
1 -1 scale
(0.2) t 
GR
GR
GS
[1 0 0 1 68.6 112.57309] CT
0.149 GC
/Helvetica-Bold 12 F
GS
[1 0 0 1 0 0] CT
-17 3.5 moveto 
1 -1 scale
(0.3) t 
GR
GR
GS
[1 0 0 1 68.6 91.76412] CT
0.149 GC
/Helvetica-Bold 12 F
GS
[1 0 0 1 0 0] CT
-17 3.5 moveto 
1 -1 scale
(0.4) t 
GR
GR
GS
[1 0 0 1 68.6 70.95515] CT
0.149 GC
/Helvetica-Bold 12 F
GS
[1 0 0 1 0 0] CT
-17 3.5 moveto 
1 -1 scale
(0.5) t 
GR
GR
GS
[1 0 0 1 68.6 50.14618] CT
0.149 GC
/Helvetica-Bold 12 F
GS
[1 0 0 1 0 0] CT
-17 3.5 moveto 
1 -1 scale
(0.6) t 
GR
GR
GS
0.2 0.4 0.2 RC
N
91.083 175 M
115.194 175 L
115.194 142.404 L
91.083 142.404 L
cp
f
GR
GS
0.2 0.4 0.2 RC
N
199.583 175 M
223.694 175 L
223.694 130.782 L
199.583 130.782 L
cp
f
GR
GS
0.2 0.4 0.2 RC
N
308.083 175 M
332.194 175 L
332.194 115.208 L
308.083 115.208 L
cp
f
GR
GS
0.2 0.4 0.2 RC
N
416.583 175 M
440.694 175 L
440.694 107.315 L
416.583 107.315 L
cp
f
GR
GS
2 setlinecap
10.0 ML
2 LW
N
91.083 175 M
91.083 142.404 L
115.194 142.404 L
115.194 175 L
91.083 175 L
S
GR
GS
2 setlinecap
10.0 ML
2 LW
N
199.583 175 M
199.583 130.782 L
223.694 130.782 L
223.694 175 L
199.583 175 L
S
GR
GS
2 setlinecap
10.0 ML
2 LW
N
308.083 175 M
308.083 115.208 L
332.194 115.208 L
332.194 175 L
308.083 175 L
S
GR
GS
2 setlinecap
10.0 ML
2 LW
N
416.583 175 M
416.583 107.315 L
440.694 107.315 L
440.694 175 L
416.583 175 L
S
GR
GS
0.8 0.2 0.2 RC
N
115.194 175 M
139.306 175 L
139.306 99.37 L
115.194 99.37 L
cp
f
GR
GS
0.8 0.2 0.2 RC
N
223.694 175 M
247.806 175 L
247.806 92.504 L
223.694 92.504 L
cp
f
GR
GS
0.8 0.2 0.2 RC
N
332.194 175 M
356.306 175 L
356.306 104.458 L
332.194 104.458 L
cp
f
GR
GS
0.8 0.2 0.2 RC
N
440.694 175 M
464.806 175 L
464.806 97.986 L
440.694 97.986 L
cp
f
GR
GS
2 setlinecap
10.0 ML
2 LW
N
115.194 175 M
115.194 99.37 L
139.306 99.37 L
139.306 175 L
115.194 175 L
S
GR
GS
2 setlinecap
10.0 ML
2 LW
N
223.694 175 M
223.694 92.504 L
247.806 92.504 L
247.806 175 L
223.694 175 L
S
GR
GS
2 setlinecap
10.0 ML
2 LW
N
332.194 175 M
332.194 104.458 L
356.306 104.458 L
356.306 175 L
332.194 175 L
S
GR
GS
2 setlinecap
10.0 ML
2 LW
N
440.694 175 M
440.694 97.986 L
464.806 97.986 L
464.806 175 L
440.694 175 L
S
GR
GS
0.8 0.8 0 RC
N
139.306 175 M
163.417 175 L
163.417 99.876 L
139.306 99.876 L
cp
f
GR
GS
0.8 0.8 0 RC
N
247.806 175 M
271.917 175 L
271.917 92.534 L
247.806 92.534 L
cp
f
GR
GS
0.8 0.8 0 RC
N
356.306 175 M
380.417 175 L
380.417 104.186 L
356.306 104.186 L
cp
f
GR
GS
0.8 0.8 0 RC
N
464.806 175 M
488.917 175 L
488.917 94.934 L
464.806 94.934 L
cp
f
GR
GS
2 setlinecap
10.0 ML
2 LW
N
139.306 175 M
139.306 99.876 L
163.417 99.876 L
163.417 175 L
139.306 175 L
S
GR
GS
2 setlinecap
10.0 ML
2 LW
N
247.806 175 M
247.806 92.534 L
271.917 92.534 L
271.917 175 L
247.806 175 L
S
GR
GS
2 setlinecap
10.0 ML
2 LW
N
356.306 175 M
356.306 104.186 L
380.417 104.186 L
380.417 175 L
356.306 175 L
S
GR
GS
2 setlinecap
10.0 ML
2 LW
N
464.806 175 M
464.806 94.934 L
488.917 94.934 L
488.917 175 L
464.806 175 L
S
GR
GS
2 setlinecap
10.0 ML
2 LW
N
103.139 158.406 M
103.139 126.402 L
S
GR
GS
2 setlinecap
10.0 ML
2 LW
N
211.639 152.277 M
211.639 109.286 L
S
GR
GS
2 setlinecap
10.0 ML
2 LW
N
320.139 162.423 M
320.139 67.992 L
S
GR
GS
2 setlinecap
10.0 ML
2 LW
N
428.639 151.659 M
428.639 62.971 L
S
GR
GS
2 setlinecap
10.0 ML
2 LW
N
99.884 158.406 M
106.394 158.406 L
S
GR
GS
2 setlinecap
10.0 ML
2 LW
N
208.384 152.277 M
214.894 152.277 L
S
GR
GS
2 setlinecap
10.0 ML
2 LW
N
316.884 162.423 M
323.394 162.423 L
S
GR
GS
2 setlinecap
10.0 ML
2 LW
N
425.384 151.659 M
431.894 151.659 L
S
GR
GS
2 setlinecap
10.0 ML
2 LW
N
99.884 126.402 M
106.394 126.402 L
S
GR
GS
2 setlinecap
10.0 ML
2 LW
N
208.384 109.286 M
214.894 109.286 L
S
GR
GS
2 setlinecap
10.0 ML
2 LW
N
316.884 67.992 M
323.394 67.992 L
S
GR
GS
2 setlinecap
10.0 ML
2 LW
N
425.384 62.971 M
431.894 62.971 L
S
GR
GS
2 setlinecap
10.0 ML
2 LW
N
127.25 151.31 M
127.25 47.431 L
S
GR
GS
2 setlinecap
10.0 ML
2 LW
N
235.75 140.698 M
235.75 44.31 L
S
GR
GS
2 setlinecap
10.0 ML
2 LW
N
344.25 157.709 M
344.25 51.208 L
S
GR
GS
2 setlinecap
10.0 ML
2 LW
N
452.75 148.552 M
452.75 47.42 L
S
GR
GS
2 setlinecap
10.0 ML
2 LW
N
123.995 151.31 M
130.505 151.31 L
S
GR
GS
2 setlinecap
10.0 ML
2 LW
N
232.495 140.698 M
239.005 140.698 L
S
GR
GS
2 setlinecap
10.0 ML
2 LW
N
340.995 157.709 M
347.505 157.709 L
S
GR
GS
2 setlinecap
10.0 ML
2 LW
N
449.495 148.552 M
456.005 148.552 L
S
GR
GS
2 setlinecap
10.0 ML
2 LW
N
123.995 47.431 M
130.505 47.431 L
S
GR
GS
2 setlinecap
10.0 ML
2 LW
N
232.495 44.31 M
239.005 44.31 L
S
GR
GS
2 setlinecap
10.0 ML
2 LW
N
340.995 51.208 M
347.505 51.208 L
S
GR
GS
2 setlinecap
10.0 ML
2 LW
N
449.495 47.42 M
456.005 47.42 L
S
GR
GS
2 setlinecap
10.0 ML
2 LW
N
151.361 152.294 M
151.361 47.458 L
S
GR
GS
2 setlinecap
10.0 ML
2 LW
N
259.861 140.977 M
259.861 44.091 L
S
GR
GS
2 setlinecap
10.0 ML
2 LW
N
368.361 157.332 M
368.361 51.039 L
S
GR
GS
2 setlinecap
10.0 ML
2 LW
N
476.861 145.021 M
476.861 44.846 L
S
GR
GS
2 setlinecap
10.0 ML
2 LW
N
148.106 152.294 M
154.616 152.294 L
S
GR
GS
2 setlinecap
10.0 ML
2 LW
N
256.606 140.977 M
263.116 140.977 L
S
GR
GS
2 setlinecap
10.0 ML
2 LW
N
365.106 157.332 M
371.616 157.332 L
S
GR
GS
2 setlinecap
10.0 ML
2 LW
N
473.606 145.021 M
480.116 145.021 L
S
GR
GS
2 setlinecap
10.0 ML
2 LW
N
148.106 47.458 M
154.616 47.458 L
S
GR
GS
2 setlinecap
10.0 ML
2 LW
N
256.606 44.091 M
263.116 44.091 L
S
GR
GS
2 setlinecap
10.0 ML
2 LW
N
365.106 51.039 M
371.616 51.039 L
S
GR
GS
2 setlinecap
10.0 ML
2 LW
N
473.606 44.846 M
480.116 44.846 L
S
GR
GS
0.149 GC
2 setlinecap
10.0 ML
N
73 175 M
507 175 L
S
GR
GS
1 GC
N
274 45 M
274 4 L
422 4 L
422 45 L
cp
f
GR
GS
[1 0 0 1 313 12] CT
/Helvetica-Bold 11 F
GS
[1 0 0 1 0 0] CT
0 3 moveto 
1 -1 scale
(broadcast) t 
GR
GR
GS
0.2 0.4 0.2 RC
N
280 16.55 M
280 7.45 L
310 7.45 L
310 16.55 L
cp
f
GR
GS
2 setlinecap
10.0 ML
2 LW
N
280 16.55 M
280 7.45 L
310 7.45 L
310 16.55 L
280 16.55 L
S
GR
GS
[1 0 0 1 313 24.5] CT
/Helvetica-Bold 11 F
GS
[1 0 0 1 0 0] CT
0 3 moveto 
1 -1 scale
(unicast) t 
GR
GR
GS
0.8 0.2 0.2 RC
N
280 29.05 M
280 19.95 L
310 19.95 L
310 29.05 L
cp
f
GR
GS
2 setlinecap
10.0 ML
2 LW
N
280 29.05 M
280 19.95 L
310 19.95 L
310 29.05 L
280 29.05 L
S
GR
GS
[1 0 0 1 313 37] CT
/Helvetica-Bold 11 F
GS
[1 0 0 1 0 0] CT
0 3 moveto 
1 -1 scale
(unicast & broadcast) t 
GR
GR
GS
0.8 0.8 0 RC
N
280 41.55 M
280 32.45 L
310 32.45 L
310 41.55 L
cp
f
GR
GS
2 setlinecap
10.0 ML
2 LW
N
280 41.55 M
280 32.45 L
310 32.45 L
310 41.55 L
280 41.55 L
S
GR
GS
0.149 GC
2 setlinecap
10.0 ML
2 LW
N
274 45 M
274 4 L
422 4 L
422 45 L
274 45 L
S
GR
GS
1 GC
N
73 374 M
507 374 L
507 231 L
73 231 L
cp
f
GR
GS
0.873 GC
2 setlinecap
10.0 ML
2 LW
N
127.25 374 M
127.25 231 L
S
GR
GS
0.873 GC
2 setlinecap
10.0 ML
2 LW
N
235.75 374 M
235.75 231 L
S
GR
GS
0.873 GC
2 setlinecap
10.0 ML
2 LW
N
344.25 374 M
344.25 231 L
S
GR
GS
0.873 GC
2 setlinecap
10.0 ML
2 LW
N
452.75 374 M
452.75 231 L
S
GR
GS
0.873 GC
2 setlinecap
10.0 ML
2 LW
N
507 374 M
73 374 L
S
GR
GS
0.873 GC
2 setlinecap
10.0 ML
2 LW
N
507 334.818 M
73 334.818 L
S
GR
GS
0.873 GC
2 setlinecap
10.0 ML
2 LW
N
507 295.635 M
73 295.635 L
S
GR
GS
0.873 GC
2 setlinecap
10.0 ML
2 LW
N
507 256.453 M
73 256.453 L
S
GR
GS
[1 0 0 1 290.00021 392.39999] CT
0.149 GC
/Helvetica-Bold 13 F
GS
[1 0 0 1 0 0] CT
-19.5 11 moveto 
1 -1 scale
(Cases) t 
GR
GR
GS
0.149 GC
2 setlinecap
10.0 ML
2 LW
N
73 374 M
507 374 L
S
GR
GS
0.149 GC
2 setlinecap
10.0 ML
2 LW
N
127.25 374 M
127.25 374 L
S
GR
GS
0.149 GC
2 setlinecap
10.0 ML
2 LW
N
235.75 374 M
235.75 374 L
S
GR
GS
0.149 GC
2 setlinecap
10.0 ML
2 LW
N
344.25 374 M
344.25 374 L
S
GR
GS
0.149 GC
2 setlinecap
10.0 ML
2 LW
N
452.75 374 M
452.75 374 L
S
GR
GS
[1 0 0 1 127.25 378.39999] CT
0.149 GC
/Helvetica-Bold 12 F
GS
[1 0 0 1 0 0] CT
-13 10 moveto 
1 -1 scale
(Tree) t 
GR
GR
GS
[1 0 0 1 235.75 378.39999] CT
0.149 GC
/Helvetica-Bold 12 F
GS
[1 0 0 1 0 0] CT
-9 10 moveto 
1 -1 scale
(NC) t 
GR
GR
GS
[1 0 0 1 344.25 378.39999] CT
0.149 GC
/Helvetica-Bold 12 F
GS
[1 0 0 1 0 0] CT
-23 10 moveto 
1 -1 scale
(TC-Tree) t 
GR
GR
GS
[1 0 0 1 452.75 378.39999] CT
0.149 GC
/Helvetica-Bold 12 F
GS
[1 0 0 1 0 0] CT
-19 10 moveto 
1 -1 scale
(TC-NC) t 
GR
GR
GS
[0 -1 1 0 58.6 302.49994] CT
0.149 GC
/Helvetica-Bold 13 F
GS
[1 0 0 1 0 0] CT
-39.5 -3 moveto 
1 -1 scale
(Total Energy) t 
GR
GR
GS
0.149 GC
2 setlinecap
10.0 ML
2 LW
N
73 374 M
73 231 L
S
GR
GS
0.149 GC
2 setlinecap
10.0 ML
2 LW
N
73 374 M
73 374 L
S
GR
GS
0.149 GC
2 setlinecap
10.0 ML
2 LW
N
73 334.818 M
73 334.818 L
S
GR
GS
0.149 GC
2 setlinecap
10.0 ML
2 LW
N
73 295.635 M
73 295.635 L
S
GR
GS
0.149 GC
2 setlinecap
10.0 ML
2 LW
N
73 256.453 M
73 256.453 L
S
GR
GS
[1 0 0 1 68.6 374] CT
0.149 GC
/Helvetica-Bold 12 F
GS
[1 0 0 1 0 0] CT
-7 3.5 moveto 
1 -1 scale
(0) t 
GR
GR
GS
[1 0 0 1 68.6 334.8175] CT
0.149 GC
/Helvetica-Bold 12 F
GS
[1 0 0 1 0 0] CT
-7 3.5 moveto 
1 -1 scale
(2) t 
GR
GR
GS
[1 0 0 1 68.6 295.63501] CT
0.149 GC
/Helvetica-Bold 12 F
GS
[1 0 0 1 0 0] CT
-7 3.5 moveto 
1 -1 scale
(4) t 
GR
GR
GS
[1 0 0 1 68.6 256.45255] CT
0.149 GC
/Helvetica-Bold 12 F
GS
[1 0 0 1 0 0] CT
-7 3.5 moveto 
1 -1 scale
(6) t 
GR
GR
GS
0.2 0.4 0.2 RC
N
91.083 374 M
115.194 374 L
115.194 334.658 L
91.083 334.658 L
cp
f
GR
GS
0.2 0.4 0.2 RC
N
199.583 374 M
223.694 374 L
223.694 274.773 L
199.583 274.773 L
cp
f
GR
GS
0.2 0.4 0.2 RC
N
308.083 374 M
332.194 374 L
332.194 327.632 L
308.083 327.632 L
cp
f
GR
GS
0.2 0.4 0.2 RC
N
416.583 374 M
440.694 374 L
440.694 291.566 L
416.583 291.566 L
cp
f
GR
GS
2 setlinecap
10.0 ML
2 LW
N
91.083 374 M
91.083 334.658 L
115.194 334.658 L
115.194 374 L
91.083 374 L
S
GR
GS
2 setlinecap
10.0 ML
2 LW
N
199.583 374 M
199.583 274.773 L
223.694 274.773 L
223.694 374 L
199.583 374 L
S
GR
GS
2 setlinecap
10.0 ML
2 LW
N
308.083 374 M
308.083 327.632 L
332.194 327.632 L
332.194 374 L
308.083 374 L
S
GR
GS
2 setlinecap
10.0 ML
2 LW
N
416.583 374 M
416.583 291.566 L
440.694 291.566 L
440.694 374 L
416.583 374 L
S
GR
GS
0.8 0.2 0.2 RC
N
115.194 374 M
139.306 374 L
139.306 351.438 L
115.194 351.438 L
cp
f
GR
GS
0.8 0.2 0.2 RC
N
223.694 374 M
247.806 374 L
247.806 338.909 L
223.694 338.909 L
cp
f
GR
GS
0.8 0.2 0.2 RC
N
332.194 374 M
356.306 374 L
356.306 351.582 L
332.194 351.582 L
cp
f
GR
GS
0.8 0.2 0.2 RC
N
440.694 374 M
464.806 374 L
464.806 336.475 L
440.694 336.475 L
cp
f
GR
GS
2 setlinecap
10.0 ML
2 LW
N
115.194 374 M
115.194 351.438 L
139.306 351.438 L
139.306 374 L
115.194 374 L
S
GR
GS
2 setlinecap
10.0 ML
2 LW
N
223.694 374 M
223.694 338.909 L
247.806 338.909 L
247.806 374 L
223.694 374 L
S
GR
GS
2 setlinecap
10.0 ML
2 LW
N
332.194 374 M
332.194 351.582 L
356.306 351.582 L
356.306 374 L
332.194 374 L
S
GR
GS
2 setlinecap
10.0 ML
2 LW
N
440.694 374 M
440.694 336.475 L
464.806 336.475 L
464.806 374 L
440.694 374 L
S
GR
GS
0.8 0.8 0 RC
N
139.306 374 M
163.417 374 L
163.417 353.483 L
139.306 353.483 L
cp
f
GR
GS
0.8 0.8 0 RC
N
247.806 374 M
271.917 374 L
271.917 335.074 L
247.806 335.074 L
cp
f
GR
GS
0.8 0.8 0 RC
N
356.306 374 M
380.417 374 L
380.417 347.097 L
356.306 347.097 L
cp
f
GR
GS
0.8 0.8 0 RC
N
464.806 374 M
488.917 374 L
488.917 322.669 L
464.806 322.669 L
cp
f
GR
GS
2 setlinecap
10.0 ML
2 LW
N
139.306 374 M
139.306 353.483 L
163.417 353.483 L
163.417 374 L
139.306 374 L
S
GR
GS
2 setlinecap
10.0 ML
2 LW
N
247.806 374 M
247.806 335.074 L
271.917 335.074 L
271.917 374 L
247.806 374 L
S
GR
GS
2 setlinecap
10.0 ML
2 LW
N
356.306 374 M
356.306 347.097 L
380.417 347.097 L
380.417 374 L
356.306 374 L
S
GR
GS
2 setlinecap
10.0 ML
2 LW
N
464.806 374 M
464.806 322.669 L
488.917 322.669 L
488.917 374 L
464.806 374 L
S
GR
GS
2 setlinecap
10.0 ML
2 LW
N
103.139 339.093 M
103.139 330.223 L
S
GR
GS
2 setlinecap
10.0 ML
2 LW
N
211.639 297.885 M
211.639 251.662 L
S
GR
GS
2 setlinecap
10.0 ML
2 LW
N
320.139 351.817 M
320.139 303.447 L
S
GR
GS
2 setlinecap
10.0 ML
2 LW
N
428.639 339.131 M
428.639 244 L
S
GR
GS
2 setlinecap
10.0 ML
2 LW
N
99.884 339.093 M
106.394 339.093 L
S
GR
GS
2 setlinecap
10.0 ML
2 LW
N
208.384 297.885 M
214.894 297.885 L
S
GR
GS
2 setlinecap
10.0 ML
2 LW
N
316.884 351.817 M
323.394 351.817 L
S
GR
GS
2 setlinecap
10.0 ML
2 LW
N
425.384 339.131 M
431.894 339.131 L
S
GR
GS
2 setlinecap
10.0 ML
2 LW
N
99.884 330.223 M
106.394 330.223 L
S
GR
GS
2 setlinecap
10.0 ML
2 LW
N
208.384 251.662 M
214.894 251.662 L
S
GR
GS
2 setlinecap
10.0 ML
2 LW
N
316.884 303.447 M
323.394 303.447 L
S
GR
GS
2 setlinecap
10.0 ML
2 LW
N
425.384 244 M
431.894 244 L
S
GR
GS
2 setlinecap
10.0 ML
2 LW
N
127.25 357.472 M
127.25 345.403 L
S
GR
GS
2 setlinecap
10.0 ML
2 LW
N
235.75 354.962 M
235.75 322.856 L
S
GR
GS
2 setlinecap
10.0 ML
2 LW
N
344.25 360.041 M
344.25 343.122 L
S
GR
GS
2 setlinecap
10.0 ML
2 LW
N
452.75 355.968 M
452.75 316.982 L
S
GR
GS
2 setlinecap
10.0 ML
2 LW
N
123.995 357.472 M
130.505 357.472 L
S
GR
GS
2 setlinecap
10.0 ML
2 LW
N
232.495 354.962 M
239.005 354.962 L
S
GR
GS
2 setlinecap
10.0 ML
2 LW
N
340.995 360.041 M
347.505 360.041 L
S
GR
GS
2 setlinecap
10.0 ML
2 LW
N
449.495 355.968 M
456.005 355.968 L
S
GR
GS
2 setlinecap
10.0 ML
2 LW
N
123.995 345.403 M
130.505 345.403 L
S
GR
GS
2 setlinecap
10.0 ML
2 LW
N
232.495 322.856 M
239.005 322.856 L
S
GR
GS
2 setlinecap
10.0 ML
2 LW
N
340.995 343.122 M
347.505 343.122 L
S
GR
GS
2 setlinecap
10.0 ML
2 LW
N
449.495 316.982 M
456.005 316.982 L
S
GR
GS
2 setlinecap
10.0 ML
2 LW
N
151.361 356.23 M
151.361 350.737 L
S
GR
GS
2 setlinecap
10.0 ML
2 LW
N
259.861 358.143 M
259.861 312.006 L
S
GR
GS
2 setlinecap
10.0 ML
2 LW
N
368.361 359.673 M
368.361 334.521 L
S
GR
GS
2 setlinecap
10.0 ML
2 LW
N
476.861 354.217 M
476.861 291.121 L
S
GR
GS
2 setlinecap
10.0 ML
2 LW
N
148.106 356.23 M
154.616 356.23 L
S
GR
GS
2 setlinecap
10.0 ML
2 LW
N
256.606 358.143 M
263.116 358.143 L
S
GR
GS
2 setlinecap
10.0 ML
2 LW
N
365.106 359.673 M
371.616 359.673 L
S
GR
GS
2 setlinecap
10.0 ML
2 LW
N
473.606 354.217 M
480.116 354.217 L
S
GR
GS
2 setlinecap
10.0 ML
2 LW
N
148.106 350.737 M
154.616 350.737 L
S
GR
GS
2 setlinecap
10.0 ML
2 LW
N
256.606 312.006 M
263.116 312.006 L
S
GR
GS
2 setlinecap
10.0 ML
2 LW
N
365.106 334.521 M
371.616 334.521 L
S
GR
GS
2 setlinecap
10.0 ML
2 LW
N
473.606 291.121 M
480.116 291.121 L
S
GR
GS
0.149 GC
2 setlinecap
10.0 ML
N
73 374 M
507 374 L
S
GR
GS
1 GC
N
264 262 M
264 221 L
412 221 L
412 262 L
cp
f
GR
GS
[1 0 0 1 303 229] CT
/Helvetica-Bold 11 F
GS
[1 0 0 1 0 0] CT
0 3 moveto 
1 -1 scale
(broadcast) t 
GR
GR
GS
0.2 0.4 0.2 RC
N
270 233.55 M
270 224.45 L
300 224.45 L
300 233.55 L
cp
f
GR
GS
2 setlinecap
10.0 ML
2 LW
N
270 233.55 M
270 224.45 L
300 224.45 L
300 233.55 L
270 233.55 L
S
GR
GS
[1 0 0 1 303 241.5] CT
/Helvetica-Bold 11 F
GS
[1 0 0 1 0 0] CT
0 3 moveto 
1 -1 scale
(unicast) t 
GR
GR
GS
0.8 0.2 0.2 RC
N
270 246.05 M
270 236.95 L
300 236.95 L
300 246.05 L
cp
f
GR
GS
2 setlinecap
10.0 ML
2 LW
N
270 246.05 M
270 236.95 L
300 236.95 L
300 246.05 L
270 246.05 L
S
GR
GS
[1 0 0 1 303 254] CT
/Helvetica-Bold 11 F
GS
[1 0 0 1 0 0] CT
0 3 moveto 
1 -1 scale
(unicast & broadcast) t 
GR
GR
GS
0.8 0.8 0 RC
N
270 258.55 M
270 249.45 L
300 249.45 L
300 258.55 L
cp
f
GR
GS
2 setlinecap
10.0 ML
2 LW
N
270 258.55 M
270 249.45 L
300 249.45 L
300 258.55 L
270 258.55 L
S
GR
GS
0.149 GC
2 setlinecap
10.0 ML
2 LW
N
264 262 M
264 221 L
412 221 L
412 262 L
264 262 L
S
GR
%%Trailer
%%Pages: 1
%%EOF
