%!PS-Adobe-3.0 EPSF-3.0
%%Creator: (MATLAB, The Mathworks, Inc. Version 8.5.0.197613 \(R2015a\). Operating System: Mac OS X)
%%Title: /Users/ashwinyakkundimath/Documents/Thesis_Results/plots/density/cdf_integration_broadcast_energy.eps
%%CreationDate: 2015-12-28T13:26:23
%%Pages: (atend)
%%BoundingBox: 0 0 560 420
%%LanguageLevel: 2
%%EndComments
%%BeginProlog
%%BeginResource: procset (Apache XML Graphics Std ProcSet) 1.2 0
%%Version: 1.2 0
%%Copyright: (Copyright 2001-2003,2010 The Apache Software Foundation. License terms: http://www.apache.org/licenses/LICENSE-2.0)
/bd{bind def}bind def
/ld{load def}bd
/GR/grestore ld
/M/moveto ld
/LJ/setlinejoin ld
/C/curveto ld
/f/fill ld
/LW/setlinewidth ld
/GC/setgray ld
/t/show ld
/N/newpath ld
/CT/concat ld
/cp/closepath ld
/S/stroke ld
/L/lineto ld
/CC/setcmykcolor ld
/A/ashow ld
/GS/gsave ld
/RC/setrgbcolor ld
/RM/rmoveto ld
/ML/setmiterlimit ld
/re {4 2 roll M
1 index 0 rlineto
0 exch rlineto
neg 0 rlineto
cp } bd
/_ctm matrix def
/_tm matrix def
/BT { _ctm currentmatrix pop matrix _tm copy pop 0 0 moveto } bd
/ET { _ctm setmatrix } bd
/iTm { _ctm setmatrix _tm concat } bd
/Tm { _tm astore pop iTm 0 0 moveto } bd
/ux 0.0 def
/uy 0.0 def
/F {
  /Tp exch def
  /Tf exch def
  Tf findfont Tp scalefont setfont
  /cf Tf def  /cs Tp def
} bd
/ULS {currentpoint /uy exch def /ux exch def} bd
/ULE {
  /Tcx currentpoint pop def
  gsave
  newpath
  cf findfont cs scalefont dup
  /FontMatrix get 0 get /Ts exch def /FontInfo get dup
  /UnderlinePosition get Ts mul /To exch def
  /UnderlineThickness get Ts mul /Tt exch def
  ux uy To add moveto  Tcx uy To add lineto
  Tt setlinewidth stroke
  grestore
} bd
/OLE {
  /Tcx currentpoint pop def
  gsave
  newpath
  cf findfont cs scalefont dup
  /FontMatrix get 0 get /Ts exch def /FontInfo get dup
  /UnderlinePosition get Ts mul /To exch def
  /UnderlineThickness get Ts mul /Tt exch def
  ux uy To add cs add moveto Tcx uy To add cs add lineto
  Tt setlinewidth stroke
  grestore
} bd
/SOE {
  /Tcx currentpoint pop def
  gsave
  newpath
  cf findfont cs scalefont dup
  /FontMatrix get 0 get /Ts exch def /FontInfo get dup
  /UnderlinePosition get Ts mul /To exch def
  /UnderlineThickness get Ts mul /Tt exch def
  ux uy To add cs 10 mul 26 idiv add moveto Tcx uy To add cs 10 mul 26 idiv add lineto
  Tt setlinewidth stroke
  grestore
} bd
/QT {
/Y22 exch store
/X22 exch store
/Y21 exch store
/X21 exch store
currentpoint
/Y21 load 2 mul add 3 div exch
/X21 load 2 mul add 3 div exch
/X21 load 2 mul /X22 load add 3 div
/Y21 load 2 mul /Y22 load add 3 div
/X22 load /Y22 load curveto
} bd
/SSPD {
dup length /d exch dict def
{
/v exch def
/k exch def
currentpagedevice k known {
/cpdv currentpagedevice k get def
v cpdv ne {
/upd false def
/nullv v type /nulltype eq def
/nullcpdv cpdv type /nulltype eq def
nullv nullcpdv or
{
/upd true def
} {
/sametype v type cpdv type eq def
sametype {
v type /arraytype eq {
/vlen v length def
/cpdvlen cpdv length def
vlen cpdvlen eq {
0 1 vlen 1 sub {
/i exch def
/obj v i get def
/cpdobj cpdv i get def
obj cpdobj ne {
/upd true def
exit
} if
} for
} {
/upd true def
} ifelse
} {
v type /dicttype eq {
v {
/dv exch def
/dk exch def
/cpddv cpdv dk get def
dv cpddv ne {
/upd true def
exit
} if
} forall
} {
/upd true def
} ifelse
} ifelse
} if
} ifelse
upd true eq {
d k v put
} if
} if
} if
} forall
d length 0 gt {
d setpagedevice
} if
} bd
%%EndResource
%%BeginResource: procset (Apache XML Graphics EPS ProcSet) 1.0 0
%%Version: 1.0 0
%%Copyright: (Copyright 2002-2003 The Apache Software Foundation. License terms: http://www.apache.org/licenses/LICENSE-2.0)
/BeginEPSF { %def
/b4_Inc_state save def         % Save state for cleanup
/dict_count countdictstack def % Count objects on dict stack
/op_count count 1 sub def      % Count objects on operand stack
userdict begin                 % Push userdict on dict stack
/showpage { } def              % Redefine showpage, { } = null proc
0 setgray 0 setlinecap         % Prepare graphics state
1 setlinewidth 0 setlinejoin
10 setmiterlimit [ ] 0 setdash newpath
/languagelevel where           % If level not equal to 1 then
{pop languagelevel             % set strokeadjust and
1 ne                           % overprint to their defaults.
{false setstrokeadjust false setoverprint
} if
} if
} bd
/EndEPSF { %def
count op_count sub {pop} repeat            % Clean up stacks
countdictstack dict_count sub {end} repeat
b4_Inc_state restore
} bd
%%EndResource
%FOPBeginFontDict
%%IncludeResource: font Courier-Bold
%%IncludeResource: font Helvetica
%%IncludeResource: font Courier-BoldOblique
%%IncludeResource: font Courier-Oblique
%%IncludeResource: font Times-Roman
%%IncludeResource: font Helvetica-BoldOblique
%%IncludeResource: font Helvetica-Bold
%%IncludeResource: font Helvetica-Oblique
%%IncludeResource: font Times-BoldItalic
%%IncludeResource: font Courier
%%IncludeResource: font Times-Italic
%%IncludeResource: font Times-Bold
%%IncludeResource: font Symbol
%%IncludeResource: font ZapfDingbats
%FOPEndFontDict
%%BeginResource: encoding WinAnsiEncoding
/WinAnsiEncoding [
/.notdef /.notdef /.notdef /.notdef /.notdef
/.notdef /.notdef /.notdef /.notdef /.notdef
/.notdef /.notdef /.notdef /.notdef /.notdef
/.notdef /.notdef /.notdef /.notdef /.notdef
/.notdef /.notdef /.notdef /.notdef /.notdef
/.notdef /.notdef /.notdef /.notdef /.notdef
/.notdef /.notdef /space /exclam /quotedbl
/numbersign /dollar /percent /ampersand /quotesingle
/parenleft /parenright /asterisk /plus /comma
/hyphen /period /slash /zero /one
/two /three /four /five /six
/seven /eight /nine /colon /semicolon
/less /equal /greater /question /at
/A /B /C /D /E
/F /G /H /I /J
/K /L /M /N /O
/P /Q /R /S /T
/U /V /W /X /Y
/Z /bracketleft /backslash /bracketright /asciicircum
/underscore /quoteleft /a /b /c
/d /e /f /g /h
/i /j /k /l /m
/n /o /p /q /r
/s /t /u /v /w
/x /y /z /braceleft /bar
/braceright /asciitilde /bullet /Euro /bullet
/quotesinglbase /florin /quotedblbase /ellipsis /dagger
/daggerdbl /circumflex /perthousand /Scaron /guilsinglleft
/OE /bullet /Zcaron /bullet /bullet
/quoteleft /quoteright /quotedblleft /quotedblright /bullet
/endash /emdash /asciitilde /trademark /scaron
/guilsinglright /oe /bullet /zcaron /Ydieresis
/space /exclamdown /cent /sterling /currency
/yen /brokenbar /section /dieresis /copyright
/ordfeminine /guillemotleft /logicalnot /sfthyphen /registered
/macron /degree /plusminus /twosuperior /threesuperior
/acute /mu /paragraph /middot /cedilla
/onesuperior /ordmasculine /guillemotright /onequarter /onehalf
/threequarters /questiondown /Agrave /Aacute /Acircumflex
/Atilde /Adieresis /Aring /AE /Ccedilla
/Egrave /Eacute /Ecircumflex /Edieresis /Igrave
/Iacute /Icircumflex /Idieresis /Eth /Ntilde
/Ograve /Oacute /Ocircumflex /Otilde /Odieresis
/multiply /Oslash /Ugrave /Uacute /Ucircumflex
/Udieresis /Yacute /Thorn /germandbls /agrave
/aacute /acircumflex /atilde /adieresis /aring
/ae /ccedilla /egrave /eacute /ecircumflex
/edieresis /igrave /iacute /icircumflex /idieresis
/eth /ntilde /ograve /oacute /ocircumflex
/otilde /odieresis /divide /oslash /ugrave
/uacute /ucircumflex /udieresis /yacute /thorn
/ydieresis
] def
%%EndResource
%FOPBeginFontReencode
/Courier-Bold findfont
dup length dict begin
  {1 index /FID ne {def} {pop pop} ifelse} forall
  /Encoding WinAnsiEncoding def
  currentdict
end
/Courier-Bold exch definefont pop
/Helvetica findfont
dup length dict begin
  {1 index /FID ne {def} {pop pop} ifelse} forall
  /Encoding WinAnsiEncoding def
  currentdict
end
/Helvetica exch definefont pop
/Courier-BoldOblique findfont
dup length dict begin
  {1 index /FID ne {def} {pop pop} ifelse} forall
  /Encoding WinAnsiEncoding def
  currentdict
end
/Courier-BoldOblique exch definefont pop
/Courier-Oblique findfont
dup length dict begin
  {1 index /FID ne {def} {pop pop} ifelse} forall
  /Encoding WinAnsiEncoding def
  currentdict
end
/Courier-Oblique exch definefont pop
/Times-Roman findfont
dup length dict begin
  {1 index /FID ne {def} {pop pop} ifelse} forall
  /Encoding WinAnsiEncoding def
  currentdict
end
/Times-Roman exch definefont pop
/Helvetica-BoldOblique findfont
dup length dict begin
  {1 index /FID ne {def} {pop pop} ifelse} forall
  /Encoding WinAnsiEncoding def
  currentdict
end
/Helvetica-BoldOblique exch definefont pop
/Helvetica-Bold findfont
dup length dict begin
  {1 index /FID ne {def} {pop pop} ifelse} forall
  /Encoding WinAnsiEncoding def
  currentdict
end
/Helvetica-Bold exch definefont pop
/Helvetica-Oblique findfont
dup length dict begin
  {1 index /FID ne {def} {pop pop} ifelse} forall
  /Encoding WinAnsiEncoding def
  currentdict
end
/Helvetica-Oblique exch definefont pop
/Times-BoldItalic findfont
dup length dict begin
  {1 index /FID ne {def} {pop pop} ifelse} forall
  /Encoding WinAnsiEncoding def
  currentdict
end
/Times-BoldItalic exch definefont pop
/Courier findfont
dup length dict begin
  {1 index /FID ne {def} {pop pop} ifelse} forall
  /Encoding WinAnsiEncoding def
  currentdict
end
/Courier exch definefont pop
/Times-Italic findfont
dup length dict begin
  {1 index /FID ne {def} {pop pop} ifelse} forall
  /Encoding WinAnsiEncoding def
  currentdict
end
/Times-Italic exch definefont pop
/Times-Bold findfont
dup length dict begin
  {1 index /FID ne {def} {pop pop} ifelse} forall
  /Encoding WinAnsiEncoding def
  currentdict
end
/Times-Bold exch definefont pop
%FOPEndFontReencode
%%EndProlog
%%Page: 1 1
%%PageBoundingBox: 0 0 560 420
%%BeginPageSetup
[1 0 0 -1 0 420] CT
%%EndPageSetup
GS
1 GC
N
0 0 560 420 re
f
GR
GS
1 GC
N
0 0 560 420 re
f
GR
GS
1 GC
N
73 374 M
507 374 L
507 31 L
73 31 L
cp
f
GR
GS
[1 0 0 1 290.00021 390] CT
0.149 GC
/Helvetica-Bold 11 F
GS
[1 0 0 1 0 0] CT
-33.5 9 moveto 
1 -1 scale
(Total Energy) t 
GR
GR
GS
0.149 GC
2 setlinecap
10.0 ML
N
73 374 M
507 374 L
S
GR
GS
0.149 GC
2 setlinecap
10.0 ML
N
73 31 M
507 31 L
S
GR
GS
0.149 GC
2 setlinecap
10.0 ML
N
73 374 M
73 369.66 L
S
GR
GS
0.149 GC
2 setlinecap
10.0 ML
N
127.25 374 M
127.25 369.66 L
S
GR
GS
0.149 GC
2 setlinecap
10.0 ML
N
181.5 374 M
181.5 369.66 L
S
GR
GS
0.149 GC
2 setlinecap
10.0 ML
N
235.75 374 M
235.75 369.66 L
S
GR
GS
0.149 GC
2 setlinecap
10.0 ML
N
290 374 M
290 369.66 L
S
GR
GS
0.149 GC
2 setlinecap
10.0 ML
N
344.25 374 M
344.25 369.66 L
S
GR
GS
0.149 GC
2 setlinecap
10.0 ML
N
398.5 374 M
398.5 369.66 L
S
GR
GS
0.149 GC
2 setlinecap
10.0 ML
N
452.75 374 M
452.75 369.66 L
S
GR
GS
0.149 GC
2 setlinecap
10.0 ML
N
507 374 M
507 369.66 L
S
GR
GS
0.149 GC
2 setlinecap
10.0 ML
N
73 31 M
73 35.34 L
S
GR
GS
0.149 GC
2 setlinecap
10.0 ML
N
127.25 31 M
127.25 35.34 L
S
GR
GS
0.149 GC
2 setlinecap
10.0 ML
N
181.5 31 M
181.5 35.34 L
S
GR
GS
0.149 GC
2 setlinecap
10.0 ML
N
235.75 31 M
235.75 35.34 L
S
GR
GS
0.149 GC
2 setlinecap
10.0 ML
N
290 31 M
290 35.34 L
S
GR
GS
0.149 GC
2 setlinecap
10.0 ML
N
344.25 31 M
344.25 35.34 L
S
GR
GS
0.149 GC
2 setlinecap
10.0 ML
N
398.5 31 M
398.5 35.34 L
S
GR
GS
0.149 GC
2 setlinecap
10.0 ML
N
452.75 31 M
452.75 35.34 L
S
GR
GS
0.149 GC
2 setlinecap
10.0 ML
N
507 31 M
507 35.34 L
S
GR
GS
[1 0 0 1 73 378] CT
0.149 GC
/Helvetica-Bold 10 F
GS
[1 0 0 1 0 0] CT
-3 8 moveto 
1 -1 scale
(0) t 
GR
GR
GS
[1 0 0 1 127.25 378] CT
0.149 GC
/Helvetica-Bold 10 F
GS
[1 0 0 1 0 0] CT
-3 8 moveto 
1 -1 scale
(2) t 
GR
GR
GS
[1 0 0 1 181.5 378] CT
0.149 GC
/Helvetica-Bold 10 F
GS
[1 0 0 1 0 0] CT
-3 8 moveto 
1 -1 scale
(4) t 
GR
GR
GS
[1 0 0 1 235.75 378] CT
0.149 GC
/Helvetica-Bold 10 F
GS
[1 0 0 1 0 0] CT
-3 8 moveto 
1 -1 scale
(6) t 
GR
GR
GS
[1 0 0 1 290 378] CT
0.149 GC
/Helvetica-Bold 10 F
GS
[1 0 0 1 0 0] CT
-3 8 moveto 
1 -1 scale
(8) t 
GR
GR
GS
[1 0 0 1 344.25 378] CT
0.149 GC
/Helvetica-Bold 10 F
GS
[1 0 0 1 0 0] CT
-6 8 moveto 
1 -1 scale
(10) t 
GR
GR
GS
[1 0 0 1 398.5 378] CT
0.149 GC
/Helvetica-Bold 10 F
GS
[1 0 0 1 0 0] CT
-6 8 moveto 
1 -1 scale
(12) t 
GR
GR
GS
[1 0 0 1 452.75 378] CT
0.149 GC
/Helvetica-Bold 10 F
GS
[1 0 0 1 0 0] CT
-6 8 moveto 
1 -1 scale
(14) t 
GR
GR
GS
[1 0 0 1 507 378] CT
0.149 GC
/Helvetica-Bold 10 F
GS
[1 0 0 1 0 0] CT
-6 8 moveto 
1 -1 scale
(16) t 
GR
GR
GS
[0 -1 1 0 52 202.49983] CT
0.149 GC
/Helvetica-Bold 11 F
GS
[1 0 0 1 0 0] CT
-60 -3 moveto 
1 -1 scale
(Cumulative Probability) t 
GR
GR
GS
0.149 GC
2 setlinecap
10.0 ML
N
73 374 M
73 31 L
S
GR
GS
0.149 GC
2 setlinecap
10.0 ML
N
507 374 M
507 31 L
S
GR
GS
0.149 GC
2 setlinecap
10.0 ML
N
73 374 M
77.34 374 L
S
GR
GS
0.149 GC
2 setlinecap
10.0 ML
N
73 339.7 M
77.34 339.7 L
S
GR
GS
0.149 GC
2 setlinecap
10.0 ML
N
73 305.4 M
77.34 305.4 L
S
GR
GS
0.149 GC
2 setlinecap
10.0 ML
N
73 271.1 M
77.34 271.1 L
S
GR
GS
0.149 GC
2 setlinecap
10.0 ML
N
73 236.8 M
77.34 236.8 L
S
GR
GS
0.149 GC
2 setlinecap
10.0 ML
N
73 202.5 M
77.34 202.5 L
S
GR
GS
0.149 GC
2 setlinecap
10.0 ML
N
73 168.2 M
77.34 168.2 L
S
GR
GS
0.149 GC
2 setlinecap
10.0 ML
N
73 133.9 M
77.34 133.9 L
S
GR
GS
0.149 GC
2 setlinecap
10.0 ML
N
73 99.6 M
77.34 99.6 L
S
GR
GS
0.149 GC
2 setlinecap
10.0 ML
N
73 65.3 M
77.34 65.3 L
S
GR
GS
0.149 GC
2 setlinecap
10.0 ML
N
73 31 M
77.34 31 L
S
GR
GS
0.149 GC
2 setlinecap
10.0 ML
N
507 374 M
502.66 374 L
S
GR
GS
0.149 GC
2 setlinecap
10.0 ML
N
507 339.7 M
502.66 339.7 L
S
GR
GS
0.149 GC
2 setlinecap
10.0 ML
N
507 305.4 M
502.66 305.4 L
S
GR
GS
0.149 GC
2 setlinecap
10.0 ML
N
507 271.1 M
502.66 271.1 L
S
GR
GS
0.149 GC
2 setlinecap
10.0 ML
N
507 236.8 M
502.66 236.8 L
S
GR
GS
0.149 GC
2 setlinecap
10.0 ML
N
507 202.5 M
502.66 202.5 L
S
GR
GS
0.149 GC
2 setlinecap
10.0 ML
N
507 168.2 M
502.66 168.2 L
S
GR
GS
0.149 GC
2 setlinecap
10.0 ML
N
507 133.9 M
502.66 133.9 L
S
GR
GS
0.149 GC
2 setlinecap
10.0 ML
N
507 99.6 M
502.66 99.6 L
S
GR
GS
0.149 GC
2 setlinecap
10.0 ML
N
507 65.3 M
502.66 65.3 L
S
GR
GS
0.149 GC
2 setlinecap
10.0 ML
N
507 31 M
502.66 31 L
S
GR
GS
[1 0 0 1 69 374] CT
0.149 GC
/Helvetica-Bold 10 F
GS
[1 0 0 1 0 0] CT
-6 2.5 moveto 
1 -1 scale
(0) t 
GR
GR
GS
[1 0 0 1 69 339.70001] CT
0.149 GC
/Helvetica-Bold 10 F
GS
[1 0 0 1 0 0] CT
-14 2.5 moveto 
1 -1 scale
(0.1) t 
GR
GR
GS
[1 0 0 1 69 305.39999] CT
0.149 GC
/Helvetica-Bold 10 F
GS
[1 0 0 1 0 0] CT
-14 2.5 moveto 
1 -1 scale
(0.2) t 
GR
GR
GS
[1 0 0 1 69 271.10001] CT
0.149 GC
/Helvetica-Bold 10 F
GS
[1 0 0 1 0 0] CT
-14 2.5 moveto 
1 -1 scale
(0.3) t 
GR
GR
GS
[1 0 0 1 69 236.8] CT
0.149 GC
/Helvetica-Bold 10 F
GS
[1 0 0 1 0 0] CT
-14 2.5 moveto 
1 -1 scale
(0.4) t 
GR
GR
GS
[1 0 0 1 69 202.5] CT
0.149 GC
/Helvetica-Bold 10 F
GS
[1 0 0 1 0 0] CT
-14 2.5 moveto 
1 -1 scale
(0.5) t 
GR
GR
GS
[1 0 0 1 69 168.2] CT
0.149 GC
/Helvetica-Bold 10 F
GS
[1 0 0 1 0 0] CT
-14 2.5 moveto 
1 -1 scale
(0.6) t 
GR
GR
GS
[1 0 0 1 69 133.90001] CT
0.149 GC
/Helvetica-Bold 10 F
GS
[1 0 0 1 0 0] CT
-14 2.5 moveto 
1 -1 scale
(0.7) t 
GR
GR
GS
[1 0 0 1 69 99.6] CT
0.149 GC
/Helvetica-Bold 10 F
GS
[1 0 0 1 0 0] CT
-14 2.5 moveto 
1 -1 scale
(0.8) t 
GR
GR
GS
[1 0 0 1 69 65.30001] CT
0.149 GC
/Helvetica-Bold 10 F
GS
[1 0 0 1 0 0] CT
-14 2.5 moveto 
1 -1 scale
(0.9) t 
GR
GR
GS
[1 0 0 1 69 31] CT
0.149 GC
/Helvetica-Bold 10 F
GS
[1 0 0 1 0 0] CT
-6 2.5 moveto 
1 -1 scale
(1) t 
GR
GR
GS
0 0 1 RC
2 LJ
2 LW
N
73 374 M
73 360.28 L
100.125 356.85 L
114.79 353.42 L
117.188 349.99 L
117.396 346.56 L
122.712 343.13 L
122.84 339.7 L
123.604 336.27 L
127.25 329.41 L
127.277 325.98 L
127.304 322.55 L
127.304 284.82 L
127.304 281.39 L
127.354 277.96 L
143.04 274.53 L
145.785 271.1 L
150.846 267.67 L
153.079 264.24 L
154.456 260.81 L
154.464 257.38 L
154.493 253.95 L
154.494 250.52 L
154.571 247.09 L
160.497 243.66 L
163.018 240.23 L
163.939 236.8 L
164.027 233.37 L
165.921 229.94 L
166.61 226.51 L
167.096 223.08 L
171.269 219.65 L
171.848 216.22 L
174.234 212.79 L
175.35 209.36 L
178.315 205.93 L
179.121 202.5 L
180.767 199.07 L
181.548 195.64 L
181.554 192.21 L
181.554 181.92 L
181.563 178.49 L
181.563 175.06 L
181.609 171.63 L
185.686 168.2 L
185.861 164.77 L
190.046 161.34 L
191.503 157.91 L
199.509 154.48 L
202.057 151.05 L
S
GR
GS
0 0 1 RC
2 LJ
2 LW
N
202.057 151.05 M
202.382 147.62 L
207.439 144.19 L
208.7 140.76 L
208.705 137.33 L
208.715 133.9 L
210.734 130.47 L
213.052 127.04 L
213.811 123.61 L
214.258 120.18 L
216.567 116.75 L
217.884 113.32 L
224.905 109.89 L
235.873 106.46 L
235.904 103.03 L
238.089 99.6 L
244.648 96.17 L
247.832 92.74 L
249.811 89.31 L
257.727 85.88 L
262.932 82.45 L
263.115 79.02 L
269.026 75.59 L
273.031 72.16 L
275.223 68.73 L
277.476 65.3 L
284.282 61.87 L
285.752 58.44 L
290.103 55.01 L
293.156 51.58 L
296.26 48.15 L
304.994 44.72 L
344.416 41.29 L
344.428 37.86 L
371.614 34.43 L
391.444 31 L
S
GR
GS
0 0 1 RC
2 LJ
2 LW
N
70 373.5 M
77 373.5 L
S
GR
GS
0 0 1 RC
2 LJ
2 LW
N
73.5 377 M
73.5 370 L
S
GR
GS
0 0 1 RC
2 LJ
2 LW
N
70 360.5 M
77 360.5 L
S
GR
GS
0 0 1 RC
2 LJ
2 LW
N
73.5 364 M
73.5 357 L
S
GR
GS
0 0 1 RC
2 LJ
2 LW
N
97 356.5 M
104 356.5 L
S
GR
GS
0 0 1 RC
2 LJ
2 LW
N
100.5 360 M
100.5 353 L
S
GR
GS
0 0 1 RC
2 LJ
2 LW
N
111 353.5 M
118 353.5 L
S
GR
GS
0 0 1 RC
2 LJ
2 LW
N
114.5 357 M
114.5 350 L
S
GR
GS
0 0 1 RC
2 LJ
2 LW
N
114 349.5 M
121 349.5 L
S
GR
GS
0 0 1 RC
2 LJ
2 LW
N
117.5 353 M
117.5 346 L
S
GR
GS
0 0 1 RC
2 LJ
2 LW
N
114 346.5 M
121 346.5 L
S
GR
GS
0 0 1 RC
2 LJ
2 LW
N
117.5 350 M
117.5 343 L
S
GR
GS
0 0 1 RC
2 LJ
2 LW
N
119 343.5 M
126 343.5 L
S
GR
GS
0 0 1 RC
2 LJ
2 LW
N
122.5 347 M
122.5 340 L
S
GR
GS
0 0 1 RC
2 LJ
2 LW
N
119 339.5 M
126 339.5 L
S
GR
GS
0 0 1 RC
2 LJ
2 LW
N
122.5 343 M
122.5 336 L
S
GR
GS
0 0 1 RC
2 LJ
2 LW
N
120 336.5 M
127 336.5 L
S
GR
GS
0 0 1 RC
2 LJ
2 LW
N
123.5 340 M
123.5 333 L
S
GR
GS
0 0 1 RC
2 LJ
2 LW
N
124 329.5 M
131 329.5 L
S
GR
GS
0 0 1 RC
2 LJ
2 LW
N
127.5 333 M
127.5 326 L
S
GR
GS
0 0 1 RC
2 LJ
2 LW
N
124 325.5 M
131 325.5 L
S
GR
GS
0 0 1 RC
2 LJ
2 LW
N
127.5 329 M
127.5 322 L
S
GR
GS
0 0 1 RC
2 LJ
2 LW
N
124 322.5 M
131 322.5 L
S
GR
GS
0 0 1 RC
2 LJ
2 LW
N
127.5 326 M
127.5 319 L
S
GR
GS
0 0 1 RC
2 LJ
2 LW
N
124 284.5 M
131 284.5 L
S
GR
GS
0 0 1 RC
2 LJ
2 LW
N
127.5 288 M
127.5 281 L
S
GR
GS
0 0 1 RC
2 LJ
2 LW
N
124 281.5 M
131 281.5 L
S
GR
GS
0 0 1 RC
2 LJ
2 LW
N
127.5 285 M
127.5 278 L
S
GR
GS
0 0 1 RC
2 LJ
2 LW
N
124 277.5 M
131 277.5 L
S
GR
GS
0 0 1 RC
2 LJ
2 LW
N
127.5 281 M
127.5 274 L
S
GR
GS
0 0 1 RC
2 LJ
2 LW
N
140 274.5 M
147 274.5 L
S
GR
GS
0 0 1 RC
2 LJ
2 LW
N
143.5 278 M
143.5 271 L
S
GR
GS
0 0 1 RC
2 LJ
2 LW
N
142 271.5 M
149 271.5 L
S
GR
GS
0 0 1 RC
2 LJ
2 LW
N
145.5 275 M
145.5 268 L
S
GR
GS
0 0 1 RC
2 LJ
2 LW
N
147 267.5 M
154 267.5 L
S
GR
GS
0 0 1 RC
2 LJ
2 LW
N
150.5 271 M
150.5 264 L
S
GR
GS
0 0 1 RC
2 LJ
2 LW
N
150 264.5 M
157 264.5 L
S
GR
GS
0 0 1 RC
2 LJ
2 LW
N
153.5 268 M
153.5 261 L
S
GR
GS
0 0 1 RC
2 LJ
2 LW
N
151 260.5 M
158 260.5 L
S
GR
GS
0 0 1 RC
2 LJ
2 LW
N
154.5 264 M
154.5 257 L
S
GR
GS
0 0 1 RC
2 LJ
2 LW
N
151 257.5 M
158 257.5 L
S
GR
GS
0 0 1 RC
2 LJ
2 LW
N
154.5 261 M
154.5 254 L
S
GR
GS
0 0 1 RC
2 LJ
2 LW
N
151 253.5 M
158 253.5 L
S
GR
GS
0 0 1 RC
2 LJ
2 LW
N
154.5 257 M
154.5 250 L
S
GR
GS
0 0 1 RC
2 LJ
2 LW
N
151 250.5 M
158 250.5 L
S
GR
GS
0 0 1 RC
2 LJ
2 LW
N
154.5 254 M
154.5 247 L
S
GR
GS
0 0 1 RC
2 LJ
2 LW
N
151 247.5 M
158 247.5 L
S
GR
GS
0 0 1 RC
2 LJ
2 LW
N
154.5 251 M
154.5 244 L
S
GR
GS
0 0 1 RC
2 LJ
2 LW
N
157 243.5 M
164 243.5 L
S
GR
GS
0 0 1 RC
2 LJ
2 LW
N
160.5 247 M
160.5 240 L
S
GR
GS
0 0 1 RC
2 LJ
2 LW
N
160 240.5 M
167 240.5 L
S
GR
GS
0 0 1 RC
2 LJ
2 LW
N
163.5 244 M
163.5 237 L
S
GR
GS
0 0 1 RC
2 LJ
2 LW
N
160 236.5 M
167 236.5 L
S
GR
GS
0 0 1 RC
2 LJ
2 LW
N
163.5 240 M
163.5 233 L
S
GR
GS
0 0 1 RC
2 LJ
2 LW
N
161 233.5 M
168 233.5 L
S
GR
GS
0 0 1 RC
2 LJ
2 LW
N
164.5 237 M
164.5 230 L
S
GR
GS
0 0 1 RC
2 LJ
2 LW
N
162 229.5 M
169 229.5 L
S
GR
GS
0 0 1 RC
2 LJ
2 LW
N
165.5 233 M
165.5 226 L
S
GR
GS
0 0 1 RC
2 LJ
2 LW
N
163 226.5 M
170 226.5 L
S
GR
GS
0 0 1 RC
2 LJ
2 LW
N
166.5 230 M
166.5 223 L
S
GR
GS
0 0 1 RC
2 LJ
2 LW
N
164 223.5 M
171 223.5 L
S
GR
GS
0 0 1 RC
2 LJ
2 LW
N
167.5 227 M
167.5 220 L
S
GR
GS
0 0 1 RC
2 LJ
2 LW
N
168 219.5 M
175 219.5 L
S
GR
GS
0 0 1 RC
2 LJ
2 LW
N
171.5 223 M
171.5 216 L
S
GR
GS
0 0 1 RC
2 LJ
2 LW
N
168 216.5 M
175 216.5 L
S
GR
GS
0 0 1 RC
2 LJ
2 LW
N
171.5 220 M
171.5 213 L
S
GR
GS
0 0 1 RC
2 LJ
2 LW
N
171 212.5 M
178 212.5 L
S
GR
GS
0 0 1 RC
2 LJ
2 LW
N
174.5 216 M
174.5 209 L
S
GR
GS
0 0 1 RC
2 LJ
2 LW
N
172 209.5 M
179 209.5 L
S
GR
GS
0 0 1 RC
2 LJ
2 LW
N
175.5 213 M
175.5 206 L
S
GR
GS
0 0 1 RC
2 LJ
2 LW
N
175 205.5 M
182 205.5 L
S
GR
GS
0 0 1 RC
2 LJ
2 LW
N
178.5 209 M
178.5 202 L
S
GR
GS
0 0 1 RC
2 LJ
2 LW
N
176 202.5 M
183 202.5 L
S
GR
GS
0 0 1 RC
2 LJ
2 LW
N
179.5 206 M
179.5 199 L
S
GR
GS
0 0 1 RC
2 LJ
2 LW
N
177 199.5 M
184 199.5 L
S
GR
GS
0 0 1 RC
2 LJ
2 LW
N
180.5 203 M
180.5 196 L
S
GR
GS
0 0 1 RC
2 LJ
2 LW
N
178 195.5 M
185 195.5 L
S
GR
GS
0 0 1 RC
2 LJ
2 LW
N
181.5 199 M
181.5 192 L
S
GR
GS
0 0 1 RC
2 LJ
2 LW
N
178 192.5 M
185 192.5 L
S
GR
GS
0 0 1 RC
2 LJ
2 LW
N
181.5 196 M
181.5 189 L
S
GR
GS
0 0 1 RC
2 LJ
2 LW
N
178 181.5 M
185 181.5 L
S
GR
GS
0 0 1 RC
2 LJ
2 LW
N
181.5 185 M
181.5 178 L
S
GR
GS
0 0 1 RC
2 LJ
2 LW
N
178 178.5 M
185 178.5 L
S
GR
GS
0 0 1 RC
2 LJ
2 LW
N
181.5 182 M
181.5 175 L
S
GR
GS
0 0 1 RC
2 LJ
2 LW
N
178 175.5 M
185 175.5 L
S
GR
GS
0 0 1 RC
2 LJ
2 LW
N
181.5 179 M
181.5 172 L
S
GR
GS
0 0 1 RC
2 LJ
2 LW
N
178 171.5 M
185 171.5 L
S
GR
GS
0 0 1 RC
2 LJ
2 LW
N
181.5 175 M
181.5 168 L
S
GR
GS
0 0 1 RC
2 LJ
2 LW
N
182 168.5 M
189 168.5 L
S
GR
GS
0 0 1 RC
2 LJ
2 LW
N
185.5 172 M
185.5 165 L
S
GR
GS
0 0 1 RC
2 LJ
2 LW
N
182 164.5 M
189 164.5 L
S
GR
GS
0 0 1 RC
2 LJ
2 LW
N
185.5 168 M
185.5 161 L
S
GR
GS
0 0 1 RC
2 LJ
2 LW
N
187 161.5 M
194 161.5 L
S
GR
GS
0 0 1 RC
2 LJ
2 LW
N
190.5 165 M
190.5 158 L
S
GR
GS
0 0 1 RC
2 LJ
2 LW
N
188 157.5 M
195 157.5 L
S
GR
GS
0 0 1 RC
2 LJ
2 LW
N
191.5 161 M
191.5 154 L
S
GR
GS
0 0 1 RC
2 LJ
2 LW
N
196 154.5 M
203 154.5 L
S
GR
GS
0 0 1 RC
2 LJ
2 LW
N
199.5 158 M
199.5 151 L
S
GR
GS
0 0 1 RC
2 LJ
2 LW
N
199 151.5 M
206 151.5 L
S
GR
GS
0 0 1 RC
2 LJ
2 LW
N
202.5 155 M
202.5 148 L
S
GR
GS
0 0 1 RC
2 LJ
2 LW
N
199 147.5 M
206 147.5 L
S
GR
GS
0 0 1 RC
2 LJ
2 LW
N
202.5 151 M
202.5 144 L
S
GR
GS
0 0 1 RC
2 LJ
2 LW
N
204 144.5 M
211 144.5 L
S
GR
GS
0 0 1 RC
2 LJ
2 LW
N
207.5 148 M
207.5 141 L
S
GR
GS
0 0 1 RC
2 LJ
2 LW
N
205 140.5 M
212 140.5 L
S
GR
GS
0 0 1 RC
2 LJ
2 LW
N
208.5 144 M
208.5 137 L
S
GR
GS
0 0 1 RC
2 LJ
2 LW
N
205 137.5 M
212 137.5 L
S
GR
GS
0 0 1 RC
2 LJ
2 LW
N
208.5 141 M
208.5 134 L
S
GR
GS
0 0 1 RC
2 LJ
2 LW
N
205 133.5 M
212 133.5 L
S
GR
GS
0 0 1 RC
2 LJ
2 LW
N
208.5 137 M
208.5 130 L
S
GR
GS
0 0 1 RC
2 LJ
2 LW
N
207 130.5 M
214 130.5 L
S
GR
GS
0 0 1 RC
2 LJ
2 LW
N
210.5 134 M
210.5 127 L
S
GR
GS
0 0 1 RC
2 LJ
2 LW
N
210 127.5 M
217 127.5 L
S
GR
GS
0 0 1 RC
2 LJ
2 LW
N
213.5 131 M
213.5 124 L
S
GR
GS
0 0 1 RC
2 LJ
2 LW
N
210 123.5 M
217 123.5 L
S
GR
GS
0 0 1 RC
2 LJ
2 LW
N
213.5 127 M
213.5 120 L
S
GR
GS
0 0 1 RC
2 LJ
2 LW
N
211 120.5 M
218 120.5 L
S
GR
GS
0 0 1 RC
2 LJ
2 LW
N
214.5 124 M
214.5 117 L
S
GR
GS
0 0 1 RC
2 LJ
2 LW
N
213 116.5 M
220 116.5 L
S
GR
GS
0 0 1 RC
2 LJ
2 LW
N
216.5 120 M
216.5 113 L
S
GR
GS
0 0 1 RC
2 LJ
2 LW
N
214 113.5 M
221 113.5 L
S
GR
GS
0 0 1 RC
2 LJ
2 LW
N
217.5 117 M
217.5 110 L
S
GR
GS
0 0 1 RC
2 LJ
2 LW
N
221 109.5 M
228 109.5 L
S
GR
GS
0 0 1 RC
2 LJ
2 LW
N
224.5 113 M
224.5 106 L
S
GR
GS
0 0 1 RC
2 LJ
2 LW
N
232 106.5 M
239 106.5 L
S
GR
GS
0 0 1 RC
2 LJ
2 LW
N
235.5 110 M
235.5 103 L
S
GR
GS
0 0 1 RC
2 LJ
2 LW
N
232 103.5 M
239 103.5 L
S
GR
GS
0 0 1 RC
2 LJ
2 LW
N
235.5 107 M
235.5 100 L
S
GR
GS
0 0 1 RC
2 LJ
2 LW
N
235 99.5 M
242 99.5 L
S
GR
GS
0 0 1 RC
2 LJ
2 LW
N
238.5 103 M
238.5 96 L
S
GR
GS
0 0 1 RC
2 LJ
2 LW
N
241 96.5 M
248 96.5 L
S
GR
GS
0 0 1 RC
2 LJ
2 LW
N
244.5 100 M
244.5 93 L
S
GR
GS
0 0 1 RC
2 LJ
2 LW
N
244 92.5 M
251 92.5 L
S
GR
GS
0 0 1 RC
2 LJ
2 LW
N
247.5 96 M
247.5 89 L
S
GR
GS
0 0 1 RC
2 LJ
2 LW
N
246 89.5 M
253 89.5 L
S
GR
GS
0 0 1 RC
2 LJ
2 LW
N
249.5 93 M
249.5 86 L
S
GR
GS
0 0 1 RC
2 LJ
2 LW
N
254 85.5 M
261 85.5 L
S
GR
GS
0 0 1 RC
2 LJ
2 LW
N
257.5 89 M
257.5 82 L
S
GR
GS
0 0 1 RC
2 LJ
2 LW
N
259 82.5 M
266 82.5 L
S
GR
GS
0 0 1 RC
2 LJ
2 LW
N
262.5 86 M
262.5 79 L
S
GR
GS
0 0 1 RC
2 LJ
2 LW
N
260 79.5 M
267 79.5 L
S
GR
GS
0 0 1 RC
2 LJ
2 LW
N
263.5 83 M
263.5 76 L
S
GR
GS
0 0 1 RC
2 LJ
2 LW
N
266 75.5 M
273 75.5 L
S
GR
GS
0 0 1 RC
2 LJ
2 LW
N
269.5 79 M
269.5 72 L
S
GR
GS
0 0 1 RC
2 LJ
2 LW
N
270 72.5 M
277 72.5 L
S
GR
GS
0 0 1 RC
2 LJ
2 LW
N
273.5 76 M
273.5 69 L
S
GR
GS
0 0 1 RC
2 LJ
2 LW
N
272 68.5 M
279 68.5 L
S
GR
GS
0 0 1 RC
2 LJ
2 LW
N
275.5 72 M
275.5 65 L
S
GR
GS
0 0 1 RC
2 LJ
2 LW
N
274 65.5 M
281 65.5 L
S
GR
GS
0 0 1 RC
2 LJ
2 LW
N
277.5 69 M
277.5 62 L
S
GR
GS
0 0 1 RC
2 LJ
2 LW
N
281 61.5 M
288 61.5 L
S
GR
GS
0 0 1 RC
2 LJ
2 LW
N
284.5 65 M
284.5 58 L
S
GR
GS
0 0 1 RC
2 LJ
2 LW
N
282 58.5 M
289 58.5 L
S
GR
GS
0 0 1 RC
2 LJ
2 LW
N
285.5 62 M
285.5 55 L
S
GR
GS
0 0 1 RC
2 LJ
2 LW
N
287 55.5 M
294 55.5 L
S
GR
GS
0 0 1 RC
2 LJ
2 LW
N
290.5 59 M
290.5 52 L
S
GR
GS
0 0 1 RC
2 LJ
2 LW
N
290 51.5 M
297 51.5 L
S
GR
GS
0 0 1 RC
2 LJ
2 LW
N
293.5 55 M
293.5 48 L
S
GR
GS
0 0 1 RC
2 LJ
2 LW
N
293 48.5 M
300 48.5 L
S
GR
GS
0 0 1 RC
2 LJ
2 LW
N
296.5 52 M
296.5 45 L
S
GR
GS
0 0 1 RC
2 LJ
2 LW
N
301 44.5 M
308 44.5 L
S
GR
GS
0 0 1 RC
2 LJ
2 LW
N
304.5 48 M
304.5 41 L
S
GR
GS
0 0 1 RC
2 LJ
2 LW
N
341 41.5 M
348 41.5 L
S
GR
GS
0 0 1 RC
2 LJ
2 LW
N
344.5 45 M
344.5 38 L
S
GR
GS
0 0 1 RC
2 LJ
2 LW
N
341 37.5 M
348 37.5 L
S
GR
GS
0 0 1 RC
2 LJ
2 LW
N
344.5 41 M
344.5 34 L
S
GR
GS
0 0 1 RC
2 LJ
2 LW
N
368 34.5 M
375 34.5 L
S
GR
GS
0 0 1 RC
2 LJ
2 LW
N
371.5 38 M
371.5 31 L
S
GR
GS
0 0 1 RC
2 LJ
2 LW
N
388 30.5 M
395 30.5 L
S
GR
GS
0 0 1 RC
2 LJ
2 LW
N
391.5 34 M
391.5 27 L
S
GR
GS
0 1 1 RC
[8 8] 0 setdash
2 LJ
2 LW
N
119.075 374 M
119.075 370.57 L
119.956 367.14 L
122.222 363.71 L
127.25 360.28 L
127.304 329.41 L
141.258 325.98 L
142.615 322.55 L
144.079 319.12 L
151.475 315.69 L
152.08 312.26 L
153.308 308.83 L
154.543 305.4 L
154.902 301.97 L
157.017 298.54 L
157.356 295.11 L
157.356 291.68 L
163.111 288.25 L
175.41 284.82 L
176.011 281.39 L
181.554 277.96 L
181.554 267.67 L
181.567 264.24 L
194.946 260.81 L
200.466 257.38 L
201.212 253.95 L
208.698 250.52 L
208.71 247.09 L
208.711 243.66 L
208.72 240.23 L
211.137 236.8 L
220.201 233.37 L
221.237 229.94 L
221.432 226.51 L
221.733 223.08 L
225.356 219.65 L
227.015 216.22 L
227.505 212.79 L
234.136 209.36 L
235.832 205.93 L
235.833 202.5 L
237.719 199.07 L
238.147 195.64 L
239.373 192.21 L
239.879 188.78 L
242.351 185.35 L
243.013 181.92 L
243.908 178.49 L
244.054 175.06 L
249.913 171.63 L
250.092 168.2 L
250.664 164.77 L
251.6 161.34 L
251.788 157.91 L
261.113 154.48 L
262.902 151.05 L
263.982 147.62 L
265.291 144.19 L
268.62 140.76 L
272.562 137.33 L
282.652 133.9 L
285.766 130.47 L
288.872 127.04 L
289.005 123.61 L
290.13 120.18 L
290.165 116.75 L
290.172 113.32 L
290.185 109.89 L
290.206 106.46 L
292.957 103.03 L
297.891 99.6 L
300.357 96.17 L
304.621 92.74 L
306.407 89.31 L
309.187 85.88 L
317.276 82.45 L
320.622 79.02 L
321.326 75.59 L
326.726 72.16 L
339.842 68.73 L
342.576 65.3 L
343.576 61.87 L
344.429 58.44 L
349.503 55.01 L
353.341 51.58 L
361.291 48.15 L
377.982 44.72 L
385.617 41.29 L
389.987 37.86 L
403.18 34.43 L
411.112 31 L
S
GR
GS
0 1 1 RC
2 setlinecap
10.0 ML
2 LW
N
122.5 373.5 M
121.621 371.379 L
119.5 370.5 L
117.379 371.379 L
116.5 373.5 L
117.379 375.621 L
119.5 376.5 L
121.621 375.621 L
122.5 373.5 L
S
GR
GS
0 1 1 RC
2 setlinecap
10.0 ML
2 LW
N
122.5 370.5 M
121.621 368.379 L
119.5 367.5 L
117.379 368.379 L
116.5 370.5 L
117.379 372.621 L
119.5 373.5 L
121.621 372.621 L
122.5 370.5 L
S
GR
GS
0 1 1 RC
2 setlinecap
10.0 ML
2 LW
N
122.5 367.5 M
121.621 365.379 L
119.5 364.5 L
117.379 365.379 L
116.5 367.5 L
117.379 369.621 L
119.5 370.5 L
121.621 369.621 L
122.5 367.5 L
S
GR
GS
0 1 1 RC
2 setlinecap
10.0 ML
2 LW
N
125.5 363.5 M
124.621 361.379 L
122.5 360.5 L
120.379 361.379 L
119.5 363.5 L
120.379 365.621 L
122.5 366.5 L
124.621 365.621 L
125.5 363.5 L
S
GR
GS
0 1 1 RC
2 setlinecap
10.0 ML
2 LW
N
130.5 360.5 M
129.621 358.379 L
127.5 357.5 L
125.379 358.379 L
124.5 360.5 L
125.379 362.621 L
127.5 363.5 L
129.621 362.621 L
130.5 360.5 L
S
GR
GS
0 1 1 RC
2 setlinecap
10.0 ML
2 LW
N
130.5 329.5 M
129.621 327.379 L
127.5 326.5 L
125.379 327.379 L
124.5 329.5 L
125.379 331.621 L
127.5 332.5 L
129.621 331.621 L
130.5 329.5 L
S
GR
GS
0 1 1 RC
2 setlinecap
10.0 ML
2 LW
N
144.5 325.5 M
143.621 323.379 L
141.5 322.5 L
139.379 323.379 L
138.5 325.5 L
139.379 327.621 L
141.5 328.5 L
143.621 327.621 L
144.5 325.5 L
S
GR
GS
0 1 1 RC
2 setlinecap
10.0 ML
2 LW
N
145.5 322.5 M
144.621 320.379 L
142.5 319.5 L
140.379 320.379 L
139.5 322.5 L
140.379 324.621 L
142.5 325.5 L
144.621 324.621 L
145.5 322.5 L
S
GR
GS
0 1 1 RC
2 setlinecap
10.0 ML
2 LW
N
147.5 319.5 M
146.621 317.379 L
144.5 316.5 L
142.379 317.379 L
141.5 319.5 L
142.379 321.621 L
144.5 322.5 L
146.621 321.621 L
147.5 319.5 L
S
GR
GS
0 1 1 RC
2 setlinecap
10.0 ML
2 LW
N
154.5 315.5 M
153.621 313.379 L
151.5 312.5 L
149.379 313.379 L
148.5 315.5 L
149.379 317.621 L
151.5 318.5 L
153.621 317.621 L
154.5 315.5 L
S
GR
GS
0 1 1 RC
2 setlinecap
10.0 ML
2 LW
N
155.5 312.5 M
154.621 310.379 L
152.5 309.5 L
150.379 310.379 L
149.5 312.5 L
150.379 314.621 L
152.5 315.5 L
154.621 314.621 L
155.5 312.5 L
S
GR
GS
0 1 1 RC
2 setlinecap
10.0 ML
2 LW
N
156.5 308.5 M
155.621 306.379 L
153.5 305.5 L
151.379 306.379 L
150.5 308.5 L
151.379 310.621 L
153.5 311.5 L
155.621 310.621 L
156.5 308.5 L
S
GR
GS
0 1 1 RC
2 setlinecap
10.0 ML
2 LW
N
157.5 305.5 M
156.621 303.379 L
154.5 302.5 L
152.379 303.379 L
151.5 305.5 L
152.379 307.621 L
154.5 308.5 L
156.621 307.621 L
157.5 305.5 L
S
GR
GS
0 1 1 RC
2 setlinecap
10.0 ML
2 LW
N
157.5 301.5 M
156.621 299.379 L
154.5 298.5 L
152.379 299.379 L
151.5 301.5 L
152.379 303.621 L
154.5 304.5 L
156.621 303.621 L
157.5 301.5 L
S
GR
GS
0 1 1 RC
2 setlinecap
10.0 ML
2 LW
N
160.5 298.5 M
159.621 296.379 L
157.5 295.5 L
155.379 296.379 L
154.5 298.5 L
155.379 300.621 L
157.5 301.5 L
159.621 300.621 L
160.5 298.5 L
S
GR
GS
0 1 1 RC
2 setlinecap
10.0 ML
2 LW
N
160.5 295.5 M
159.621 293.379 L
157.5 292.5 L
155.379 293.379 L
154.5 295.5 L
155.379 297.621 L
157.5 298.5 L
159.621 297.621 L
160.5 295.5 L
S
GR
GS
0 1 1 RC
2 setlinecap
10.0 ML
2 LW
N
160.5 291.5 M
159.621 289.379 L
157.5 288.5 L
155.379 289.379 L
154.5 291.5 L
155.379 293.621 L
157.5 294.5 L
159.621 293.621 L
160.5 291.5 L
S
GR
GS
0 1 1 RC
2 setlinecap
10.0 ML
2 LW
N
166.5 288.5 M
165.621 286.379 L
163.5 285.5 L
161.379 286.379 L
160.5 288.5 L
161.379 290.621 L
163.5 291.5 L
165.621 290.621 L
166.5 288.5 L
S
GR
GS
0 1 1 RC
2 setlinecap
10.0 ML
2 LW
N
178.5 284.5 M
177.621 282.379 L
175.5 281.5 L
173.379 282.379 L
172.5 284.5 L
173.379 286.621 L
175.5 287.5 L
177.621 286.621 L
178.5 284.5 L
S
GR
GS
0 1 1 RC
2 setlinecap
10.0 ML
2 LW
N
179.5 281.5 M
178.621 279.379 L
176.5 278.5 L
174.379 279.379 L
173.5 281.5 L
174.379 283.621 L
176.5 284.5 L
178.621 283.621 L
179.5 281.5 L
S
GR
GS
0 1 1 RC
2 setlinecap
10.0 ML
2 LW
N
184.5 277.5 M
183.621 275.379 L
181.5 274.5 L
179.379 275.379 L
178.5 277.5 L
179.379 279.621 L
181.5 280.5 L
183.621 279.621 L
184.5 277.5 L
S
GR
GS
0 1 1 RC
2 setlinecap
10.0 ML
2 LW
N
184.5 267.5 M
183.621 265.379 L
181.5 264.5 L
179.379 265.379 L
178.5 267.5 L
179.379 269.621 L
181.5 270.5 L
183.621 269.621 L
184.5 267.5 L
S
GR
GS
0 1 1 RC
2 setlinecap
10.0 ML
2 LW
N
184.5 264.5 M
183.621 262.379 L
181.5 261.5 L
179.379 262.379 L
178.5 264.5 L
179.379 266.621 L
181.5 267.5 L
183.621 266.621 L
184.5 264.5 L
S
GR
GS
0 1 1 RC
2 setlinecap
10.0 ML
2 LW
N
197.5 260.5 M
196.621 258.379 L
194.5 257.5 L
192.379 258.379 L
191.5 260.5 L
192.379 262.621 L
194.5 263.5 L
196.621 262.621 L
197.5 260.5 L
S
GR
GS
0 1 1 RC
2 setlinecap
10.0 ML
2 LW
N
203.5 257.5 M
202.621 255.379 L
200.5 254.5 L
198.379 255.379 L
197.5 257.5 L
198.379 259.621 L
200.5 260.5 L
202.621 259.621 L
203.5 257.5 L
S
GR
GS
0 1 1 RC
2 setlinecap
10.0 ML
2 LW
N
204.5 253.5 M
203.621 251.379 L
201.5 250.5 L
199.379 251.379 L
198.5 253.5 L
199.379 255.621 L
201.5 256.5 L
203.621 255.621 L
204.5 253.5 L
S
GR
GS
0 1 1 RC
2 setlinecap
10.0 ML
2 LW
N
211.5 250.5 M
210.621 248.379 L
208.5 247.5 L
206.379 248.379 L
205.5 250.5 L
206.379 252.621 L
208.5 253.5 L
210.621 252.621 L
211.5 250.5 L
S
GR
GS
0 1 1 RC
2 setlinecap
10.0 ML
2 LW
N
211.5 247.5 M
210.621 245.379 L
208.5 244.5 L
206.379 245.379 L
205.5 247.5 L
206.379 249.621 L
208.5 250.5 L
210.621 249.621 L
211.5 247.5 L
S
GR
GS
0 1 1 RC
2 setlinecap
10.0 ML
2 LW
N
211.5 243.5 M
210.621 241.379 L
208.5 240.5 L
206.379 241.379 L
205.5 243.5 L
206.379 245.621 L
208.5 246.5 L
210.621 245.621 L
211.5 243.5 L
S
GR
GS
0 1 1 RC
2 setlinecap
10.0 ML
2 LW
N
211.5 240.5 M
210.621 238.379 L
208.5 237.5 L
206.379 238.379 L
205.5 240.5 L
206.379 242.621 L
208.5 243.5 L
210.621 242.621 L
211.5 240.5 L
S
GR
GS
0 1 1 RC
2 setlinecap
10.0 ML
2 LW
N
214.5 236.5 M
213.621 234.379 L
211.5 233.5 L
209.379 234.379 L
208.5 236.5 L
209.379 238.621 L
211.5 239.5 L
213.621 238.621 L
214.5 236.5 L
S
GR
GS
0 1 1 RC
2 setlinecap
10.0 ML
2 LW
N
223.5 233.5 M
222.621 231.379 L
220.5 230.5 L
218.379 231.379 L
217.5 233.5 L
218.379 235.621 L
220.5 236.5 L
222.621 235.621 L
223.5 233.5 L
S
GR
GS
0 1 1 RC
2 setlinecap
10.0 ML
2 LW
N
224.5 229.5 M
223.621 227.379 L
221.5 226.5 L
219.379 227.379 L
218.5 229.5 L
219.379 231.621 L
221.5 232.5 L
223.621 231.621 L
224.5 229.5 L
S
GR
GS
0 1 1 RC
2 setlinecap
10.0 ML
2 LW
N
224.5 226.5 M
223.621 224.379 L
221.5 223.5 L
219.379 224.379 L
218.5 226.5 L
219.379 228.621 L
221.5 229.5 L
223.621 228.621 L
224.5 226.5 L
S
GR
GS
0 1 1 RC
2 setlinecap
10.0 ML
2 LW
N
224.5 223.5 M
223.621 221.379 L
221.5 220.5 L
219.379 221.379 L
218.5 223.5 L
219.379 225.621 L
221.5 226.5 L
223.621 225.621 L
224.5 223.5 L
S
GR
GS
0 1 1 RC
2 setlinecap
10.0 ML
2 LW
N
228.5 219.5 M
227.621 217.379 L
225.5 216.5 L
223.379 217.379 L
222.5 219.5 L
223.379 221.621 L
225.5 222.5 L
227.621 221.621 L
228.5 219.5 L
S
GR
GS
0 1 1 RC
2 setlinecap
10.0 ML
2 LW
N
230.5 216.5 M
229.621 214.379 L
227.5 213.5 L
225.379 214.379 L
224.5 216.5 L
225.379 218.621 L
227.5 219.5 L
229.621 218.621 L
230.5 216.5 L
S
GR
GS
0 1 1 RC
2 setlinecap
10.0 ML
2 LW
N
230.5 212.5 M
229.621 210.379 L
227.5 209.5 L
225.379 210.379 L
224.5 212.5 L
225.379 214.621 L
227.5 215.5 L
229.621 214.621 L
230.5 212.5 L
S
GR
GS
0 1 1 RC
2 setlinecap
10.0 ML
2 LW
N
237.5 209.5 M
236.621 207.379 L
234.5 206.5 L
232.379 207.379 L
231.5 209.5 L
232.379 211.621 L
234.5 212.5 L
236.621 211.621 L
237.5 209.5 L
S
GR
GS
0 1 1 RC
2 setlinecap
10.0 ML
2 LW
N
238.5 205.5 M
237.621 203.379 L
235.5 202.5 L
233.379 203.379 L
232.5 205.5 L
233.379 207.621 L
235.5 208.5 L
237.621 207.621 L
238.5 205.5 L
S
GR
GS
0 1 1 RC
2 setlinecap
10.0 ML
2 LW
N
238.5 202.5 M
237.621 200.379 L
235.5 199.5 L
233.379 200.379 L
232.5 202.5 L
233.379 204.621 L
235.5 205.5 L
237.621 204.621 L
238.5 202.5 L
S
GR
GS
0 1 1 RC
2 setlinecap
10.0 ML
2 LW
N
240.5 199.5 M
239.621 197.379 L
237.5 196.5 L
235.379 197.379 L
234.5 199.5 L
235.379 201.621 L
237.5 202.5 L
239.621 201.621 L
240.5 199.5 L
S
GR
GS
0 1 1 RC
2 setlinecap
10.0 ML
2 LW
N
241.5 195.5 M
240.621 193.379 L
238.5 192.5 L
236.379 193.379 L
235.5 195.5 L
236.379 197.621 L
238.5 198.5 L
240.621 197.621 L
241.5 195.5 L
S
GR
GS
0 1 1 RC
2 setlinecap
10.0 ML
2 LW
N
242.5 192.5 M
241.621 190.379 L
239.5 189.5 L
237.379 190.379 L
236.5 192.5 L
237.379 194.621 L
239.5 195.5 L
241.621 194.621 L
242.5 192.5 L
S
GR
GS
0 1 1 RC
2 setlinecap
10.0 ML
2 LW
N
242.5 188.5 M
241.621 186.379 L
239.5 185.5 L
237.379 186.379 L
236.5 188.5 L
237.379 190.621 L
239.5 191.5 L
241.621 190.621 L
242.5 188.5 L
S
GR
GS
0 1 1 RC
2 setlinecap
10.0 ML
2 LW
N
245.5 185.5 M
244.621 183.379 L
242.5 182.5 L
240.379 183.379 L
239.5 185.5 L
240.379 187.621 L
242.5 188.5 L
244.621 187.621 L
245.5 185.5 L
S
GR
GS
0 1 1 RC
2 setlinecap
10.0 ML
2 LW
N
246.5 181.5 M
245.621 179.379 L
243.5 178.5 L
241.379 179.379 L
240.5 181.5 L
241.379 183.621 L
243.5 184.5 L
245.621 183.621 L
246.5 181.5 L
S
GR
GS
0 1 1 RC
2 setlinecap
10.0 ML
2 LW
N
246.5 178.5 M
245.621 176.379 L
243.5 175.5 L
241.379 176.379 L
240.5 178.5 L
241.379 180.621 L
243.5 181.5 L
245.621 180.621 L
246.5 178.5 L
S
GR
GS
0 1 1 RC
2 setlinecap
10.0 ML
2 LW
N
247.5 175.5 M
246.621 173.379 L
244.5 172.5 L
242.379 173.379 L
241.5 175.5 L
242.379 177.621 L
244.5 178.5 L
246.621 177.621 L
247.5 175.5 L
S
GR
GS
0 1 1 RC
2 setlinecap
10.0 ML
2 LW
N
252.5 171.5 M
251.621 169.379 L
249.5 168.5 L
247.379 169.379 L
246.5 171.5 L
247.379 173.621 L
249.5 174.5 L
251.621 173.621 L
252.5 171.5 L
S
GR
GS
0 1 1 RC
2 setlinecap
10.0 ML
2 LW
N
253.5 168.5 M
252.621 166.379 L
250.5 165.5 L
248.379 166.379 L
247.5 168.5 L
248.379 170.621 L
250.5 171.5 L
252.621 170.621 L
253.5 168.5 L
S
GR
GS
0 1 1 RC
2 setlinecap
10.0 ML
2 LW
N
253.5 164.5 M
252.621 162.379 L
250.5 161.5 L
248.379 162.379 L
247.5 164.5 L
248.379 166.621 L
250.5 167.5 L
252.621 166.621 L
253.5 164.5 L
S
GR
GS
0 1 1 RC
2 setlinecap
10.0 ML
2 LW
N
254.5 161.5 M
253.621 159.379 L
251.5 158.5 L
249.379 159.379 L
248.5 161.5 L
249.379 163.621 L
251.5 164.5 L
253.621 163.621 L
254.5 161.5 L
S
GR
GS
0 1 1 RC
2 setlinecap
10.0 ML
2 LW
N
254.5 157.5 M
253.621 155.379 L
251.5 154.5 L
249.379 155.379 L
248.5 157.5 L
249.379 159.621 L
251.5 160.5 L
253.621 159.621 L
254.5 157.5 L
S
GR
GS
0 1 1 RC
2 setlinecap
10.0 ML
2 LW
N
264.5 154.5 M
263.621 152.379 L
261.5 151.5 L
259.379 152.379 L
258.5 154.5 L
259.379 156.621 L
261.5 157.5 L
263.621 156.621 L
264.5 154.5 L
S
GR
GS
0 1 1 RC
2 setlinecap
10.0 ML
2 LW
N
265.5 151.5 M
264.621 149.379 L
262.5 148.5 L
260.379 149.379 L
259.5 151.5 L
260.379 153.621 L
262.5 154.5 L
264.621 153.621 L
265.5 151.5 L
S
GR
GS
0 1 1 RC
2 setlinecap
10.0 ML
2 LW
N
266.5 147.5 M
265.621 145.379 L
263.5 144.5 L
261.379 145.379 L
260.5 147.5 L
261.379 149.621 L
263.5 150.5 L
265.621 149.621 L
266.5 147.5 L
S
GR
GS
0 1 1 RC
2 setlinecap
10.0 ML
2 LW
N
268.5 144.5 M
267.621 142.379 L
265.5 141.5 L
263.379 142.379 L
262.5 144.5 L
263.379 146.621 L
265.5 147.5 L
267.621 146.621 L
268.5 144.5 L
S
GR
GS
0 1 1 RC
2 setlinecap
10.0 ML
2 LW
N
271.5 140.5 M
270.621 138.379 L
268.5 137.5 L
266.379 138.379 L
265.5 140.5 L
266.379 142.621 L
268.5 143.5 L
270.621 142.621 L
271.5 140.5 L
S
GR
GS
0 1 1 RC
2 setlinecap
10.0 ML
2 LW
N
275.5 137.5 M
274.621 135.379 L
272.5 134.5 L
270.379 135.379 L
269.5 137.5 L
270.379 139.621 L
272.5 140.5 L
274.621 139.621 L
275.5 137.5 L
S
GR
GS
0 1 1 RC
2 setlinecap
10.0 ML
2 LW
N
285.5 133.5 M
284.621 131.379 L
282.5 130.5 L
280.379 131.379 L
279.5 133.5 L
280.379 135.621 L
282.5 136.5 L
284.621 135.621 L
285.5 133.5 L
S
GR
GS
0 1 1 RC
2 setlinecap
10.0 ML
2 LW
N
288.5 130.5 M
287.621 128.379 L
285.5 127.5 L
283.379 128.379 L
282.5 130.5 L
283.379 132.621 L
285.5 133.5 L
287.621 132.621 L
288.5 130.5 L
S
GR
GS
0 1 1 RC
2 setlinecap
10.0 ML
2 LW
N
291.5 127.5 M
290.621 125.379 L
288.5 124.5 L
286.379 125.379 L
285.5 127.5 L
286.379 129.621 L
288.5 130.5 L
290.621 129.621 L
291.5 127.5 L
S
GR
GS
0 1 1 RC
2 setlinecap
10.0 ML
2 LW
N
292.5 123.5 M
291.621 121.379 L
289.5 120.5 L
287.379 121.379 L
286.5 123.5 L
287.379 125.621 L
289.5 126.5 L
291.621 125.621 L
292.5 123.5 L
S
GR
GS
0 1 1 RC
2 setlinecap
10.0 ML
2 LW
N
293.5 120.5 M
292.621 118.379 L
290.5 117.5 L
288.379 118.379 L
287.5 120.5 L
288.379 122.621 L
290.5 123.5 L
292.621 122.621 L
293.5 120.5 L
S
GR
GS
0 1 1 RC
2 setlinecap
10.0 ML
2 LW
N
293.5 116.5 M
292.621 114.379 L
290.5 113.5 L
288.379 114.379 L
287.5 116.5 L
288.379 118.621 L
290.5 119.5 L
292.621 118.621 L
293.5 116.5 L
S
GR
GS
0 1 1 RC
2 setlinecap
10.0 ML
2 LW
N
293.5 113.5 M
292.621 111.379 L
290.5 110.5 L
288.379 111.379 L
287.5 113.5 L
288.379 115.621 L
290.5 116.5 L
292.621 115.621 L
293.5 113.5 L
S
GR
GS
0 1 1 RC
2 setlinecap
10.0 ML
2 LW
N
293.5 109.5 M
292.621 107.379 L
290.5 106.5 L
288.379 107.379 L
287.5 109.5 L
288.379 111.621 L
290.5 112.5 L
292.621 111.621 L
293.5 109.5 L
S
GR
GS
0 1 1 RC
2 setlinecap
10.0 ML
2 LW
N
293.5 106.5 M
292.621 104.379 L
290.5 103.5 L
288.379 104.379 L
287.5 106.5 L
288.379 108.621 L
290.5 109.5 L
292.621 108.621 L
293.5 106.5 L
S
GR
GS
0 1 1 RC
2 setlinecap
10.0 ML
2 LW
N
295.5 103.5 M
294.621 101.379 L
292.5 100.5 L
290.379 101.379 L
289.5 103.5 L
290.379 105.621 L
292.5 106.5 L
294.621 105.621 L
295.5 103.5 L
S
GR
GS
0 1 1 RC
2 setlinecap
10.0 ML
2 LW
N
300.5 99.5 M
299.621 97.379 L
297.5 96.5 L
295.379 97.379 L
294.5 99.5 L
295.379 101.621 L
297.5 102.5 L
299.621 101.621 L
300.5 99.5 L
S
GR
GS
0 1 1 RC
2 setlinecap
10.0 ML
2 LW
N
303.5 96.5 M
302.621 94.379 L
300.5 93.5 L
298.379 94.379 L
297.5 96.5 L
298.379 98.621 L
300.5 99.5 L
302.621 98.621 L
303.5 96.5 L
S
GR
GS
0 1 1 RC
2 setlinecap
10.0 ML
2 LW
N
307.5 92.5 M
306.621 90.379 L
304.5 89.5 L
302.379 90.379 L
301.5 92.5 L
302.379 94.621 L
304.5 95.5 L
306.621 94.621 L
307.5 92.5 L
S
GR
GS
0 1 1 RC
2 setlinecap
10.0 ML
2 LW
N
309.5 89.5 M
308.621 87.379 L
306.5 86.5 L
304.379 87.379 L
303.5 89.5 L
304.379 91.621 L
306.5 92.5 L
308.621 91.621 L
309.5 89.5 L
S
GR
GS
0 1 1 RC
2 setlinecap
10.0 ML
2 LW
N
312.5 85.5 M
311.621 83.379 L
309.5 82.5 L
307.379 83.379 L
306.5 85.5 L
307.379 87.621 L
309.5 88.5 L
311.621 87.621 L
312.5 85.5 L
S
GR
GS
0 1 1 RC
2 setlinecap
10.0 ML
2 LW
N
320.5 82.5 M
319.621 80.379 L
317.5 79.5 L
315.379 80.379 L
314.5 82.5 L
315.379 84.621 L
317.5 85.5 L
319.621 84.621 L
320.5 82.5 L
S
GR
GS
0 1 1 RC
2 setlinecap
10.0 ML
2 LW
N
323.5 79.5 M
322.621 77.379 L
320.5 76.5 L
318.379 77.379 L
317.5 79.5 L
318.379 81.621 L
320.5 82.5 L
322.621 81.621 L
323.5 79.5 L
S
GR
GS
0 1 1 RC
2 setlinecap
10.0 ML
2 LW
N
324.5 75.5 M
323.621 73.379 L
321.5 72.5 L
319.379 73.379 L
318.5 75.5 L
319.379 77.621 L
321.5 78.5 L
323.621 77.621 L
324.5 75.5 L
S
GR
GS
0 1 1 RC
2 setlinecap
10.0 ML
2 LW
N
329.5 72.5 M
328.621 70.379 L
326.5 69.5 L
324.379 70.379 L
323.5 72.5 L
324.379 74.621 L
326.5 75.5 L
328.621 74.621 L
329.5 72.5 L
S
GR
GS
0 1 1 RC
2 setlinecap
10.0 ML
2 LW
N
342.5 68.5 M
341.621 66.379 L
339.5 65.5 L
337.379 66.379 L
336.5 68.5 L
337.379 70.621 L
339.5 71.5 L
341.621 70.621 L
342.5 68.5 L
S
GR
GS
0 1 1 RC
2 setlinecap
10.0 ML
2 LW
N
345.5 65.5 M
344.621 63.379 L
342.5 62.5 L
340.379 63.379 L
339.5 65.5 L
340.379 67.621 L
342.5 68.5 L
344.621 67.621 L
345.5 65.5 L
S
GR
GS
0 1 1 RC
2 setlinecap
10.0 ML
2 LW
N
346.5 61.5 M
345.621 59.379 L
343.5 58.5 L
341.379 59.379 L
340.5 61.5 L
341.379 63.621 L
343.5 64.5 L
345.621 63.621 L
346.5 61.5 L
S
GR
GS
0 1 1 RC
2 setlinecap
10.0 ML
2 LW
N
347.5 58.5 M
346.621 56.379 L
344.5 55.5 L
342.379 56.379 L
341.5 58.5 L
342.379 60.621 L
344.5 61.5 L
346.621 60.621 L
347.5 58.5 L
S
GR
GS
0 1 1 RC
2 setlinecap
10.0 ML
2 LW
N
352.5 55.5 M
351.621 53.379 L
349.5 52.5 L
347.379 53.379 L
346.5 55.5 L
347.379 57.621 L
349.5 58.5 L
351.621 57.621 L
352.5 55.5 L
S
GR
GS
0 1 1 RC
2 setlinecap
10.0 ML
2 LW
N
356.5 51.5 M
355.621 49.379 L
353.5 48.5 L
351.379 49.379 L
350.5 51.5 L
351.379 53.621 L
353.5 54.5 L
355.621 53.621 L
356.5 51.5 L
S
GR
GS
0 1 1 RC
2 setlinecap
10.0 ML
2 LW
N
364.5 48.5 M
363.621 46.379 L
361.5 45.5 L
359.379 46.379 L
358.5 48.5 L
359.379 50.621 L
361.5 51.5 L
363.621 50.621 L
364.5 48.5 L
S
GR
GS
0 1 1 RC
2 setlinecap
10.0 ML
2 LW
N
380.5 44.5 M
379.621 42.379 L
377.5 41.5 L
375.379 42.379 L
374.5 44.5 L
375.379 46.621 L
377.5 47.5 L
379.621 46.621 L
380.5 44.5 L
S
GR
GS
0 1 1 RC
2 setlinecap
10.0 ML
2 LW
N
388.5 41.5 M
387.621 39.379 L
385.5 38.5 L
383.379 39.379 L
382.5 41.5 L
383.379 43.621 L
385.5 44.5 L
387.621 43.621 L
388.5 41.5 L
S
GR
GS
0 1 1 RC
2 setlinecap
10.0 ML
2 LW
N
392.5 37.5 M
391.621 35.379 L
389.5 34.5 L
387.379 35.379 L
386.5 37.5 L
387.379 39.621 L
389.5 40.5 L
391.621 39.621 L
392.5 37.5 L
S
GR
GS
0 1 1 RC
2 setlinecap
10.0 ML
2 LW
N
406.5 34.5 M
405.621 32.379 L
403.5 31.5 L
401.379 32.379 L
400.5 34.5 L
401.379 36.621 L
403.5 37.5 L
405.621 36.621 L
406.5 34.5 L
S
GR
GS
0 1 1 RC
2 setlinecap
10.0 ML
2 LW
N
414.5 30.5 M
413.621 28.379 L
411.5 27.5 L
409.379 28.379 L
408.5 30.5 L
409.379 32.621 L
411.5 33.5 L
413.621 32.621 L
414.5 30.5 L
S
GR
GS
1 1 0 RC
2 setlinecap
10.0 ML
2 LW
N
73 374 M
73 367.14 L
120.36 363.71 L
127.304 325.98 L
137.85 322.55 L
142.955 319.12 L
144.053 315.69 L
152.104 312.26 L
157.053 308.83 L
157.791 305.4 L
158.414 301.97 L
161.734 298.54 L
163.674 295.11 L
164.859 291.68 L
166.338 288.25 L
168.184 284.82 L
175.987 281.39 L
181.5 277.96 L
181.554 271.1 L
181.609 264.24 L
192.703 260.81 L
192.812 257.38 L
194.26 253.95 L
195.418 250.52 L
208.709 247.09 L
208.722 243.66 L
208.734 240.23 L
208.741 236.8 L
213.286 233.37 L
223.63 229.94 L
225.884 226.51 L
226.94 223.08 L
235.913 219.65 L
239.246 216.22 L
242.965 212.79 L
249.792 209.36 L
252.588 205.93 L
252.808 202.5 L
255.322 199.07 L
256.713 195.64 L
256.803 192.21 L
259.847 188.78 L
261.776 185.35 L
265.398 181.92 L
268.19 178.49 L
278.999 175.06 L
280.012 171.63 L
281.988 168.2 L
284.299 164.77 L
285.015 161.34 L
S
GR
GS
1 1 0 RC
2 setlinecap
10.0 ML
2 LW
N
285.015 161.34 M
288.329 157.91 L
289.854 154.48 L
290.165 151.05 L
293.492 147.62 L
296.291 144.19 L
297.153 140.76 L
297.976 137.33 L
300.223 133.9 L
301.045 130.47 L
303.15 127.04 L
306.315 123.61 L
310.203 120.18 L
316.3 116.75 L
328.681 113.32 L
330.247 109.89 L
332.535 106.46 L
334.864 103.03 L
339.857 99.6 L
344.487 96.17 L
344.491 92.74 L
347.889 89.31 L
349.558 85.88 L
354.727 82.45 L
364.948 79.02 L
369.44 75.59 L
371.723 72.16 L
377.816 68.73 L
382.432 65.3 L
408.296 61.87 L
410.892 58.44 L
419.853 55.01 L
434.824 51.58 L
436.153 48.15 L
439.165 44.72 L
449.176 41.29 L
450.191 37.86 L
457.926 34.43 L
498.079 31 L
S
GR
GS
1 1 0 RC
2 setlinecap
10.0 ML
2 LW
N
70 373.5 M
77 373.5 L
S
GR
GS
1 1 0 RC
2 setlinecap
10.0 ML
2 LW
N
73.5 377 M
73.5 370 L
S
GR
GS
1 1 0 RC
2 setlinecap
10.0 ML
2 LW
N
71 376 M
76 371 L
S
GR
GS
1 1 0 RC
2 setlinecap
10.0 ML
2 LW
N
71 371 M
76 376 L
S
GR
GS
1 1 0 RC
2 setlinecap
10.0 ML
2 LW
N
70 367.5 M
77 367.5 L
S
GR
GS
1 1 0 RC
2 setlinecap
10.0 ML
2 LW
N
73.5 371 M
73.5 364 L
S
GR
GS
1 1 0 RC
2 setlinecap
10.0 ML
2 LW
N
71 370 M
76 365 L
S
GR
GS
1 1 0 RC
2 setlinecap
10.0 ML
2 LW
N
71 365 M
76 370 L
S
GR
GS
1 1 0 RC
2 setlinecap
10.0 ML
2 LW
N
117 363.5 M
124 363.5 L
S
GR
GS
1 1 0 RC
2 setlinecap
10.0 ML
2 LW
N
120.5 367 M
120.5 360 L
S
GR
GS
1 1 0 RC
2 setlinecap
10.0 ML
2 LW
N
118 366 M
123 361 L
S
GR
GS
1 1 0 RC
2 setlinecap
10.0 ML
2 LW
N
118 361 M
123 366 L
S
GR
GS
1 1 0 RC
2 setlinecap
10.0 ML
2 LW
N
124 325.5 M
131 325.5 L
S
GR
GS
1 1 0 RC
2 setlinecap
10.0 ML
2 LW
N
127.5 329 M
127.5 322 L
S
GR
GS
1 1 0 RC
2 setlinecap
10.0 ML
2 LW
N
125 328 M
130 323 L
S
GR
GS
1 1 0 RC
2 setlinecap
10.0 ML
2 LW
N
125 323 M
130 328 L
S
GR
GS
1 1 0 RC
2 setlinecap
10.0 ML
2 LW
N
134 322.5 M
141 322.5 L
S
GR
GS
1 1 0 RC
2 setlinecap
10.0 ML
2 LW
N
137.5 326 M
137.5 319 L
S
GR
GS
1 1 0 RC
2 setlinecap
10.0 ML
2 LW
N
135 325 M
140 320 L
S
GR
GS
1 1 0 RC
2 setlinecap
10.0 ML
2 LW
N
135 320 M
140 325 L
S
GR
GS
1 1 0 RC
2 setlinecap
10.0 ML
2 LW
N
139 319.5 M
146 319.5 L
S
GR
GS
1 1 0 RC
2 setlinecap
10.0 ML
2 LW
N
142.5 323 M
142.5 316 L
S
GR
GS
1 1 0 RC
2 setlinecap
10.0 ML
2 LW
N
140 322 M
145 317 L
S
GR
GS
1 1 0 RC
2 setlinecap
10.0 ML
2 LW
N
140 317 M
145 322 L
S
GR
GS
1 1 0 RC
2 setlinecap
10.0 ML
2 LW
N
141 315.5 M
148 315.5 L
S
GR
GS
1 1 0 RC
2 setlinecap
10.0 ML
2 LW
N
144.5 319 M
144.5 312 L
S
GR
GS
1 1 0 RC
2 setlinecap
10.0 ML
2 LW
N
142 318 M
147 313 L
S
GR
GS
1 1 0 RC
2 setlinecap
10.0 ML
2 LW
N
142 313 M
147 318 L
S
GR
GS
1 1 0 RC
2 setlinecap
10.0 ML
2 LW
N
149 312.5 M
156 312.5 L
S
GR
GS
1 1 0 RC
2 setlinecap
10.0 ML
2 LW
N
152.5 316 M
152.5 309 L
S
GR
GS
1 1 0 RC
2 setlinecap
10.0 ML
2 LW
N
150 315 M
155 310 L
S
GR
GS
1 1 0 RC
2 setlinecap
10.0 ML
2 LW
N
150 310 M
155 315 L
S
GR
GS
1 1 0 RC
2 setlinecap
10.0 ML
2 LW
N
154 308.5 M
161 308.5 L
S
GR
GS
1 1 0 RC
2 setlinecap
10.0 ML
2 LW
N
157.5 312 M
157.5 305 L
S
GR
GS
1 1 0 RC
2 setlinecap
10.0 ML
2 LW
N
155 311 M
160 306 L
S
GR
GS
1 1 0 RC
2 setlinecap
10.0 ML
2 LW
N
155 306 M
160 311 L
S
GR
GS
1 1 0 RC
2 setlinecap
10.0 ML
2 LW
N
154 305.5 M
161 305.5 L
S
GR
GS
1 1 0 RC
2 setlinecap
10.0 ML
2 LW
N
157.5 309 M
157.5 302 L
S
GR
GS
1 1 0 RC
2 setlinecap
10.0 ML
2 LW
N
155 308 M
160 303 L
S
GR
GS
1 1 0 RC
2 setlinecap
10.0 ML
2 LW
N
155 303 M
160 308 L
S
GR
GS
1 1 0 RC
2 setlinecap
10.0 ML
2 LW
N
155 301.5 M
162 301.5 L
S
GR
GS
1 1 0 RC
2 setlinecap
10.0 ML
2 LW
N
158.5 305 M
158.5 298 L
S
GR
GS
1 1 0 RC
2 setlinecap
10.0 ML
2 LW
N
156 304 M
161 299 L
S
GR
GS
1 1 0 RC
2 setlinecap
10.0 ML
2 LW
N
156 299 M
161 304 L
S
GR
GS
1 1 0 RC
2 setlinecap
10.0 ML
2 LW
N
158 298.5 M
165 298.5 L
S
GR
GS
1 1 0 RC
2 setlinecap
10.0 ML
2 LW
N
161.5 302 M
161.5 295 L
S
GR
GS
1 1 0 RC
2 setlinecap
10.0 ML
2 LW
N
159 301 M
164 296 L
S
GR
GS
1 1 0 RC
2 setlinecap
10.0 ML
2 LW
N
159 296 M
164 301 L
S
GR
GS
1 1 0 RC
2 setlinecap
10.0 ML
2 LW
N
160 295.5 M
167 295.5 L
S
GR
GS
1 1 0 RC
2 setlinecap
10.0 ML
2 LW
N
163.5 299 M
163.5 292 L
S
GR
GS
1 1 0 RC
2 setlinecap
10.0 ML
2 LW
N
161 298 M
166 293 L
S
GR
GS
1 1 0 RC
2 setlinecap
10.0 ML
2 LW
N
161 293 M
166 298 L
S
GR
GS
1 1 0 RC
2 setlinecap
10.0 ML
2 LW
N
161 291.5 M
168 291.5 L
S
GR
GS
1 1 0 RC
2 setlinecap
10.0 ML
2 LW
N
164.5 295 M
164.5 288 L
S
GR
GS
1 1 0 RC
2 setlinecap
10.0 ML
2 LW
N
162 294 M
167 289 L
S
GR
GS
1 1 0 RC
2 setlinecap
10.0 ML
2 LW
N
162 289 M
167 294 L
S
GR
GS
1 1 0 RC
2 setlinecap
10.0 ML
2 LW
N
163 288.5 M
170 288.5 L
S
GR
GS
1 1 0 RC
2 setlinecap
10.0 ML
2 LW
N
166.5 292 M
166.5 285 L
S
GR
GS
1 1 0 RC
2 setlinecap
10.0 ML
2 LW
N
164 291 M
169 286 L
S
GR
GS
1 1 0 RC
2 setlinecap
10.0 ML
2 LW
N
164 286 M
169 291 L
S
GR
GS
1 1 0 RC
2 setlinecap
10.0 ML
2 LW
N
165 284.5 M
172 284.5 L
S
GR
GS
1 1 0 RC
2 setlinecap
10.0 ML
2 LW
N
168.5 288 M
168.5 281 L
S
GR
GS
1 1 0 RC
2 setlinecap
10.0 ML
2 LW
N
166 287 M
171 282 L
S
GR
GS
1 1 0 RC
2 setlinecap
10.0 ML
2 LW
N
166 282 M
171 287 L
S
GR
GS
1 1 0 RC
2 setlinecap
10.0 ML
2 LW
N
172 281.5 M
179 281.5 L
S
GR
GS
1 1 0 RC
2 setlinecap
10.0 ML
2 LW
N
175.5 285 M
175.5 278 L
S
GR
GS
1 1 0 RC
2 setlinecap
10.0 ML
2 LW
N
173 284 M
178 279 L
S
GR
GS
1 1 0 RC
2 setlinecap
10.0 ML
2 LW
N
173 279 M
178 284 L
S
GR
GS
1 1 0 RC
2 setlinecap
10.0 ML
2 LW
N
178 277.5 M
185 277.5 L
S
GR
GS
1 1 0 RC
2 setlinecap
10.0 ML
2 LW
N
181.5 281 M
181.5 274 L
S
GR
GS
1 1 0 RC
2 setlinecap
10.0 ML
2 LW
N
179 280 M
184 275 L
S
GR
GS
1 1 0 RC
2 setlinecap
10.0 ML
2 LW
N
179 275 M
184 280 L
S
GR
GS
1 1 0 RC
2 setlinecap
10.0 ML
2 LW
N
178 271.5 M
185 271.5 L
S
GR
GS
1 1 0 RC
2 setlinecap
10.0 ML
2 LW
N
181.5 275 M
181.5 268 L
S
GR
GS
1 1 0 RC
2 setlinecap
10.0 ML
2 LW
N
179 274 M
184 269 L
S
GR
GS
1 1 0 RC
2 setlinecap
10.0 ML
2 LW
N
179 269 M
184 274 L
S
GR
GS
1 1 0 RC
2 setlinecap
10.0 ML
2 LW
N
178 264.5 M
185 264.5 L
S
GR
GS
1 1 0 RC
2 setlinecap
10.0 ML
2 LW
N
181.5 268 M
181.5 261 L
S
GR
GS
1 1 0 RC
2 setlinecap
10.0 ML
2 LW
N
179 267 M
184 262 L
S
GR
GS
1 1 0 RC
2 setlinecap
10.0 ML
2 LW
N
179 262 M
184 267 L
S
GR
GS
1 1 0 RC
2 setlinecap
10.0 ML
2 LW
N
189 260.5 M
196 260.5 L
S
GR
GS
1 1 0 RC
2 setlinecap
10.0 ML
2 LW
N
192.5 264 M
192.5 257 L
S
GR
GS
1 1 0 RC
2 setlinecap
10.0 ML
2 LW
N
190 263 M
195 258 L
S
GR
GS
1 1 0 RC
2 setlinecap
10.0 ML
2 LW
N
190 258 M
195 263 L
S
GR
GS
1 1 0 RC
2 setlinecap
10.0 ML
2 LW
N
189 257.5 M
196 257.5 L
S
GR
GS
1 1 0 RC
2 setlinecap
10.0 ML
2 LW
N
192.5 261 M
192.5 254 L
S
GR
GS
1 1 0 RC
2 setlinecap
10.0 ML
2 LW
N
190 260 M
195 255 L
S
GR
GS
1 1 0 RC
2 setlinecap
10.0 ML
2 LW
N
190 255 M
195 260 L
S
GR
GS
1 1 0 RC
2 setlinecap
10.0 ML
2 LW
N
191 253.5 M
198 253.5 L
S
GR
GS
1 1 0 RC
2 setlinecap
10.0 ML
2 LW
N
194.5 257 M
194.5 250 L
S
GR
GS
1 1 0 RC
2 setlinecap
10.0 ML
2 LW
N
192 256 M
197 251 L
S
GR
GS
1 1 0 RC
2 setlinecap
10.0 ML
2 LW
N
192 251 M
197 256 L
S
GR
GS
1 1 0 RC
2 setlinecap
10.0 ML
2 LW
N
192 250.5 M
199 250.5 L
S
GR
GS
1 1 0 RC
2 setlinecap
10.0 ML
2 LW
N
195.5 254 M
195.5 247 L
S
GR
GS
1 1 0 RC
2 setlinecap
10.0 ML
2 LW
N
193 253 M
198 248 L
S
GR
GS
1 1 0 RC
2 setlinecap
10.0 ML
2 LW
N
193 248 M
198 253 L
S
GR
GS
1 1 0 RC
2 setlinecap
10.0 ML
2 LW
N
205 247.5 M
212 247.5 L
S
GR
GS
1 1 0 RC
2 setlinecap
10.0 ML
2 LW
N
208.5 251 M
208.5 244 L
S
GR
GS
1 1 0 RC
2 setlinecap
10.0 ML
2 LW
N
206 250 M
211 245 L
S
GR
GS
1 1 0 RC
2 setlinecap
10.0 ML
2 LW
N
206 245 M
211 250 L
S
GR
GS
1 1 0 RC
2 setlinecap
10.0 ML
2 LW
N
205 243.5 M
212 243.5 L
S
GR
GS
1 1 0 RC
2 setlinecap
10.0 ML
2 LW
N
208.5 247 M
208.5 240 L
S
GR
GS
1 1 0 RC
2 setlinecap
10.0 ML
2 LW
N
206 246 M
211 241 L
S
GR
GS
1 1 0 RC
2 setlinecap
10.0 ML
2 LW
N
206 241 M
211 246 L
S
GR
GS
1 1 0 RC
2 setlinecap
10.0 ML
2 LW
N
205 240.5 M
212 240.5 L
S
GR
GS
1 1 0 RC
2 setlinecap
10.0 ML
2 LW
N
208.5 244 M
208.5 237 L
S
GR
GS
1 1 0 RC
2 setlinecap
10.0 ML
2 LW
N
206 243 M
211 238 L
S
GR
GS
1 1 0 RC
2 setlinecap
10.0 ML
2 LW
N
206 238 M
211 243 L
S
GR
GS
1 1 0 RC
2 setlinecap
10.0 ML
2 LW
N
205 236.5 M
212 236.5 L
S
GR
GS
1 1 0 RC
2 setlinecap
10.0 ML
2 LW
N
208.5 240 M
208.5 233 L
S
GR
GS
1 1 0 RC
2 setlinecap
10.0 ML
2 LW
N
206 239 M
211 234 L
S
GR
GS
1 1 0 RC
2 setlinecap
10.0 ML
2 LW
N
206 234 M
211 239 L
S
GR
GS
1 1 0 RC
2 setlinecap
10.0 ML
2 LW
N
210 233.5 M
217 233.5 L
S
GR
GS
1 1 0 RC
2 setlinecap
10.0 ML
2 LW
N
213.5 237 M
213.5 230 L
S
GR
GS
1 1 0 RC
2 setlinecap
10.0 ML
2 LW
N
211 236 M
216 231 L
S
GR
GS
1 1 0 RC
2 setlinecap
10.0 ML
2 LW
N
211 231 M
216 236 L
S
GR
GS
1 1 0 RC
2 setlinecap
10.0 ML
2 LW
N
220 229.5 M
227 229.5 L
S
GR
GS
1 1 0 RC
2 setlinecap
10.0 ML
2 LW
N
223.5 233 M
223.5 226 L
S
GR
GS
1 1 0 RC
2 setlinecap
10.0 ML
2 LW
N
221 232 M
226 227 L
S
GR
GS
1 1 0 RC
2 setlinecap
10.0 ML
2 LW
N
221 227 M
226 232 L
S
GR
GS
1 1 0 RC
2 setlinecap
10.0 ML
2 LW
N
222 226.5 M
229 226.5 L
S
GR
GS
1 1 0 RC
2 setlinecap
10.0 ML
2 LW
N
225.5 230 M
225.5 223 L
S
GR
GS
1 1 0 RC
2 setlinecap
10.0 ML
2 LW
N
223 229 M
228 224 L
S
GR
GS
1 1 0 RC
2 setlinecap
10.0 ML
2 LW
N
223 224 M
228 229 L
S
GR
GS
1 1 0 RC
2 setlinecap
10.0 ML
2 LW
N
223 223.5 M
230 223.5 L
S
GR
GS
1 1 0 RC
2 setlinecap
10.0 ML
2 LW
N
226.5 227 M
226.5 220 L
S
GR
GS
1 1 0 RC
2 setlinecap
10.0 ML
2 LW
N
224 226 M
229 221 L
S
GR
GS
1 1 0 RC
2 setlinecap
10.0 ML
2 LW
N
224 221 M
229 226 L
S
GR
GS
1 1 0 RC
2 setlinecap
10.0 ML
2 LW
N
232 219.5 M
239 219.5 L
S
GR
GS
1 1 0 RC
2 setlinecap
10.0 ML
2 LW
N
235.5 223 M
235.5 216 L
S
GR
GS
1 1 0 RC
2 setlinecap
10.0 ML
2 LW
N
233 222 M
238 217 L
S
GR
GS
1 1 0 RC
2 setlinecap
10.0 ML
2 LW
N
233 217 M
238 222 L
S
GR
GS
1 1 0 RC
2 setlinecap
10.0 ML
2 LW
N
236 216.5 M
243 216.5 L
S
GR
GS
1 1 0 RC
2 setlinecap
10.0 ML
2 LW
N
239.5 220 M
239.5 213 L
S
GR
GS
1 1 0 RC
2 setlinecap
10.0 ML
2 LW
N
237 219 M
242 214 L
S
GR
GS
1 1 0 RC
2 setlinecap
10.0 ML
2 LW
N
237 214 M
242 219 L
S
GR
GS
1 1 0 RC
2 setlinecap
10.0 ML
2 LW
N
239 212.5 M
246 212.5 L
S
GR
GS
1 1 0 RC
2 setlinecap
10.0 ML
2 LW
N
242.5 216 M
242.5 209 L
S
GR
GS
1 1 0 RC
2 setlinecap
10.0 ML
2 LW
N
240 215 M
245 210 L
S
GR
GS
1 1 0 RC
2 setlinecap
10.0 ML
2 LW
N
240 210 M
245 215 L
S
GR
GS
1 1 0 RC
2 setlinecap
10.0 ML
2 LW
N
246 209.5 M
253 209.5 L
S
GR
GS
1 1 0 RC
2 setlinecap
10.0 ML
2 LW
N
249.5 213 M
249.5 206 L
S
GR
GS
1 1 0 RC
2 setlinecap
10.0 ML
2 LW
N
247 212 M
252 207 L
S
GR
GS
1 1 0 RC
2 setlinecap
10.0 ML
2 LW
N
247 207 M
252 212 L
S
GR
GS
1 1 0 RC
2 setlinecap
10.0 ML
2 LW
N
249 205.5 M
256 205.5 L
S
GR
GS
1 1 0 RC
2 setlinecap
10.0 ML
2 LW
N
252.5 209 M
252.5 202 L
S
GR
GS
1 1 0 RC
2 setlinecap
10.0 ML
2 LW
N
250 208 M
255 203 L
S
GR
GS
1 1 0 RC
2 setlinecap
10.0 ML
2 LW
N
250 203 M
255 208 L
S
GR
GS
1 1 0 RC
2 setlinecap
10.0 ML
2 LW
N
249 202.5 M
256 202.5 L
S
GR
GS
1 1 0 RC
2 setlinecap
10.0 ML
2 LW
N
252.5 206 M
252.5 199 L
S
GR
GS
1 1 0 RC
2 setlinecap
10.0 ML
2 LW
N
250 205 M
255 200 L
S
GR
GS
1 1 0 RC
2 setlinecap
10.0 ML
2 LW
N
250 200 M
255 205 L
S
GR
GS
1 1 0 RC
2 setlinecap
10.0 ML
2 LW
N
252 199.5 M
259 199.5 L
S
GR
GS
1 1 0 RC
2 setlinecap
10.0 ML
2 LW
N
255.5 203 M
255.5 196 L
S
GR
GS
1 1 0 RC
2 setlinecap
10.0 ML
2 LW
N
253 202 M
258 197 L
S
GR
GS
1 1 0 RC
2 setlinecap
10.0 ML
2 LW
N
253 197 M
258 202 L
S
GR
GS
1 1 0 RC
2 setlinecap
10.0 ML
2 LW
N
253 195.5 M
260 195.5 L
S
GR
GS
1 1 0 RC
2 setlinecap
10.0 ML
2 LW
N
256.5 199 M
256.5 192 L
S
GR
GS
1 1 0 RC
2 setlinecap
10.0 ML
2 LW
N
254 198 M
259 193 L
S
GR
GS
1 1 0 RC
2 setlinecap
10.0 ML
2 LW
N
254 193 M
259 198 L
S
GR
GS
1 1 0 RC
2 setlinecap
10.0 ML
2 LW
N
253 192.5 M
260 192.5 L
S
GR
GS
1 1 0 RC
2 setlinecap
10.0 ML
2 LW
N
256.5 196 M
256.5 189 L
S
GR
GS
1 1 0 RC
2 setlinecap
10.0 ML
2 LW
N
254 195 M
259 190 L
S
GR
GS
1 1 0 RC
2 setlinecap
10.0 ML
2 LW
N
254 190 M
259 195 L
S
GR
GS
1 1 0 RC
2 setlinecap
10.0 ML
2 LW
N
256 188.5 M
263 188.5 L
S
GR
GS
1 1 0 RC
2 setlinecap
10.0 ML
2 LW
N
259.5 192 M
259.5 185 L
S
GR
GS
1 1 0 RC
2 setlinecap
10.0 ML
2 LW
N
257 191 M
262 186 L
S
GR
GS
1 1 0 RC
2 setlinecap
10.0 ML
2 LW
N
257 186 M
262 191 L
S
GR
GS
1 1 0 RC
2 setlinecap
10.0 ML
2 LW
N
258 185.5 M
265 185.5 L
S
GR
GS
1 1 0 RC
2 setlinecap
10.0 ML
2 LW
N
261.5 189 M
261.5 182 L
S
GR
GS
1 1 0 RC
2 setlinecap
10.0 ML
2 LW
N
259 188 M
264 183 L
S
GR
GS
1 1 0 RC
2 setlinecap
10.0 ML
2 LW
N
259 183 M
264 188 L
S
GR
GS
1 1 0 RC
2 setlinecap
10.0 ML
2 LW
N
262 181.5 M
269 181.5 L
S
GR
GS
1 1 0 RC
2 setlinecap
10.0 ML
2 LW
N
265.5 185 M
265.5 178 L
S
GR
GS
1 1 0 RC
2 setlinecap
10.0 ML
2 LW
N
263 184 M
268 179 L
S
GR
GS
1 1 0 RC
2 setlinecap
10.0 ML
2 LW
N
263 179 M
268 184 L
S
GR
GS
1 1 0 RC
2 setlinecap
10.0 ML
2 LW
N
265 178.5 M
272 178.5 L
S
GR
GS
1 1 0 RC
2 setlinecap
10.0 ML
2 LW
N
268.5 182 M
268.5 175 L
S
GR
GS
1 1 0 RC
2 setlinecap
10.0 ML
2 LW
N
266 181 M
271 176 L
S
GR
GS
1 1 0 RC
2 setlinecap
10.0 ML
2 LW
N
266 176 M
271 181 L
S
GR
GS
1 1 0 RC
2 setlinecap
10.0 ML
2 LW
N
275 175.5 M
282 175.5 L
S
GR
GS
1 1 0 RC
2 setlinecap
10.0 ML
2 LW
N
278.5 179 M
278.5 172 L
S
GR
GS
1 1 0 RC
2 setlinecap
10.0 ML
2 LW
N
276 178 M
281 173 L
S
GR
GS
1 1 0 RC
2 setlinecap
10.0 ML
2 LW
N
276 173 M
281 178 L
S
GR
GS
1 1 0 RC
2 setlinecap
10.0 ML
2 LW
N
277 171.5 M
284 171.5 L
S
GR
GS
1 1 0 RC
2 setlinecap
10.0 ML
2 LW
N
280.5 175 M
280.5 168 L
S
GR
GS
1 1 0 RC
2 setlinecap
10.0 ML
2 LW
N
278 174 M
283 169 L
S
GR
GS
1 1 0 RC
2 setlinecap
10.0 ML
2 LW
N
278 169 M
283 174 L
S
GR
GS
1 1 0 RC
2 setlinecap
10.0 ML
2 LW
N
278 168.5 M
285 168.5 L
S
GR
GS
1 1 0 RC
2 setlinecap
10.0 ML
2 LW
N
281.5 172 M
281.5 165 L
S
GR
GS
1 1 0 RC
2 setlinecap
10.0 ML
2 LW
N
279 171 M
284 166 L
S
GR
GS
1 1 0 RC
2 setlinecap
10.0 ML
2 LW
N
279 166 M
284 171 L
S
GR
GS
1 1 0 RC
2 setlinecap
10.0 ML
2 LW
N
281 164.5 M
288 164.5 L
S
GR
GS
1 1 0 RC
2 setlinecap
10.0 ML
2 LW
N
284.5 168 M
284.5 161 L
S
GR
GS
1 1 0 RC
2 setlinecap
10.0 ML
2 LW
N
282 167 M
287 162 L
S
GR
GS
1 1 0 RC
2 setlinecap
10.0 ML
2 LW
N
282 162 M
287 167 L
S
GR
GS
1 1 0 RC
2 setlinecap
10.0 ML
2 LW
N
282 161.5 M
289 161.5 L
S
GR
GS
1 1 0 RC
2 setlinecap
10.0 ML
2 LW
N
285.5 165 M
285.5 158 L
S
GR
GS
1 1 0 RC
2 setlinecap
10.0 ML
2 LW
N
283 164 M
288 159 L
S
GR
GS
1 1 0 RC
2 setlinecap
10.0 ML
2 LW
N
283 159 M
288 164 L
S
GR
GS
1 1 0 RC
2 setlinecap
10.0 ML
2 LW
N
285 157.5 M
292 157.5 L
S
GR
GS
1 1 0 RC
2 setlinecap
10.0 ML
2 LW
N
288.5 161 M
288.5 154 L
S
GR
GS
1 1 0 RC
2 setlinecap
10.0 ML
2 LW
N
286 160 M
291 155 L
S
GR
GS
1 1 0 RC
2 setlinecap
10.0 ML
2 LW
N
286 155 M
291 160 L
S
GR
GS
1 1 0 RC
2 setlinecap
10.0 ML
2 LW
N
286 154.5 M
293 154.5 L
S
GR
GS
1 1 0 RC
2 setlinecap
10.0 ML
2 LW
N
289.5 158 M
289.5 151 L
S
GR
GS
1 1 0 RC
2 setlinecap
10.0 ML
2 LW
N
287 157 M
292 152 L
S
GR
GS
1 1 0 RC
2 setlinecap
10.0 ML
2 LW
N
287 152 M
292 157 L
S
GR
GS
1 1 0 RC
2 setlinecap
10.0 ML
2 LW
N
287 151.5 M
294 151.5 L
S
GR
GS
1 1 0 RC
2 setlinecap
10.0 ML
2 LW
N
290.5 155 M
290.5 148 L
S
GR
GS
1 1 0 RC
2 setlinecap
10.0 ML
2 LW
N
288 154 M
293 149 L
S
GR
GS
1 1 0 RC
2 setlinecap
10.0 ML
2 LW
N
288 149 M
293 154 L
S
GR
GS
1 1 0 RC
2 setlinecap
10.0 ML
2 LW
N
290 147.5 M
297 147.5 L
S
GR
GS
1 1 0 RC
2 setlinecap
10.0 ML
2 LW
N
293.5 151 M
293.5 144 L
S
GR
GS
1 1 0 RC
2 setlinecap
10.0 ML
2 LW
N
291 150 M
296 145 L
S
GR
GS
1 1 0 RC
2 setlinecap
10.0 ML
2 LW
N
291 145 M
296 150 L
S
GR
GS
1 1 0 RC
2 setlinecap
10.0 ML
2 LW
N
293 144.5 M
300 144.5 L
S
GR
GS
1 1 0 RC
2 setlinecap
10.0 ML
2 LW
N
296.5 148 M
296.5 141 L
S
GR
GS
1 1 0 RC
2 setlinecap
10.0 ML
2 LW
N
294 147 M
299 142 L
S
GR
GS
1 1 0 RC
2 setlinecap
10.0 ML
2 LW
N
294 142 M
299 147 L
S
GR
GS
1 1 0 RC
2 setlinecap
10.0 ML
2 LW
N
294 140.5 M
301 140.5 L
S
GR
GS
1 1 0 RC
2 setlinecap
10.0 ML
2 LW
N
297.5 144 M
297.5 137 L
S
GR
GS
1 1 0 RC
2 setlinecap
10.0 ML
2 LW
N
295 143 M
300 138 L
S
GR
GS
1 1 0 RC
2 setlinecap
10.0 ML
2 LW
N
295 138 M
300 143 L
S
GR
GS
1 1 0 RC
2 setlinecap
10.0 ML
2 LW
N
294 137.5 M
301 137.5 L
S
GR
GS
1 1 0 RC
2 setlinecap
10.0 ML
2 LW
N
297.5 141 M
297.5 134 L
S
GR
GS
1 1 0 RC
2 setlinecap
10.0 ML
2 LW
N
295 140 M
300 135 L
S
GR
GS
1 1 0 RC
2 setlinecap
10.0 ML
2 LW
N
295 135 M
300 140 L
S
GR
GS
1 1 0 RC
2 setlinecap
10.0 ML
2 LW
N
297 133.5 M
304 133.5 L
S
GR
GS
1 1 0 RC
2 setlinecap
10.0 ML
2 LW
N
300.5 137 M
300.5 130 L
S
GR
GS
1 1 0 RC
2 setlinecap
10.0 ML
2 LW
N
298 136 M
303 131 L
S
GR
GS
1 1 0 RC
2 setlinecap
10.0 ML
2 LW
N
298 131 M
303 136 L
S
GR
GS
1 1 0 RC
2 setlinecap
10.0 ML
2 LW
N
298 130.5 M
305 130.5 L
S
GR
GS
1 1 0 RC
2 setlinecap
10.0 ML
2 LW
N
301.5 134 M
301.5 127 L
S
GR
GS
1 1 0 RC
2 setlinecap
10.0 ML
2 LW
N
299 133 M
304 128 L
S
GR
GS
1 1 0 RC
2 setlinecap
10.0 ML
2 LW
N
299 128 M
304 133 L
S
GR
GS
1 1 0 RC
2 setlinecap
10.0 ML
2 LW
N
300 127.5 M
307 127.5 L
S
GR
GS
1 1 0 RC
2 setlinecap
10.0 ML
2 LW
N
303.5 131 M
303.5 124 L
S
GR
GS
1 1 0 RC
2 setlinecap
10.0 ML
2 LW
N
301 130 M
306 125 L
S
GR
GS
1 1 0 RC
2 setlinecap
10.0 ML
2 LW
N
301 125 M
306 130 L
S
GR
GS
1 1 0 RC
2 setlinecap
10.0 ML
2 LW
N
303 123.5 M
310 123.5 L
S
GR
GS
1 1 0 RC
2 setlinecap
10.0 ML
2 LW
N
306.5 127 M
306.5 120 L
S
GR
GS
1 1 0 RC
2 setlinecap
10.0 ML
2 LW
N
304 126 M
309 121 L
S
GR
GS
1 1 0 RC
2 setlinecap
10.0 ML
2 LW
N
304 121 M
309 126 L
S
GR
GS
1 1 0 RC
2 setlinecap
10.0 ML
2 LW
N
307 120.5 M
314 120.5 L
S
GR
GS
1 1 0 RC
2 setlinecap
10.0 ML
2 LW
N
310.5 124 M
310.5 117 L
S
GR
GS
1 1 0 RC
2 setlinecap
10.0 ML
2 LW
N
308 123 M
313 118 L
S
GR
GS
1 1 0 RC
2 setlinecap
10.0 ML
2 LW
N
308 118 M
313 123 L
S
GR
GS
1 1 0 RC
2 setlinecap
10.0 ML
2 LW
N
313 116.5 M
320 116.5 L
S
GR
GS
1 1 0 RC
2 setlinecap
10.0 ML
2 LW
N
316.5 120 M
316.5 113 L
S
GR
GS
1 1 0 RC
2 setlinecap
10.0 ML
2 LW
N
314 119 M
319 114 L
S
GR
GS
1 1 0 RC
2 setlinecap
10.0 ML
2 LW
N
314 114 M
319 119 L
S
GR
GS
1 1 0 RC
2 setlinecap
10.0 ML
2 LW
N
325 113.5 M
332 113.5 L
S
GR
GS
1 1 0 RC
2 setlinecap
10.0 ML
2 LW
N
328.5 117 M
328.5 110 L
S
GR
GS
1 1 0 RC
2 setlinecap
10.0 ML
2 LW
N
326 116 M
331 111 L
S
GR
GS
1 1 0 RC
2 setlinecap
10.0 ML
2 LW
N
326 111 M
331 116 L
S
GR
GS
1 1 0 RC
2 setlinecap
10.0 ML
2 LW
N
327 109.5 M
334 109.5 L
S
GR
GS
1 1 0 RC
2 setlinecap
10.0 ML
2 LW
N
330.5 113 M
330.5 106 L
S
GR
GS
1 1 0 RC
2 setlinecap
10.0 ML
2 LW
N
328 112 M
333 107 L
S
GR
GS
1 1 0 RC
2 setlinecap
10.0 ML
2 LW
N
328 107 M
333 112 L
S
GR
GS
1 1 0 RC
2 setlinecap
10.0 ML
2 LW
N
329 106.5 M
336 106.5 L
S
GR
GS
1 1 0 RC
2 setlinecap
10.0 ML
2 LW
N
332.5 110 M
332.5 103 L
S
GR
GS
1 1 0 RC
2 setlinecap
10.0 ML
2 LW
N
330 109 M
335 104 L
S
GR
GS
1 1 0 RC
2 setlinecap
10.0 ML
2 LW
N
330 104 M
335 109 L
S
GR
GS
1 1 0 RC
2 setlinecap
10.0 ML
2 LW
N
331 103.5 M
338 103.5 L
S
GR
GS
1 1 0 RC
2 setlinecap
10.0 ML
2 LW
N
334.5 107 M
334.5 100 L
S
GR
GS
1 1 0 RC
2 setlinecap
10.0 ML
2 LW
N
332 106 M
337 101 L
S
GR
GS
1 1 0 RC
2 setlinecap
10.0 ML
2 LW
N
332 101 M
337 106 L
S
GR
GS
1 1 0 RC
2 setlinecap
10.0 ML
2 LW
N
336 99.5 M
343 99.5 L
S
GR
GS
1 1 0 RC
2 setlinecap
10.0 ML
2 LW
N
339.5 103 M
339.5 96 L
S
GR
GS
1 1 0 RC
2 setlinecap
10.0 ML
2 LW
N
337 102 M
342 97 L
S
GR
GS
1 1 0 RC
2 setlinecap
10.0 ML
2 LW
N
337 97 M
342 102 L
S
GR
GS
1 1 0 RC
2 setlinecap
10.0 ML
2 LW
N
341 96.5 M
348 96.5 L
S
GR
GS
1 1 0 RC
2 setlinecap
10.0 ML
2 LW
N
344.5 100 M
344.5 93 L
S
GR
GS
1 1 0 RC
2 setlinecap
10.0 ML
2 LW
N
342 99 M
347 94 L
S
GR
GS
1 1 0 RC
2 setlinecap
10.0 ML
2 LW
N
342 94 M
347 99 L
S
GR
GS
1 1 0 RC
2 setlinecap
10.0 ML
2 LW
N
341 92.5 M
348 92.5 L
S
GR
GS
1 1 0 RC
2 setlinecap
10.0 ML
2 LW
N
344.5 96 M
344.5 89 L
S
GR
GS
1 1 0 RC
2 setlinecap
10.0 ML
2 LW
N
342 95 M
347 90 L
S
GR
GS
1 1 0 RC
2 setlinecap
10.0 ML
2 LW
N
342 90 M
347 95 L
S
GR
GS
1 1 0 RC
2 setlinecap
10.0 ML
2 LW
N
344 89.5 M
351 89.5 L
S
GR
GS
1 1 0 RC
2 setlinecap
10.0 ML
2 LW
N
347.5 93 M
347.5 86 L
S
GR
GS
1 1 0 RC
2 setlinecap
10.0 ML
2 LW
N
345 92 M
350 87 L
S
GR
GS
1 1 0 RC
2 setlinecap
10.0 ML
2 LW
N
345 87 M
350 92 L
S
GR
GS
1 1 0 RC
2 setlinecap
10.0 ML
2 LW
N
346 85.5 M
353 85.5 L
S
GR
GS
1 1 0 RC
2 setlinecap
10.0 ML
2 LW
N
349.5 89 M
349.5 82 L
S
GR
GS
1 1 0 RC
2 setlinecap
10.0 ML
2 LW
N
347 88 M
352 83 L
S
GR
GS
1 1 0 RC
2 setlinecap
10.0 ML
2 LW
N
347 83 M
352 88 L
S
GR
GS
1 1 0 RC
2 setlinecap
10.0 ML
2 LW
N
351 82.5 M
358 82.5 L
S
GR
GS
1 1 0 RC
2 setlinecap
10.0 ML
2 LW
N
354.5 86 M
354.5 79 L
S
GR
GS
1 1 0 RC
2 setlinecap
10.0 ML
2 LW
N
352 85 M
357 80 L
S
GR
GS
1 1 0 RC
2 setlinecap
10.0 ML
2 LW
N
352 80 M
357 85 L
S
GR
GS
1 1 0 RC
2 setlinecap
10.0 ML
2 LW
N
361 79.5 M
368 79.5 L
S
GR
GS
1 1 0 RC
2 setlinecap
10.0 ML
2 LW
N
364.5 83 M
364.5 76 L
S
GR
GS
1 1 0 RC
2 setlinecap
10.0 ML
2 LW
N
362 82 M
367 77 L
S
GR
GS
1 1 0 RC
2 setlinecap
10.0 ML
2 LW
N
362 77 M
367 82 L
S
GR
GS
1 1 0 RC
2 setlinecap
10.0 ML
2 LW
N
366 75.5 M
373 75.5 L
S
GR
GS
1 1 0 RC
2 setlinecap
10.0 ML
2 LW
N
369.5 79 M
369.5 72 L
S
GR
GS
1 1 0 RC
2 setlinecap
10.0 ML
2 LW
N
367 78 M
372 73 L
S
GR
GS
1 1 0 RC
2 setlinecap
10.0 ML
2 LW
N
367 73 M
372 78 L
S
GR
GS
1 1 0 RC
2 setlinecap
10.0 ML
2 LW
N
368 72.5 M
375 72.5 L
S
GR
GS
1 1 0 RC
2 setlinecap
10.0 ML
2 LW
N
371.5 76 M
371.5 69 L
S
GR
GS
1 1 0 RC
2 setlinecap
10.0 ML
2 LW
N
369 75 M
374 70 L
S
GR
GS
1 1 0 RC
2 setlinecap
10.0 ML
2 LW
N
369 70 M
374 75 L
S
GR
GS
1 1 0 RC
2 setlinecap
10.0 ML
2 LW
N
374 68.5 M
381 68.5 L
S
GR
GS
1 1 0 RC
2 setlinecap
10.0 ML
2 LW
N
377.5 72 M
377.5 65 L
S
GR
GS
1 1 0 RC
2 setlinecap
10.0 ML
2 LW
N
375 71 M
380 66 L
S
GR
GS
1 1 0 RC
2 setlinecap
10.0 ML
2 LW
N
375 66 M
380 71 L
S
GR
GS
1 1 0 RC
2 setlinecap
10.0 ML
2 LW
N
379 65.5 M
386 65.5 L
S
GR
GS
1 1 0 RC
2 setlinecap
10.0 ML
2 LW
N
382.5 69 M
382.5 62 L
S
GR
GS
1 1 0 RC
2 setlinecap
10.0 ML
2 LW
N
380 68 M
385 63 L
S
GR
GS
1 1 0 RC
2 setlinecap
10.0 ML
2 LW
N
380 63 M
385 68 L
S
GR
GS
1 1 0 RC
2 setlinecap
10.0 ML
2 LW
N
405 61.5 M
412 61.5 L
S
GR
GS
1 1 0 RC
2 setlinecap
10.0 ML
2 LW
N
408.5 65 M
408.5 58 L
S
GR
GS
1 1 0 RC
2 setlinecap
10.0 ML
2 LW
N
406 64 M
411 59 L
S
GR
GS
1 1 0 RC
2 setlinecap
10.0 ML
2 LW
N
406 59 M
411 64 L
S
GR
GS
1 1 0 RC
2 setlinecap
10.0 ML
2 LW
N
407 58.5 M
414 58.5 L
S
GR
GS
1 1 0 RC
2 setlinecap
10.0 ML
2 LW
N
410.5 62 M
410.5 55 L
S
GR
GS
1 1 0 RC
2 setlinecap
10.0 ML
2 LW
N
408 61 M
413 56 L
S
GR
GS
1 1 0 RC
2 setlinecap
10.0 ML
2 LW
N
408 56 M
413 61 L
S
GR
GS
1 1 0 RC
2 setlinecap
10.0 ML
2 LW
N
416 55.5 M
423 55.5 L
S
GR
GS
1 1 0 RC
2 setlinecap
10.0 ML
2 LW
N
419.5 59 M
419.5 52 L
S
GR
GS
1 1 0 RC
2 setlinecap
10.0 ML
2 LW
N
417 58 M
422 53 L
S
GR
GS
1 1 0 RC
2 setlinecap
10.0 ML
2 LW
N
417 53 M
422 58 L
S
GR
GS
1 1 0 RC
2 setlinecap
10.0 ML
2 LW
N
431 51.5 M
438 51.5 L
S
GR
GS
1 1 0 RC
2 setlinecap
10.0 ML
2 LW
N
434.5 55 M
434.5 48 L
S
GR
GS
1 1 0 RC
2 setlinecap
10.0 ML
2 LW
N
432 54 M
437 49 L
S
GR
GS
1 1 0 RC
2 setlinecap
10.0 ML
2 LW
N
432 49 M
437 54 L
S
GR
GS
1 1 0 RC
2 setlinecap
10.0 ML
2 LW
N
433 48.5 M
440 48.5 L
S
GR
GS
1 1 0 RC
2 setlinecap
10.0 ML
2 LW
N
436.5 52 M
436.5 45 L
S
GR
GS
1 1 0 RC
2 setlinecap
10.0 ML
2 LW
N
434 51 M
439 46 L
S
GR
GS
1 1 0 RC
2 setlinecap
10.0 ML
2 LW
N
434 46 M
439 51 L
S
GR
GS
1 1 0 RC
2 setlinecap
10.0 ML
2 LW
N
436 44.5 M
443 44.5 L
S
GR
GS
1 1 0 RC
2 setlinecap
10.0 ML
2 LW
N
439.5 48 M
439.5 41 L
S
GR
GS
1 1 0 RC
2 setlinecap
10.0 ML
2 LW
N
437 47 M
442 42 L
S
GR
GS
1 1 0 RC
2 setlinecap
10.0 ML
2 LW
N
437 42 M
442 47 L
S
GR
GS
1 1 0 RC
2 setlinecap
10.0 ML
2 LW
N
446 41.5 M
453 41.5 L
S
GR
GS
1 1 0 RC
2 setlinecap
10.0 ML
2 LW
N
449.5 45 M
449.5 38 L
S
GR
GS
1 1 0 RC
2 setlinecap
10.0 ML
2 LW
N
447 44 M
452 39 L
S
GR
GS
1 1 0 RC
2 setlinecap
10.0 ML
2 LW
N
447 39 M
452 44 L
S
GR
GS
1 1 0 RC
2 setlinecap
10.0 ML
2 LW
N
447 37.5 M
454 37.5 L
S
GR
GS
1 1 0 RC
2 setlinecap
10.0 ML
2 LW
N
450.5 41 M
450.5 34 L
S
GR
GS
1 1 0 RC
2 setlinecap
10.0 ML
2 LW
N
448 40 M
453 35 L
S
GR
GS
1 1 0 RC
2 setlinecap
10.0 ML
2 LW
N
448 35 M
453 40 L
S
GR
GS
1 1 0 RC
2 setlinecap
10.0 ML
2 LW
N
454 34.5 M
461 34.5 L
S
GR
GS
1 1 0 RC
2 setlinecap
10.0 ML
2 LW
N
457.5 38 M
457.5 31 L
S
GR
GS
1 1 0 RC
2 setlinecap
10.0 ML
2 LW
N
455 37 M
460 32 L
S
GR
GS
1 1 0 RC
2 setlinecap
10.0 ML
2 LW
N
455 32 M
460 37 L
S
GR
GS
1 1 0 RC
2 setlinecap
10.0 ML
2 LW
N
495 30.5 M
502 30.5 L
S
GR
GS
1 1 0 RC
2 setlinecap
10.0 ML
2 LW
N
498.5 34 M
498.5 27 L
S
GR
GS
1 1 0 RC
2 setlinecap
10.0 ML
2 LW
N
496 33 M
501 28 L
S
GR
GS
1 1 0 RC
2 setlinecap
10.0 ML
2 LW
N
496 28 M
501 33 L
S
GR
GS
1 GC
N
415 76 M
415 41 L
497 41 L
497 76 L
cp
f
GR
GS
[1 0 0 1 454 48] CT
/Helvetica-Bold 9 F
GS
[1 0 0 1 0 0] CT
0 2 moveto 
1 -1 scale
(25 nodes) t 
GR
GR
GS
0 0 1 RC
2 setlinecap
10.0 ML
2 LW
N
421 48 M
451 48 L
S
GR
GS
0 0 1 RC
2 setlinecap
10.0 ML
2 LW
N
432 47.5 M
439 47.5 L
S
GR
GS
0 0 1 RC
2 setlinecap
10.0 ML
2 LW
N
435.5 51 M
435.5 44 L
S
GR
GS
[1 0 0 1 454 58.5] CT
/Helvetica-Bold 9 F
GS
[1 0 0 1 0 0] CT
0 2 moveto 
1 -1 scale
(35 nodes) t 
GR
GR
GS
0 1 1 RC
[8 8] 0 setdash
2 LJ
2 LW
N
421 58.5 M
451 58.5 L
S
GR
GS
0 1 1 RC
2 setlinecap
10.0 ML
2 LW
N
438.5 58.5 M
437.621 56.379 L
435.5 55.5 L
433.379 56.379 L
432.5 58.5 L
433.379 60.621 L
435.5 61.5 L
437.621 60.621 L
438.5 58.5 L
S
GR
GS
[1 0 0 1 454 69] CT
/Helvetica-Bold 9 F
GS
[1 0 0 1 0 0] CT
0 2 moveto 
1 -1 scale
(45 nodes) t 
GR
GR
GS
1 1 0 RC
2 setlinecap
10.0 ML
2 LW
N
421 69 M
451 69 L
S
GR
GS
1 1 0 RC
2 setlinecap
10.0 ML
2 LW
N
432 68.5 M
439 68.5 L
S
GR
GS
1 1 0 RC
2 setlinecap
10.0 ML
2 LW
N
435.5 72 M
435.5 65 L
S
GR
GS
1 1 0 RC
2 setlinecap
10.0 ML
2 LW
N
433 71 M
438 66 L
S
GR
GS
1 1 0 RC
2 setlinecap
10.0 ML
2 LW
N
433 66 M
438 71 L
S
GR
GS
0.149 GC
2 setlinecap
10.0 ML
N
415 76 M
415 41 L
497 41 L
497 76 L
415 76 L
S
GR
%%Trailer
%%Pages: 1
%%EOF
