%!PS-Adobe-3.0 EPSF-3.0
%%Creator: (MATLAB, The Mathworks, Inc. Version 8.5.0.197613 \(R2015a\). Operating System: Mac OS X)
%%Title: /Users/ashwinyakkundimath/Documents/Thesis_Results/plots/density/cdf_integration_both_thr.eps
%%CreationDate: 2016-01-05T11:54:57
%%Pages: (atend)
%%BoundingBox: 0 0 560 420
%%LanguageLevel: 2
%%EndComments
%%BeginProlog
%%BeginResource: procset (Apache XML Graphics Std ProcSet) 1.2 0
%%Version: 1.2 0
%%Copyright: (Copyright 2001-2003,2010 The Apache Software Foundation. License terms: http://www.apache.org/licenses/LICENSE-2.0)
/bd{bind def}bind def
/ld{load def}bd
/GR/grestore ld
/M/moveto ld
/LJ/setlinejoin ld
/C/curveto ld
/f/fill ld
/LW/setlinewidth ld
/GC/setgray ld
/t/show ld
/N/newpath ld
/CT/concat ld
/cp/closepath ld
/S/stroke ld
/L/lineto ld
/CC/setcmykcolor ld
/A/ashow ld
/GS/gsave ld
/RC/setrgbcolor ld
/RM/rmoveto ld
/ML/setmiterlimit ld
/re {4 2 roll M
1 index 0 rlineto
0 exch rlineto
neg 0 rlineto
cp } bd
/_ctm matrix def
/_tm matrix def
/BT { _ctm currentmatrix pop matrix _tm copy pop 0 0 moveto } bd
/ET { _ctm setmatrix } bd
/iTm { _ctm setmatrix _tm concat } bd
/Tm { _tm astore pop iTm 0 0 moveto } bd
/ux 0.0 def
/uy 0.0 def
/F {
  /Tp exch def
  /Tf exch def
  Tf findfont Tp scalefont setfont
  /cf Tf def  /cs Tp def
} bd
/ULS {currentpoint /uy exch def /ux exch def} bd
/ULE {
  /Tcx currentpoint pop def
  gsave
  newpath
  cf findfont cs scalefont dup
  /FontMatrix get 0 get /Ts exch def /FontInfo get dup
  /UnderlinePosition get Ts mul /To exch def
  /UnderlineThickness get Ts mul /Tt exch def
  ux uy To add moveto  Tcx uy To add lineto
  Tt setlinewidth stroke
  grestore
} bd
/OLE {
  /Tcx currentpoint pop def
  gsave
  newpath
  cf findfont cs scalefont dup
  /FontMatrix get 0 get /Ts exch def /FontInfo get dup
  /UnderlinePosition get Ts mul /To exch def
  /UnderlineThickness get Ts mul /Tt exch def
  ux uy To add cs add moveto Tcx uy To add cs add lineto
  Tt setlinewidth stroke
  grestore
} bd
/SOE {
  /Tcx currentpoint pop def
  gsave
  newpath
  cf findfont cs scalefont dup
  /FontMatrix get 0 get /Ts exch def /FontInfo get dup
  /UnderlinePosition get Ts mul /To exch def
  /UnderlineThickness get Ts mul /Tt exch def
  ux uy To add cs 10 mul 26 idiv add moveto Tcx uy To add cs 10 mul 26 idiv add lineto
  Tt setlinewidth stroke
  grestore
} bd
/QT {
/Y22 exch store
/X22 exch store
/Y21 exch store
/X21 exch store
currentpoint
/Y21 load 2 mul add 3 div exch
/X21 load 2 mul add 3 div exch
/X21 load 2 mul /X22 load add 3 div
/Y21 load 2 mul /Y22 load add 3 div
/X22 load /Y22 load curveto
} bd
/SSPD {
dup length /d exch dict def
{
/v exch def
/k exch def
currentpagedevice k known {
/cpdv currentpagedevice k get def
v cpdv ne {
/upd false def
/nullv v type /nulltype eq def
/nullcpdv cpdv type /nulltype eq def
nullv nullcpdv or
{
/upd true def
} {
/sametype v type cpdv type eq def
sametype {
v type /arraytype eq {
/vlen v length def
/cpdvlen cpdv length def
vlen cpdvlen eq {
0 1 vlen 1 sub {
/i exch def
/obj v i get def
/cpdobj cpdv i get def
obj cpdobj ne {
/upd true def
exit
} if
} for
} {
/upd true def
} ifelse
} {
v type /dicttype eq {
v {
/dv exch def
/dk exch def
/cpddv cpdv dk get def
dv cpddv ne {
/upd true def
exit
} if
} forall
} {
/upd true def
} ifelse
} ifelse
} if
} ifelse
upd true eq {
d k v put
} if
} if
} if
} forall
d length 0 gt {
d setpagedevice
} if
} bd
%%EndResource
%%BeginResource: procset (Apache XML Graphics EPS ProcSet) 1.0 0
%%Version: 1.0 0
%%Copyright: (Copyright 2002-2003 The Apache Software Foundation. License terms: http://www.apache.org/licenses/LICENSE-2.0)
/BeginEPSF { %def
/b4_Inc_state save def         % Save state for cleanup
/dict_count countdictstack def % Count objects on dict stack
/op_count count 1 sub def      % Count objects on operand stack
userdict begin                 % Push userdict on dict stack
/showpage { } def              % Redefine showpage, { } = null proc
0 setgray 0 setlinecap         % Prepare graphics state
1 setlinewidth 0 setlinejoin
10 setmiterlimit [ ] 0 setdash newpath
/languagelevel where           % If level not equal to 1 then
{pop languagelevel             % set strokeadjust and
1 ne                           % overprint to their defaults.
{false setstrokeadjust false setoverprint
} if
} if
} bd
/EndEPSF { %def
count op_count sub {pop} repeat            % Clean up stacks
countdictstack dict_count sub {end} repeat
b4_Inc_state restore
} bd
%%EndResource
%FOPBeginFontDict
%%IncludeResource: font Courier-Bold
%%IncludeResource: font Helvetica
%%IncludeResource: font Courier-BoldOblique
%%IncludeResource: font Courier-Oblique
%%IncludeResource: font Times-Roman
%%IncludeResource: font Helvetica-BoldOblique
%%IncludeResource: font Helvetica-Bold
%%IncludeResource: font Helvetica-Oblique
%%IncludeResource: font Times-BoldItalic
%%IncludeResource: font Courier
%%IncludeResource: font Times-Italic
%%IncludeResource: font Times-Bold
%%IncludeResource: font Symbol
%%IncludeResource: font ZapfDingbats
%FOPEndFontDict
%%BeginResource: encoding WinAnsiEncoding
/WinAnsiEncoding [
/.notdef /.notdef /.notdef /.notdef /.notdef
/.notdef /.notdef /.notdef /.notdef /.notdef
/.notdef /.notdef /.notdef /.notdef /.notdef
/.notdef /.notdef /.notdef /.notdef /.notdef
/.notdef /.notdef /.notdef /.notdef /.notdef
/.notdef /.notdef /.notdef /.notdef /.notdef
/.notdef /.notdef /space /exclam /quotedbl
/numbersign /dollar /percent /ampersand /quotesingle
/parenleft /parenright /asterisk /plus /comma
/hyphen /period /slash /zero /one
/two /three /four /five /six
/seven /eight /nine /colon /semicolon
/less /equal /greater /question /at
/A /B /C /D /E
/F /G /H /I /J
/K /L /M /N /O
/P /Q /R /S /T
/U /V /W /X /Y
/Z /bracketleft /backslash /bracketright /asciicircum
/underscore /quoteleft /a /b /c
/d /e /f /g /h
/i /j /k /l /m
/n /o /p /q /r
/s /t /u /v /w
/x /y /z /braceleft /bar
/braceright /asciitilde /bullet /Euro /bullet
/quotesinglbase /florin /quotedblbase /ellipsis /dagger
/daggerdbl /circumflex /perthousand /Scaron /guilsinglleft
/OE /bullet /Zcaron /bullet /bullet
/quoteleft /quoteright /quotedblleft /quotedblright /bullet
/endash /emdash /asciitilde /trademark /scaron
/guilsinglright /oe /bullet /zcaron /Ydieresis
/space /exclamdown /cent /sterling /currency
/yen /brokenbar /section /dieresis /copyright
/ordfeminine /guillemotleft /logicalnot /sfthyphen /registered
/macron /degree /plusminus /twosuperior /threesuperior
/acute /mu /paragraph /middot /cedilla
/onesuperior /ordmasculine /guillemotright /onequarter /onehalf
/threequarters /questiondown /Agrave /Aacute /Acircumflex
/Atilde /Adieresis /Aring /AE /Ccedilla
/Egrave /Eacute /Ecircumflex /Edieresis /Igrave
/Iacute /Icircumflex /Idieresis /Eth /Ntilde
/Ograve /Oacute /Ocircumflex /Otilde /Odieresis
/multiply /Oslash /Ugrave /Uacute /Ucircumflex
/Udieresis /Yacute /Thorn /germandbls /agrave
/aacute /acircumflex /atilde /adieresis /aring
/ae /ccedilla /egrave /eacute /ecircumflex
/edieresis /igrave /iacute /icircumflex /idieresis
/eth /ntilde /ograve /oacute /ocircumflex
/otilde /odieresis /divide /oslash /ugrave
/uacute /ucircumflex /udieresis /yacute /thorn
/ydieresis
] def
%%EndResource
%FOPBeginFontReencode
/Courier-Bold findfont
dup length dict begin
  {1 index /FID ne {def} {pop pop} ifelse} forall
  /Encoding WinAnsiEncoding def
  currentdict
end
/Courier-Bold exch definefont pop
/Helvetica findfont
dup length dict begin
  {1 index /FID ne {def} {pop pop} ifelse} forall
  /Encoding WinAnsiEncoding def
  currentdict
end
/Helvetica exch definefont pop
/Courier-BoldOblique findfont
dup length dict begin
  {1 index /FID ne {def} {pop pop} ifelse} forall
  /Encoding WinAnsiEncoding def
  currentdict
end
/Courier-BoldOblique exch definefont pop
/Courier-Oblique findfont
dup length dict begin
  {1 index /FID ne {def} {pop pop} ifelse} forall
  /Encoding WinAnsiEncoding def
  currentdict
end
/Courier-Oblique exch definefont pop
/Times-Roman findfont
dup length dict begin
  {1 index /FID ne {def} {pop pop} ifelse} forall
  /Encoding WinAnsiEncoding def
  currentdict
end
/Times-Roman exch definefont pop
/Helvetica-BoldOblique findfont
dup length dict begin
  {1 index /FID ne {def} {pop pop} ifelse} forall
  /Encoding WinAnsiEncoding def
  currentdict
end
/Helvetica-BoldOblique exch definefont pop
/Helvetica-Bold findfont
dup length dict begin
  {1 index /FID ne {def} {pop pop} ifelse} forall
  /Encoding WinAnsiEncoding def
  currentdict
end
/Helvetica-Bold exch definefont pop
/Helvetica-Oblique findfont
dup length dict begin
  {1 index /FID ne {def} {pop pop} ifelse} forall
  /Encoding WinAnsiEncoding def
  currentdict
end
/Helvetica-Oblique exch definefont pop
/Times-BoldItalic findfont
dup length dict begin
  {1 index /FID ne {def} {pop pop} ifelse} forall
  /Encoding WinAnsiEncoding def
  currentdict
end
/Times-BoldItalic exch definefont pop
/Courier findfont
dup length dict begin
  {1 index /FID ne {def} {pop pop} ifelse} forall
  /Encoding WinAnsiEncoding def
  currentdict
end
/Courier exch definefont pop
/Times-Italic findfont
dup length dict begin
  {1 index /FID ne {def} {pop pop} ifelse} forall
  /Encoding WinAnsiEncoding def
  currentdict
end
/Times-Italic exch definefont pop
/Times-Bold findfont
dup length dict begin
  {1 index /FID ne {def} {pop pop} ifelse} forall
  /Encoding WinAnsiEncoding def
  currentdict
end
/Times-Bold exch definefont pop
%FOPEndFontReencode
%%EndProlog
%%Page: 1 1
%%PageBoundingBox: 0 0 560 420
%%BeginPageSetup
[1 0 0 -1 0 420] CT
%%EndPageSetup
GS
1 GC
N
0 0 560 420 re
f
GR
GS
1 GC
N
0 0 560 420 re
f
GR
GS
1 GC
N
73 374 M
507 374 L
507 31 L
73 31 L
cp
f
GR
GS
0.873 GC
2 setlinecap
10.0 ML
N
73 374 M
73 31 L
S
GR
GS
0.873 GC
2 setlinecap
10.0 ML
N
135 374 M
135 31 L
S
GR
GS
0.873 GC
2 setlinecap
10.0 ML
N
197 374 M
197 31 L
S
GR
GS
0.873 GC
2 setlinecap
10.0 ML
N
259 374 M
259 31 L
S
GR
GS
0.873 GC
2 setlinecap
10.0 ML
N
321 374 M
321 31 L
S
GR
GS
0.873 GC
2 setlinecap
10.0 ML
N
383 374 M
383 31 L
S
GR
GS
0.873 GC
2 setlinecap
10.0 ML
N
445 374 M
445 31 L
S
GR
GS
0.873 GC
2 setlinecap
10.0 ML
N
507 374 M
507 31 L
S
GR
GS
0.873 GC
2 setlinecap
10.0 ML
N
507 374 M
73 374 L
S
GR
GS
0.873 GC
2 setlinecap
10.0 ML
N
507 339.7 M
73 339.7 L
S
GR
GS
0.873 GC
2 setlinecap
10.0 ML
N
507 305.4 M
73 305.4 L
S
GR
GS
0.873 GC
2 setlinecap
10.0 ML
N
507 271.1 M
73 271.1 L
S
GR
GS
0.873 GC
2 setlinecap
10.0 ML
N
507 236.8 M
73 236.8 L
S
GR
GS
0.873 GC
2 setlinecap
10.0 ML
N
507 202.5 M
73 202.5 L
S
GR
GS
0.873 GC
2 setlinecap
10.0 ML
N
507 168.2 M
73 168.2 L
S
GR
GS
0.873 GC
2 setlinecap
10.0 ML
N
507 133.9 M
73 133.9 L
S
GR
GS
0.873 GC
2 setlinecap
10.0 ML
N
507 99.6 M
73 99.6 L
S
GR
GS
0.873 GC
2 setlinecap
10.0 ML
N
507 65.3 M
73 65.3 L
S
GR
GS
0.873 GC
2 setlinecap
10.0 ML
N
507 31 M
73 31 L
S
GR
GS
[1 0 0 1 290.00021 390] CT
0.149 GC
/Helvetica-Bold 11 F
GS
[1 0 0 1 0 0] CT
-52 9 moveto 
1 -1 scale
(System Throughput) t 
GR
GR
GS
0.149 GC
2 setlinecap
10.0 ML
N
73 374 M
507 374 L
S
GR
GS
0.149 GC
2 setlinecap
10.0 ML
N
73 374 M
73 369.66 L
S
GR
GS
0.149 GC
2 setlinecap
10.0 ML
N
135 374 M
135 369.66 L
S
GR
GS
0.149 GC
2 setlinecap
10.0 ML
N
197 374 M
197 369.66 L
S
GR
GS
0.149 GC
2 setlinecap
10.0 ML
N
259 374 M
259 369.66 L
S
GR
GS
0.149 GC
2 setlinecap
10.0 ML
N
321 374 M
321 369.66 L
S
GR
GS
0.149 GC
2 setlinecap
10.0 ML
N
383 374 M
383 369.66 L
S
GR
GS
0.149 GC
2 setlinecap
10.0 ML
N
445 374 M
445 369.66 L
S
GR
GS
0.149 GC
2 setlinecap
10.0 ML
N
507 374 M
507 369.66 L
S
GR
GS
[1 0 0 1 73 378] CT
0.149 GC
/Helvetica-Bold 10 F
GS
[1 0 0 1 0 0] CT
-3 8 moveto 
1 -1 scale
(0) t 
GR
GR
GS
[1 0 0 1 135 378] CT
0.149 GC
/Helvetica-Bold 10 F
GS
[1 0 0 1 0 0] CT
-7 8 moveto 
1 -1 scale
(0.2) t 
GR
GR
GS
[1 0 0 1 197 378] CT
0.149 GC
/Helvetica-Bold 10 F
GS
[1 0 0 1 0 0] CT
-7 8 moveto 
1 -1 scale
(0.4) t 
GR
GR
GS
[1 0 0 1 259 378] CT
0.149 GC
/Helvetica-Bold 10 F
GS
[1 0 0 1 0 0] CT
-7 8 moveto 
1 -1 scale
(0.6) t 
GR
GR
GS
[1 0 0 1 321 378] CT
0.149 GC
/Helvetica-Bold 10 F
GS
[1 0 0 1 0 0] CT
-7 8 moveto 
1 -1 scale
(0.8) t 
GR
GR
GS
[1 0 0 1 383 378] CT
0.149 GC
/Helvetica-Bold 10 F
GS
[1 0 0 1 0 0] CT
-3 8 moveto 
1 -1 scale
(1) t 
GR
GR
GS
[1 0 0 1 445 378] CT
0.149 GC
/Helvetica-Bold 10 F
GS
[1 0 0 1 0 0] CT
-7 8 moveto 
1 -1 scale
(1.2) t 
GR
GR
GS
[1 0 0 1 507 378] CT
0.149 GC
/Helvetica-Bold 10 F
GS
[1 0 0 1 0 0] CT
-7 8 moveto 
1 -1 scale
(1.4) t 
GR
GR
GS
[0 -1 1 0 52 202.49983] CT
0.149 GC
/Helvetica-Bold 11 F
GS
[1 0 0 1 0 0] CT
-60 -3 moveto 
1 -1 scale
(Cumulative Probability) t 
GR
GR
GS
0.149 GC
2 setlinecap
10.0 ML
N
73 374 M
73 31 L
S
GR
GS
0.149 GC
2 setlinecap
10.0 ML
N
73 374 M
77.34 374 L
S
GR
GS
0.149 GC
2 setlinecap
10.0 ML
N
73 339.7 M
77.34 339.7 L
S
GR
GS
0.149 GC
2 setlinecap
10.0 ML
N
73 305.4 M
77.34 305.4 L
S
GR
GS
0.149 GC
2 setlinecap
10.0 ML
N
73 271.1 M
77.34 271.1 L
S
GR
GS
0.149 GC
2 setlinecap
10.0 ML
N
73 236.8 M
77.34 236.8 L
S
GR
GS
0.149 GC
2 setlinecap
10.0 ML
N
73 202.5 M
77.34 202.5 L
S
GR
GS
0.149 GC
2 setlinecap
10.0 ML
N
73 168.2 M
77.34 168.2 L
S
GR
GS
0.149 GC
2 setlinecap
10.0 ML
N
73 133.9 M
77.34 133.9 L
S
GR
GS
0.149 GC
2 setlinecap
10.0 ML
N
73 99.6 M
77.34 99.6 L
S
GR
GS
0.149 GC
2 setlinecap
10.0 ML
N
73 65.3 M
77.34 65.3 L
S
GR
GS
0.149 GC
2 setlinecap
10.0 ML
N
73 31 M
77.34 31 L
S
GR
GS
[1 0 0 1 69 374] CT
0.149 GC
/Helvetica-Bold 10 F
GS
[1 0 0 1 0 0] CT
-6 2.5 moveto 
1 -1 scale
(0) t 
GR
GR
GS
[1 0 0 1 69 339.70001] CT
0.149 GC
/Helvetica-Bold 10 F
GS
[1 0 0 1 0 0] CT
-14 2.5 moveto 
1 -1 scale
(0.1) t 
GR
GR
GS
[1 0 0 1 69 305.39999] CT
0.149 GC
/Helvetica-Bold 10 F
GS
[1 0 0 1 0 0] CT
-14 2.5 moveto 
1 -1 scale
(0.2) t 
GR
GR
GS
[1 0 0 1 69 271.10001] CT
0.149 GC
/Helvetica-Bold 10 F
GS
[1 0 0 1 0 0] CT
-14 2.5 moveto 
1 -1 scale
(0.3) t 
GR
GR
GS
[1 0 0 1 69 236.8] CT
0.149 GC
/Helvetica-Bold 10 F
GS
[1 0 0 1 0 0] CT
-14 2.5 moveto 
1 -1 scale
(0.4) t 
GR
GR
GS
[1 0 0 1 69 202.5] CT
0.149 GC
/Helvetica-Bold 10 F
GS
[1 0 0 1 0 0] CT
-14 2.5 moveto 
1 -1 scale
(0.5) t 
GR
GR
GS
[1 0 0 1 69 168.2] CT
0.149 GC
/Helvetica-Bold 10 F
GS
[1 0 0 1 0 0] CT
-14 2.5 moveto 
1 -1 scale
(0.6) t 
GR
GR
GS
[1 0 0 1 69 133.90001] CT
0.149 GC
/Helvetica-Bold 10 F
GS
[1 0 0 1 0 0] CT
-14 2.5 moveto 
1 -1 scale
(0.7) t 
GR
GR
GS
[1 0 0 1 69 99.6] CT
0.149 GC
/Helvetica-Bold 10 F
GS
[1 0 0 1 0 0] CT
-14 2.5 moveto 
1 -1 scale
(0.8) t 
GR
GR
GS
[1 0 0 1 69 65.30001] CT
0.149 GC
/Helvetica-Bold 10 F
GS
[1 0 0 1 0 0] CT
-14 2.5 moveto 
1 -1 scale
(0.9) t 
GR
GR
GS
[1 0 0 1 69 31] CT
0.149 GC
/Helvetica-Bold 10 F
GS
[1 0 0 1 0 0] CT
-6 2.5 moveto 
1 -1 scale
(1) t 
GR
GR
GS
0.6 0 0 RC
2 LJ
2 LW
N
73 374 M
73 360.28 L
105.045 356.85 L
105.486 353.42 L
106.69 349.99 L
109.751 346.56 L
111.59 343.13 L
115.564 339.7 L
119.751 336.27 L
120.159 332.84 L
121.634 329.41 L
125.42 325.98 L
126.423 322.55 L
127.067 319.12 L
127.445 315.69 L
131.443 312.26 L
133.862 308.83 L
136.642 305.4 L
138.006 301.97 L
140.096 298.54 L
140.437 295.11 L
141.294 291.68 L
141.466 288.25 L
142.592 284.82 L
142.705 281.39 L
142.8 277.96 L
143.048 274.53 L
143.211 271.1 L
143.561 267.67 L
144.272 264.24 L
147.242 260.81 L
147.999 257.38 L
148.809 253.95 L
149.118 250.52 L
150.5 247.09 L
154.695 243.66 L
159.66 240.23 L
161.359 236.8 L
162.757 233.37 L
165.302 229.94 L
165.462 226.51 L
165.86 223.08 L
167.81 219.65 L
168.647 216.22 L
169.316 212.79 L
170.396 209.36 L
171.045 205.93 L
175.297 202.5 L
177.696 199.07 L
177.747 195.64 L
S
GR
GS
0.6 0 0 RC
2 LJ
2 LW
N
177.747 195.64 M
178.652 192.21 L
178.686 188.78 L
178.691 185.35 L
184.594 181.92 L
185.223 178.49 L
186.099 175.06 L
187.4 171.63 L
189.661 168.2 L
191.912 164.77 L
197.45 161.34 L
198.05 157.91 L
200.26 154.48 L
206.794 147.62 L
207.602 144.19 L
207.611 127.04 L
211.039 123.61 L
218.471 120.18 L
220.364 116.75 L
221.484 109.89 L
221.621 106.46 L
251.338 103.03 L
254.045 99.6 L
254.091 89.31 L
277.653 85.88 L
277.709 82.45 L
277.787 75.59 L
277.8 72.16 L
277.825 68.73 L
302.814 65.3 L
316.001 61.87 L
363.035 58.44 L
363.048 55.01 L
363.053 51.58 L
363.091 48.15 L
363.135 44.72 L
363.181 41.29 L
363.205 34.43 L
363.29 31 L
S
GR
GS
0.6 0 0 RC
2 LJ
2 LW
N
69.1 377.9 M
69.1 370.1 L
76.9 370.1 L
76.9 377.9 L
69.1 377.9 L
S
GR
GS
0.6 0 0 RC
2 LJ
2 LW
N
107.69 347.03 M
107.69 339.23 L
115.49 339.23 L
115.49 347.03 L
107.69 347.03 L
S
GR
GS
0.6 0 0 RC
2 LJ
2 LW
N
122.523 326.45 M
122.523 318.65 L
130.323 318.65 L
130.323 326.45 L
122.523 326.45 L
S
GR
GS
0.6 0 0 RC
2 LJ
2 LW
N
136.196 302.44 M
136.196 294.64 L
143.996 294.64 L
143.996 302.44 L
136.196 302.44 L
S
GR
GS
0.6 0 0 RC
2 LJ
2 LW
N
138.9 281.86 M
138.9 274.06 L
146.7 274.06 L
146.7 281.86 L
138.9 281.86 L
S
GR
GS
0.6 0 0 RC
2 LJ
2 LW
N
144.099 261.28 M
144.099 253.48 L
151.899 253.48 L
151.899 261.28 L
144.099 261.28 L
S
GR
GS
0.6 0 0 RC
2 LJ
2 LW
N
157.459 240.7 M
157.459 232.9 L
165.259 232.9 L
165.259 240.7 L
157.459 240.7 L
S
GR
GS
0.6 0 0 RC
2 LJ
2 LW
N
165.416 216.69 M
165.416 208.89 L
173.216 208.89 L
173.216 216.69 L
165.416 216.69 L
S
GR
GS
0.6 0 0 RC
2 LJ
2 LW
N
174.752 196.11 M
174.752 188.31 L
182.552 188.31 L
182.552 196.11 L
174.752 196.11 L
S
GR
GS
0.6 0 0 RC
2 LJ
2 LW
N
183.5 175.53 M
183.5 167.73 L
191.3 167.73 L
191.3 175.53 L
183.5 175.53 L
S
GR
GS
0.6 0 0 RC
2 LJ
2 LW
N
202.894 151.52 M
202.894 143.72 L
210.694 143.72 L
210.694 151.52 L
202.894 151.52 L
S
GR
GS
0.6 0 0 RC
2 LJ
2 LW
N
217.584 113.79 M
217.584 105.99 L
225.384 105.99 L
225.384 113.79 L
217.584 113.79 L
S
GR
GS
0.6 0 0 RC
2 LJ
2 LW
N
273.887 79.49 M
273.887 71.69 L
281.687 71.69 L
281.687 79.49 L
273.887 79.49 L
S
GR
GS
0.6 0 0 RC
2 LJ
2 LW
N
359.148 58.91 M
359.148 51.11 L
366.948 51.11 L
366.948 58.91 L
359.148 58.91 L
S
GR
GS
0.6 0 0 RC
2 LJ
2 LW
N
359.39 34.9 M
359.39 27.1 L
367.19 27.1 L
367.19 34.9 L
359.39 34.9 L
S
GR
GS
0.6 0 0 RC
2 LJ
2 LW
N
69.1 377.9 M
69.1 370.1 L
76.9 370.1 L
76.9 377.9 L
69.1 377.9 L
S
GR
GS
0 0.2 0.4 RC
2 LJ
2 LW
N
106.727 374 M
106.727 370.57 L
107.057 367.14 L
111.477 363.71 L
113.436 360.28 L
113.644 356.85 L
117.833 353.42 L
125.783 349.99 L
128.967 346.56 L
129.721 343.13 L
130.103 339.7 L
135.938 336.27 L
136.491 332.84 L
137.786 329.41 L
139.149 325.98 L
139.734 322.55 L
140.938 319.12 L
141.588 315.69 L
142.6 312.26 L
142.728 308.83 L
146.463 305.4 L
146.638 301.97 L
148.852 298.54 L
150.66 295.11 L
151.618 291.68 L
152.567 288.25 L
153.773 284.82 L
153.973 281.39 L
154.666 277.96 L
155.086 274.53 L
155.095 271.1 L
155.35 267.67 L
156.619 264.24 L
156.765 260.81 L
157.756 257.38 L
159.66 253.95 L
162.767 250.52 L
163.447 247.09 L
164.164 243.66 L
166.862 240.23 L
167.392 236.8 L
167.963 233.37 L
169.231 229.94 L
169.233 226.51 L
169.732 223.08 L
170.121 219.65 L
170.728 216.22 L
173.1 212.79 L
174.061 209.36 L
175.749 205.93 L
S
GR
GS
0 0.2 0.4 RC
2 LJ
2 LW
N
175.749 205.93 M
177.44 202.5 L
177.696 199.07 L
178.622 195.64 L
178.931 192.21 L
179.872 188.78 L
185.223 185.35 L
185.53 181.92 L
186.099 178.49 L
188.452 175.06 L
190.462 171.63 L
191.632 168.2 L
193.02 164.77 L
195.091 161.34 L
196.592 157.91 L
200.998 154.48 L
202.273 151.05 L
206.794 140.76 L
208.373 137.33 L
208.561 133.9 L
210.079 130.47 L
220.351 127.04 L
220.364 120.18 L
221.536 116.75 L
225.372 113.32 L
229.344 109.89 L
231.506 106.46 L
236.36 103.03 L
246.859 99.6 L
247.623 96.17 L
254.049 92.74 L
254.091 82.45 L
257.923 79.02 L
259.723 75.59 L
277.746 72.16 L
277.8 68.73 L
277.857 58.44 L
297.447 55.01 L
363.181 44.72 L
363.205 31 L
S
GR
GS
0 0.2 0.4 RC
2 LJ
2 LW
N
111.727 374 M
110.772 371.061 L
108.272 369.245 L
105.182 369.245 L
102.682 371.061 L
101.727 374 L
102.682 376.939 L
105.182 378.755 L
108.272 378.755 L
110.772 376.939 L
111.727 374 L
S
GR
GS
0 0.2 0.4 RC
2 LJ
2 LW
N
122.833 353.42 M
121.879 350.481 L
119.379 348.665 L
116.288 348.665 L
113.788 350.481 L
112.833 353.42 L
113.788 356.359 L
116.288 358.175 L
119.379 358.175 L
121.879 356.359 L
122.833 353.42 L
S
GR
GS
0 0.2 0.4 RC
2 LJ
2 LW
N
142.786 329.41 M
141.831 326.471 L
139.331 324.655 L
136.241 324.655 L
133.741 326.471 L
132.786 329.41 L
133.741 332.349 L
136.241 334.165 L
139.331 334.165 L
141.831 332.349 L
142.786 329.41 L
S
GR
GS
0 0.2 0.4 RC
2 LJ
2 LW
N
147.728 308.83 M
146.773 305.891 L
144.273 304.075 L
141.183 304.075 L
138.683 305.891 L
137.728 308.83 L
138.683 311.769 L
141.183 313.585 L
144.273 313.585 L
146.773 311.769 L
147.728 308.83 L
S
GR
GS
0 0.2 0.4 RC
2 LJ
2 LW
N
157.567 288.25 M
156.612 285.311 L
154.112 283.495 L
151.021 283.495 L
148.521 285.311 L
147.567 288.25 L
148.521 291.189 L
151.021 293.005 L
154.112 293.005 L
156.612 291.189 L
157.567 288.25 L
S
GR
GS
0 0.2 0.4 RC
2 LJ
2 LW
N
160.35 267.67 M
159.395 264.731 L
156.895 262.915 L
153.805 262.915 L
151.305 264.731 L
150.35 267.67 L
151.305 270.609 L
153.805 272.425 L
156.895 272.425 L
159.395 270.609 L
160.35 267.67 L
S
GR
GS
0 0.2 0.4 RC
2 LJ
2 LW
N
169.164 243.66 M
168.209 240.721 L
165.709 238.905 L
162.619 238.905 L
160.119 240.721 L
159.164 243.66 L
160.119 246.599 L
162.619 248.415 L
165.709 248.415 L
168.209 246.599 L
169.164 243.66 L
S
GR
GS
0 0.2 0.4 RC
2 LJ
2 LW
N
174.732 223.08 M
173.777 220.141 L
171.277 218.325 L
168.186 218.325 L
165.686 220.141 L
164.732 223.08 L
165.686 226.019 L
168.186 227.835 L
171.277 227.835 L
173.777 226.019 L
174.732 223.08 L
S
GR
GS
0 0.2 0.4 RC
2 LJ
2 LW
N
182.44 202.5 M
181.485 199.561 L
178.985 197.745 L
175.895 197.745 L
173.395 199.561 L
172.44 202.5 L
173.395 205.439 L
175.895 207.255 L
178.985 207.255 L
181.485 205.439 L
182.44 202.5 L
S
GR
GS
0 0.2 0.4 RC
2 LJ
2 LW
N
191.099 178.49 M
190.144 175.551 L
187.644 173.735 L
184.554 173.735 L
182.054 175.551 L
181.099 178.49 L
182.054 181.429 L
184.554 183.245 L
187.644 183.245 L
190.144 181.429 L
191.099 178.49 L
S
GR
GS
0 0.2 0.4 RC
2 LJ
2 LW
N
201.592 157.91 M
200.638 154.971 L
198.138 153.155 L
195.047 153.155 L
192.547 154.971 L
191.592 157.91 L
192.547 160.849 L
195.047 162.665 L
198.138 162.665 L
200.638 160.849 L
201.592 157.91 L
S
GR
GS
0 0.2 0.4 RC
2 LJ
2 LW
N
215.079 130.47 M
214.124 127.531 L
211.624 125.715 L
208.534 125.715 L
206.034 127.531 L
205.079 130.47 L
206.034 133.409 L
208.534 135.225 L
211.624 135.225 L
214.124 133.409 L
215.079 130.47 L
S
GR
GS
0 0.2 0.4 RC
2 LJ
2 LW
N
236.506 106.46 M
235.551 103.521 L
233.051 101.705 L
229.961 101.705 L
227.461 103.521 L
226.506 106.46 L
227.461 109.399 L
229.961 111.215 L
233.051 111.215 L
235.551 109.399 L
236.506 106.46 L
S
GR
GS
0 0.2 0.4 RC
2 LJ
2 LW
N
264.723 75.59 M
263.768 72.651 L
261.268 70.835 L
258.178 70.835 L
255.678 72.651 L
254.723 75.59 L
255.678 78.529 L
258.178 80.345 L
261.268 80.345 L
263.768 78.529 L
264.723 75.59 L
S
GR
GS
0 0.2 0.4 RC
2 LJ
2 LW
N
368.205 31 M
367.25 28.061 L
364.75 26.245 L
361.66 26.245 L
359.16 28.061 L
358.205 31 L
359.16 33.939 L
361.66 35.755 L
364.75 35.755 L
367.25 33.939 L
368.205 31 L
S
GR
GS
0 0.2 0.4 RC
2 LJ
2 LW
N
111.727 374 M
110.772 371.061 L
108.272 369.245 L
105.182 369.245 L
102.682 371.061 L
101.727 374 L
102.682 376.939 L
105.182 378.755 L
108.272 378.755 L
110.772 376.939 L
111.727 374 L
S
GR
GS
0.8 0.6 0.2 RC
2 LJ
2 LW
N
73 374 M
73 367.14 L
104.195 363.71 L
107.715 360.28 L
107.949 356.85 L
111.377 353.42 L
115.346 349.99 L
122.92 346.56 L
127.113 343.13 L
135.302 339.7 L
135.744 336.27 L
136.512 332.84 L
137.409 329.41 L
137.957 325.98 L
140.378 322.55 L
143.026 319.12 L
144.044 315.69 L
144.326 312.26 L
145.348 308.83 L
147.39 305.4 L
148.688 301.97 L
148.837 298.54 L
149.861 295.11 L
150.187 291.68 L
150.279 288.25 L
150.896 284.82 L
157.697 281.39 L
158.354 277.96 L
159.554 274.53 L
159.93 271.1 L
160.142 267.67 L
164.607 264.24 L
165.145 260.81 L
165.988 257.38 L
166.536 253.95 L
167.342 250.52 L
170.801 247.09 L
171.604 243.66 L
171.92 240.23 L
173.233 236.8 L
174.036 233.37 L
174.422 229.94 L
174.475 226.51 L
178.931 223.08 L
179.319 219.65 L
179.56 216.22 L
180.458 212.79 L
182.159 209.36 L
184.839 205.93 L
185.223 195.64 L
S
GR
GS
0.8 0.6 0.2 RC
2 LJ
2 LW
N
185.223 195.64 M
185.223 192.21 L
187.203 188.78 L
187.522 185.35 L
189.321 181.92 L
190.897 178.49 L
190.949 175.06 L
191.856 171.63 L
192.646 168.2 L
192.765 164.77 L
192.833 161.34 L
192.911 157.91 L
193.924 154.48 L
200.058 151.05 L
201.275 147.62 L
201.644 144.19 L
203.093 140.76 L
203.753 137.33 L
203.901 133.9 L
206.794 127.04 L
207.247 123.61 L
207.611 120.18 L
208.773 116.75 L
209.374 113.32 L
213.361 109.89 L
213.783 106.46 L
214.381 103.03 L
216.801 99.6 L
217.53 96.17 L
219.448 92.74 L
221.595 89.31 L
221.624 85.88 L
227.852 82.45 L
228.596 79.02 L
230.037 75.59 L
233.582 72.16 L
235.684 68.73 L
265.907 65.3 L
277.8 61.87 L
277.857 55.01 L
290.955 51.58 L
297.447 48.15 L
363.181 44.72 L
363.205 34.43 L
482.595 31 L
S
GR
GS
0.8 0.6 0.2 RC
2 LJ
2 LW
N
68 374 M
78 374 L
S
GR
GS
0.8 0.6 0.2 RC
2 LJ
2 LW
N
73 379 M
73 369 L
S
GR
GS
0.8 0.6 0.2 RC
2 LJ
2 LW
N
69.464 377.536 M
76.536 370.464 L
S
GR
GS
0.8 0.6 0.2 RC
2 LJ
2 LW
N
69.464 370.464 M
76.536 377.536 L
S
GR
GS
0.8 0.6 0.2 RC
2 LJ
2 LW
N
117.92 346.56 M
127.92 346.56 L
S
GR
GS
0.8 0.6 0.2 RC
2 LJ
2 LW
N
122.92 351.56 M
122.92 341.56 L
S
GR
GS
0.8 0.6 0.2 RC
2 LJ
2 LW
N
119.385 350.096 M
126.456 343.024 L
S
GR
GS
0.8 0.6 0.2 RC
2 LJ
2 LW
N
119.385 343.024 M
126.456 350.096 L
S
GR
GS
0.8 0.6 0.2 RC
2 LJ
2 LW
N
132.957 325.98 M
142.957 325.98 L
S
GR
GS
0.8 0.6 0.2 RC
2 LJ
2 LW
N
137.957 330.98 M
137.957 320.98 L
S
GR
GS
0.8 0.6 0.2 RC
2 LJ
2 LW
N
134.422 329.516 M
141.493 322.444 L
S
GR
GS
0.8 0.6 0.2 RC
2 LJ
2 LW
N
134.422 322.444 M
141.493 329.516 L
S
GR
GS
0.8 0.6 0.2 RC
2 LJ
2 LW
N
143.688 301.97 M
153.688 301.97 L
S
GR
GS
0.8 0.6 0.2 RC
2 LJ
2 LW
N
148.688 306.97 M
148.688 296.97 L
S
GR
GS
0.8 0.6 0.2 RC
2 LJ
2 LW
N
145.152 305.506 M
152.223 298.434 L
S
GR
GS
0.8 0.6 0.2 RC
2 LJ
2 LW
N
145.152 298.434 M
152.223 305.506 L
S
GR
GS
0.8 0.6 0.2 RC
2 LJ
2 LW
N
153.354 277.96 M
163.354 277.96 L
S
GR
GS
0.8 0.6 0.2 RC
2 LJ
2 LW
N
158.354 282.96 M
158.354 272.96 L
S
GR
GS
0.8 0.6 0.2 RC
2 LJ
2 LW
N
154.818 281.496 M
161.889 274.424 L
S
GR
GS
0.8 0.6 0.2 RC
2 LJ
2 LW
N
154.818 274.424 M
161.889 281.496 L
S
GR
GS
0.8 0.6 0.2 RC
2 LJ
2 LW
N
160.988 257.38 M
170.988 257.38 L
S
GR
GS
0.8 0.6 0.2 RC
2 LJ
2 LW
N
165.988 262.38 M
165.988 252.38 L
S
GR
GS
0.8 0.6 0.2 RC
2 LJ
2 LW
N
162.452 260.916 M
169.523 253.844 L
S
GR
GS
0.8 0.6 0.2 RC
2 LJ
2 LW
N
162.452 253.844 M
169.523 260.916 L
S
GR
GS
0.8 0.6 0.2 RC
2 LJ
2 LW
N
169.036 233.37 M
179.036 233.37 L
S
GR
GS
0.8 0.6 0.2 RC
2 LJ
2 LW
N
174.036 238.37 M
174.036 228.37 L
S
GR
GS
0.8 0.6 0.2 RC
2 LJ
2 LW
N
170.501 236.906 M
177.572 229.834 L
S
GR
GS
0.8 0.6 0.2 RC
2 LJ
2 LW
N
170.501 229.834 M
177.572 236.906 L
S
GR
GS
0.8 0.6 0.2 RC
2 LJ
2 LW
N
177.159 209.36 M
187.159 209.36 L
S
GR
GS
0.8 0.6 0.2 RC
2 LJ
2 LW
N
182.159 214.36 M
182.159 204.36 L
S
GR
GS
0.8 0.6 0.2 RC
2 LJ
2 LW
N
178.623 212.896 M
185.694 205.824 L
S
GR
GS
0.8 0.6 0.2 RC
2 LJ
2 LW
N
178.623 205.824 M
185.694 212.896 L
S
GR
GS
0.8 0.6 0.2 RC
2 LJ
2 LW
N
184.321 181.92 M
194.321 181.92 L
S
GR
GS
0.8 0.6 0.2 RC
2 LJ
2 LW
N
189.321 186.92 M
189.321 176.92 L
S
GR
GS
0.8 0.6 0.2 RC
2 LJ
2 LW
N
185.786 185.456 M
192.857 178.384 L
S
GR
GS
0.8 0.6 0.2 RC
2 LJ
2 LW
N
185.786 178.384 M
192.857 185.456 L
S
GR
GS
0.8 0.6 0.2 RC
2 LJ
2 LW
N
187.911 157.91 M
197.911 157.91 L
S
GR
GS
0.8 0.6 0.2 RC
2 LJ
2 LW
N
192.911 162.91 M
192.911 152.91 L
S
GR
GS
0.8 0.6 0.2 RC
2 LJ
2 LW
N
189.375 161.446 M
196.446 154.374 L
S
GR
GS
0.8 0.6 0.2 RC
2 LJ
2 LW
N
189.375 154.374 M
196.446 161.446 L
S
GR
GS
0.8 0.6 0.2 RC
2 LJ
2 LW
N
198.753 137.33 M
208.753 137.33 L
S
GR
GS
0.8 0.6 0.2 RC
2 LJ
2 LW
N
203.753 142.33 M
203.753 132.33 L
S
GR
GS
0.8 0.6 0.2 RC
2 LJ
2 LW
N
200.217 140.866 M
207.288 133.794 L
S
GR
GS
0.8 0.6 0.2 RC
2 LJ
2 LW
N
200.217 133.794 M
207.288 140.866 L
S
GR
GS
0.8 0.6 0.2 RC
2 LJ
2 LW
N
208.361 109.89 M
218.361 109.89 L
S
GR
GS
0.8 0.6 0.2 RC
2 LJ
2 LW
N
213.361 114.89 M
213.361 104.89 L
S
GR
GS
0.8 0.6 0.2 RC
2 LJ
2 LW
N
209.826 113.426 M
216.897 106.354 L
S
GR
GS
0.8 0.6 0.2 RC
2 LJ
2 LW
N
209.826 106.354 M
216.897 113.426 L
S
GR
GS
0.8 0.6 0.2 RC
2 LJ
2 LW
N
216.624 85.88 M
226.624 85.88 L
S
GR
GS
0.8 0.6 0.2 RC
2 LJ
2 LW
N
221.624 90.88 M
221.624 80.88 L
S
GR
GS
0.8 0.6 0.2 RC
2 LJ
2 LW
N
218.088 89.416 M
225.16 82.344 L
S
GR
GS
0.8 0.6 0.2 RC
2 LJ
2 LW
N
218.088 82.344 M
225.16 89.416 L
S
GR
GS
0.8 0.6 0.2 RC
2 LJ
2 LW
N
260.907 65.3 M
270.907 65.3 L
S
GR
GS
0.8 0.6 0.2 RC
2 LJ
2 LW
N
265.907 70.3 M
265.907 60.3 L
S
GR
GS
0.8 0.6 0.2 RC
2 LJ
2 LW
N
262.372 68.836 M
269.443 61.764 L
S
GR
GS
0.8 0.6 0.2 RC
2 LJ
2 LW
N
262.372 61.764 M
269.443 68.836 L
S
GR
GS
0.8 0.6 0.2 RC
2 LJ
2 LW
N
477.595 31 M
487.595 31 L
S
GR
GS
0.8 0.6 0.2 RC
2 LJ
2 LW
N
482.595 36 M
482.595 26 L
S
GR
GS
0.8 0.6 0.2 RC
2 LJ
2 LW
N
479.06 34.536 M
486.131 27.464 L
S
GR
GS
0.8 0.6 0.2 RC
2 LJ
2 LW
N
479.06 27.464 M
486.131 34.536 L
S
GR
GS
0.8 0.6 0.2 RC
2 LJ
2 LW
N
68 374 M
78 374 L
S
GR
GS
0.8 0.6 0.2 RC
2 LJ
2 LW
N
73 379 M
73 369 L
S
GR
GS
0.8 0.6 0.2 RC
2 LJ
2 LW
N
69.464 377.536 M
76.536 370.464 L
S
GR
GS
0.8 0.6 0.2 RC
2 LJ
2 LW
N
69.464 370.464 M
76.536 377.536 L
S
GR
GS
1 GC
N
410 112 M
410 71 L
500 71 L
500 112 L
cp
f
GR
GS
[1 0 0 1 449 79] CT
/Helvetica-Bold 11 F
GS
[1 0 0 1 0 0] CT
0 3 moveto 
1 -1 scale
(25 nodes) t 
GR
GR
GS
0.6 0 0 RC
2 setlinecap
10.0 ML
2 LW
N
416 79 M
446 79 L
S
GR
GS
0.6 0 0 RC
2 setlinecap
10.0 ML
2 LW
N
427.6 82.4 M
427.6 74.6 L
435.4 74.6 L
435.4 82.4 L
427.6 82.4 L
S
GR
GS
[1 0 0 1 449 91.5] CT
/Helvetica-Bold 11 F
GS
[1 0 0 1 0 0] CT
0 3 moveto 
1 -1 scale
(35 nodes) t 
GR
GR
GS
0 0.2 0.4 RC
2 setlinecap
10.0 ML
2 LW
N
416 91.5 M
446 91.5 L
S
GR
GS
0 0.2 0.4 RC
2 setlinecap
10.0 ML
2 LW
N
436.5 91.5 M
435.545 88.561 L
433.045 86.745 L
429.955 86.745 L
427.455 88.561 L
426.5 91.5 L
427.455 94.439 L
429.955 96.255 L
433.045 96.255 L
435.545 94.439 L
436.5 91.5 L
S
GR
GS
[1 0 0 1 449 104] CT
/Helvetica-Bold 11 F
GS
[1 0 0 1 0 0] CT
0 3 moveto 
1 -1 scale
(45 nodes) t 
GR
GR
GS
0.8 0.6 0.2 RC
2 setlinecap
10.0 ML
2 LW
N
416 104 M
446 104 L
S
GR
GS
0.8 0.6 0.2 RC
2 setlinecap
10.0 ML
2 LW
N
426 104.5 M
437 104.5 L
S
GR
GS
0.8 0.6 0.2 RC
2 setlinecap
10.0 ML
2 LW
N
431.5 110 M
431.5 99 L
S
GR
GS
0.8 0.6 0.2 RC
2 setlinecap
10.0 ML
2 LW
N
427 109 M
436 100 L
S
GR
GS
0.8 0.6 0.2 RC
2 setlinecap
10.0 ML
2 LW
N
427 100 M
436 109 L
S
GR
GS
0.149 GC
2 setlinecap
10.0 ML
N
410 112 M
410 71 L
500 71 L
500 112 L
410 112 L
S
GR
%%Trailer
%%Pages: 1
%%EOF
