%!PS-Adobe-3.0 EPSF-3.0
%%Creator: (MATLAB, The Mathworks, Inc. Version 8.5.0.197613 \(R2015a\). Operating System: Mac OS X)
%%Title: /Users/ashwinyakkundimath/Documents/Thesis_Results/plots/density/cdf_integration_broadcast_thr.eps
%%CreationDate: 2015-12-28T13:26:43
%%Pages: (atend)
%%BoundingBox: 0 0 560 420
%%LanguageLevel: 2
%%EndComments
%%BeginProlog
%%BeginResource: procset (Apache XML Graphics Std ProcSet) 1.2 0
%%Version: 1.2 0
%%Copyright: (Copyright 2001-2003,2010 The Apache Software Foundation. License terms: http://www.apache.org/licenses/LICENSE-2.0)
/bd{bind def}bind def
/ld{load def}bd
/GR/grestore ld
/M/moveto ld
/LJ/setlinejoin ld
/C/curveto ld
/f/fill ld
/LW/setlinewidth ld
/GC/setgray ld
/t/show ld
/N/newpath ld
/CT/concat ld
/cp/closepath ld
/S/stroke ld
/L/lineto ld
/CC/setcmykcolor ld
/A/ashow ld
/GS/gsave ld
/RC/setrgbcolor ld
/RM/rmoveto ld
/ML/setmiterlimit ld
/re {4 2 roll M
1 index 0 rlineto
0 exch rlineto
neg 0 rlineto
cp } bd
/_ctm matrix def
/_tm matrix def
/BT { _ctm currentmatrix pop matrix _tm copy pop 0 0 moveto } bd
/ET { _ctm setmatrix } bd
/iTm { _ctm setmatrix _tm concat } bd
/Tm { _tm astore pop iTm 0 0 moveto } bd
/ux 0.0 def
/uy 0.0 def
/F {
  /Tp exch def
  /Tf exch def
  Tf findfont Tp scalefont setfont
  /cf Tf def  /cs Tp def
} bd
/ULS {currentpoint /uy exch def /ux exch def} bd
/ULE {
  /Tcx currentpoint pop def
  gsave
  newpath
  cf findfont cs scalefont dup
  /FontMatrix get 0 get /Ts exch def /FontInfo get dup
  /UnderlinePosition get Ts mul /To exch def
  /UnderlineThickness get Ts mul /Tt exch def
  ux uy To add moveto  Tcx uy To add lineto
  Tt setlinewidth stroke
  grestore
} bd
/OLE {
  /Tcx currentpoint pop def
  gsave
  newpath
  cf findfont cs scalefont dup
  /FontMatrix get 0 get /Ts exch def /FontInfo get dup
  /UnderlinePosition get Ts mul /To exch def
  /UnderlineThickness get Ts mul /Tt exch def
  ux uy To add cs add moveto Tcx uy To add cs add lineto
  Tt setlinewidth stroke
  grestore
} bd
/SOE {
  /Tcx currentpoint pop def
  gsave
  newpath
  cf findfont cs scalefont dup
  /FontMatrix get 0 get /Ts exch def /FontInfo get dup
  /UnderlinePosition get Ts mul /To exch def
  /UnderlineThickness get Ts mul /Tt exch def
  ux uy To add cs 10 mul 26 idiv add moveto Tcx uy To add cs 10 mul 26 idiv add lineto
  Tt setlinewidth stroke
  grestore
} bd
/QT {
/Y22 exch store
/X22 exch store
/Y21 exch store
/X21 exch store
currentpoint
/Y21 load 2 mul add 3 div exch
/X21 load 2 mul add 3 div exch
/X21 load 2 mul /X22 load add 3 div
/Y21 load 2 mul /Y22 load add 3 div
/X22 load /Y22 load curveto
} bd
/SSPD {
dup length /d exch dict def
{
/v exch def
/k exch def
currentpagedevice k known {
/cpdv currentpagedevice k get def
v cpdv ne {
/upd false def
/nullv v type /nulltype eq def
/nullcpdv cpdv type /nulltype eq def
nullv nullcpdv or
{
/upd true def
} {
/sametype v type cpdv type eq def
sametype {
v type /arraytype eq {
/vlen v length def
/cpdvlen cpdv length def
vlen cpdvlen eq {
0 1 vlen 1 sub {
/i exch def
/obj v i get def
/cpdobj cpdv i get def
obj cpdobj ne {
/upd true def
exit
} if
} for
} {
/upd true def
} ifelse
} {
v type /dicttype eq {
v {
/dv exch def
/dk exch def
/cpddv cpdv dk get def
dv cpddv ne {
/upd true def
exit
} if
} forall
} {
/upd true def
} ifelse
} ifelse
} if
} ifelse
upd true eq {
d k v put
} if
} if
} if
} forall
d length 0 gt {
d setpagedevice
} if
} bd
%%EndResource
%%BeginResource: procset (Apache XML Graphics EPS ProcSet) 1.0 0
%%Version: 1.0 0
%%Copyright: (Copyright 2002-2003 The Apache Software Foundation. License terms: http://www.apache.org/licenses/LICENSE-2.0)
/BeginEPSF { %def
/b4_Inc_state save def         % Save state for cleanup
/dict_count countdictstack def % Count objects on dict stack
/op_count count 1 sub def      % Count objects on operand stack
userdict begin                 % Push userdict on dict stack
/showpage { } def              % Redefine showpage, { } = null proc
0 setgray 0 setlinecap         % Prepare graphics state
1 setlinewidth 0 setlinejoin
10 setmiterlimit [ ] 0 setdash newpath
/languagelevel where           % If level not equal to 1 then
{pop languagelevel             % set strokeadjust and
1 ne                           % overprint to their defaults.
{false setstrokeadjust false setoverprint
} if
} if
} bd
/EndEPSF { %def
count op_count sub {pop} repeat            % Clean up stacks
countdictstack dict_count sub {end} repeat
b4_Inc_state restore
} bd
%%EndResource
%FOPBeginFontDict
%%IncludeResource: font Courier-Bold
%%IncludeResource: font Helvetica
%%IncludeResource: font Courier-BoldOblique
%%IncludeResource: font Courier-Oblique
%%IncludeResource: font Times-Roman
%%IncludeResource: font Helvetica-BoldOblique
%%IncludeResource: font Helvetica-Bold
%%IncludeResource: font Helvetica-Oblique
%%IncludeResource: font Times-BoldItalic
%%IncludeResource: font Courier
%%IncludeResource: font Times-Italic
%%IncludeResource: font Times-Bold
%%IncludeResource: font Symbol
%%IncludeResource: font ZapfDingbats
%FOPEndFontDict
%%BeginResource: encoding WinAnsiEncoding
/WinAnsiEncoding [
/.notdef /.notdef /.notdef /.notdef /.notdef
/.notdef /.notdef /.notdef /.notdef /.notdef
/.notdef /.notdef /.notdef /.notdef /.notdef
/.notdef /.notdef /.notdef /.notdef /.notdef
/.notdef /.notdef /.notdef /.notdef /.notdef
/.notdef /.notdef /.notdef /.notdef /.notdef
/.notdef /.notdef /space /exclam /quotedbl
/numbersign /dollar /percent /ampersand /quotesingle
/parenleft /parenright /asterisk /plus /comma
/hyphen /period /slash /zero /one
/two /three /four /five /six
/seven /eight /nine /colon /semicolon
/less /equal /greater /question /at
/A /B /C /D /E
/F /G /H /I /J
/K /L /M /N /O
/P /Q /R /S /T
/U /V /W /X /Y
/Z /bracketleft /backslash /bracketright /asciicircum
/underscore /quoteleft /a /b /c
/d /e /f /g /h
/i /j /k /l /m
/n /o /p /q /r
/s /t /u /v /w
/x /y /z /braceleft /bar
/braceright /asciitilde /bullet /Euro /bullet
/quotesinglbase /florin /quotedblbase /ellipsis /dagger
/daggerdbl /circumflex /perthousand /Scaron /guilsinglleft
/OE /bullet /Zcaron /bullet /bullet
/quoteleft /quoteright /quotedblleft /quotedblright /bullet
/endash /emdash /asciitilde /trademark /scaron
/guilsinglright /oe /bullet /zcaron /Ydieresis
/space /exclamdown /cent /sterling /currency
/yen /brokenbar /section /dieresis /copyright
/ordfeminine /guillemotleft /logicalnot /sfthyphen /registered
/macron /degree /plusminus /twosuperior /threesuperior
/acute /mu /paragraph /middot /cedilla
/onesuperior /ordmasculine /guillemotright /onequarter /onehalf
/threequarters /questiondown /Agrave /Aacute /Acircumflex
/Atilde /Adieresis /Aring /AE /Ccedilla
/Egrave /Eacute /Ecircumflex /Edieresis /Igrave
/Iacute /Icircumflex /Idieresis /Eth /Ntilde
/Ograve /Oacute /Ocircumflex /Otilde /Odieresis
/multiply /Oslash /Ugrave /Uacute /Ucircumflex
/Udieresis /Yacute /Thorn /germandbls /agrave
/aacute /acircumflex /atilde /adieresis /aring
/ae /ccedilla /egrave /eacute /ecircumflex
/edieresis /igrave /iacute /icircumflex /idieresis
/eth /ntilde /ograve /oacute /ocircumflex
/otilde /odieresis /divide /oslash /ugrave
/uacute /ucircumflex /udieresis /yacute /thorn
/ydieresis
] def
%%EndResource
%FOPBeginFontReencode
/Courier-Bold findfont
dup length dict begin
  {1 index /FID ne {def} {pop pop} ifelse} forall
  /Encoding WinAnsiEncoding def
  currentdict
end
/Courier-Bold exch definefont pop
/Helvetica findfont
dup length dict begin
  {1 index /FID ne {def} {pop pop} ifelse} forall
  /Encoding WinAnsiEncoding def
  currentdict
end
/Helvetica exch definefont pop
/Courier-BoldOblique findfont
dup length dict begin
  {1 index /FID ne {def} {pop pop} ifelse} forall
  /Encoding WinAnsiEncoding def
  currentdict
end
/Courier-BoldOblique exch definefont pop
/Courier-Oblique findfont
dup length dict begin
  {1 index /FID ne {def} {pop pop} ifelse} forall
  /Encoding WinAnsiEncoding def
  currentdict
end
/Courier-Oblique exch definefont pop
/Times-Roman findfont
dup length dict begin
  {1 index /FID ne {def} {pop pop} ifelse} forall
  /Encoding WinAnsiEncoding def
  currentdict
end
/Times-Roman exch definefont pop
/Helvetica-BoldOblique findfont
dup length dict begin
  {1 index /FID ne {def} {pop pop} ifelse} forall
  /Encoding WinAnsiEncoding def
  currentdict
end
/Helvetica-BoldOblique exch definefont pop
/Helvetica-Bold findfont
dup length dict begin
  {1 index /FID ne {def} {pop pop} ifelse} forall
  /Encoding WinAnsiEncoding def
  currentdict
end
/Helvetica-Bold exch definefont pop
/Helvetica-Oblique findfont
dup length dict begin
  {1 index /FID ne {def} {pop pop} ifelse} forall
  /Encoding WinAnsiEncoding def
  currentdict
end
/Helvetica-Oblique exch definefont pop
/Times-BoldItalic findfont
dup length dict begin
  {1 index /FID ne {def} {pop pop} ifelse} forall
  /Encoding WinAnsiEncoding def
  currentdict
end
/Times-BoldItalic exch definefont pop
/Courier findfont
dup length dict begin
  {1 index /FID ne {def} {pop pop} ifelse} forall
  /Encoding WinAnsiEncoding def
  currentdict
end
/Courier exch definefont pop
/Times-Italic findfont
dup length dict begin
  {1 index /FID ne {def} {pop pop} ifelse} forall
  /Encoding WinAnsiEncoding def
  currentdict
end
/Times-Italic exch definefont pop
/Times-Bold findfont
dup length dict begin
  {1 index /FID ne {def} {pop pop} ifelse} forall
  /Encoding WinAnsiEncoding def
  currentdict
end
/Times-Bold exch definefont pop
%FOPEndFontReencode
%%EndProlog
%%Page: 1 1
%%PageBoundingBox: 0 0 560 420
%%BeginPageSetup
[1 0 0 -1 0 420] CT
%%EndPageSetup
GS
1 GC
N
0 0 560 420 re
f
GR
GS
1 GC
N
0 0 560 420 re
f
GR
GS
1 GC
N
73 374 M
507 374 L
507 31 L
73 31 L
cp
f
GR
GS
[1 0 0 1 290.00021 390] CT
0.149 GC
/Helvetica-Bold 11 F
GS
[1 0 0 1 0 0] CT
-52 9 moveto 
1 -1 scale
(System Throughput) t 
GR
GR
GS
0.149 GC
2 setlinecap
10.0 ML
N
73 374 M
507 374 L
S
GR
GS
0.149 GC
2 setlinecap
10.0 ML
N
73 31 M
507 31 L
S
GR
GS
0.149 GC
2 setlinecap
10.0 ML
N
73 374 M
73 369.66 L
S
GR
GS
0.149 GC
2 setlinecap
10.0 ML
N
135 374 M
135 369.66 L
S
GR
GS
0.149 GC
2 setlinecap
10.0 ML
N
197 374 M
197 369.66 L
S
GR
GS
0.149 GC
2 setlinecap
10.0 ML
N
259 374 M
259 369.66 L
S
GR
GS
0.149 GC
2 setlinecap
10.0 ML
N
321 374 M
321 369.66 L
S
GR
GS
0.149 GC
2 setlinecap
10.0 ML
N
383 374 M
383 369.66 L
S
GR
GS
0.149 GC
2 setlinecap
10.0 ML
N
445 374 M
445 369.66 L
S
GR
GS
0.149 GC
2 setlinecap
10.0 ML
N
507 374 M
507 369.66 L
S
GR
GS
0.149 GC
2 setlinecap
10.0 ML
N
73 31 M
73 35.34 L
S
GR
GS
0.149 GC
2 setlinecap
10.0 ML
N
135 31 M
135 35.34 L
S
GR
GS
0.149 GC
2 setlinecap
10.0 ML
N
197 31 M
197 35.34 L
S
GR
GS
0.149 GC
2 setlinecap
10.0 ML
N
259 31 M
259 35.34 L
S
GR
GS
0.149 GC
2 setlinecap
10.0 ML
N
321 31 M
321 35.34 L
S
GR
GS
0.149 GC
2 setlinecap
10.0 ML
N
383 31 M
383 35.34 L
S
GR
GS
0.149 GC
2 setlinecap
10.0 ML
N
445 31 M
445 35.34 L
S
GR
GS
0.149 GC
2 setlinecap
10.0 ML
N
507 31 M
507 35.34 L
S
GR
GS
[1 0 0 1 73 378] CT
0.149 GC
/Helvetica-Bold 10 F
GS
[1 0 0 1 0 0] CT
-3 8 moveto 
1 -1 scale
(0) t 
GR
GR
GS
[1 0 0 1 135 378] CT
0.149 GC
/Helvetica-Bold 10 F
GS
[1 0 0 1 0 0] CT
-7 8 moveto 
1 -1 scale
(0.2) t 
GR
GR
GS
[1 0 0 1 197 378] CT
0.149 GC
/Helvetica-Bold 10 F
GS
[1 0 0 1 0 0] CT
-7 8 moveto 
1 -1 scale
(0.4) t 
GR
GR
GS
[1 0 0 1 259 378] CT
0.149 GC
/Helvetica-Bold 10 F
GS
[1 0 0 1 0 0] CT
-7 8 moveto 
1 -1 scale
(0.6) t 
GR
GR
GS
[1 0 0 1 321 378] CT
0.149 GC
/Helvetica-Bold 10 F
GS
[1 0 0 1 0 0] CT
-7 8 moveto 
1 -1 scale
(0.8) t 
GR
GR
GS
[1 0 0 1 383 378] CT
0.149 GC
/Helvetica-Bold 10 F
GS
[1 0 0 1 0 0] CT
-3 8 moveto 
1 -1 scale
(1) t 
GR
GR
GS
[1 0 0 1 445 378] CT
0.149 GC
/Helvetica-Bold 10 F
GS
[1 0 0 1 0 0] CT
-7 8 moveto 
1 -1 scale
(1.2) t 
GR
GR
GS
[1 0 0 1 507 378] CT
0.149 GC
/Helvetica-Bold 10 F
GS
[1 0 0 1 0 0] CT
-7 8 moveto 
1 -1 scale
(1.4) t 
GR
GR
GS
[0 -1 1 0 52 202.49983] CT
0.149 GC
/Helvetica-Bold 11 F
GS
[1 0 0 1 0 0] CT
-60 -3 moveto 
1 -1 scale
(Cumulative Probability) t 
GR
GR
GS
0.149 GC
2 setlinecap
10.0 ML
N
73 374 M
73 31 L
S
GR
GS
0.149 GC
2 setlinecap
10.0 ML
N
507 374 M
507 31 L
S
GR
GS
0.149 GC
2 setlinecap
10.0 ML
N
73 374 M
77.34 374 L
S
GR
GS
0.149 GC
2 setlinecap
10.0 ML
N
73 339.7 M
77.34 339.7 L
S
GR
GS
0.149 GC
2 setlinecap
10.0 ML
N
73 305.4 M
77.34 305.4 L
S
GR
GS
0.149 GC
2 setlinecap
10.0 ML
N
73 271.1 M
77.34 271.1 L
S
GR
GS
0.149 GC
2 setlinecap
10.0 ML
N
73 236.8 M
77.34 236.8 L
S
GR
GS
0.149 GC
2 setlinecap
10.0 ML
N
73 202.5 M
77.34 202.5 L
S
GR
GS
0.149 GC
2 setlinecap
10.0 ML
N
73 168.2 M
77.34 168.2 L
S
GR
GS
0.149 GC
2 setlinecap
10.0 ML
N
73 133.9 M
77.34 133.9 L
S
GR
GS
0.149 GC
2 setlinecap
10.0 ML
N
73 99.6 M
77.34 99.6 L
S
GR
GS
0.149 GC
2 setlinecap
10.0 ML
N
73 65.3 M
77.34 65.3 L
S
GR
GS
0.149 GC
2 setlinecap
10.0 ML
N
73 31 M
77.34 31 L
S
GR
GS
0.149 GC
2 setlinecap
10.0 ML
N
507 374 M
502.66 374 L
S
GR
GS
0.149 GC
2 setlinecap
10.0 ML
N
507 339.7 M
502.66 339.7 L
S
GR
GS
0.149 GC
2 setlinecap
10.0 ML
N
507 305.4 M
502.66 305.4 L
S
GR
GS
0.149 GC
2 setlinecap
10.0 ML
N
507 271.1 M
502.66 271.1 L
S
GR
GS
0.149 GC
2 setlinecap
10.0 ML
N
507 236.8 M
502.66 236.8 L
S
GR
GS
0.149 GC
2 setlinecap
10.0 ML
N
507 202.5 M
502.66 202.5 L
S
GR
GS
0.149 GC
2 setlinecap
10.0 ML
N
507 168.2 M
502.66 168.2 L
S
GR
GS
0.149 GC
2 setlinecap
10.0 ML
N
507 133.9 M
502.66 133.9 L
S
GR
GS
0.149 GC
2 setlinecap
10.0 ML
N
507 99.6 M
502.66 99.6 L
S
GR
GS
0.149 GC
2 setlinecap
10.0 ML
N
507 65.3 M
502.66 65.3 L
S
GR
GS
0.149 GC
2 setlinecap
10.0 ML
N
507 31 M
502.66 31 L
S
GR
GS
[1 0 0 1 69 374] CT
0.149 GC
/Helvetica-Bold 10 F
GS
[1 0 0 1 0 0] CT
-6 2.5 moveto 
1 -1 scale
(0) t 
GR
GR
GS
[1 0 0 1 69 339.70001] CT
0.149 GC
/Helvetica-Bold 10 F
GS
[1 0 0 1 0 0] CT
-14 2.5 moveto 
1 -1 scale
(0.1) t 
GR
GR
GS
[1 0 0 1 69 305.39999] CT
0.149 GC
/Helvetica-Bold 10 F
GS
[1 0 0 1 0 0] CT
-14 2.5 moveto 
1 -1 scale
(0.2) t 
GR
GR
GS
[1 0 0 1 69 271.10001] CT
0.149 GC
/Helvetica-Bold 10 F
GS
[1 0 0 1 0 0] CT
-14 2.5 moveto 
1 -1 scale
(0.3) t 
GR
GR
GS
[1 0 0 1 69 236.8] CT
0.149 GC
/Helvetica-Bold 10 F
GS
[1 0 0 1 0 0] CT
-14 2.5 moveto 
1 -1 scale
(0.4) t 
GR
GR
GS
[1 0 0 1 69 202.5] CT
0.149 GC
/Helvetica-Bold 10 F
GS
[1 0 0 1 0 0] CT
-14 2.5 moveto 
1 -1 scale
(0.5) t 
GR
GR
GS
[1 0 0 1 69 168.2] CT
0.149 GC
/Helvetica-Bold 10 F
GS
[1 0 0 1 0 0] CT
-14 2.5 moveto 
1 -1 scale
(0.6) t 
GR
GR
GS
[1 0 0 1 69 133.90001] CT
0.149 GC
/Helvetica-Bold 10 F
GS
[1 0 0 1 0 0] CT
-14 2.5 moveto 
1 -1 scale
(0.7) t 
GR
GR
GS
[1 0 0 1 69 99.6] CT
0.149 GC
/Helvetica-Bold 10 F
GS
[1 0 0 1 0 0] CT
-14 2.5 moveto 
1 -1 scale
(0.8) t 
GR
GR
GS
[1 0 0 1 69 65.30001] CT
0.149 GC
/Helvetica-Bold 10 F
GS
[1 0 0 1 0 0] CT
-14 2.5 moveto 
1 -1 scale
(0.9) t 
GR
GR
GS
[1 0 0 1 69 31] CT
0.149 GC
/Helvetica-Bold 10 F
GS
[1 0 0 1 0 0] CT
-6 2.5 moveto 
1 -1 scale
(1) t 
GR
GR
GS
0 0 1 RC
2 LJ
2 LW
N
73 374 M
73 360.28 L
95.047 356.85 L
95.49 353.42 L
100.256 349.99 L
102.029 346.56 L
107.647 343.13 L
110.981 339.7 L
111.449 336.27 L
112.555 332.84 L
113.103 329.41 L
115.45 325.98 L
116.231 322.55 L
116.605 319.12 L
118.386 315.69 L
119.709 312.26 L
119.751 308.83 L
119.88 305.4 L
120.533 301.97 L
120.728 298.54 L
121.478 295.11 L
121.955 291.68 L
123.555 288.25 L
126.269 284.82 L
126.316 281.39 L
128.657 277.96 L
129.113 274.53 L
129.285 271.1 L
130.686 267.67 L
131.176 264.24 L
133.34 260.81 L
135.225 257.38 L
136.797 253.95 L
137.804 250.52 L
138.175 247.09 L
140.997 243.66 L
141.85 240.23 L
146.103 236.8 L
147.209 233.37 L
148.679 229.94 L
151.24 226.51 L
152.737 223.08 L
155.204 219.65 L
155.593 216.22 L
157.533 212.79 L
159.825 202.5 L
160.274 199.07 L
162.966 195.64 L
164.939 192.21 L
165.462 188.78 L
S
GR
GS
0 0 1 RC
2 LJ
2 LW
N
165.462 188.78 M
165.501 185.35 L
169.21 181.92 L
169.298 178.49 L
170.791 175.06 L
171.163 171.63 L
178.585 168.2 L
178.634 164.77 L
178.931 161.34 L
182.385 157.91 L
182.875 154.48 L
183.276 151.05 L
183.539 147.62 L
187.203 144.19 L
196.908 140.76 L
197.45 137.33 L
198.044 133.9 L
201.644 130.47 L
206.794 127.04 L
207.501 123.61 L
207.506 120.18 L
207.539 116.75 L
207.553 113.32 L
207.569 109.89 L
207.591 106.46 L
207.593 103.03 L
207.602 99.6 L
207.611 92.74 L
220.216 89.31 L
220.279 85.88 L
220.343 82.45 L
236.884 79.02 L
253.951 75.59 L
253.965 72.16 L
253.977 68.73 L
253.993 65.3 L
277.653 61.87 L
277.679 58.44 L
277.68 55.01 L
277.698 51.58 L
277.857 48.15 L
363.031 44.72 L
363.034 41.29 L
363.048 37.86 L
363.067 34.43 L
363.167 31 L
S
GR
GS
0 0 1 RC
2 LJ
2 LW
N
70 373.5 M
77 373.5 L
S
GR
GS
0 0 1 RC
2 LJ
2 LW
N
73.5 377 M
73.5 370 L
S
GR
GS
0 0 1 RC
2 LJ
2 LW
N
70 360.5 M
77 360.5 L
S
GR
GS
0 0 1 RC
2 LJ
2 LW
N
73.5 364 M
73.5 357 L
S
GR
GS
0 0 1 RC
2 LJ
2 LW
N
92 356.5 M
99 356.5 L
S
GR
GS
0 0 1 RC
2 LJ
2 LW
N
95.5 360 M
95.5 353 L
S
GR
GS
0 0 1 RC
2 LJ
2 LW
N
92 353.5 M
99 353.5 L
S
GR
GS
0 0 1 RC
2 LJ
2 LW
N
95.5 357 M
95.5 350 L
S
GR
GS
0 0 1 RC
2 LJ
2 LW
N
97 349.5 M
104 349.5 L
S
GR
GS
0 0 1 RC
2 LJ
2 LW
N
100.5 353 M
100.5 346 L
S
GR
GS
0 0 1 RC
2 LJ
2 LW
N
99 346.5 M
106 346.5 L
S
GR
GS
0 0 1 RC
2 LJ
2 LW
N
102.5 350 M
102.5 343 L
S
GR
GS
0 0 1 RC
2 LJ
2 LW
N
104 343.5 M
111 343.5 L
S
GR
GS
0 0 1 RC
2 LJ
2 LW
N
107.5 347 M
107.5 340 L
S
GR
GS
0 0 1 RC
2 LJ
2 LW
N
107 339.5 M
114 339.5 L
S
GR
GS
0 0 1 RC
2 LJ
2 LW
N
110.5 343 M
110.5 336 L
S
GR
GS
0 0 1 RC
2 LJ
2 LW
N
108 336.5 M
115 336.5 L
S
GR
GS
0 0 1 RC
2 LJ
2 LW
N
111.5 340 M
111.5 333 L
S
GR
GS
0 0 1 RC
2 LJ
2 LW
N
109 332.5 M
116 332.5 L
S
GR
GS
0 0 1 RC
2 LJ
2 LW
N
112.5 336 M
112.5 329 L
S
GR
GS
0 0 1 RC
2 LJ
2 LW
N
110 329.5 M
117 329.5 L
S
GR
GS
0 0 1 RC
2 LJ
2 LW
N
113.5 333 M
113.5 326 L
S
GR
GS
0 0 1 RC
2 LJ
2 LW
N
112 325.5 M
119 325.5 L
S
GR
GS
0 0 1 RC
2 LJ
2 LW
N
115.5 329 M
115.5 322 L
S
GR
GS
0 0 1 RC
2 LJ
2 LW
N
113 322.5 M
120 322.5 L
S
GR
GS
0 0 1 RC
2 LJ
2 LW
N
116.5 326 M
116.5 319 L
S
GR
GS
0 0 1 RC
2 LJ
2 LW
N
113 319.5 M
120 319.5 L
S
GR
GS
0 0 1 RC
2 LJ
2 LW
N
116.5 323 M
116.5 316 L
S
GR
GS
0 0 1 RC
2 LJ
2 LW
N
115 315.5 M
122 315.5 L
S
GR
GS
0 0 1 RC
2 LJ
2 LW
N
118.5 319 M
118.5 312 L
S
GR
GS
0 0 1 RC
2 LJ
2 LW
N
116 312.5 M
123 312.5 L
S
GR
GS
0 0 1 RC
2 LJ
2 LW
N
119.5 316 M
119.5 309 L
S
GR
GS
0 0 1 RC
2 LJ
2 LW
N
116 308.5 M
123 308.5 L
S
GR
GS
0 0 1 RC
2 LJ
2 LW
N
119.5 312 M
119.5 305 L
S
GR
GS
0 0 1 RC
2 LJ
2 LW
N
116 305.5 M
123 305.5 L
S
GR
GS
0 0 1 RC
2 LJ
2 LW
N
119.5 309 M
119.5 302 L
S
GR
GS
0 0 1 RC
2 LJ
2 LW
N
117 301.5 M
124 301.5 L
S
GR
GS
0 0 1 RC
2 LJ
2 LW
N
120.5 305 M
120.5 298 L
S
GR
GS
0 0 1 RC
2 LJ
2 LW
N
117 298.5 M
124 298.5 L
S
GR
GS
0 0 1 RC
2 LJ
2 LW
N
120.5 302 M
120.5 295 L
S
GR
GS
0 0 1 RC
2 LJ
2 LW
N
118 295.5 M
125 295.5 L
S
GR
GS
0 0 1 RC
2 LJ
2 LW
N
121.5 299 M
121.5 292 L
S
GR
GS
0 0 1 RC
2 LJ
2 LW
N
118 291.5 M
125 291.5 L
S
GR
GS
0 0 1 RC
2 LJ
2 LW
N
121.5 295 M
121.5 288 L
S
GR
GS
0 0 1 RC
2 LJ
2 LW
N
120 288.5 M
127 288.5 L
S
GR
GS
0 0 1 RC
2 LJ
2 LW
N
123.5 292 M
123.5 285 L
S
GR
GS
0 0 1 RC
2 LJ
2 LW
N
123 284.5 M
130 284.5 L
S
GR
GS
0 0 1 RC
2 LJ
2 LW
N
126.5 288 M
126.5 281 L
S
GR
GS
0 0 1 RC
2 LJ
2 LW
N
123 281.5 M
130 281.5 L
S
GR
GS
0 0 1 RC
2 LJ
2 LW
N
126.5 285 M
126.5 278 L
S
GR
GS
0 0 1 RC
2 LJ
2 LW
N
125 277.5 M
132 277.5 L
S
GR
GS
0 0 1 RC
2 LJ
2 LW
N
128.5 281 M
128.5 274 L
S
GR
GS
0 0 1 RC
2 LJ
2 LW
N
126 274.5 M
133 274.5 L
S
GR
GS
0 0 1 RC
2 LJ
2 LW
N
129.5 278 M
129.5 271 L
S
GR
GS
0 0 1 RC
2 LJ
2 LW
N
126 271.5 M
133 271.5 L
S
GR
GS
0 0 1 RC
2 LJ
2 LW
N
129.5 275 M
129.5 268 L
S
GR
GS
0 0 1 RC
2 LJ
2 LW
N
127 267.5 M
134 267.5 L
S
GR
GS
0 0 1 RC
2 LJ
2 LW
N
130.5 271 M
130.5 264 L
S
GR
GS
0 0 1 RC
2 LJ
2 LW
N
128 264.5 M
135 264.5 L
S
GR
GS
0 0 1 RC
2 LJ
2 LW
N
131.5 268 M
131.5 261 L
S
GR
GS
0 0 1 RC
2 LJ
2 LW
N
130 260.5 M
137 260.5 L
S
GR
GS
0 0 1 RC
2 LJ
2 LW
N
133.5 264 M
133.5 257 L
S
GR
GS
0 0 1 RC
2 LJ
2 LW
N
132 257.5 M
139 257.5 L
S
GR
GS
0 0 1 RC
2 LJ
2 LW
N
135.5 261 M
135.5 254 L
S
GR
GS
0 0 1 RC
2 LJ
2 LW
N
133 253.5 M
140 253.5 L
S
GR
GS
0 0 1 RC
2 LJ
2 LW
N
136.5 257 M
136.5 250 L
S
GR
GS
0 0 1 RC
2 LJ
2 LW
N
134 250.5 M
141 250.5 L
S
GR
GS
0 0 1 RC
2 LJ
2 LW
N
137.5 254 M
137.5 247 L
S
GR
GS
0 0 1 RC
2 LJ
2 LW
N
135 247.5 M
142 247.5 L
S
GR
GS
0 0 1 RC
2 LJ
2 LW
N
138.5 251 M
138.5 244 L
S
GR
GS
0 0 1 RC
2 LJ
2 LW
N
137 243.5 M
144 243.5 L
S
GR
GS
0 0 1 RC
2 LJ
2 LW
N
140.5 247 M
140.5 240 L
S
GR
GS
0 0 1 RC
2 LJ
2 LW
N
138 240.5 M
145 240.5 L
S
GR
GS
0 0 1 RC
2 LJ
2 LW
N
141.5 244 M
141.5 237 L
S
GR
GS
0 0 1 RC
2 LJ
2 LW
N
143 236.5 M
150 236.5 L
S
GR
GS
0 0 1 RC
2 LJ
2 LW
N
146.5 240 M
146.5 233 L
S
GR
GS
0 0 1 RC
2 LJ
2 LW
N
144 233.5 M
151 233.5 L
S
GR
GS
0 0 1 RC
2 LJ
2 LW
N
147.5 237 M
147.5 230 L
S
GR
GS
0 0 1 RC
2 LJ
2 LW
N
145 229.5 M
152 229.5 L
S
GR
GS
0 0 1 RC
2 LJ
2 LW
N
148.5 233 M
148.5 226 L
S
GR
GS
0 0 1 RC
2 LJ
2 LW
N
148 226.5 M
155 226.5 L
S
GR
GS
0 0 1 RC
2 LJ
2 LW
N
151.5 230 M
151.5 223 L
S
GR
GS
0 0 1 RC
2 LJ
2 LW
N
149 223.5 M
156 223.5 L
S
GR
GS
0 0 1 RC
2 LJ
2 LW
N
152.5 227 M
152.5 220 L
S
GR
GS
0 0 1 RC
2 LJ
2 LW
N
152 219.5 M
159 219.5 L
S
GR
GS
0 0 1 RC
2 LJ
2 LW
N
155.5 223 M
155.5 216 L
S
GR
GS
0 0 1 RC
2 LJ
2 LW
N
152 216.5 M
159 216.5 L
S
GR
GS
0 0 1 RC
2 LJ
2 LW
N
155.5 220 M
155.5 213 L
S
GR
GS
0 0 1 RC
2 LJ
2 LW
N
154 212.5 M
161 212.5 L
S
GR
GS
0 0 1 RC
2 LJ
2 LW
N
157.5 216 M
157.5 209 L
S
GR
GS
0 0 1 RC
2 LJ
2 LW
N
156 202.5 M
163 202.5 L
S
GR
GS
0 0 1 RC
2 LJ
2 LW
N
159.5 206 M
159.5 199 L
S
GR
GS
0 0 1 RC
2 LJ
2 LW
N
157 199.5 M
164 199.5 L
S
GR
GS
0 0 1 RC
2 LJ
2 LW
N
160.5 203 M
160.5 196 L
S
GR
GS
0 0 1 RC
2 LJ
2 LW
N
159 195.5 M
166 195.5 L
S
GR
GS
0 0 1 RC
2 LJ
2 LW
N
162.5 199 M
162.5 192 L
S
GR
GS
0 0 1 RC
2 LJ
2 LW
N
161 192.5 M
168 192.5 L
S
GR
GS
0 0 1 RC
2 LJ
2 LW
N
164.5 196 M
164.5 189 L
S
GR
GS
0 0 1 RC
2 LJ
2 LW
N
162 188.5 M
169 188.5 L
S
GR
GS
0 0 1 RC
2 LJ
2 LW
N
165.5 192 M
165.5 185 L
S
GR
GS
0 0 1 RC
2 LJ
2 LW
N
162 185.5 M
169 185.5 L
S
GR
GS
0 0 1 RC
2 LJ
2 LW
N
165.5 189 M
165.5 182 L
S
GR
GS
0 0 1 RC
2 LJ
2 LW
N
166 181.5 M
173 181.5 L
S
GR
GS
0 0 1 RC
2 LJ
2 LW
N
169.5 185 M
169.5 178 L
S
GR
GS
0 0 1 RC
2 LJ
2 LW
N
166 178.5 M
173 178.5 L
S
GR
GS
0 0 1 RC
2 LJ
2 LW
N
169.5 182 M
169.5 175 L
S
GR
GS
0 0 1 RC
2 LJ
2 LW
N
167 175.5 M
174 175.5 L
S
GR
GS
0 0 1 RC
2 LJ
2 LW
N
170.5 179 M
170.5 172 L
S
GR
GS
0 0 1 RC
2 LJ
2 LW
N
168 171.5 M
175 171.5 L
S
GR
GS
0 0 1 RC
2 LJ
2 LW
N
171.5 175 M
171.5 168 L
S
GR
GS
0 0 1 RC
2 LJ
2 LW
N
175 168.5 M
182 168.5 L
S
GR
GS
0 0 1 RC
2 LJ
2 LW
N
178.5 172 M
178.5 165 L
S
GR
GS
0 0 1 RC
2 LJ
2 LW
N
175 164.5 M
182 164.5 L
S
GR
GS
0 0 1 RC
2 LJ
2 LW
N
178.5 168 M
178.5 161 L
S
GR
GS
0 0 1 RC
2 LJ
2 LW
N
175 161.5 M
182 161.5 L
S
GR
GS
0 0 1 RC
2 LJ
2 LW
N
178.5 165 M
178.5 158 L
S
GR
GS
0 0 1 RC
2 LJ
2 LW
N
179 157.5 M
186 157.5 L
S
GR
GS
0 0 1 RC
2 LJ
2 LW
N
182.5 161 M
182.5 154 L
S
GR
GS
0 0 1 RC
2 LJ
2 LW
N
179 154.5 M
186 154.5 L
S
GR
GS
0 0 1 RC
2 LJ
2 LW
N
182.5 158 M
182.5 151 L
S
GR
GS
0 0 1 RC
2 LJ
2 LW
N
180 151.5 M
187 151.5 L
S
GR
GS
0 0 1 RC
2 LJ
2 LW
N
183.5 155 M
183.5 148 L
S
GR
GS
0 0 1 RC
2 LJ
2 LW
N
180 147.5 M
187 147.5 L
S
GR
GS
0 0 1 RC
2 LJ
2 LW
N
183.5 151 M
183.5 144 L
S
GR
GS
0 0 1 RC
2 LJ
2 LW
N
184 144.5 M
191 144.5 L
S
GR
GS
0 0 1 RC
2 LJ
2 LW
N
187.5 148 M
187.5 141 L
S
GR
GS
0 0 1 RC
2 LJ
2 LW
N
193 140.5 M
200 140.5 L
S
GR
GS
0 0 1 RC
2 LJ
2 LW
N
196.5 144 M
196.5 137 L
S
GR
GS
0 0 1 RC
2 LJ
2 LW
N
194 137.5 M
201 137.5 L
S
GR
GS
0 0 1 RC
2 LJ
2 LW
N
197.5 141 M
197.5 134 L
S
GR
GS
0 0 1 RC
2 LJ
2 LW
N
195 133.5 M
202 133.5 L
S
GR
GS
0 0 1 RC
2 LJ
2 LW
N
198.5 137 M
198.5 130 L
S
GR
GS
0 0 1 RC
2 LJ
2 LW
N
198 130.5 M
205 130.5 L
S
GR
GS
0 0 1 RC
2 LJ
2 LW
N
201.5 134 M
201.5 127 L
S
GR
GS
0 0 1 RC
2 LJ
2 LW
N
203 127.5 M
210 127.5 L
S
GR
GS
0 0 1 RC
2 LJ
2 LW
N
206.5 131 M
206.5 124 L
S
GR
GS
0 0 1 RC
2 LJ
2 LW
N
204 123.5 M
211 123.5 L
S
GR
GS
0 0 1 RC
2 LJ
2 LW
N
207.5 127 M
207.5 120 L
S
GR
GS
0 0 1 RC
2 LJ
2 LW
N
204 120.5 M
211 120.5 L
S
GR
GS
0 0 1 RC
2 LJ
2 LW
N
207.5 124 M
207.5 117 L
S
GR
GS
0 0 1 RC
2 LJ
2 LW
N
204 116.5 M
211 116.5 L
S
GR
GS
0 0 1 RC
2 LJ
2 LW
N
207.5 120 M
207.5 113 L
S
GR
GS
0 0 1 RC
2 LJ
2 LW
N
204 113.5 M
211 113.5 L
S
GR
GS
0 0 1 RC
2 LJ
2 LW
N
207.5 117 M
207.5 110 L
S
GR
GS
0 0 1 RC
2 LJ
2 LW
N
204 109.5 M
211 109.5 L
S
GR
GS
0 0 1 RC
2 LJ
2 LW
N
207.5 113 M
207.5 106 L
S
GR
GS
0 0 1 RC
2 LJ
2 LW
N
204 106.5 M
211 106.5 L
S
GR
GS
0 0 1 RC
2 LJ
2 LW
N
207.5 110 M
207.5 103 L
S
GR
GS
0 0 1 RC
2 LJ
2 LW
N
204 103.5 M
211 103.5 L
S
GR
GS
0 0 1 RC
2 LJ
2 LW
N
207.5 107 M
207.5 100 L
S
GR
GS
0 0 1 RC
2 LJ
2 LW
N
204 99.5 M
211 99.5 L
S
GR
GS
0 0 1 RC
2 LJ
2 LW
N
207.5 103 M
207.5 96 L
S
GR
GS
0 0 1 RC
2 LJ
2 LW
N
204 92.5 M
211 92.5 L
S
GR
GS
0 0 1 RC
2 LJ
2 LW
N
207.5 96 M
207.5 89 L
S
GR
GS
0 0 1 RC
2 LJ
2 LW
N
217 89.5 M
224 89.5 L
S
GR
GS
0 0 1 RC
2 LJ
2 LW
N
220.5 93 M
220.5 86 L
S
GR
GS
0 0 1 RC
2 LJ
2 LW
N
217 85.5 M
224 85.5 L
S
GR
GS
0 0 1 RC
2 LJ
2 LW
N
220.5 89 M
220.5 82 L
S
GR
GS
0 0 1 RC
2 LJ
2 LW
N
217 82.5 M
224 82.5 L
S
GR
GS
0 0 1 RC
2 LJ
2 LW
N
220.5 86 M
220.5 79 L
S
GR
GS
0 0 1 RC
2 LJ
2 LW
N
233 79.5 M
240 79.5 L
S
GR
GS
0 0 1 RC
2 LJ
2 LW
N
236.5 83 M
236.5 76 L
S
GR
GS
0 0 1 RC
2 LJ
2 LW
N
250 75.5 M
257 75.5 L
S
GR
GS
0 0 1 RC
2 LJ
2 LW
N
253.5 79 M
253.5 72 L
S
GR
GS
0 0 1 RC
2 LJ
2 LW
N
250 72.5 M
257 72.5 L
S
GR
GS
0 0 1 RC
2 LJ
2 LW
N
253.5 76 M
253.5 69 L
S
GR
GS
0 0 1 RC
2 LJ
2 LW
N
250 68.5 M
257 68.5 L
S
GR
GS
0 0 1 RC
2 LJ
2 LW
N
253.5 72 M
253.5 65 L
S
GR
GS
0 0 1 RC
2 LJ
2 LW
N
250 65.5 M
257 65.5 L
S
GR
GS
0 0 1 RC
2 LJ
2 LW
N
253.5 69 M
253.5 62 L
S
GR
GS
0 0 1 RC
2 LJ
2 LW
N
274 61.5 M
281 61.5 L
S
GR
GS
0 0 1 RC
2 LJ
2 LW
N
277.5 65 M
277.5 58 L
S
GR
GS
0 0 1 RC
2 LJ
2 LW
N
274 58.5 M
281 58.5 L
S
GR
GS
0 0 1 RC
2 LJ
2 LW
N
277.5 62 M
277.5 55 L
S
GR
GS
0 0 1 RC
2 LJ
2 LW
N
274 55.5 M
281 55.5 L
S
GR
GS
0 0 1 RC
2 LJ
2 LW
N
277.5 59 M
277.5 52 L
S
GR
GS
0 0 1 RC
2 LJ
2 LW
N
274 51.5 M
281 51.5 L
S
GR
GS
0 0 1 RC
2 LJ
2 LW
N
277.5 55 M
277.5 48 L
S
GR
GS
0 0 1 RC
2 LJ
2 LW
N
274 48.5 M
281 48.5 L
S
GR
GS
0 0 1 RC
2 LJ
2 LW
N
277.5 52 M
277.5 45 L
S
GR
GS
0 0 1 RC
2 LJ
2 LW
N
360 44.5 M
367 44.5 L
S
GR
GS
0 0 1 RC
2 LJ
2 LW
N
363.5 48 M
363.5 41 L
S
GR
GS
0 0 1 RC
2 LJ
2 LW
N
360 41.5 M
367 41.5 L
S
GR
GS
0 0 1 RC
2 LJ
2 LW
N
363.5 45 M
363.5 38 L
S
GR
GS
0 0 1 RC
2 LJ
2 LW
N
360 37.5 M
367 37.5 L
S
GR
GS
0 0 1 RC
2 LJ
2 LW
N
363.5 41 M
363.5 34 L
S
GR
GS
0 0 1 RC
2 LJ
2 LW
N
360 34.5 M
367 34.5 L
S
GR
GS
0 0 1 RC
2 LJ
2 LW
N
363.5 38 M
363.5 31 L
S
GR
GS
0 0 1 RC
2 LJ
2 LW
N
360 30.5 M
367 30.5 L
S
GR
GS
0 0 1 RC
2 LJ
2 LW
N
363.5 34 M
363.5 27 L
S
GR
GS
0 1 1 RC
[8 8] 0 setdash
2 LJ
2 LW
N
94.495 374 M
94.495 370.57 L
100.075 367.14 L
100.44 363.71 L
104.861 360.28 L
106.894 356.85 L
108.288 353.42 L
113.495 349.99 L
119.816 346.56 L
120.174 343.13 L
120.331 339.7 L
120.394 336.27 L
121.388 332.84 L
124.495 329.41 L
125.508 325.98 L
125.735 322.55 L
126.06 319.12 L
126.978 315.69 L
127.976 312.26 L
128.045 308.83 L
128.18 305.4 L
129.318 301.97 L
132.27 298.54 L
133.721 295.11 L
135.527 291.68 L
136.519 288.25 L
136.796 284.82 L
137.107 281.39 L
138.085 277.96 L
139.643 274.53 L
139.806 271.1 L
139.835 267.67 L
140.551 264.24 L
140.763 260.81 L
142.016 257.38 L
142.759 253.95 L
142.856 250.52 L
144.545 247.09 L
145.927 243.66 L
146.881 240.23 L
147.101 236.8 L
148.426 233.37 L
149.497 229.94 L
151.24 226.51 L
151.557 223.08 L
151.637 219.65 L
152.507 216.22 L
153.669 212.79 L
153.917 209.36 L
157.464 205.93 L
157.707 202.5 L
159.825 199.07 L
160.986 195.64 L
163.132 192.21 L
164.466 188.78 L
164.651 185.35 L
164.939 181.92 L
165.158 178.49 L
166.867 175.06 L
169.121 171.63 L
169.835 168.2 L
170.609 164.77 L
173.547 161.34 L
175.323 157.91 L
177.695 154.48 L
178.057 151.05 L
179.469 147.62 L
183.397 144.19 L
186.823 140.76 L
188.202 137.33 L
190.383 133.9 L
191.539 130.47 L
191.636 127.04 L
207.542 123.61 L
207.611 120.18 L
210.086 116.75 L
211.479 113.32 L
220.251 109.89 L
220.28 106.46 L
220.299 103.03 L
221.484 99.6 L
221.985 96.17 L
221.985 92.74 L
223.983 89.31 L
227.274 85.88 L
245.804 82.45 L
253.947 79.02 L
253.957 75.59 L
253.96 72.16 L
253.974 68.73 L
253.988 65.3 L
254.036 61.87 L
254.044 58.44 L
277.653 55.01 L
277.723 51.58 L
277.733 48.15 L
277.734 44.72 L
277.737 41.29 L
277.741 37.86 L
277.747 34.43 L
277.819 31 L
S
GR
GS
0 1 1 RC
2 setlinecap
10.0 ML
2 LW
N
97.5 373.5 M
96.621 371.379 L
94.5 370.5 L
92.379 371.379 L
91.5 373.5 L
92.379 375.621 L
94.5 376.5 L
96.621 375.621 L
97.5 373.5 L
S
GR
GS
0 1 1 RC
2 setlinecap
10.0 ML
2 LW
N
97.5 370.5 M
96.621 368.379 L
94.5 367.5 L
92.379 368.379 L
91.5 370.5 L
92.379 372.621 L
94.5 373.5 L
96.621 372.621 L
97.5 370.5 L
S
GR
GS
0 1 1 RC
2 setlinecap
10.0 ML
2 LW
N
103.5 367.5 M
102.621 365.379 L
100.5 364.5 L
98.379 365.379 L
97.5 367.5 L
98.379 369.621 L
100.5 370.5 L
102.621 369.621 L
103.5 367.5 L
S
GR
GS
0 1 1 RC
2 setlinecap
10.0 ML
2 LW
N
103.5 363.5 M
102.621 361.379 L
100.5 360.5 L
98.379 361.379 L
97.5 363.5 L
98.379 365.621 L
100.5 366.5 L
102.621 365.621 L
103.5 363.5 L
S
GR
GS
0 1 1 RC
2 setlinecap
10.0 ML
2 LW
N
107.5 360.5 M
106.621 358.379 L
104.5 357.5 L
102.379 358.379 L
101.5 360.5 L
102.379 362.621 L
104.5 363.5 L
106.621 362.621 L
107.5 360.5 L
S
GR
GS
0 1 1 RC
2 setlinecap
10.0 ML
2 LW
N
109.5 356.5 M
108.621 354.379 L
106.5 353.5 L
104.379 354.379 L
103.5 356.5 L
104.379 358.621 L
106.5 359.5 L
108.621 358.621 L
109.5 356.5 L
S
GR
GS
0 1 1 RC
2 setlinecap
10.0 ML
2 LW
N
111.5 353.5 M
110.621 351.379 L
108.5 350.5 L
106.379 351.379 L
105.5 353.5 L
106.379 355.621 L
108.5 356.5 L
110.621 355.621 L
111.5 353.5 L
S
GR
GS
0 1 1 RC
2 setlinecap
10.0 ML
2 LW
N
116.5 349.5 M
115.621 347.379 L
113.5 346.5 L
111.379 347.379 L
110.5 349.5 L
111.379 351.621 L
113.5 352.5 L
115.621 351.621 L
116.5 349.5 L
S
GR
GS
0 1 1 RC
2 setlinecap
10.0 ML
2 LW
N
122.5 346.5 M
121.621 344.379 L
119.5 343.5 L
117.379 344.379 L
116.5 346.5 L
117.379 348.621 L
119.5 349.5 L
121.621 348.621 L
122.5 346.5 L
S
GR
GS
0 1 1 RC
2 setlinecap
10.0 ML
2 LW
N
123.5 343.5 M
122.621 341.379 L
120.5 340.5 L
118.379 341.379 L
117.5 343.5 L
118.379 345.621 L
120.5 346.5 L
122.621 345.621 L
123.5 343.5 L
S
GR
GS
0 1 1 RC
2 setlinecap
10.0 ML
2 LW
N
123.5 339.5 M
122.621 337.379 L
120.5 336.5 L
118.379 337.379 L
117.5 339.5 L
118.379 341.621 L
120.5 342.5 L
122.621 341.621 L
123.5 339.5 L
S
GR
GS
0 1 1 RC
2 setlinecap
10.0 ML
2 LW
N
123.5 336.5 M
122.621 334.379 L
120.5 333.5 L
118.379 334.379 L
117.5 336.5 L
118.379 338.621 L
120.5 339.5 L
122.621 338.621 L
123.5 336.5 L
S
GR
GS
0 1 1 RC
2 setlinecap
10.0 ML
2 LW
N
124.5 332.5 M
123.621 330.379 L
121.5 329.5 L
119.379 330.379 L
118.5 332.5 L
119.379 334.621 L
121.5 335.5 L
123.621 334.621 L
124.5 332.5 L
S
GR
GS
0 1 1 RC
2 setlinecap
10.0 ML
2 LW
N
127.5 329.5 M
126.621 327.379 L
124.5 326.5 L
122.379 327.379 L
121.5 329.5 L
122.379 331.621 L
124.5 332.5 L
126.621 331.621 L
127.5 329.5 L
S
GR
GS
0 1 1 RC
2 setlinecap
10.0 ML
2 LW
N
128.5 325.5 M
127.621 323.379 L
125.5 322.5 L
123.379 323.379 L
122.5 325.5 L
123.379 327.621 L
125.5 328.5 L
127.621 327.621 L
128.5 325.5 L
S
GR
GS
0 1 1 RC
2 setlinecap
10.0 ML
2 LW
N
128.5 322.5 M
127.621 320.379 L
125.5 319.5 L
123.379 320.379 L
122.5 322.5 L
123.379 324.621 L
125.5 325.5 L
127.621 324.621 L
128.5 322.5 L
S
GR
GS
0 1 1 RC
2 setlinecap
10.0 ML
2 LW
N
129.5 319.5 M
128.621 317.379 L
126.5 316.5 L
124.379 317.379 L
123.5 319.5 L
124.379 321.621 L
126.5 322.5 L
128.621 321.621 L
129.5 319.5 L
S
GR
GS
0 1 1 RC
2 setlinecap
10.0 ML
2 LW
N
129.5 315.5 M
128.621 313.379 L
126.5 312.5 L
124.379 313.379 L
123.5 315.5 L
124.379 317.621 L
126.5 318.5 L
128.621 317.621 L
129.5 315.5 L
S
GR
GS
0 1 1 RC
2 setlinecap
10.0 ML
2 LW
N
130.5 312.5 M
129.621 310.379 L
127.5 309.5 L
125.379 310.379 L
124.5 312.5 L
125.379 314.621 L
127.5 315.5 L
129.621 314.621 L
130.5 312.5 L
S
GR
GS
0 1 1 RC
2 setlinecap
10.0 ML
2 LW
N
131.5 308.5 M
130.621 306.379 L
128.5 305.5 L
126.379 306.379 L
125.5 308.5 L
126.379 310.621 L
128.5 311.5 L
130.621 310.621 L
131.5 308.5 L
S
GR
GS
0 1 1 RC
2 setlinecap
10.0 ML
2 LW
N
131.5 305.5 M
130.621 303.379 L
128.5 302.5 L
126.379 303.379 L
125.5 305.5 L
126.379 307.621 L
128.5 308.5 L
130.621 307.621 L
131.5 305.5 L
S
GR
GS
0 1 1 RC
2 setlinecap
10.0 ML
2 LW
N
132.5 301.5 M
131.621 299.379 L
129.5 298.5 L
127.379 299.379 L
126.5 301.5 L
127.379 303.621 L
129.5 304.5 L
131.621 303.621 L
132.5 301.5 L
S
GR
GS
0 1 1 RC
2 setlinecap
10.0 ML
2 LW
N
135.5 298.5 M
134.621 296.379 L
132.5 295.5 L
130.379 296.379 L
129.5 298.5 L
130.379 300.621 L
132.5 301.5 L
134.621 300.621 L
135.5 298.5 L
S
GR
GS
0 1 1 RC
2 setlinecap
10.0 ML
2 LW
N
136.5 295.5 M
135.621 293.379 L
133.5 292.5 L
131.379 293.379 L
130.5 295.5 L
131.379 297.621 L
133.5 298.5 L
135.621 297.621 L
136.5 295.5 L
S
GR
GS
0 1 1 RC
2 setlinecap
10.0 ML
2 LW
N
138.5 291.5 M
137.621 289.379 L
135.5 288.5 L
133.379 289.379 L
132.5 291.5 L
133.379 293.621 L
135.5 294.5 L
137.621 293.621 L
138.5 291.5 L
S
GR
GS
0 1 1 RC
2 setlinecap
10.0 ML
2 LW
N
139.5 288.5 M
138.621 286.379 L
136.5 285.5 L
134.379 286.379 L
133.5 288.5 L
134.379 290.621 L
136.5 291.5 L
138.621 290.621 L
139.5 288.5 L
S
GR
GS
0 1 1 RC
2 setlinecap
10.0 ML
2 LW
N
139.5 284.5 M
138.621 282.379 L
136.5 281.5 L
134.379 282.379 L
133.5 284.5 L
134.379 286.621 L
136.5 287.5 L
138.621 286.621 L
139.5 284.5 L
S
GR
GS
0 1 1 RC
2 setlinecap
10.0 ML
2 LW
N
140.5 281.5 M
139.621 279.379 L
137.5 278.5 L
135.379 279.379 L
134.5 281.5 L
135.379 283.621 L
137.5 284.5 L
139.621 283.621 L
140.5 281.5 L
S
GR
GS
0 1 1 RC
2 setlinecap
10.0 ML
2 LW
N
141.5 277.5 M
140.621 275.379 L
138.5 274.5 L
136.379 275.379 L
135.5 277.5 L
136.379 279.621 L
138.5 280.5 L
140.621 279.621 L
141.5 277.5 L
S
GR
GS
0 1 1 RC
2 setlinecap
10.0 ML
2 LW
N
142.5 274.5 M
141.621 272.379 L
139.5 271.5 L
137.379 272.379 L
136.5 274.5 L
137.379 276.621 L
139.5 277.5 L
141.621 276.621 L
142.5 274.5 L
S
GR
GS
0 1 1 RC
2 setlinecap
10.0 ML
2 LW
N
142.5 271.5 M
141.621 269.379 L
139.5 268.5 L
137.379 269.379 L
136.5 271.5 L
137.379 273.621 L
139.5 274.5 L
141.621 273.621 L
142.5 271.5 L
S
GR
GS
0 1 1 RC
2 setlinecap
10.0 ML
2 LW
N
142.5 267.5 M
141.621 265.379 L
139.5 264.5 L
137.379 265.379 L
136.5 267.5 L
137.379 269.621 L
139.5 270.5 L
141.621 269.621 L
142.5 267.5 L
S
GR
GS
0 1 1 RC
2 setlinecap
10.0 ML
2 LW
N
143.5 264.5 M
142.621 262.379 L
140.5 261.5 L
138.379 262.379 L
137.5 264.5 L
138.379 266.621 L
140.5 267.5 L
142.621 266.621 L
143.5 264.5 L
S
GR
GS
0 1 1 RC
2 setlinecap
10.0 ML
2 LW
N
143.5 260.5 M
142.621 258.379 L
140.5 257.5 L
138.379 258.379 L
137.5 260.5 L
138.379 262.621 L
140.5 263.5 L
142.621 262.621 L
143.5 260.5 L
S
GR
GS
0 1 1 RC
2 setlinecap
10.0 ML
2 LW
N
145.5 257.5 M
144.621 255.379 L
142.5 254.5 L
140.379 255.379 L
139.5 257.5 L
140.379 259.621 L
142.5 260.5 L
144.621 259.621 L
145.5 257.5 L
S
GR
GS
0 1 1 RC
2 setlinecap
10.0 ML
2 LW
N
145.5 253.5 M
144.621 251.379 L
142.5 250.5 L
140.379 251.379 L
139.5 253.5 L
140.379 255.621 L
142.5 256.5 L
144.621 255.621 L
145.5 253.5 L
S
GR
GS
0 1 1 RC
2 setlinecap
10.0 ML
2 LW
N
145.5 250.5 M
144.621 248.379 L
142.5 247.5 L
140.379 248.379 L
139.5 250.5 L
140.379 252.621 L
142.5 253.5 L
144.621 252.621 L
145.5 250.5 L
S
GR
GS
0 1 1 RC
2 setlinecap
10.0 ML
2 LW
N
147.5 247.5 M
146.621 245.379 L
144.5 244.5 L
142.379 245.379 L
141.5 247.5 L
142.379 249.621 L
144.5 250.5 L
146.621 249.621 L
147.5 247.5 L
S
GR
GS
0 1 1 RC
2 setlinecap
10.0 ML
2 LW
N
148.5 243.5 M
147.621 241.379 L
145.5 240.5 L
143.379 241.379 L
142.5 243.5 L
143.379 245.621 L
145.5 246.5 L
147.621 245.621 L
148.5 243.5 L
S
GR
GS
0 1 1 RC
2 setlinecap
10.0 ML
2 LW
N
149.5 240.5 M
148.621 238.379 L
146.5 237.5 L
144.379 238.379 L
143.5 240.5 L
144.379 242.621 L
146.5 243.5 L
148.621 242.621 L
149.5 240.5 L
S
GR
GS
0 1 1 RC
2 setlinecap
10.0 ML
2 LW
N
150.5 236.5 M
149.621 234.379 L
147.5 233.5 L
145.379 234.379 L
144.5 236.5 L
145.379 238.621 L
147.5 239.5 L
149.621 238.621 L
150.5 236.5 L
S
GR
GS
0 1 1 RC
2 setlinecap
10.0 ML
2 LW
N
151.5 233.5 M
150.621 231.379 L
148.5 230.5 L
146.379 231.379 L
145.5 233.5 L
146.379 235.621 L
148.5 236.5 L
150.621 235.621 L
151.5 233.5 L
S
GR
GS
0 1 1 RC
2 setlinecap
10.0 ML
2 LW
N
152.5 229.5 M
151.621 227.379 L
149.5 226.5 L
147.379 227.379 L
146.5 229.5 L
147.379 231.621 L
149.5 232.5 L
151.621 231.621 L
152.5 229.5 L
S
GR
GS
0 1 1 RC
2 setlinecap
10.0 ML
2 LW
N
154.5 226.5 M
153.621 224.379 L
151.5 223.5 L
149.379 224.379 L
148.5 226.5 L
149.379 228.621 L
151.5 229.5 L
153.621 228.621 L
154.5 226.5 L
S
GR
GS
0 1 1 RC
2 setlinecap
10.0 ML
2 LW
N
154.5 223.5 M
153.621 221.379 L
151.5 220.5 L
149.379 221.379 L
148.5 223.5 L
149.379 225.621 L
151.5 226.5 L
153.621 225.621 L
154.5 223.5 L
S
GR
GS
0 1 1 RC
2 setlinecap
10.0 ML
2 LW
N
154.5 219.5 M
153.621 217.379 L
151.5 216.5 L
149.379 217.379 L
148.5 219.5 L
149.379 221.621 L
151.5 222.5 L
153.621 221.621 L
154.5 219.5 L
S
GR
GS
0 1 1 RC
2 setlinecap
10.0 ML
2 LW
N
155.5 216.5 M
154.621 214.379 L
152.5 213.5 L
150.379 214.379 L
149.5 216.5 L
150.379 218.621 L
152.5 219.5 L
154.621 218.621 L
155.5 216.5 L
S
GR
GS
0 1 1 RC
2 setlinecap
10.0 ML
2 LW
N
156.5 212.5 M
155.621 210.379 L
153.5 209.5 L
151.379 210.379 L
150.5 212.5 L
151.379 214.621 L
153.5 215.5 L
155.621 214.621 L
156.5 212.5 L
S
GR
GS
0 1 1 RC
2 setlinecap
10.0 ML
2 LW
N
156.5 209.5 M
155.621 207.379 L
153.5 206.5 L
151.379 207.379 L
150.5 209.5 L
151.379 211.621 L
153.5 212.5 L
155.621 211.621 L
156.5 209.5 L
S
GR
GS
0 1 1 RC
2 setlinecap
10.0 ML
2 LW
N
160.5 205.5 M
159.621 203.379 L
157.5 202.5 L
155.379 203.379 L
154.5 205.5 L
155.379 207.621 L
157.5 208.5 L
159.621 207.621 L
160.5 205.5 L
S
GR
GS
0 1 1 RC
2 setlinecap
10.0 ML
2 LW
N
160.5 202.5 M
159.621 200.379 L
157.5 199.5 L
155.379 200.379 L
154.5 202.5 L
155.379 204.621 L
157.5 205.5 L
159.621 204.621 L
160.5 202.5 L
S
GR
GS
0 1 1 RC
2 setlinecap
10.0 ML
2 LW
N
162.5 199.5 M
161.621 197.379 L
159.5 196.5 L
157.379 197.379 L
156.5 199.5 L
157.379 201.621 L
159.5 202.5 L
161.621 201.621 L
162.5 199.5 L
S
GR
GS
0 1 1 RC
2 setlinecap
10.0 ML
2 LW
N
163.5 195.5 M
162.621 193.379 L
160.5 192.5 L
158.379 193.379 L
157.5 195.5 L
158.379 197.621 L
160.5 198.5 L
162.621 197.621 L
163.5 195.5 L
S
GR
GS
0 1 1 RC
2 setlinecap
10.0 ML
2 LW
N
166.5 192.5 M
165.621 190.379 L
163.5 189.5 L
161.379 190.379 L
160.5 192.5 L
161.379 194.621 L
163.5 195.5 L
165.621 194.621 L
166.5 192.5 L
S
GR
GS
0 1 1 RC
2 setlinecap
10.0 ML
2 LW
N
167.5 188.5 M
166.621 186.379 L
164.5 185.5 L
162.379 186.379 L
161.5 188.5 L
162.379 190.621 L
164.5 191.5 L
166.621 190.621 L
167.5 188.5 L
S
GR
GS
0 1 1 RC
2 setlinecap
10.0 ML
2 LW
N
167.5 185.5 M
166.621 183.379 L
164.5 182.5 L
162.379 183.379 L
161.5 185.5 L
162.379 187.621 L
164.5 188.5 L
166.621 187.621 L
167.5 185.5 L
S
GR
GS
0 1 1 RC
2 setlinecap
10.0 ML
2 LW
N
167.5 181.5 M
166.621 179.379 L
164.5 178.5 L
162.379 179.379 L
161.5 181.5 L
162.379 183.621 L
164.5 184.5 L
166.621 183.621 L
167.5 181.5 L
S
GR
GS
0 1 1 RC
2 setlinecap
10.0 ML
2 LW
N
168.5 178.5 M
167.621 176.379 L
165.5 175.5 L
163.379 176.379 L
162.5 178.5 L
163.379 180.621 L
165.5 181.5 L
167.621 180.621 L
168.5 178.5 L
S
GR
GS
0 1 1 RC
2 setlinecap
10.0 ML
2 LW
N
169.5 175.5 M
168.621 173.379 L
166.5 172.5 L
164.379 173.379 L
163.5 175.5 L
164.379 177.621 L
166.5 178.5 L
168.621 177.621 L
169.5 175.5 L
S
GR
GS
0 1 1 RC
2 setlinecap
10.0 ML
2 LW
N
172.5 171.5 M
171.621 169.379 L
169.5 168.5 L
167.379 169.379 L
166.5 171.5 L
167.379 173.621 L
169.5 174.5 L
171.621 173.621 L
172.5 171.5 L
S
GR
GS
0 1 1 RC
2 setlinecap
10.0 ML
2 LW
N
172.5 168.5 M
171.621 166.379 L
169.5 165.5 L
167.379 166.379 L
166.5 168.5 L
167.379 170.621 L
169.5 171.5 L
171.621 170.621 L
172.5 168.5 L
S
GR
GS
0 1 1 RC
2 setlinecap
10.0 ML
2 LW
N
173.5 164.5 M
172.621 162.379 L
170.5 161.5 L
168.379 162.379 L
167.5 164.5 L
168.379 166.621 L
170.5 167.5 L
172.621 166.621 L
173.5 164.5 L
S
GR
GS
0 1 1 RC
2 setlinecap
10.0 ML
2 LW
N
176.5 161.5 M
175.621 159.379 L
173.5 158.5 L
171.379 159.379 L
170.5 161.5 L
171.379 163.621 L
173.5 164.5 L
175.621 163.621 L
176.5 161.5 L
S
GR
GS
0 1 1 RC
2 setlinecap
10.0 ML
2 LW
N
178.5 157.5 M
177.621 155.379 L
175.5 154.5 L
173.379 155.379 L
172.5 157.5 L
173.379 159.621 L
175.5 160.5 L
177.621 159.621 L
178.5 157.5 L
S
GR
GS
0 1 1 RC
2 setlinecap
10.0 ML
2 LW
N
180.5 154.5 M
179.621 152.379 L
177.5 151.5 L
175.379 152.379 L
174.5 154.5 L
175.379 156.621 L
177.5 157.5 L
179.621 156.621 L
180.5 154.5 L
S
GR
GS
0 1 1 RC
2 setlinecap
10.0 ML
2 LW
N
181.5 151.5 M
180.621 149.379 L
178.5 148.5 L
176.379 149.379 L
175.5 151.5 L
176.379 153.621 L
178.5 154.5 L
180.621 153.621 L
181.5 151.5 L
S
GR
GS
0 1 1 RC
2 setlinecap
10.0 ML
2 LW
N
182.5 147.5 M
181.621 145.379 L
179.5 144.5 L
177.379 145.379 L
176.5 147.5 L
177.379 149.621 L
179.5 150.5 L
181.621 149.621 L
182.5 147.5 L
S
GR
GS
0 1 1 RC
2 setlinecap
10.0 ML
2 LW
N
186.5 144.5 M
185.621 142.379 L
183.5 141.5 L
181.379 142.379 L
180.5 144.5 L
181.379 146.621 L
183.5 147.5 L
185.621 146.621 L
186.5 144.5 L
S
GR
GS
0 1 1 RC
2 setlinecap
10.0 ML
2 LW
N
189.5 140.5 M
188.621 138.379 L
186.5 137.5 L
184.379 138.379 L
183.5 140.5 L
184.379 142.621 L
186.5 143.5 L
188.621 142.621 L
189.5 140.5 L
S
GR
GS
0 1 1 RC
2 setlinecap
10.0 ML
2 LW
N
191.5 137.5 M
190.621 135.379 L
188.5 134.5 L
186.379 135.379 L
185.5 137.5 L
186.379 139.621 L
188.5 140.5 L
190.621 139.621 L
191.5 137.5 L
S
GR
GS
0 1 1 RC
2 setlinecap
10.0 ML
2 LW
N
193.5 133.5 M
192.621 131.379 L
190.5 130.5 L
188.379 131.379 L
187.5 133.5 L
188.379 135.621 L
190.5 136.5 L
192.621 135.621 L
193.5 133.5 L
S
GR
GS
0 1 1 RC
2 setlinecap
10.0 ML
2 LW
N
194.5 130.5 M
193.621 128.379 L
191.5 127.5 L
189.379 128.379 L
188.5 130.5 L
189.379 132.621 L
191.5 133.5 L
193.621 132.621 L
194.5 130.5 L
S
GR
GS
0 1 1 RC
2 setlinecap
10.0 ML
2 LW
N
194.5 127.5 M
193.621 125.379 L
191.5 124.5 L
189.379 125.379 L
188.5 127.5 L
189.379 129.621 L
191.5 130.5 L
193.621 129.621 L
194.5 127.5 L
S
GR
GS
0 1 1 RC
2 setlinecap
10.0 ML
2 LW
N
210.5 123.5 M
209.621 121.379 L
207.5 120.5 L
205.379 121.379 L
204.5 123.5 L
205.379 125.621 L
207.5 126.5 L
209.621 125.621 L
210.5 123.5 L
S
GR
GS
0 1 1 RC
2 setlinecap
10.0 ML
2 LW
N
210.5 120.5 M
209.621 118.379 L
207.5 117.5 L
205.379 118.379 L
204.5 120.5 L
205.379 122.621 L
207.5 123.5 L
209.621 122.621 L
210.5 120.5 L
S
GR
GS
0 1 1 RC
2 setlinecap
10.0 ML
2 LW
N
213.5 116.5 M
212.621 114.379 L
210.5 113.5 L
208.379 114.379 L
207.5 116.5 L
208.379 118.621 L
210.5 119.5 L
212.621 118.621 L
213.5 116.5 L
S
GR
GS
0 1 1 RC
2 setlinecap
10.0 ML
2 LW
N
214.5 113.5 M
213.621 111.379 L
211.5 110.5 L
209.379 111.379 L
208.5 113.5 L
209.379 115.621 L
211.5 116.5 L
213.621 115.621 L
214.5 113.5 L
S
GR
GS
0 1 1 RC
2 setlinecap
10.0 ML
2 LW
N
223.5 109.5 M
222.621 107.379 L
220.5 106.5 L
218.379 107.379 L
217.5 109.5 L
218.379 111.621 L
220.5 112.5 L
222.621 111.621 L
223.5 109.5 L
S
GR
GS
0 1 1 RC
2 setlinecap
10.0 ML
2 LW
N
223.5 106.5 M
222.621 104.379 L
220.5 103.5 L
218.379 104.379 L
217.5 106.5 L
218.379 108.621 L
220.5 109.5 L
222.621 108.621 L
223.5 106.5 L
S
GR
GS
0 1 1 RC
2 setlinecap
10.0 ML
2 LW
N
223.5 103.5 M
222.621 101.379 L
220.5 100.5 L
218.379 101.379 L
217.5 103.5 L
218.379 105.621 L
220.5 106.5 L
222.621 105.621 L
223.5 103.5 L
S
GR
GS
0 1 1 RC
2 setlinecap
10.0 ML
2 LW
N
224.5 99.5 M
223.621 97.379 L
221.5 96.5 L
219.379 97.379 L
218.5 99.5 L
219.379 101.621 L
221.5 102.5 L
223.621 101.621 L
224.5 99.5 L
S
GR
GS
0 1 1 RC
2 setlinecap
10.0 ML
2 LW
N
224.5 96.5 M
223.621 94.379 L
221.5 93.5 L
219.379 94.379 L
218.5 96.5 L
219.379 98.621 L
221.5 99.5 L
223.621 98.621 L
224.5 96.5 L
S
GR
GS
0 1 1 RC
2 setlinecap
10.0 ML
2 LW
N
224.5 92.5 M
223.621 90.379 L
221.5 89.5 L
219.379 90.379 L
218.5 92.5 L
219.379 94.621 L
221.5 95.5 L
223.621 94.621 L
224.5 92.5 L
S
GR
GS
0 1 1 RC
2 setlinecap
10.0 ML
2 LW
N
226.5 89.5 M
225.621 87.379 L
223.5 86.5 L
221.379 87.379 L
220.5 89.5 L
221.379 91.621 L
223.5 92.5 L
225.621 91.621 L
226.5 89.5 L
S
GR
GS
0 1 1 RC
2 setlinecap
10.0 ML
2 LW
N
230.5 85.5 M
229.621 83.379 L
227.5 82.5 L
225.379 83.379 L
224.5 85.5 L
225.379 87.621 L
227.5 88.5 L
229.621 87.621 L
230.5 85.5 L
S
GR
GS
0 1 1 RC
2 setlinecap
10.0 ML
2 LW
N
248.5 82.5 M
247.621 80.379 L
245.5 79.5 L
243.379 80.379 L
242.5 82.5 L
243.379 84.621 L
245.5 85.5 L
247.621 84.621 L
248.5 82.5 L
S
GR
GS
0 1 1 RC
2 setlinecap
10.0 ML
2 LW
N
256.5 79.5 M
255.621 77.379 L
253.5 76.5 L
251.379 77.379 L
250.5 79.5 L
251.379 81.621 L
253.5 82.5 L
255.621 81.621 L
256.5 79.5 L
S
GR
GS
0 1 1 RC
2 setlinecap
10.0 ML
2 LW
N
256.5 75.5 M
255.621 73.379 L
253.5 72.5 L
251.379 73.379 L
250.5 75.5 L
251.379 77.621 L
253.5 78.5 L
255.621 77.621 L
256.5 75.5 L
S
GR
GS
0 1 1 RC
2 setlinecap
10.0 ML
2 LW
N
256.5 72.5 M
255.621 70.379 L
253.5 69.5 L
251.379 70.379 L
250.5 72.5 L
251.379 74.621 L
253.5 75.5 L
255.621 74.621 L
256.5 72.5 L
S
GR
GS
0 1 1 RC
2 setlinecap
10.0 ML
2 LW
N
256.5 68.5 M
255.621 66.379 L
253.5 65.5 L
251.379 66.379 L
250.5 68.5 L
251.379 70.621 L
253.5 71.5 L
255.621 70.621 L
256.5 68.5 L
S
GR
GS
0 1 1 RC
2 setlinecap
10.0 ML
2 LW
N
256.5 65.5 M
255.621 63.379 L
253.5 62.5 L
251.379 63.379 L
250.5 65.5 L
251.379 67.621 L
253.5 68.5 L
255.621 67.621 L
256.5 65.5 L
S
GR
GS
0 1 1 RC
2 setlinecap
10.0 ML
2 LW
N
257.5 61.5 M
256.621 59.379 L
254.5 58.5 L
252.379 59.379 L
251.5 61.5 L
252.379 63.621 L
254.5 64.5 L
256.621 63.621 L
257.5 61.5 L
S
GR
GS
0 1 1 RC
2 setlinecap
10.0 ML
2 LW
N
257.5 58.5 M
256.621 56.379 L
254.5 55.5 L
252.379 56.379 L
251.5 58.5 L
252.379 60.621 L
254.5 61.5 L
256.621 60.621 L
257.5 58.5 L
S
GR
GS
0 1 1 RC
2 setlinecap
10.0 ML
2 LW
N
280.5 55.5 M
279.621 53.379 L
277.5 52.5 L
275.379 53.379 L
274.5 55.5 L
275.379 57.621 L
277.5 58.5 L
279.621 57.621 L
280.5 55.5 L
S
GR
GS
0 1 1 RC
2 setlinecap
10.0 ML
2 LW
N
280.5 51.5 M
279.621 49.379 L
277.5 48.5 L
275.379 49.379 L
274.5 51.5 L
275.379 53.621 L
277.5 54.5 L
279.621 53.621 L
280.5 51.5 L
S
GR
GS
0 1 1 RC
2 setlinecap
10.0 ML
2 LW
N
280.5 48.5 M
279.621 46.379 L
277.5 45.5 L
275.379 46.379 L
274.5 48.5 L
275.379 50.621 L
277.5 51.5 L
279.621 50.621 L
280.5 48.5 L
S
GR
GS
0 1 1 RC
2 setlinecap
10.0 ML
2 LW
N
280.5 44.5 M
279.621 42.379 L
277.5 41.5 L
275.379 42.379 L
274.5 44.5 L
275.379 46.621 L
277.5 47.5 L
279.621 46.621 L
280.5 44.5 L
S
GR
GS
0 1 1 RC
2 setlinecap
10.0 ML
2 LW
N
280.5 41.5 M
279.621 39.379 L
277.5 38.5 L
275.379 39.379 L
274.5 41.5 L
275.379 43.621 L
277.5 44.5 L
279.621 43.621 L
280.5 41.5 L
S
GR
GS
0 1 1 RC
2 setlinecap
10.0 ML
2 LW
N
280.5 37.5 M
279.621 35.379 L
277.5 34.5 L
275.379 35.379 L
274.5 37.5 L
275.379 39.621 L
277.5 40.5 L
279.621 39.621 L
280.5 37.5 L
S
GR
GS
0 1 1 RC
2 setlinecap
10.0 ML
2 LW
N
280.5 34.5 M
279.621 32.379 L
277.5 31.5 L
275.379 32.379 L
274.5 34.5 L
275.379 36.621 L
277.5 37.5 L
279.621 36.621 L
280.5 34.5 L
S
GR
GS
0 1 1 RC
2 setlinecap
10.0 ML
2 LW
N
280.5 30.5 M
279.621 28.379 L
277.5 27.5 L
275.379 28.379 L
274.5 30.5 L
275.379 32.621 L
277.5 33.5 L
279.621 32.621 L
280.5 30.5 L
S
GR
GS
1 1 0 RC
2 setlinecap
10.0 ML
2 LW
N
73 374 M
73 367.14 L
97.279 363.71 L
100.489 360.28 L
101.904 356.85 L
106.268 353.42 L
107.718 349.99 L
111.979 346.56 L
117.706 343.13 L
121.081 339.7 L
122.963 336.27 L
123.748 332.84 L
126.811 329.41 L
129.089 325.98 L
129.497 322.55 L
129.739 319.12 L
129.9 315.69 L
130.101 312.26 L
132.446 308.83 L
133.608 305.4 L
134.209 301.97 L
136.576 298.54 L
138.149 295.11 L
138.443 291.68 L
140.087 288.25 L
140.551 284.82 L
141.023 281.39 L
143.06 277.96 L
143.59 274.53 L
144.729 271.1 L
144.794 267.67 L
147.242 264.24 L
147.614 260.81 L
148.455 257.38 L
149.649 253.95 L
152.602 250.52 L
153.869 247.09 L
154.233 243.66 L
155.125 240.23 L
155.819 236.8 L
157.031 233.37 L
157.336 229.94 L
157.545 226.51 L
158.709 223.08 L
158.806 219.65 L
161.565 216.22 L
162.532 212.79 L
163.669 209.36 L
163.831 205.93 L
164.62 202.5 L
S
GR
GS
1 1 0 RC
2 setlinecap
10.0 ML
2 LW
N
164.62 202.5 M
164.909 199.07 L
164.939 192.21 L
164.939 188.78 L
166.413 185.35 L
169.003 181.92 L
169.117 178.49 L
169.121 175.06 L
169.144 171.63 L
171.089 168.2 L
173.778 164.77 L
175.891 161.34 L
175.891 157.91 L
176.315 154.48 L
176.787 151.05 L
177.652 147.62 L
178.659 144.19 L
179.01 140.76 L
179.866 137.33 L
180.182 133.9 L
181.888 130.47 L
186.529 127.04 L
186.801 123.61 L
187.203 120.18 L
187.293 116.75 L
191.55 113.32 L
192.084 109.89 L
196.151 106.46 L
196.229 103.03 L
202.572 99.6 L
202.572 96.17 L
202.72 92.74 L
207.563 89.31 L
208.01 85.88 L
209.774 82.45 L
211.001 79.02 L
212.469 75.59 L
220.32 72.16 L
222.509 68.73 L
228.668 65.3 L
253.992 61.87 L
256.878 58.44 L
277.687 55.01 L
277.698 51.58 L
277.735 48.15 L
277.746 44.72 L
277.819 41.29 L
277.857 37.86 L
297.447 34.43 L
482.305 31 L
S
GR
GS
1 1 0 RC
2 setlinecap
10.0 ML
2 LW
N
70 373.5 M
77 373.5 L
S
GR
GS
1 1 0 RC
2 setlinecap
10.0 ML
2 LW
N
73.5 377 M
73.5 370 L
S
GR
GS
1 1 0 RC
2 setlinecap
10.0 ML
2 LW
N
71 376 M
76 371 L
S
GR
GS
1 1 0 RC
2 setlinecap
10.0 ML
2 LW
N
71 371 M
76 376 L
S
GR
GS
1 1 0 RC
2 setlinecap
10.0 ML
2 LW
N
70 367.5 M
77 367.5 L
S
GR
GS
1 1 0 RC
2 setlinecap
10.0 ML
2 LW
N
73.5 371 M
73.5 364 L
S
GR
GS
1 1 0 RC
2 setlinecap
10.0 ML
2 LW
N
71 370 M
76 365 L
S
GR
GS
1 1 0 RC
2 setlinecap
10.0 ML
2 LW
N
71 365 M
76 370 L
S
GR
GS
1 1 0 RC
2 setlinecap
10.0 ML
2 LW
N
94 363.5 M
101 363.5 L
S
GR
GS
1 1 0 RC
2 setlinecap
10.0 ML
2 LW
N
97.5 367 M
97.5 360 L
S
GR
GS
1 1 0 RC
2 setlinecap
10.0 ML
2 LW
N
95 366 M
100 361 L
S
GR
GS
1 1 0 RC
2 setlinecap
10.0 ML
2 LW
N
95 361 M
100 366 L
S
GR
GS
1 1 0 RC
2 setlinecap
10.0 ML
2 LW
N
97 360.5 M
104 360.5 L
S
GR
GS
1 1 0 RC
2 setlinecap
10.0 ML
2 LW
N
100.5 364 M
100.5 357 L
S
GR
GS
1 1 0 RC
2 setlinecap
10.0 ML
2 LW
N
98 363 M
103 358 L
S
GR
GS
1 1 0 RC
2 setlinecap
10.0 ML
2 LW
N
98 358 M
103 363 L
S
GR
GS
1 1 0 RC
2 setlinecap
10.0 ML
2 LW
N
98 356.5 M
105 356.5 L
S
GR
GS
1 1 0 RC
2 setlinecap
10.0 ML
2 LW
N
101.5 360 M
101.5 353 L
S
GR
GS
1 1 0 RC
2 setlinecap
10.0 ML
2 LW
N
99 359 M
104 354 L
S
GR
GS
1 1 0 RC
2 setlinecap
10.0 ML
2 LW
N
99 354 M
104 359 L
S
GR
GS
1 1 0 RC
2 setlinecap
10.0 ML
2 LW
N
103 353.5 M
110 353.5 L
S
GR
GS
1 1 0 RC
2 setlinecap
10.0 ML
2 LW
N
106.5 357 M
106.5 350 L
S
GR
GS
1 1 0 RC
2 setlinecap
10.0 ML
2 LW
N
104 356 M
109 351 L
S
GR
GS
1 1 0 RC
2 setlinecap
10.0 ML
2 LW
N
104 351 M
109 356 L
S
GR
GS
1 1 0 RC
2 setlinecap
10.0 ML
2 LW
N
104 349.5 M
111 349.5 L
S
GR
GS
1 1 0 RC
2 setlinecap
10.0 ML
2 LW
N
107.5 353 M
107.5 346 L
S
GR
GS
1 1 0 RC
2 setlinecap
10.0 ML
2 LW
N
105 352 M
110 347 L
S
GR
GS
1 1 0 RC
2 setlinecap
10.0 ML
2 LW
N
105 347 M
110 352 L
S
GR
GS
1 1 0 RC
2 setlinecap
10.0 ML
2 LW
N
108 346.5 M
115 346.5 L
S
GR
GS
1 1 0 RC
2 setlinecap
10.0 ML
2 LW
N
111.5 350 M
111.5 343 L
S
GR
GS
1 1 0 RC
2 setlinecap
10.0 ML
2 LW
N
109 349 M
114 344 L
S
GR
GS
1 1 0 RC
2 setlinecap
10.0 ML
2 LW
N
109 344 M
114 349 L
S
GR
GS
1 1 0 RC
2 setlinecap
10.0 ML
2 LW
N
114 343.5 M
121 343.5 L
S
GR
GS
1 1 0 RC
2 setlinecap
10.0 ML
2 LW
N
117.5 347 M
117.5 340 L
S
GR
GS
1 1 0 RC
2 setlinecap
10.0 ML
2 LW
N
115 346 M
120 341 L
S
GR
GS
1 1 0 RC
2 setlinecap
10.0 ML
2 LW
N
115 341 M
120 346 L
S
GR
GS
1 1 0 RC
2 setlinecap
10.0 ML
2 LW
N
118 339.5 M
125 339.5 L
S
GR
GS
1 1 0 RC
2 setlinecap
10.0 ML
2 LW
N
121.5 343 M
121.5 336 L
S
GR
GS
1 1 0 RC
2 setlinecap
10.0 ML
2 LW
N
119 342 M
124 337 L
S
GR
GS
1 1 0 RC
2 setlinecap
10.0 ML
2 LW
N
119 337 M
124 342 L
S
GR
GS
1 1 0 RC
2 setlinecap
10.0 ML
2 LW
N
119 336.5 M
126 336.5 L
S
GR
GS
1 1 0 RC
2 setlinecap
10.0 ML
2 LW
N
122.5 340 M
122.5 333 L
S
GR
GS
1 1 0 RC
2 setlinecap
10.0 ML
2 LW
N
120 339 M
125 334 L
S
GR
GS
1 1 0 RC
2 setlinecap
10.0 ML
2 LW
N
120 334 M
125 339 L
S
GR
GS
1 1 0 RC
2 setlinecap
10.0 ML
2 LW
N
120 332.5 M
127 332.5 L
S
GR
GS
1 1 0 RC
2 setlinecap
10.0 ML
2 LW
N
123.5 336 M
123.5 329 L
S
GR
GS
1 1 0 RC
2 setlinecap
10.0 ML
2 LW
N
121 335 M
126 330 L
S
GR
GS
1 1 0 RC
2 setlinecap
10.0 ML
2 LW
N
121 330 M
126 335 L
S
GR
GS
1 1 0 RC
2 setlinecap
10.0 ML
2 LW
N
123 329.5 M
130 329.5 L
S
GR
GS
1 1 0 RC
2 setlinecap
10.0 ML
2 LW
N
126.5 333 M
126.5 326 L
S
GR
GS
1 1 0 RC
2 setlinecap
10.0 ML
2 LW
N
124 332 M
129 327 L
S
GR
GS
1 1 0 RC
2 setlinecap
10.0 ML
2 LW
N
124 327 M
129 332 L
S
GR
GS
1 1 0 RC
2 setlinecap
10.0 ML
2 LW
N
126 325.5 M
133 325.5 L
S
GR
GS
1 1 0 RC
2 setlinecap
10.0 ML
2 LW
N
129.5 329 M
129.5 322 L
S
GR
GS
1 1 0 RC
2 setlinecap
10.0 ML
2 LW
N
127 328 M
132 323 L
S
GR
GS
1 1 0 RC
2 setlinecap
10.0 ML
2 LW
N
127 323 M
132 328 L
S
GR
GS
1 1 0 RC
2 setlinecap
10.0 ML
2 LW
N
126 322.5 M
133 322.5 L
S
GR
GS
1 1 0 RC
2 setlinecap
10.0 ML
2 LW
N
129.5 326 M
129.5 319 L
S
GR
GS
1 1 0 RC
2 setlinecap
10.0 ML
2 LW
N
127 325 M
132 320 L
S
GR
GS
1 1 0 RC
2 setlinecap
10.0 ML
2 LW
N
127 320 M
132 325 L
S
GR
GS
1 1 0 RC
2 setlinecap
10.0 ML
2 LW
N
126 319.5 M
133 319.5 L
S
GR
GS
1 1 0 RC
2 setlinecap
10.0 ML
2 LW
N
129.5 323 M
129.5 316 L
S
GR
GS
1 1 0 RC
2 setlinecap
10.0 ML
2 LW
N
127 322 M
132 317 L
S
GR
GS
1 1 0 RC
2 setlinecap
10.0 ML
2 LW
N
127 317 M
132 322 L
S
GR
GS
1 1 0 RC
2 setlinecap
10.0 ML
2 LW
N
126 315.5 M
133 315.5 L
S
GR
GS
1 1 0 RC
2 setlinecap
10.0 ML
2 LW
N
129.5 319 M
129.5 312 L
S
GR
GS
1 1 0 RC
2 setlinecap
10.0 ML
2 LW
N
127 318 M
132 313 L
S
GR
GS
1 1 0 RC
2 setlinecap
10.0 ML
2 LW
N
127 313 M
132 318 L
S
GR
GS
1 1 0 RC
2 setlinecap
10.0 ML
2 LW
N
127 312.5 M
134 312.5 L
S
GR
GS
1 1 0 RC
2 setlinecap
10.0 ML
2 LW
N
130.5 316 M
130.5 309 L
S
GR
GS
1 1 0 RC
2 setlinecap
10.0 ML
2 LW
N
128 315 M
133 310 L
S
GR
GS
1 1 0 RC
2 setlinecap
10.0 ML
2 LW
N
128 310 M
133 315 L
S
GR
GS
1 1 0 RC
2 setlinecap
10.0 ML
2 LW
N
129 308.5 M
136 308.5 L
S
GR
GS
1 1 0 RC
2 setlinecap
10.0 ML
2 LW
N
132.5 312 M
132.5 305 L
S
GR
GS
1 1 0 RC
2 setlinecap
10.0 ML
2 LW
N
130 311 M
135 306 L
S
GR
GS
1 1 0 RC
2 setlinecap
10.0 ML
2 LW
N
130 306 M
135 311 L
S
GR
GS
1 1 0 RC
2 setlinecap
10.0 ML
2 LW
N
130 305.5 M
137 305.5 L
S
GR
GS
1 1 0 RC
2 setlinecap
10.0 ML
2 LW
N
133.5 309 M
133.5 302 L
S
GR
GS
1 1 0 RC
2 setlinecap
10.0 ML
2 LW
N
131 308 M
136 303 L
S
GR
GS
1 1 0 RC
2 setlinecap
10.0 ML
2 LW
N
131 303 M
136 308 L
S
GR
GS
1 1 0 RC
2 setlinecap
10.0 ML
2 LW
N
131 301.5 M
138 301.5 L
S
GR
GS
1 1 0 RC
2 setlinecap
10.0 ML
2 LW
N
134.5 305 M
134.5 298 L
S
GR
GS
1 1 0 RC
2 setlinecap
10.0 ML
2 LW
N
132 304 M
137 299 L
S
GR
GS
1 1 0 RC
2 setlinecap
10.0 ML
2 LW
N
132 299 M
137 304 L
S
GR
GS
1 1 0 RC
2 setlinecap
10.0 ML
2 LW
N
133 298.5 M
140 298.5 L
S
GR
GS
1 1 0 RC
2 setlinecap
10.0 ML
2 LW
N
136.5 302 M
136.5 295 L
S
GR
GS
1 1 0 RC
2 setlinecap
10.0 ML
2 LW
N
134 301 M
139 296 L
S
GR
GS
1 1 0 RC
2 setlinecap
10.0 ML
2 LW
N
134 296 M
139 301 L
S
GR
GS
1 1 0 RC
2 setlinecap
10.0 ML
2 LW
N
135 295.5 M
142 295.5 L
S
GR
GS
1 1 0 RC
2 setlinecap
10.0 ML
2 LW
N
138.5 299 M
138.5 292 L
S
GR
GS
1 1 0 RC
2 setlinecap
10.0 ML
2 LW
N
136 298 M
141 293 L
S
GR
GS
1 1 0 RC
2 setlinecap
10.0 ML
2 LW
N
136 293 M
141 298 L
S
GR
GS
1 1 0 RC
2 setlinecap
10.0 ML
2 LW
N
135 291.5 M
142 291.5 L
S
GR
GS
1 1 0 RC
2 setlinecap
10.0 ML
2 LW
N
138.5 295 M
138.5 288 L
S
GR
GS
1 1 0 RC
2 setlinecap
10.0 ML
2 LW
N
136 294 M
141 289 L
S
GR
GS
1 1 0 RC
2 setlinecap
10.0 ML
2 LW
N
136 289 M
141 294 L
S
GR
GS
1 1 0 RC
2 setlinecap
10.0 ML
2 LW
N
137 288.5 M
144 288.5 L
S
GR
GS
1 1 0 RC
2 setlinecap
10.0 ML
2 LW
N
140.5 292 M
140.5 285 L
S
GR
GS
1 1 0 RC
2 setlinecap
10.0 ML
2 LW
N
138 291 M
143 286 L
S
GR
GS
1 1 0 RC
2 setlinecap
10.0 ML
2 LW
N
138 286 M
143 291 L
S
GR
GS
1 1 0 RC
2 setlinecap
10.0 ML
2 LW
N
137 284.5 M
144 284.5 L
S
GR
GS
1 1 0 RC
2 setlinecap
10.0 ML
2 LW
N
140.5 288 M
140.5 281 L
S
GR
GS
1 1 0 RC
2 setlinecap
10.0 ML
2 LW
N
138 287 M
143 282 L
S
GR
GS
1 1 0 RC
2 setlinecap
10.0 ML
2 LW
N
138 282 M
143 287 L
S
GR
GS
1 1 0 RC
2 setlinecap
10.0 ML
2 LW
N
138 281.5 M
145 281.5 L
S
GR
GS
1 1 0 RC
2 setlinecap
10.0 ML
2 LW
N
141.5 285 M
141.5 278 L
S
GR
GS
1 1 0 RC
2 setlinecap
10.0 ML
2 LW
N
139 284 M
144 279 L
S
GR
GS
1 1 0 RC
2 setlinecap
10.0 ML
2 LW
N
139 279 M
144 284 L
S
GR
GS
1 1 0 RC
2 setlinecap
10.0 ML
2 LW
N
140 277.5 M
147 277.5 L
S
GR
GS
1 1 0 RC
2 setlinecap
10.0 ML
2 LW
N
143.5 281 M
143.5 274 L
S
GR
GS
1 1 0 RC
2 setlinecap
10.0 ML
2 LW
N
141 280 M
146 275 L
S
GR
GS
1 1 0 RC
2 setlinecap
10.0 ML
2 LW
N
141 275 M
146 280 L
S
GR
GS
1 1 0 RC
2 setlinecap
10.0 ML
2 LW
N
140 274.5 M
147 274.5 L
S
GR
GS
1 1 0 RC
2 setlinecap
10.0 ML
2 LW
N
143.5 278 M
143.5 271 L
S
GR
GS
1 1 0 RC
2 setlinecap
10.0 ML
2 LW
N
141 277 M
146 272 L
S
GR
GS
1 1 0 RC
2 setlinecap
10.0 ML
2 LW
N
141 272 M
146 277 L
S
GR
GS
1 1 0 RC
2 setlinecap
10.0 ML
2 LW
N
141 271.5 M
148 271.5 L
S
GR
GS
1 1 0 RC
2 setlinecap
10.0 ML
2 LW
N
144.5 275 M
144.5 268 L
S
GR
GS
1 1 0 RC
2 setlinecap
10.0 ML
2 LW
N
142 274 M
147 269 L
S
GR
GS
1 1 0 RC
2 setlinecap
10.0 ML
2 LW
N
142 269 M
147 274 L
S
GR
GS
1 1 0 RC
2 setlinecap
10.0 ML
2 LW
N
141 267.5 M
148 267.5 L
S
GR
GS
1 1 0 RC
2 setlinecap
10.0 ML
2 LW
N
144.5 271 M
144.5 264 L
S
GR
GS
1 1 0 RC
2 setlinecap
10.0 ML
2 LW
N
142 270 M
147 265 L
S
GR
GS
1 1 0 RC
2 setlinecap
10.0 ML
2 LW
N
142 265 M
147 270 L
S
GR
GS
1 1 0 RC
2 setlinecap
10.0 ML
2 LW
N
144 264.5 M
151 264.5 L
S
GR
GS
1 1 0 RC
2 setlinecap
10.0 ML
2 LW
N
147.5 268 M
147.5 261 L
S
GR
GS
1 1 0 RC
2 setlinecap
10.0 ML
2 LW
N
145 267 M
150 262 L
S
GR
GS
1 1 0 RC
2 setlinecap
10.0 ML
2 LW
N
145 262 M
150 267 L
S
GR
GS
1 1 0 RC
2 setlinecap
10.0 ML
2 LW
N
144 260.5 M
151 260.5 L
S
GR
GS
1 1 0 RC
2 setlinecap
10.0 ML
2 LW
N
147.5 264 M
147.5 257 L
S
GR
GS
1 1 0 RC
2 setlinecap
10.0 ML
2 LW
N
145 263 M
150 258 L
S
GR
GS
1 1 0 RC
2 setlinecap
10.0 ML
2 LW
N
145 258 M
150 263 L
S
GR
GS
1 1 0 RC
2 setlinecap
10.0 ML
2 LW
N
145 257.5 M
152 257.5 L
S
GR
GS
1 1 0 RC
2 setlinecap
10.0 ML
2 LW
N
148.5 261 M
148.5 254 L
S
GR
GS
1 1 0 RC
2 setlinecap
10.0 ML
2 LW
N
146 260 M
151 255 L
S
GR
GS
1 1 0 RC
2 setlinecap
10.0 ML
2 LW
N
146 255 M
151 260 L
S
GR
GS
1 1 0 RC
2 setlinecap
10.0 ML
2 LW
N
146 253.5 M
153 253.5 L
S
GR
GS
1 1 0 RC
2 setlinecap
10.0 ML
2 LW
N
149.5 257 M
149.5 250 L
S
GR
GS
1 1 0 RC
2 setlinecap
10.0 ML
2 LW
N
147 256 M
152 251 L
S
GR
GS
1 1 0 RC
2 setlinecap
10.0 ML
2 LW
N
147 251 M
152 256 L
S
GR
GS
1 1 0 RC
2 setlinecap
10.0 ML
2 LW
N
149 250.5 M
156 250.5 L
S
GR
GS
1 1 0 RC
2 setlinecap
10.0 ML
2 LW
N
152.5 254 M
152.5 247 L
S
GR
GS
1 1 0 RC
2 setlinecap
10.0 ML
2 LW
N
150 253 M
155 248 L
S
GR
GS
1 1 0 RC
2 setlinecap
10.0 ML
2 LW
N
150 248 M
155 253 L
S
GR
GS
1 1 0 RC
2 setlinecap
10.0 ML
2 LW
N
150 247.5 M
157 247.5 L
S
GR
GS
1 1 0 RC
2 setlinecap
10.0 ML
2 LW
N
153.5 251 M
153.5 244 L
S
GR
GS
1 1 0 RC
2 setlinecap
10.0 ML
2 LW
N
151 250 M
156 245 L
S
GR
GS
1 1 0 RC
2 setlinecap
10.0 ML
2 LW
N
151 245 M
156 250 L
S
GR
GS
1 1 0 RC
2 setlinecap
10.0 ML
2 LW
N
151 243.5 M
158 243.5 L
S
GR
GS
1 1 0 RC
2 setlinecap
10.0 ML
2 LW
N
154.5 247 M
154.5 240 L
S
GR
GS
1 1 0 RC
2 setlinecap
10.0 ML
2 LW
N
152 246 M
157 241 L
S
GR
GS
1 1 0 RC
2 setlinecap
10.0 ML
2 LW
N
152 241 M
157 246 L
S
GR
GS
1 1 0 RC
2 setlinecap
10.0 ML
2 LW
N
152 240.5 M
159 240.5 L
S
GR
GS
1 1 0 RC
2 setlinecap
10.0 ML
2 LW
N
155.5 244 M
155.5 237 L
S
GR
GS
1 1 0 RC
2 setlinecap
10.0 ML
2 LW
N
153 243 M
158 238 L
S
GR
GS
1 1 0 RC
2 setlinecap
10.0 ML
2 LW
N
153 238 M
158 243 L
S
GR
GS
1 1 0 RC
2 setlinecap
10.0 ML
2 LW
N
152 236.5 M
159 236.5 L
S
GR
GS
1 1 0 RC
2 setlinecap
10.0 ML
2 LW
N
155.5 240 M
155.5 233 L
S
GR
GS
1 1 0 RC
2 setlinecap
10.0 ML
2 LW
N
153 239 M
158 234 L
S
GR
GS
1 1 0 RC
2 setlinecap
10.0 ML
2 LW
N
153 234 M
158 239 L
S
GR
GS
1 1 0 RC
2 setlinecap
10.0 ML
2 LW
N
154 233.5 M
161 233.5 L
S
GR
GS
1 1 0 RC
2 setlinecap
10.0 ML
2 LW
N
157.5 237 M
157.5 230 L
S
GR
GS
1 1 0 RC
2 setlinecap
10.0 ML
2 LW
N
155 236 M
160 231 L
S
GR
GS
1 1 0 RC
2 setlinecap
10.0 ML
2 LW
N
155 231 M
160 236 L
S
GR
GS
1 1 0 RC
2 setlinecap
10.0 ML
2 LW
N
154 229.5 M
161 229.5 L
S
GR
GS
1 1 0 RC
2 setlinecap
10.0 ML
2 LW
N
157.5 233 M
157.5 226 L
S
GR
GS
1 1 0 RC
2 setlinecap
10.0 ML
2 LW
N
155 232 M
160 227 L
S
GR
GS
1 1 0 RC
2 setlinecap
10.0 ML
2 LW
N
155 227 M
160 232 L
S
GR
GS
1 1 0 RC
2 setlinecap
10.0 ML
2 LW
N
154 226.5 M
161 226.5 L
S
GR
GS
1 1 0 RC
2 setlinecap
10.0 ML
2 LW
N
157.5 230 M
157.5 223 L
S
GR
GS
1 1 0 RC
2 setlinecap
10.0 ML
2 LW
N
155 229 M
160 224 L
S
GR
GS
1 1 0 RC
2 setlinecap
10.0 ML
2 LW
N
155 224 M
160 229 L
S
GR
GS
1 1 0 RC
2 setlinecap
10.0 ML
2 LW
N
155 223.5 M
162 223.5 L
S
GR
GS
1 1 0 RC
2 setlinecap
10.0 ML
2 LW
N
158.5 227 M
158.5 220 L
S
GR
GS
1 1 0 RC
2 setlinecap
10.0 ML
2 LW
N
156 226 M
161 221 L
S
GR
GS
1 1 0 RC
2 setlinecap
10.0 ML
2 LW
N
156 221 M
161 226 L
S
GR
GS
1 1 0 RC
2 setlinecap
10.0 ML
2 LW
N
155 219.5 M
162 219.5 L
S
GR
GS
1 1 0 RC
2 setlinecap
10.0 ML
2 LW
N
158.5 223 M
158.5 216 L
S
GR
GS
1 1 0 RC
2 setlinecap
10.0 ML
2 LW
N
156 222 M
161 217 L
S
GR
GS
1 1 0 RC
2 setlinecap
10.0 ML
2 LW
N
156 217 M
161 222 L
S
GR
GS
1 1 0 RC
2 setlinecap
10.0 ML
2 LW
N
158 216.5 M
165 216.5 L
S
GR
GS
1 1 0 RC
2 setlinecap
10.0 ML
2 LW
N
161.5 220 M
161.5 213 L
S
GR
GS
1 1 0 RC
2 setlinecap
10.0 ML
2 LW
N
159 219 M
164 214 L
S
GR
GS
1 1 0 RC
2 setlinecap
10.0 ML
2 LW
N
159 214 M
164 219 L
S
GR
GS
1 1 0 RC
2 setlinecap
10.0 ML
2 LW
N
159 212.5 M
166 212.5 L
S
GR
GS
1 1 0 RC
2 setlinecap
10.0 ML
2 LW
N
162.5 216 M
162.5 209 L
S
GR
GS
1 1 0 RC
2 setlinecap
10.0 ML
2 LW
N
160 215 M
165 210 L
S
GR
GS
1 1 0 RC
2 setlinecap
10.0 ML
2 LW
N
160 210 M
165 215 L
S
GR
GS
1 1 0 RC
2 setlinecap
10.0 ML
2 LW
N
160 209.5 M
167 209.5 L
S
GR
GS
1 1 0 RC
2 setlinecap
10.0 ML
2 LW
N
163.5 213 M
163.5 206 L
S
GR
GS
1 1 0 RC
2 setlinecap
10.0 ML
2 LW
N
161 212 M
166 207 L
S
GR
GS
1 1 0 RC
2 setlinecap
10.0 ML
2 LW
N
161 207 M
166 212 L
S
GR
GS
1 1 0 RC
2 setlinecap
10.0 ML
2 LW
N
160 205.5 M
167 205.5 L
S
GR
GS
1 1 0 RC
2 setlinecap
10.0 ML
2 LW
N
163.5 209 M
163.5 202 L
S
GR
GS
1 1 0 RC
2 setlinecap
10.0 ML
2 LW
N
161 208 M
166 203 L
S
GR
GS
1 1 0 RC
2 setlinecap
10.0 ML
2 LW
N
161 203 M
166 208 L
S
GR
GS
1 1 0 RC
2 setlinecap
10.0 ML
2 LW
N
161 202.5 M
168 202.5 L
S
GR
GS
1 1 0 RC
2 setlinecap
10.0 ML
2 LW
N
164.5 206 M
164.5 199 L
S
GR
GS
1 1 0 RC
2 setlinecap
10.0 ML
2 LW
N
162 205 M
167 200 L
S
GR
GS
1 1 0 RC
2 setlinecap
10.0 ML
2 LW
N
162 200 M
167 205 L
S
GR
GS
1 1 0 RC
2 setlinecap
10.0 ML
2 LW
N
161 199.5 M
168 199.5 L
S
GR
GS
1 1 0 RC
2 setlinecap
10.0 ML
2 LW
N
164.5 203 M
164.5 196 L
S
GR
GS
1 1 0 RC
2 setlinecap
10.0 ML
2 LW
N
162 202 M
167 197 L
S
GR
GS
1 1 0 RC
2 setlinecap
10.0 ML
2 LW
N
162 197 M
167 202 L
S
GR
GS
1 1 0 RC
2 setlinecap
10.0 ML
2 LW
N
161 192.5 M
168 192.5 L
S
GR
GS
1 1 0 RC
2 setlinecap
10.0 ML
2 LW
N
164.5 196 M
164.5 189 L
S
GR
GS
1 1 0 RC
2 setlinecap
10.0 ML
2 LW
N
162 195 M
167 190 L
S
GR
GS
1 1 0 RC
2 setlinecap
10.0 ML
2 LW
N
162 190 M
167 195 L
S
GR
GS
1 1 0 RC
2 setlinecap
10.0 ML
2 LW
N
161 188.5 M
168 188.5 L
S
GR
GS
1 1 0 RC
2 setlinecap
10.0 ML
2 LW
N
164.5 192 M
164.5 185 L
S
GR
GS
1 1 0 RC
2 setlinecap
10.0 ML
2 LW
N
162 191 M
167 186 L
S
GR
GS
1 1 0 RC
2 setlinecap
10.0 ML
2 LW
N
162 186 M
167 191 L
S
GR
GS
1 1 0 RC
2 setlinecap
10.0 ML
2 LW
N
163 185.5 M
170 185.5 L
S
GR
GS
1 1 0 RC
2 setlinecap
10.0 ML
2 LW
N
166.5 189 M
166.5 182 L
S
GR
GS
1 1 0 RC
2 setlinecap
10.0 ML
2 LW
N
164 188 M
169 183 L
S
GR
GS
1 1 0 RC
2 setlinecap
10.0 ML
2 LW
N
164 183 M
169 188 L
S
GR
GS
1 1 0 RC
2 setlinecap
10.0 ML
2 LW
N
166 181.5 M
173 181.5 L
S
GR
GS
1 1 0 RC
2 setlinecap
10.0 ML
2 LW
N
169.5 185 M
169.5 178 L
S
GR
GS
1 1 0 RC
2 setlinecap
10.0 ML
2 LW
N
167 184 M
172 179 L
S
GR
GS
1 1 0 RC
2 setlinecap
10.0 ML
2 LW
N
167 179 M
172 184 L
S
GR
GS
1 1 0 RC
2 setlinecap
10.0 ML
2 LW
N
166 178.5 M
173 178.5 L
S
GR
GS
1 1 0 RC
2 setlinecap
10.0 ML
2 LW
N
169.5 182 M
169.5 175 L
S
GR
GS
1 1 0 RC
2 setlinecap
10.0 ML
2 LW
N
167 181 M
172 176 L
S
GR
GS
1 1 0 RC
2 setlinecap
10.0 ML
2 LW
N
167 176 M
172 181 L
S
GR
GS
1 1 0 RC
2 setlinecap
10.0 ML
2 LW
N
166 175.5 M
173 175.5 L
S
GR
GS
1 1 0 RC
2 setlinecap
10.0 ML
2 LW
N
169.5 179 M
169.5 172 L
S
GR
GS
1 1 0 RC
2 setlinecap
10.0 ML
2 LW
N
167 178 M
172 173 L
S
GR
GS
1 1 0 RC
2 setlinecap
10.0 ML
2 LW
N
167 173 M
172 178 L
S
GR
GS
1 1 0 RC
2 setlinecap
10.0 ML
2 LW
N
166 171.5 M
173 171.5 L
S
GR
GS
1 1 0 RC
2 setlinecap
10.0 ML
2 LW
N
169.5 175 M
169.5 168 L
S
GR
GS
1 1 0 RC
2 setlinecap
10.0 ML
2 LW
N
167 174 M
172 169 L
S
GR
GS
1 1 0 RC
2 setlinecap
10.0 ML
2 LW
N
167 169 M
172 174 L
S
GR
GS
1 1 0 RC
2 setlinecap
10.0 ML
2 LW
N
168 168.5 M
175 168.5 L
S
GR
GS
1 1 0 RC
2 setlinecap
10.0 ML
2 LW
N
171.5 172 M
171.5 165 L
S
GR
GS
1 1 0 RC
2 setlinecap
10.0 ML
2 LW
N
169 171 M
174 166 L
S
GR
GS
1 1 0 RC
2 setlinecap
10.0 ML
2 LW
N
169 166 M
174 171 L
S
GR
GS
1 1 0 RC
2 setlinecap
10.0 ML
2 LW
N
170 164.5 M
177 164.5 L
S
GR
GS
1 1 0 RC
2 setlinecap
10.0 ML
2 LW
N
173.5 168 M
173.5 161 L
S
GR
GS
1 1 0 RC
2 setlinecap
10.0 ML
2 LW
N
171 167 M
176 162 L
S
GR
GS
1 1 0 RC
2 setlinecap
10.0 ML
2 LW
N
171 162 M
176 167 L
S
GR
GS
1 1 0 RC
2 setlinecap
10.0 ML
2 LW
N
172 161.5 M
179 161.5 L
S
GR
GS
1 1 0 RC
2 setlinecap
10.0 ML
2 LW
N
175.5 165 M
175.5 158 L
S
GR
GS
1 1 0 RC
2 setlinecap
10.0 ML
2 LW
N
173 164 M
178 159 L
S
GR
GS
1 1 0 RC
2 setlinecap
10.0 ML
2 LW
N
173 159 M
178 164 L
S
GR
GS
1 1 0 RC
2 setlinecap
10.0 ML
2 LW
N
172 157.5 M
179 157.5 L
S
GR
GS
1 1 0 RC
2 setlinecap
10.0 ML
2 LW
N
175.5 161 M
175.5 154 L
S
GR
GS
1 1 0 RC
2 setlinecap
10.0 ML
2 LW
N
173 160 M
178 155 L
S
GR
GS
1 1 0 RC
2 setlinecap
10.0 ML
2 LW
N
173 155 M
178 160 L
S
GR
GS
1 1 0 RC
2 setlinecap
10.0 ML
2 LW
N
173 154.5 M
180 154.5 L
S
GR
GS
1 1 0 RC
2 setlinecap
10.0 ML
2 LW
N
176.5 158 M
176.5 151 L
S
GR
GS
1 1 0 RC
2 setlinecap
10.0 ML
2 LW
N
174 157 M
179 152 L
S
GR
GS
1 1 0 RC
2 setlinecap
10.0 ML
2 LW
N
174 152 M
179 157 L
S
GR
GS
1 1 0 RC
2 setlinecap
10.0 ML
2 LW
N
173 151.5 M
180 151.5 L
S
GR
GS
1 1 0 RC
2 setlinecap
10.0 ML
2 LW
N
176.5 155 M
176.5 148 L
S
GR
GS
1 1 0 RC
2 setlinecap
10.0 ML
2 LW
N
174 154 M
179 149 L
S
GR
GS
1 1 0 RC
2 setlinecap
10.0 ML
2 LW
N
174 149 M
179 154 L
S
GR
GS
1 1 0 RC
2 setlinecap
10.0 ML
2 LW
N
174 147.5 M
181 147.5 L
S
GR
GS
1 1 0 RC
2 setlinecap
10.0 ML
2 LW
N
177.5 151 M
177.5 144 L
S
GR
GS
1 1 0 RC
2 setlinecap
10.0 ML
2 LW
N
175 150 M
180 145 L
S
GR
GS
1 1 0 RC
2 setlinecap
10.0 ML
2 LW
N
175 145 M
180 150 L
S
GR
GS
1 1 0 RC
2 setlinecap
10.0 ML
2 LW
N
175 144.5 M
182 144.5 L
S
GR
GS
1 1 0 RC
2 setlinecap
10.0 ML
2 LW
N
178.5 148 M
178.5 141 L
S
GR
GS
1 1 0 RC
2 setlinecap
10.0 ML
2 LW
N
176 147 M
181 142 L
S
GR
GS
1 1 0 RC
2 setlinecap
10.0 ML
2 LW
N
176 142 M
181 147 L
S
GR
GS
1 1 0 RC
2 setlinecap
10.0 ML
2 LW
N
176 140.5 M
183 140.5 L
S
GR
GS
1 1 0 RC
2 setlinecap
10.0 ML
2 LW
N
179.5 144 M
179.5 137 L
S
GR
GS
1 1 0 RC
2 setlinecap
10.0 ML
2 LW
N
177 143 M
182 138 L
S
GR
GS
1 1 0 RC
2 setlinecap
10.0 ML
2 LW
N
177 138 M
182 143 L
S
GR
GS
1 1 0 RC
2 setlinecap
10.0 ML
2 LW
N
176 137.5 M
183 137.5 L
S
GR
GS
1 1 0 RC
2 setlinecap
10.0 ML
2 LW
N
179.5 141 M
179.5 134 L
S
GR
GS
1 1 0 RC
2 setlinecap
10.0 ML
2 LW
N
177 140 M
182 135 L
S
GR
GS
1 1 0 RC
2 setlinecap
10.0 ML
2 LW
N
177 135 M
182 140 L
S
GR
GS
1 1 0 RC
2 setlinecap
10.0 ML
2 LW
N
177 133.5 M
184 133.5 L
S
GR
GS
1 1 0 RC
2 setlinecap
10.0 ML
2 LW
N
180.5 137 M
180.5 130 L
S
GR
GS
1 1 0 RC
2 setlinecap
10.0 ML
2 LW
N
178 136 M
183 131 L
S
GR
GS
1 1 0 RC
2 setlinecap
10.0 ML
2 LW
N
178 131 M
183 136 L
S
GR
GS
1 1 0 RC
2 setlinecap
10.0 ML
2 LW
N
178 130.5 M
185 130.5 L
S
GR
GS
1 1 0 RC
2 setlinecap
10.0 ML
2 LW
N
181.5 134 M
181.5 127 L
S
GR
GS
1 1 0 RC
2 setlinecap
10.0 ML
2 LW
N
179 133 M
184 128 L
S
GR
GS
1 1 0 RC
2 setlinecap
10.0 ML
2 LW
N
179 128 M
184 133 L
S
GR
GS
1 1 0 RC
2 setlinecap
10.0 ML
2 LW
N
183 127.5 M
190 127.5 L
S
GR
GS
1 1 0 RC
2 setlinecap
10.0 ML
2 LW
N
186.5 131 M
186.5 124 L
S
GR
GS
1 1 0 RC
2 setlinecap
10.0 ML
2 LW
N
184 130 M
189 125 L
S
GR
GS
1 1 0 RC
2 setlinecap
10.0 ML
2 LW
N
184 125 M
189 130 L
S
GR
GS
1 1 0 RC
2 setlinecap
10.0 ML
2 LW
N
183 123.5 M
190 123.5 L
S
GR
GS
1 1 0 RC
2 setlinecap
10.0 ML
2 LW
N
186.5 127 M
186.5 120 L
S
GR
GS
1 1 0 RC
2 setlinecap
10.0 ML
2 LW
N
184 126 M
189 121 L
S
GR
GS
1 1 0 RC
2 setlinecap
10.0 ML
2 LW
N
184 121 M
189 126 L
S
GR
GS
1 1 0 RC
2 setlinecap
10.0 ML
2 LW
N
184 120.5 M
191 120.5 L
S
GR
GS
1 1 0 RC
2 setlinecap
10.0 ML
2 LW
N
187.5 124 M
187.5 117 L
S
GR
GS
1 1 0 RC
2 setlinecap
10.0 ML
2 LW
N
185 123 M
190 118 L
S
GR
GS
1 1 0 RC
2 setlinecap
10.0 ML
2 LW
N
185 118 M
190 123 L
S
GR
GS
1 1 0 RC
2 setlinecap
10.0 ML
2 LW
N
184 116.5 M
191 116.5 L
S
GR
GS
1 1 0 RC
2 setlinecap
10.0 ML
2 LW
N
187.5 120 M
187.5 113 L
S
GR
GS
1 1 0 RC
2 setlinecap
10.0 ML
2 LW
N
185 119 M
190 114 L
S
GR
GS
1 1 0 RC
2 setlinecap
10.0 ML
2 LW
N
185 114 M
190 119 L
S
GR
GS
1 1 0 RC
2 setlinecap
10.0 ML
2 LW
N
188 113.5 M
195 113.5 L
S
GR
GS
1 1 0 RC
2 setlinecap
10.0 ML
2 LW
N
191.5 117 M
191.5 110 L
S
GR
GS
1 1 0 RC
2 setlinecap
10.0 ML
2 LW
N
189 116 M
194 111 L
S
GR
GS
1 1 0 RC
2 setlinecap
10.0 ML
2 LW
N
189 111 M
194 116 L
S
GR
GS
1 1 0 RC
2 setlinecap
10.0 ML
2 LW
N
189 109.5 M
196 109.5 L
S
GR
GS
1 1 0 RC
2 setlinecap
10.0 ML
2 LW
N
192.5 113 M
192.5 106 L
S
GR
GS
1 1 0 RC
2 setlinecap
10.0 ML
2 LW
N
190 112 M
195 107 L
S
GR
GS
1 1 0 RC
2 setlinecap
10.0 ML
2 LW
N
190 107 M
195 112 L
S
GR
GS
1 1 0 RC
2 setlinecap
10.0 ML
2 LW
N
193 106.5 M
200 106.5 L
S
GR
GS
1 1 0 RC
2 setlinecap
10.0 ML
2 LW
N
196.5 110 M
196.5 103 L
S
GR
GS
1 1 0 RC
2 setlinecap
10.0 ML
2 LW
N
194 109 M
199 104 L
S
GR
GS
1 1 0 RC
2 setlinecap
10.0 ML
2 LW
N
194 104 M
199 109 L
S
GR
GS
1 1 0 RC
2 setlinecap
10.0 ML
2 LW
N
193 103.5 M
200 103.5 L
S
GR
GS
1 1 0 RC
2 setlinecap
10.0 ML
2 LW
N
196.5 107 M
196.5 100 L
S
GR
GS
1 1 0 RC
2 setlinecap
10.0 ML
2 LW
N
194 106 M
199 101 L
S
GR
GS
1 1 0 RC
2 setlinecap
10.0 ML
2 LW
N
194 101 M
199 106 L
S
GR
GS
1 1 0 RC
2 setlinecap
10.0 ML
2 LW
N
199 99.5 M
206 99.5 L
S
GR
GS
1 1 0 RC
2 setlinecap
10.0 ML
2 LW
N
202.5 103 M
202.5 96 L
S
GR
GS
1 1 0 RC
2 setlinecap
10.0 ML
2 LW
N
200 102 M
205 97 L
S
GR
GS
1 1 0 RC
2 setlinecap
10.0 ML
2 LW
N
200 97 M
205 102 L
S
GR
GS
1 1 0 RC
2 setlinecap
10.0 ML
2 LW
N
199 96.5 M
206 96.5 L
S
GR
GS
1 1 0 RC
2 setlinecap
10.0 ML
2 LW
N
202.5 100 M
202.5 93 L
S
GR
GS
1 1 0 RC
2 setlinecap
10.0 ML
2 LW
N
200 99 M
205 94 L
S
GR
GS
1 1 0 RC
2 setlinecap
10.0 ML
2 LW
N
200 94 M
205 99 L
S
GR
GS
1 1 0 RC
2 setlinecap
10.0 ML
2 LW
N
199 92.5 M
206 92.5 L
S
GR
GS
1 1 0 RC
2 setlinecap
10.0 ML
2 LW
N
202.5 96 M
202.5 89 L
S
GR
GS
1 1 0 RC
2 setlinecap
10.0 ML
2 LW
N
200 95 M
205 90 L
S
GR
GS
1 1 0 RC
2 setlinecap
10.0 ML
2 LW
N
200 90 M
205 95 L
S
GR
GS
1 1 0 RC
2 setlinecap
10.0 ML
2 LW
N
204 89.5 M
211 89.5 L
S
GR
GS
1 1 0 RC
2 setlinecap
10.0 ML
2 LW
N
207.5 93 M
207.5 86 L
S
GR
GS
1 1 0 RC
2 setlinecap
10.0 ML
2 LW
N
205 92 M
210 87 L
S
GR
GS
1 1 0 RC
2 setlinecap
10.0 ML
2 LW
N
205 87 M
210 92 L
S
GR
GS
1 1 0 RC
2 setlinecap
10.0 ML
2 LW
N
205 85.5 M
212 85.5 L
S
GR
GS
1 1 0 RC
2 setlinecap
10.0 ML
2 LW
N
208.5 89 M
208.5 82 L
S
GR
GS
1 1 0 RC
2 setlinecap
10.0 ML
2 LW
N
206 88 M
211 83 L
S
GR
GS
1 1 0 RC
2 setlinecap
10.0 ML
2 LW
N
206 83 M
211 88 L
S
GR
GS
1 1 0 RC
2 setlinecap
10.0 ML
2 LW
N
206 82.5 M
213 82.5 L
S
GR
GS
1 1 0 RC
2 setlinecap
10.0 ML
2 LW
N
209.5 86 M
209.5 79 L
S
GR
GS
1 1 0 RC
2 setlinecap
10.0 ML
2 LW
N
207 85 M
212 80 L
S
GR
GS
1 1 0 RC
2 setlinecap
10.0 ML
2 LW
N
207 80 M
212 85 L
S
GR
GS
1 1 0 RC
2 setlinecap
10.0 ML
2 LW
N
208 79.5 M
215 79.5 L
S
GR
GS
1 1 0 RC
2 setlinecap
10.0 ML
2 LW
N
211.5 83 M
211.5 76 L
S
GR
GS
1 1 0 RC
2 setlinecap
10.0 ML
2 LW
N
209 82 M
214 77 L
S
GR
GS
1 1 0 RC
2 setlinecap
10.0 ML
2 LW
N
209 77 M
214 82 L
S
GR
GS
1 1 0 RC
2 setlinecap
10.0 ML
2 LW
N
209 75.5 M
216 75.5 L
S
GR
GS
1 1 0 RC
2 setlinecap
10.0 ML
2 LW
N
212.5 79 M
212.5 72 L
S
GR
GS
1 1 0 RC
2 setlinecap
10.0 ML
2 LW
N
210 78 M
215 73 L
S
GR
GS
1 1 0 RC
2 setlinecap
10.0 ML
2 LW
N
210 73 M
215 78 L
S
GR
GS
1 1 0 RC
2 setlinecap
10.0 ML
2 LW
N
217 72.5 M
224 72.5 L
S
GR
GS
1 1 0 RC
2 setlinecap
10.0 ML
2 LW
N
220.5 76 M
220.5 69 L
S
GR
GS
1 1 0 RC
2 setlinecap
10.0 ML
2 LW
N
218 75 M
223 70 L
S
GR
GS
1 1 0 RC
2 setlinecap
10.0 ML
2 LW
N
218 70 M
223 75 L
S
GR
GS
1 1 0 RC
2 setlinecap
10.0 ML
2 LW
N
219 68.5 M
226 68.5 L
S
GR
GS
1 1 0 RC
2 setlinecap
10.0 ML
2 LW
N
222.5 72 M
222.5 65 L
S
GR
GS
1 1 0 RC
2 setlinecap
10.0 ML
2 LW
N
220 71 M
225 66 L
S
GR
GS
1 1 0 RC
2 setlinecap
10.0 ML
2 LW
N
220 66 M
225 71 L
S
GR
GS
1 1 0 RC
2 setlinecap
10.0 ML
2 LW
N
225 65.5 M
232 65.5 L
S
GR
GS
1 1 0 RC
2 setlinecap
10.0 ML
2 LW
N
228.5 69 M
228.5 62 L
S
GR
GS
1 1 0 RC
2 setlinecap
10.0 ML
2 LW
N
226 68 M
231 63 L
S
GR
GS
1 1 0 RC
2 setlinecap
10.0 ML
2 LW
N
226 63 M
231 68 L
S
GR
GS
1 1 0 RC
2 setlinecap
10.0 ML
2 LW
N
250 61.5 M
257 61.5 L
S
GR
GS
1 1 0 RC
2 setlinecap
10.0 ML
2 LW
N
253.5 65 M
253.5 58 L
S
GR
GS
1 1 0 RC
2 setlinecap
10.0 ML
2 LW
N
251 64 M
256 59 L
S
GR
GS
1 1 0 RC
2 setlinecap
10.0 ML
2 LW
N
251 59 M
256 64 L
S
GR
GS
1 1 0 RC
2 setlinecap
10.0 ML
2 LW
N
253 58.5 M
260 58.5 L
S
GR
GS
1 1 0 RC
2 setlinecap
10.0 ML
2 LW
N
256.5 62 M
256.5 55 L
S
GR
GS
1 1 0 RC
2 setlinecap
10.0 ML
2 LW
N
254 61 M
259 56 L
S
GR
GS
1 1 0 RC
2 setlinecap
10.0 ML
2 LW
N
254 56 M
259 61 L
S
GR
GS
1 1 0 RC
2 setlinecap
10.0 ML
2 LW
N
274 55.5 M
281 55.5 L
S
GR
GS
1 1 0 RC
2 setlinecap
10.0 ML
2 LW
N
277.5 59 M
277.5 52 L
S
GR
GS
1 1 0 RC
2 setlinecap
10.0 ML
2 LW
N
275 58 M
280 53 L
S
GR
GS
1 1 0 RC
2 setlinecap
10.0 ML
2 LW
N
275 53 M
280 58 L
S
GR
GS
1 1 0 RC
2 setlinecap
10.0 ML
2 LW
N
274 51.5 M
281 51.5 L
S
GR
GS
1 1 0 RC
2 setlinecap
10.0 ML
2 LW
N
277.5 55 M
277.5 48 L
S
GR
GS
1 1 0 RC
2 setlinecap
10.0 ML
2 LW
N
275 54 M
280 49 L
S
GR
GS
1 1 0 RC
2 setlinecap
10.0 ML
2 LW
N
275 49 M
280 54 L
S
GR
GS
1 1 0 RC
2 setlinecap
10.0 ML
2 LW
N
274 48.5 M
281 48.5 L
S
GR
GS
1 1 0 RC
2 setlinecap
10.0 ML
2 LW
N
277.5 52 M
277.5 45 L
S
GR
GS
1 1 0 RC
2 setlinecap
10.0 ML
2 LW
N
275 51 M
280 46 L
S
GR
GS
1 1 0 RC
2 setlinecap
10.0 ML
2 LW
N
275 46 M
280 51 L
S
GR
GS
1 1 0 RC
2 setlinecap
10.0 ML
2 LW
N
274 44.5 M
281 44.5 L
S
GR
GS
1 1 0 RC
2 setlinecap
10.0 ML
2 LW
N
277.5 48 M
277.5 41 L
S
GR
GS
1 1 0 RC
2 setlinecap
10.0 ML
2 LW
N
275 47 M
280 42 L
S
GR
GS
1 1 0 RC
2 setlinecap
10.0 ML
2 LW
N
275 42 M
280 47 L
S
GR
GS
1 1 0 RC
2 setlinecap
10.0 ML
2 LW
N
274 41.5 M
281 41.5 L
S
GR
GS
1 1 0 RC
2 setlinecap
10.0 ML
2 LW
N
277.5 45 M
277.5 38 L
S
GR
GS
1 1 0 RC
2 setlinecap
10.0 ML
2 LW
N
275 44 M
280 39 L
S
GR
GS
1 1 0 RC
2 setlinecap
10.0 ML
2 LW
N
275 39 M
280 44 L
S
GR
GS
1 1 0 RC
2 setlinecap
10.0 ML
2 LW
N
274 37.5 M
281 37.5 L
S
GR
GS
1 1 0 RC
2 setlinecap
10.0 ML
2 LW
N
277.5 41 M
277.5 34 L
S
GR
GS
1 1 0 RC
2 setlinecap
10.0 ML
2 LW
N
275 40 M
280 35 L
S
GR
GS
1 1 0 RC
2 setlinecap
10.0 ML
2 LW
N
275 35 M
280 40 L
S
GR
GS
1 1 0 RC
2 setlinecap
10.0 ML
2 LW
N
294 34.5 M
301 34.5 L
S
GR
GS
1 1 0 RC
2 setlinecap
10.0 ML
2 LW
N
297.5 38 M
297.5 31 L
S
GR
GS
1 1 0 RC
2 setlinecap
10.0 ML
2 LW
N
295 37 M
300 32 L
S
GR
GS
1 1 0 RC
2 setlinecap
10.0 ML
2 LW
N
295 32 M
300 37 L
S
GR
GS
1 1 0 RC
2 setlinecap
10.0 ML
2 LW
N
479 30.5 M
486 30.5 L
S
GR
GS
1 1 0 RC
2 setlinecap
10.0 ML
2 LW
N
482.5 34 M
482.5 27 L
S
GR
GS
1 1 0 RC
2 setlinecap
10.0 ML
2 LW
N
480 33 M
485 28 L
S
GR
GS
1 1 0 RC
2 setlinecap
10.0 ML
2 LW
N
480 28 M
485 33 L
S
GR
GS
1 GC
N
415 76 M
415 41 L
497 41 L
497 76 L
cp
f
GR
GS
[1 0 0 1 454 48] CT
/Helvetica-Bold 9 F
GS
[1 0 0 1 0 0] CT
0 2 moveto 
1 -1 scale
(25 nodes) t 
GR
GR
GS
0 0 1 RC
2 setlinecap
10.0 ML
2 LW
N
421 48 M
451 48 L
S
GR
GS
0 0 1 RC
2 setlinecap
10.0 ML
2 LW
N
432 47.5 M
439 47.5 L
S
GR
GS
0 0 1 RC
2 setlinecap
10.0 ML
2 LW
N
435.5 51 M
435.5 44 L
S
GR
GS
[1 0 0 1 454 58.5] CT
/Helvetica-Bold 9 F
GS
[1 0 0 1 0 0] CT
0 2 moveto 
1 -1 scale
(35 nodes) t 
GR
GR
GS
0 1 1 RC
[8 8] 0 setdash
2 LJ
2 LW
N
421 58.5 M
451 58.5 L
S
GR
GS
0 1 1 RC
2 setlinecap
10.0 ML
2 LW
N
438.5 58.5 M
437.621 56.379 L
435.5 55.5 L
433.379 56.379 L
432.5 58.5 L
433.379 60.621 L
435.5 61.5 L
437.621 60.621 L
438.5 58.5 L
S
GR
GS
[1 0 0 1 454 69] CT
/Helvetica-Bold 9 F
GS
[1 0 0 1 0 0] CT
0 2 moveto 
1 -1 scale
(45 nodes) t 
GR
GR
GS
1 1 0 RC
2 setlinecap
10.0 ML
2 LW
N
421 69 M
451 69 L
S
GR
GS
1 1 0 RC
2 setlinecap
10.0 ML
2 LW
N
432 68.5 M
439 68.5 L
S
GR
GS
1 1 0 RC
2 setlinecap
10.0 ML
2 LW
N
435.5 72 M
435.5 65 L
S
GR
GS
1 1 0 RC
2 setlinecap
10.0 ML
2 LW
N
433 71 M
438 66 L
S
GR
GS
1 1 0 RC
2 setlinecap
10.0 ML
2 LW
N
433 66 M
438 71 L
S
GR
GS
0.149 GC
2 setlinecap
10.0 ML
N
415 76 M
415 41 L
497 41 L
497 76 L
415 76 L
S
GR
%%Trailer
%%Pages: 1
%%EOF
