%!PS-Adobe-3.0 EPSF-3.0
%%Creator: (MATLAB, The Mathworks, Inc. Version 8.5.0.197613 \(R2015a\). Operating System: Mac OS X)
%%Title: /Users/ashwinyakkundimath/Documents/Thesis_Results/plots/density/cdf_integration_both_energy.eps
%%CreationDate: 2016-01-05T11:54:11
%%Pages: (atend)
%%BoundingBox: 0 0 560 420
%%LanguageLevel: 2
%%EndComments
%%BeginProlog
%%BeginResource: procset (Apache XML Graphics Std ProcSet) 1.2 0
%%Version: 1.2 0
%%Copyright: (Copyright 2001-2003,2010 The Apache Software Foundation. License terms: http://www.apache.org/licenses/LICENSE-2.0)
/bd{bind def}bind def
/ld{load def}bd
/GR/grestore ld
/M/moveto ld
/LJ/setlinejoin ld
/C/curveto ld
/f/fill ld
/LW/setlinewidth ld
/GC/setgray ld
/t/show ld
/N/newpath ld
/CT/concat ld
/cp/closepath ld
/S/stroke ld
/L/lineto ld
/CC/setcmykcolor ld
/A/ashow ld
/GS/gsave ld
/RC/setrgbcolor ld
/RM/rmoveto ld
/ML/setmiterlimit ld
/re {4 2 roll M
1 index 0 rlineto
0 exch rlineto
neg 0 rlineto
cp } bd
/_ctm matrix def
/_tm matrix def
/BT { _ctm currentmatrix pop matrix _tm copy pop 0 0 moveto } bd
/ET { _ctm setmatrix } bd
/iTm { _ctm setmatrix _tm concat } bd
/Tm { _tm astore pop iTm 0 0 moveto } bd
/ux 0.0 def
/uy 0.0 def
/F {
  /Tp exch def
  /Tf exch def
  Tf findfont Tp scalefont setfont
  /cf Tf def  /cs Tp def
} bd
/ULS {currentpoint /uy exch def /ux exch def} bd
/ULE {
  /Tcx currentpoint pop def
  gsave
  newpath
  cf findfont cs scalefont dup
  /FontMatrix get 0 get /Ts exch def /FontInfo get dup
  /UnderlinePosition get Ts mul /To exch def
  /UnderlineThickness get Ts mul /Tt exch def
  ux uy To add moveto  Tcx uy To add lineto
  Tt setlinewidth stroke
  grestore
} bd
/OLE {
  /Tcx currentpoint pop def
  gsave
  newpath
  cf findfont cs scalefont dup
  /FontMatrix get 0 get /Ts exch def /FontInfo get dup
  /UnderlinePosition get Ts mul /To exch def
  /UnderlineThickness get Ts mul /Tt exch def
  ux uy To add cs add moveto Tcx uy To add cs add lineto
  Tt setlinewidth stroke
  grestore
} bd
/SOE {
  /Tcx currentpoint pop def
  gsave
  newpath
  cf findfont cs scalefont dup
  /FontMatrix get 0 get /Ts exch def /FontInfo get dup
  /UnderlinePosition get Ts mul /To exch def
  /UnderlineThickness get Ts mul /Tt exch def
  ux uy To add cs 10 mul 26 idiv add moveto Tcx uy To add cs 10 mul 26 idiv add lineto
  Tt setlinewidth stroke
  grestore
} bd
/QT {
/Y22 exch store
/X22 exch store
/Y21 exch store
/X21 exch store
currentpoint
/Y21 load 2 mul add 3 div exch
/X21 load 2 mul add 3 div exch
/X21 load 2 mul /X22 load add 3 div
/Y21 load 2 mul /Y22 load add 3 div
/X22 load /Y22 load curveto
} bd
/SSPD {
dup length /d exch dict def
{
/v exch def
/k exch def
currentpagedevice k known {
/cpdv currentpagedevice k get def
v cpdv ne {
/upd false def
/nullv v type /nulltype eq def
/nullcpdv cpdv type /nulltype eq def
nullv nullcpdv or
{
/upd true def
} {
/sametype v type cpdv type eq def
sametype {
v type /arraytype eq {
/vlen v length def
/cpdvlen cpdv length def
vlen cpdvlen eq {
0 1 vlen 1 sub {
/i exch def
/obj v i get def
/cpdobj cpdv i get def
obj cpdobj ne {
/upd true def
exit
} if
} for
} {
/upd true def
} ifelse
} {
v type /dicttype eq {
v {
/dv exch def
/dk exch def
/cpddv cpdv dk get def
dv cpddv ne {
/upd true def
exit
} if
} forall
} {
/upd true def
} ifelse
} ifelse
} if
} ifelse
upd true eq {
d k v put
} if
} if
} if
} forall
d length 0 gt {
d setpagedevice
} if
} bd
%%EndResource
%%BeginResource: procset (Apache XML Graphics EPS ProcSet) 1.0 0
%%Version: 1.0 0
%%Copyright: (Copyright 2002-2003 The Apache Software Foundation. License terms: http://www.apache.org/licenses/LICENSE-2.0)
/BeginEPSF { %def
/b4_Inc_state save def         % Save state for cleanup
/dict_count countdictstack def % Count objects on dict stack
/op_count count 1 sub def      % Count objects on operand stack
userdict begin                 % Push userdict on dict stack
/showpage { } def              % Redefine showpage, { } = null proc
0 setgray 0 setlinecap         % Prepare graphics state
1 setlinewidth 0 setlinejoin
10 setmiterlimit [ ] 0 setdash newpath
/languagelevel where           % If level not equal to 1 then
{pop languagelevel             % set strokeadjust and
1 ne                           % overprint to their defaults.
{false setstrokeadjust false setoverprint
} if
} if
} bd
/EndEPSF { %def
count op_count sub {pop} repeat            % Clean up stacks
countdictstack dict_count sub {end} repeat
b4_Inc_state restore
} bd
%%EndResource
%FOPBeginFontDict
%%IncludeResource: font Courier-Bold
%%IncludeResource: font Helvetica
%%IncludeResource: font Courier-BoldOblique
%%IncludeResource: font Courier-Oblique
%%IncludeResource: font Times-Roman
%%IncludeResource: font Helvetica-BoldOblique
%%IncludeResource: font Helvetica-Bold
%%IncludeResource: font Helvetica-Oblique
%%IncludeResource: font Times-BoldItalic
%%IncludeResource: font Courier
%%IncludeResource: font Times-Italic
%%IncludeResource: font Times-Bold
%%IncludeResource: font Symbol
%%IncludeResource: font ZapfDingbats
%FOPEndFontDict
%%BeginResource: encoding WinAnsiEncoding
/WinAnsiEncoding [
/.notdef /.notdef /.notdef /.notdef /.notdef
/.notdef /.notdef /.notdef /.notdef /.notdef
/.notdef /.notdef /.notdef /.notdef /.notdef
/.notdef /.notdef /.notdef /.notdef /.notdef
/.notdef /.notdef /.notdef /.notdef /.notdef
/.notdef /.notdef /.notdef /.notdef /.notdef
/.notdef /.notdef /space /exclam /quotedbl
/numbersign /dollar /percent /ampersand /quotesingle
/parenleft /parenright /asterisk /plus /comma
/hyphen /period /slash /zero /one
/two /three /four /five /six
/seven /eight /nine /colon /semicolon
/less /equal /greater /question /at
/A /B /C /D /E
/F /G /H /I /J
/K /L /M /N /O
/P /Q /R /S /T
/U /V /W /X /Y
/Z /bracketleft /backslash /bracketright /asciicircum
/underscore /quoteleft /a /b /c
/d /e /f /g /h
/i /j /k /l /m
/n /o /p /q /r
/s /t /u /v /w
/x /y /z /braceleft /bar
/braceright /asciitilde /bullet /Euro /bullet
/quotesinglbase /florin /quotedblbase /ellipsis /dagger
/daggerdbl /circumflex /perthousand /Scaron /guilsinglleft
/OE /bullet /Zcaron /bullet /bullet
/quoteleft /quoteright /quotedblleft /quotedblright /bullet
/endash /emdash /asciitilde /trademark /scaron
/guilsinglright /oe /bullet /zcaron /Ydieresis
/space /exclamdown /cent /sterling /currency
/yen /brokenbar /section /dieresis /copyright
/ordfeminine /guillemotleft /logicalnot /sfthyphen /registered
/macron /degree /plusminus /twosuperior /threesuperior
/acute /mu /paragraph /middot /cedilla
/onesuperior /ordmasculine /guillemotright /onequarter /onehalf
/threequarters /questiondown /Agrave /Aacute /Acircumflex
/Atilde /Adieresis /Aring /AE /Ccedilla
/Egrave /Eacute /Ecircumflex /Edieresis /Igrave
/Iacute /Icircumflex /Idieresis /Eth /Ntilde
/Ograve /Oacute /Ocircumflex /Otilde /Odieresis
/multiply /Oslash /Ugrave /Uacute /Ucircumflex
/Udieresis /Yacute /Thorn /germandbls /agrave
/aacute /acircumflex /atilde /adieresis /aring
/ae /ccedilla /egrave /eacute /ecircumflex
/edieresis /igrave /iacute /icircumflex /idieresis
/eth /ntilde /ograve /oacute /ocircumflex
/otilde /odieresis /divide /oslash /ugrave
/uacute /ucircumflex /udieresis /yacute /thorn
/ydieresis
] def
%%EndResource
%FOPBeginFontReencode
/Courier-Bold findfont
dup length dict begin
  {1 index /FID ne {def} {pop pop} ifelse} forall
  /Encoding WinAnsiEncoding def
  currentdict
end
/Courier-Bold exch definefont pop
/Helvetica findfont
dup length dict begin
  {1 index /FID ne {def} {pop pop} ifelse} forall
  /Encoding WinAnsiEncoding def
  currentdict
end
/Helvetica exch definefont pop
/Courier-BoldOblique findfont
dup length dict begin
  {1 index /FID ne {def} {pop pop} ifelse} forall
  /Encoding WinAnsiEncoding def
  currentdict
end
/Courier-BoldOblique exch definefont pop
/Courier-Oblique findfont
dup length dict begin
  {1 index /FID ne {def} {pop pop} ifelse} forall
  /Encoding WinAnsiEncoding def
  currentdict
end
/Courier-Oblique exch definefont pop
/Times-Roman findfont
dup length dict begin
  {1 index /FID ne {def} {pop pop} ifelse} forall
  /Encoding WinAnsiEncoding def
  currentdict
end
/Times-Roman exch definefont pop
/Helvetica-BoldOblique findfont
dup length dict begin
  {1 index /FID ne {def} {pop pop} ifelse} forall
  /Encoding WinAnsiEncoding def
  currentdict
end
/Helvetica-BoldOblique exch definefont pop
/Helvetica-Bold findfont
dup length dict begin
  {1 index /FID ne {def} {pop pop} ifelse} forall
  /Encoding WinAnsiEncoding def
  currentdict
end
/Helvetica-Bold exch definefont pop
/Helvetica-Oblique findfont
dup length dict begin
  {1 index /FID ne {def} {pop pop} ifelse} forall
  /Encoding WinAnsiEncoding def
  currentdict
end
/Helvetica-Oblique exch definefont pop
/Times-BoldItalic findfont
dup length dict begin
  {1 index /FID ne {def} {pop pop} ifelse} forall
  /Encoding WinAnsiEncoding def
  currentdict
end
/Times-BoldItalic exch definefont pop
/Courier findfont
dup length dict begin
  {1 index /FID ne {def} {pop pop} ifelse} forall
  /Encoding WinAnsiEncoding def
  currentdict
end
/Courier exch definefont pop
/Times-Italic findfont
dup length dict begin
  {1 index /FID ne {def} {pop pop} ifelse} forall
  /Encoding WinAnsiEncoding def
  currentdict
end
/Times-Italic exch definefont pop
/Times-Bold findfont
dup length dict begin
  {1 index /FID ne {def} {pop pop} ifelse} forall
  /Encoding WinAnsiEncoding def
  currentdict
end
/Times-Bold exch definefont pop
%FOPEndFontReencode
%%EndProlog
%%Page: 1 1
%%PageBoundingBox: 0 0 560 420
%%BeginPageSetup
[1 0 0 -1 0 420] CT
%%EndPageSetup
GS
1 GC
N
0 0 560 420 re
f
GR
GS
1 GC
N
0 0 560 420 re
f
GR
GS
1 GC
N
73 374 M
507 374 L
507 31 L
73 31 L
cp
f
GR
GS
0.873 GC
2 setlinecap
10.0 ML
N
73 374 M
73 31 L
S
GR
GS
0.873 GC
2 setlinecap
10.0 ML
N
145.333 374 M
145.333 31 L
S
GR
GS
0.873 GC
2 setlinecap
10.0 ML
N
217.667 374 M
217.667 31 L
S
GR
GS
0.873 GC
2 setlinecap
10.0 ML
N
290 374 M
290 31 L
S
GR
GS
0.873 GC
2 setlinecap
10.0 ML
N
362.333 374 M
362.333 31 L
S
GR
GS
0.873 GC
2 setlinecap
10.0 ML
N
434.667 374 M
434.667 31 L
S
GR
GS
0.873 GC
2 setlinecap
10.0 ML
N
507 374 M
507 31 L
S
GR
GS
0.873 GC
2 setlinecap
10.0 ML
N
507 374 M
73 374 L
S
GR
GS
0.873 GC
2 setlinecap
10.0 ML
N
507 339.7 M
73 339.7 L
S
GR
GS
0.873 GC
2 setlinecap
10.0 ML
N
507 305.4 M
73 305.4 L
S
GR
GS
0.873 GC
2 setlinecap
10.0 ML
N
507 271.1 M
73 271.1 L
S
GR
GS
0.873 GC
2 setlinecap
10.0 ML
N
507 236.8 M
73 236.8 L
S
GR
GS
0.873 GC
2 setlinecap
10.0 ML
N
507 202.5 M
73 202.5 L
S
GR
GS
0.873 GC
2 setlinecap
10.0 ML
N
507 168.2 M
73 168.2 L
S
GR
GS
0.873 GC
2 setlinecap
10.0 ML
N
507 133.9 M
73 133.9 L
S
GR
GS
0.873 GC
2 setlinecap
10.0 ML
N
507 99.6 M
73 99.6 L
S
GR
GS
0.873 GC
2 setlinecap
10.0 ML
N
507 65.3 M
73 65.3 L
S
GR
GS
0.873 GC
2 setlinecap
10.0 ML
N
507 31 M
73 31 L
S
GR
GS
[1 0 0 1 290.00021 390] CT
0.149 GC
/Helvetica-Bold 11 F
GS
[1 0 0 1 0 0] CT
-33.5 9 moveto 
1 -1 scale
(Total Energy) t 
GR
GR
GS
0.149 GC
2 setlinecap
10.0 ML
N
73 374 M
507 374 L
S
GR
GS
0.149 GC
2 setlinecap
10.0 ML
N
73 374 M
73 369.66 L
S
GR
GS
0.149 GC
2 setlinecap
10.0 ML
N
145.333 374 M
145.333 369.66 L
S
GR
GS
0.149 GC
2 setlinecap
10.0 ML
N
217.667 374 M
217.667 369.66 L
S
GR
GS
0.149 GC
2 setlinecap
10.0 ML
N
290 374 M
290 369.66 L
S
GR
GS
0.149 GC
2 setlinecap
10.0 ML
N
362.333 374 M
362.333 369.66 L
S
GR
GS
0.149 GC
2 setlinecap
10.0 ML
N
434.667 374 M
434.667 369.66 L
S
GR
GS
0.149 GC
2 setlinecap
10.0 ML
N
507 374 M
507 369.66 L
S
GR
GS
[1 0 0 1 73 378] CT
0.149 GC
/Helvetica-Bold 10 F
GS
[1 0 0 1 0 0] CT
-3 8 moveto 
1 -1 scale
(0) t 
GR
GR
GS
[1 0 0 1 145.33333 378] CT
0.149 GC
/Helvetica-Bold 10 F
GS
[1 0 0 1 0 0] CT
-3 8 moveto 
1 -1 scale
(2) t 
GR
GR
GS
[1 0 0 1 217.66667 378] CT
0.149 GC
/Helvetica-Bold 10 F
GS
[1 0 0 1 0 0] CT
-3 8 moveto 
1 -1 scale
(4) t 
GR
GR
GS
[1 0 0 1 290 378] CT
0.149 GC
/Helvetica-Bold 10 F
GS
[1 0 0 1 0 0] CT
-3 8 moveto 
1 -1 scale
(6) t 
GR
GR
GS
[1 0 0 1 362.33334 378] CT
0.149 GC
/Helvetica-Bold 10 F
GS
[1 0 0 1 0 0] CT
-3 8 moveto 
1 -1 scale
(8) t 
GR
GR
GS
[1 0 0 1 434.66666 378] CT
0.149 GC
/Helvetica-Bold 10 F
GS
[1 0 0 1 0 0] CT
-6 8 moveto 
1 -1 scale
(10) t 
GR
GR
GS
[1 0 0 1 507 378] CT
0.149 GC
/Helvetica-Bold 10 F
GS
[1 0 0 1 0 0] CT
-6 8 moveto 
1 -1 scale
(12) t 
GR
GR
GS
[0 -1 1 0 52 202.49983] CT
0.149 GC
/Helvetica-Bold 11 F
GS
[1 0 0 1 0 0] CT
-60 -3 moveto 
1 -1 scale
(Cumulative Probability) t 
GR
GR
GS
0.149 GC
2 setlinecap
10.0 ML
N
73 374 M
73 31 L
S
GR
GS
0.149 GC
2 setlinecap
10.0 ML
N
73 374 M
77.34 374 L
S
GR
GS
0.149 GC
2 setlinecap
10.0 ML
N
73 339.7 M
77.34 339.7 L
S
GR
GS
0.149 GC
2 setlinecap
10.0 ML
N
73 305.4 M
77.34 305.4 L
S
GR
GS
0.149 GC
2 setlinecap
10.0 ML
N
73 271.1 M
77.34 271.1 L
S
GR
GS
0.149 GC
2 setlinecap
10.0 ML
N
73 236.8 M
77.34 236.8 L
S
GR
GS
0.149 GC
2 setlinecap
10.0 ML
N
73 202.5 M
77.34 202.5 L
S
GR
GS
0.149 GC
2 setlinecap
10.0 ML
N
73 168.2 M
77.34 168.2 L
S
GR
GS
0.149 GC
2 setlinecap
10.0 ML
N
73 133.9 M
77.34 133.9 L
S
GR
GS
0.149 GC
2 setlinecap
10.0 ML
N
73 99.6 M
77.34 99.6 L
S
GR
GS
0.149 GC
2 setlinecap
10.0 ML
N
73 65.3 M
77.34 65.3 L
S
GR
GS
0.149 GC
2 setlinecap
10.0 ML
N
73 31 M
77.34 31 L
S
GR
GS
[1 0 0 1 69 374] CT
0.149 GC
/Helvetica-Bold 10 F
GS
[1 0 0 1 0 0] CT
-6 2.5 moveto 
1 -1 scale
(0) t 
GR
GR
GS
[1 0 0 1 69 339.70001] CT
0.149 GC
/Helvetica-Bold 10 F
GS
[1 0 0 1 0 0] CT
-14 2.5 moveto 
1 -1 scale
(0.1) t 
GR
GR
GS
[1 0 0 1 69 305.39999] CT
0.149 GC
/Helvetica-Bold 10 F
GS
[1 0 0 1 0 0] CT
-14 2.5 moveto 
1 -1 scale
(0.2) t 
GR
GR
GS
[1 0 0 1 69 271.10001] CT
0.149 GC
/Helvetica-Bold 10 F
GS
[1 0 0 1 0 0] CT
-14 2.5 moveto 
1 -1 scale
(0.3) t 
GR
GR
GS
[1 0 0 1 69 236.8] CT
0.149 GC
/Helvetica-Bold 10 F
GS
[1 0 0 1 0 0] CT
-14 2.5 moveto 
1 -1 scale
(0.4) t 
GR
GR
GS
[1 0 0 1 69 202.5] CT
0.149 GC
/Helvetica-Bold 10 F
GS
[1 0 0 1 0 0] CT
-14 2.5 moveto 
1 -1 scale
(0.5) t 
GR
GR
GS
[1 0 0 1 69 168.2] CT
0.149 GC
/Helvetica-Bold 10 F
GS
[1 0 0 1 0 0] CT
-14 2.5 moveto 
1 -1 scale
(0.6) t 
GR
GR
GS
[1 0 0 1 69 133.90001] CT
0.149 GC
/Helvetica-Bold 10 F
GS
[1 0 0 1 0 0] CT
-14 2.5 moveto 
1 -1 scale
(0.7) t 
GR
GR
GS
[1 0 0 1 69 99.6] CT
0.149 GC
/Helvetica-Bold 10 F
GS
[1 0 0 1 0 0] CT
-14 2.5 moveto 
1 -1 scale
(0.8) t 
GR
GR
GS
[1 0 0 1 69 65.30001] CT
0.149 GC
/Helvetica-Bold 10 F
GS
[1 0 0 1 0 0] CT
-14 2.5 moveto 
1 -1 scale
(0.9) t 
GR
GR
GS
[1 0 0 1 69 31] CT
0.149 GC
/Helvetica-Bold 10 F
GS
[1 0 0 1 0 0] CT
-6 2.5 moveto 
1 -1 scale
(1) t 
GR
GR
GS
0.6 0 0 RC
2 LJ
2 LW
N
73 374 M
73 360.28 L
109.167 356.85 L
109.203 349.99 L
109.203 339.7 L
109.239 295.11 L
109.295 291.68 L
115.412 288.25 L
119.07 284.82 L
125.063 281.39 L
128.72 277.96 L
129.267 274.53 L
130.133 271.1 L
130.142 267.67 L
133.48 264.24 L
143.76 260.81 L
145.369 236.8 L
145.377 233.37 L
145.42 229.94 L
146.223 226.51 L
147.25 223.08 L
147.352 219.65 L
149.405 216.22 L
149.903 212.79 L
150.022 209.36 L
150.298 205.93 L
151.094 202.5 L
154.362 199.07 L
155.18 195.64 L
166.275 192.21 L
166.804 185.35 L
167.752 181.92 L
170.11 178.49 L
172.358 175.06 L
172.8 171.63 L
174.846 168.2 L
177.698 164.77 L
181.562 161.34 L
181.604 157.91 L
181.631 154.48 L
181.667 151.05 L
181.671 147.62 L
181.973 144.19 L
184.078 140.76 L
184.498 137.33 L
187.238 133.9 L
189.213 130.47 L
189.47 127.04 L
190.577 123.61 L
190.834 120.18 L
S
GR
GS
0.6 0 0 RC
2 LJ
2 LW
N
190.834 120.18 M
192.016 116.75 L
195.993 113.32 L
196.393 109.89 L
198.904 106.46 L
200.166 103.03 L
201.347 99.6 L
203.439 96.17 L
205.397 92.74 L
216.18 89.31 L
218.659 85.88 L
235.85 82.45 L
239.64 79.02 L
239.896 75.59 L
240.253 72.16 L
241.292 68.73 L
249.045 65.3 L
257.655 61.87 L
259.913 58.44 L
264.837 55.01 L
286.034 51.58 L
294.811 48.15 L
299.344 44.72 L
299.633 41.29 L
312.51 37.86 L
312.581 34.43 L
331.627 31 L
S
GR
GS
0.6 0 0 RC
2 LJ
2 LW
N
69.1 377.9 M
69.1 370.1 L
76.9 370.1 L
76.9 377.9 L
69.1 377.9 L
S
GR
GS
0.6 0 0 RC
2 LJ
2 LW
N
105.339 299.01 M
105.339 291.21 L
113.139 291.21 L
113.139 299.01 L
105.339 299.01 L
S
GR
GS
0.6 0 0 RC
2 LJ
2 LW
N
125.367 278.43 M
125.367 270.63 L
133.167 270.63 L
133.167 278.43 L
125.367 278.43 L
S
GR
GS
0.6 0 0 RC
2 LJ
2 LW
N
141.469 240.7 M
141.469 232.9 L
149.27 232.9 L
149.27 240.7 L
141.469 240.7 L
S
GR
GS
0.6 0 0 RC
2 LJ
2 LW
N
143.452 223.55 M
143.452 215.75 L
151.252 215.75 L
151.252 223.55 L
143.452 223.55 L
S
GR
GS
0.6 0 0 RC
2 LJ
2 LW
N
150.462 202.97 M
150.462 195.17 L
158.262 195.17 L
158.262 202.97 L
150.462 202.97 L
S
GR
GS
0.6 0 0 RC
2 LJ
2 LW
N
166.21 182.39 M
166.21 174.59 L
174.01 174.59 L
174.01 182.39 L
166.21 182.39 L
S
GR
GS
0.6 0 0 RC
2 LJ
2 LW
N
177.704 161.81 M
177.704 154.01 L
185.504 154.01 L
185.504 161.81 L
177.704 161.81 L
S
GR
GS
0.6 0 0 RC
2 LJ
2 LW
N
180.178 144.66 M
180.178 136.86 L
187.978 136.86 L
187.978 144.66 L
180.178 144.66 L
S
GR
GS
0.6 0 0 RC
2 LJ
2 LW
N
186.677 127.51 M
186.677 119.71 L
194.477 119.71 L
194.477 127.51 L
186.677 127.51 L
S
GR
GS
0.6 0 0 RC
2 LJ
2 LW
N
196.266 106.93 M
196.266 99.13 L
204.066 99.13 L
204.066 106.93 L
196.266 106.93 L
S
GR
GS
0.6 0 0 RC
2 LJ
2 LW
N
214.759 89.78 M
214.759 81.98 L
222.559 81.98 L
222.559 89.78 L
214.759 89.78 L
S
GR
GS
0.6 0 0 RC
2 LJ
2 LW
N
237.392 72.63 M
237.392 64.83 L
245.192 64.83 L
245.192 72.63 L
237.392 72.63 L
S
GR
GS
0.6 0 0 RC
2 LJ
2 LW
N
290.911 52.05 M
290.911 44.25 L
298.711 44.25 L
298.711 52.05 L
290.911 52.05 L
S
GR
GS
0.6 0 0 RC
2 LJ
2 LW
N
327.727 34.9 M
327.727 27.1 L
335.527 27.1 L
335.527 34.9 L
327.727 34.9 L
S
GR
GS
0.6 0 0 RC
2 LJ
2 LW
N
69.1 377.9 M
69.1 370.1 L
76.9 370.1 L
76.9 377.9 L
69.1 377.9 L
S
GR
GS
0 0.2 0.4 RC
2 LJ
2 LW
N
109.203 374 M
109.203 349.99 L
109.239 315.69 L
126.809 312.26 L
127.103 308.83 L
129.035 305.4 L
131.918 301.97 L
132.725 298.54 L
140.509 295.11 L
141.659 291.68 L
145.369 264.24 L
147.994 260.81 L
158.065 257.38 L
160.756 253.95 L
168.331 250.52 L
168.335 247.09 L
172.275 243.66 L
174.444 240.23 L
175.62 236.8 L
178.998 233.37 L
180.532 229.94 L
181.468 226.51 L
181.536 223.08 L
181.584 219.65 L
183.28 216.22 L
184.335 212.79 L
185.921 209.36 L
192.001 205.93 L
197.618 202.5 L
200.424 199.07 L
201.341 195.64 L
201.409 192.21 L
204.021 188.78 L
205.829 185.35 L
215.035 181.92 L
224.115 178.49 L
225.247 175.06 L
227.363 171.63 L
228.493 168.2 L
229.7 164.77 L
231.119 161.34 L
231.614 157.91 L
233.849 154.48 L
233.919 151.05 L
234.175 147.62 L
234.192 144.19 L
236.753 140.76 L
239.041 137.33 L
239.244 133.9 L
239.393 130.47 L
S
GR
GS
0 0.2 0.4 RC
2 LJ
2 LW
N
239.393 130.47 M
240.092 127.04 L
247.254 123.61 L
248.882 120.18 L
249.239 116.75 L
255.429 113.32 L
258.263 109.89 L
262.598 106.46 L
263.74 103.03 L
266.979 99.6 L
269.221 96.17 L
274.899 92.74 L
275.372 89.31 L
275.727 85.88 L
276.884 82.45 L
277.008 79.02 L
284.703 75.59 L
288.624 72.16 L
291.276 68.73 L
291.336 65.3 L
293.498 61.87 L
303.603 58.44 L
316.665 55.01 L
320.065 51.58 L
320.392 48.15 L
321.925 44.72 L
324.521 41.29 L
330.246 37.86 L
339.98 34.43 L
350.552 31 L
S
GR
GS
0 0.2 0.4 RC
2 LJ
2 LW
N
114.203 374 M
113.248 371.061 L
110.748 369.245 L
107.658 369.245 L
105.158 371.061 L
104.203 374 L
105.158 376.939 L
107.658 378.755 L
110.748 378.755 L
113.248 376.939 L
114.203 374 L
S
GR
GS
0 0.2 0.4 RC
2 LJ
2 LW
N
136.918 301.97 M
135.963 299.031 L
133.463 297.215 L
130.373 297.215 L
127.873 299.031 L
126.918 301.97 L
127.873 304.909 L
130.373 306.725 L
133.463 306.725 L
135.963 304.909 L
136.918 301.97 L
S
GR
GS
0 0.2 0.4 RC
2 LJ
2 LW
N
152.994 260.81 M
152.039 257.871 L
149.539 256.055 L
146.449 256.055 L
143.949 257.871 L
142.994 260.81 L
143.949 263.749 L
146.449 265.565 L
149.539 265.565 L
152.039 263.749 L
152.994 260.81 L
S
GR
GS
0 0.2 0.4 RC
2 LJ
2 LW
N
179.444 240.23 M
178.489 237.291 L
175.989 235.475 L
172.899 235.475 L
170.399 237.291 L
169.444 240.23 L
170.399 243.169 L
172.899 244.985 L
175.989 244.985 L
178.489 243.169 L
179.444 240.23 L
S
GR
GS
0 0.2 0.4 RC
2 LJ
2 LW
N
186.536 223.08 M
185.581 220.141 L
183.081 218.325 L
179.991 218.325 L
177.491 220.141 L
176.536 223.08 L
177.491 226.019 L
179.991 227.835 L
183.081 227.835 L
185.581 226.019 L
186.536 223.08 L
S
GR
GS
0 0.2 0.4 RC
2 LJ
2 LW
N
202.618 202.5 M
201.663 199.561 L
199.163 197.745 L
196.073 197.745 L
193.573 199.561 L
192.618 202.5 L
193.573 205.439 L
196.073 207.255 L
199.163 207.255 L
201.663 205.439 L
202.618 202.5 L
S
GR
GS
0 0.2 0.4 RC
2 LJ
2 LW
N
210.829 185.35 M
209.874 182.411 L
207.374 180.595 L
204.284 180.595 L
201.784 182.411 L
200.829 185.35 L
201.784 188.289 L
204.284 190.105 L
207.374 190.105 L
209.874 188.289 L
210.829 185.35 L
S
GR
GS
0 0.2 0.4 RC
2 LJ
2 LW
N
234.7 164.77 M
233.745 161.831 L
231.245 160.015 L
228.155 160.015 L
225.655 161.831 L
224.7 164.77 L
225.655 167.709 L
228.155 169.525 L
231.245 169.525 L
233.745 167.709 L
234.7 164.77 L
S
GR
GS
0 0.2 0.4 RC
2 LJ
2 LW
N
239.192 144.19 M
238.238 141.251 L
235.738 139.435 L
232.647 139.435 L
230.147 141.251 L
229.192 144.19 L
230.147 147.129 L
232.647 148.945 L
235.738 148.945 L
238.238 147.129 L
239.192 144.19 L
S
GR
GS
0 0.2 0.4 RC
2 LJ
2 LW
N
245.092 127.04 M
244.137 124.101 L
241.637 122.285 L
238.547 122.285 L
236.047 124.101 L
235.092 127.04 L
236.047 129.979 L
238.547 131.795 L
241.637 131.795 L
244.137 129.979 L
245.092 127.04 L
S
GR
GS
0 0.2 0.4 RC
2 LJ
2 LW
N
267.598 106.46 M
266.643 103.521 L
264.143 101.705 L
261.052 101.705 L
258.552 103.521 L
257.598 106.46 L
258.552 109.399 L
261.052 111.215 L
264.143 111.215 L
266.643 109.399 L
267.598 106.46 L
S
GR
GS
0 0.2 0.4 RC
2 LJ
2 LW
N
280.372 89.31 M
279.417 86.371 L
276.917 84.555 L
273.827 84.555 L
271.327 86.371 L
270.372 89.31 L
271.327 92.249 L
273.827 94.065 L
276.917 94.065 L
279.417 92.249 L
280.372 89.31 L
S
GR
GS
0 0.2 0.4 RC
2 LJ
2 LW
N
296.276 68.73 M
295.321 65.791 L
292.821 63.975 L
289.731 63.975 L
287.231 65.791 L
286.276 68.73 L
287.231 71.669 L
289.731 73.485 L
292.821 73.485 L
295.321 71.669 L
296.276 68.73 L
S
GR
GS
0 0.2 0.4 RC
2 LJ
2 LW
N
325.065 51.58 M
324.11 48.641 L
321.61 46.825 L
318.52 46.825 L
316.02 48.641 L
315.065 51.58 L
316.02 54.519 L
318.52 56.335 L
321.61 56.335 L
324.11 54.519 L
325.065 51.58 L
S
GR
GS
0 0.2 0.4 RC
2 LJ
2 LW
N
355.552 31 M
354.597 28.061 L
352.097 26.245 L
349.007 26.245 L
346.507 28.061 L
345.552 31 L
346.507 33.939 L
349.007 35.755 L
352.097 35.755 L
354.597 33.939 L
355.552 31 L
S
GR
GS
0 0.2 0.4 RC
2 LJ
2 LW
N
114.203 374 M
113.248 371.061 L
110.748 369.245 L
107.658 369.245 L
105.158 371.061 L
104.203 374 L
105.158 376.939 L
107.658 378.755 L
110.748 378.755 L
113.248 376.939 L
114.203 374 L
S
GR
GS
0.8 0.6 0.2 RC
2 LJ
2 LW
N
73 374 M
73 367.14 L
109.203 363.71 L
109.203 336.27 L
109.203 332.84 L
109.239 312.26 L
120.566 308.83 L
127.129 305.4 L
129.035 301.97 L
131.807 298.54 L
140.7 295.11 L
145.369 288.25 L
146.314 284.82 L
157.219 281.39 L
157.264 277.96 L
157.799 274.53 L
162.056 271.1 L
163.945 267.67 L
166.003 264.24 L
168.7 260.81 L
169.092 257.38 L
171.137 253.95 L
172.96 250.52 L
176.79 247.09 L
178.354 243.66 L
187.513 240.23 L
196.013 236.8 L
211.942 233.37 L
212.869 229.94 L
217.703 226.51 L
218.954 223.08 L
219.801 219.65 L
222.388 216.22 L
223.103 212.79 L
224.953 209.36 L
225.137 205.93 L
233.167 202.5 L
233.299 199.07 L
234.261 195.64 L
238.549 192.21 L
238.762 188.78 L
238.854 185.35 L
243.563 181.92 L
244.296 178.49 L
245.179 175.06 L
245.854 171.63 L
246.046 168.2 L
246.259 164.77 L
250.472 161.34 L
250.625 157.91 L
S
GR
GS
0.8 0.6 0.2 RC
2 LJ
2 LW
N
250.625 157.91 M
254.938 154.48 L
255.98 151.05 L
258.646 147.62 L
259.279 144.19 L
261.723 140.76 L
262.759 137.33 L
263.179 133.9 L
270.005 130.47 L
274.325 127.04 L
274.46 123.61 L
275.517 120.18 L
280.607 116.75 L
281.084 113.32 L
297.175 109.89 L
304.014 106.46 L
304.861 103.03 L
304.957 99.6 L
308.712 96.17 L
309.232 92.74 L
310.892 89.31 L
312.228 85.88 L
314.052 82.45 L
317.157 79.02 L
318.481 75.59 L
322.746 72.16 L
326.459 68.73 L
326.508 65.3 L
330.799 61.87 L
330.872 58.44 L
338.05 55.01 L
339.778 51.58 L
349.434 48.15 L
371.185 44.72 L
375.879 41.29 L
381.11 37.86 L
384.05 34.43 L
455.224 31 L
S
GR
GS
0.8 0.6 0.2 RC
2 LJ
2 LW
N
68 374 M
78 374 L
S
GR
GS
0.8 0.6 0.2 RC
2 LJ
2 LW
N
73 379 M
73 369 L
S
GR
GS
0.8 0.6 0.2 RC
2 LJ
2 LW
N
69.464 377.536 M
76.536 370.464 L
S
GR
GS
0.8 0.6 0.2 RC
2 LJ
2 LW
N
69.464 370.464 M
76.536 377.536 L
S
GR
GS
0.8 0.6 0.2 RC
2 LJ
2 LW
N
115.566 308.83 M
125.566 308.83 L
S
GR
GS
0.8 0.6 0.2 RC
2 LJ
2 LW
N
120.566 313.83 M
120.566 303.83 L
S
GR
GS
0.8 0.6 0.2 RC
2 LJ
2 LW
N
117.03 312.366 M
124.101 305.294 L
S
GR
GS
0.8 0.6 0.2 RC
2 LJ
2 LW
N
117.03 305.294 M
124.101 312.366 L
S
GR
GS
0.8 0.6 0.2 RC
2 LJ
2 LW
N
141.314 284.82 M
151.314 284.82 L
S
GR
GS
0.8 0.6 0.2 RC
2 LJ
2 LW
N
146.314 289.82 M
146.314 279.82 L
S
GR
GS
0.8 0.6 0.2 RC
2 LJ
2 LW
N
142.778 288.356 M
149.849 281.284 L
S
GR
GS
0.8 0.6 0.2 RC
2 LJ
2 LW
N
142.778 281.284 M
149.849 288.356 L
S
GR
GS
0.8 0.6 0.2 RC
2 LJ
2 LW
N
161.003 264.24 M
171.003 264.24 L
S
GR
GS
0.8 0.6 0.2 RC
2 LJ
2 LW
N
166.003 269.24 M
166.003 259.24 L
S
GR
GS
0.8 0.6 0.2 RC
2 LJ
2 LW
N
162.467 267.776 M
169.538 260.704 L
S
GR
GS
0.8 0.6 0.2 RC
2 LJ
2 LW
N
162.467 260.704 M
169.538 267.776 L
S
GR
GS
0.8 0.6 0.2 RC
2 LJ
2 LW
N
182.513 240.23 M
192.513 240.23 L
S
GR
GS
0.8 0.6 0.2 RC
2 LJ
2 LW
N
187.513 245.23 M
187.513 235.23 L
S
GR
GS
0.8 0.6 0.2 RC
2 LJ
2 LW
N
183.978 243.766 M
191.049 236.694 L
S
GR
GS
0.8 0.6 0.2 RC
2 LJ
2 LW
N
183.978 236.694 M
191.049 243.766 L
S
GR
GS
0.8 0.6 0.2 RC
2 LJ
2 LW
N
214.801 219.65 M
224.801 219.65 L
S
GR
GS
0.8 0.6 0.2 RC
2 LJ
2 LW
N
219.801 224.65 M
219.801 214.65 L
S
GR
GS
0.8 0.6 0.2 RC
2 LJ
2 LW
N
216.265 223.186 M
223.336 216.114 L
S
GR
GS
0.8 0.6 0.2 RC
2 LJ
2 LW
N
216.265 216.114 M
223.336 223.186 L
S
GR
GS
0.8 0.6 0.2 RC
2 LJ
2 LW
N
228.299 199.07 M
238.299 199.07 L
S
GR
GS
0.8 0.6 0.2 RC
2 LJ
2 LW
N
233.299 204.07 M
233.299 194.07 L
S
GR
GS
0.8 0.6 0.2 RC
2 LJ
2 LW
N
229.763 202.606 M
236.834 195.534 L
S
GR
GS
0.8 0.6 0.2 RC
2 LJ
2 LW
N
229.763 195.534 M
236.834 202.606 L
S
GR
GS
0.8 0.6 0.2 RC
2 LJ
2 LW
N
239.296 178.49 M
249.296 178.49 L
S
GR
GS
0.8 0.6 0.2 RC
2 LJ
2 LW
N
244.296 183.49 M
244.296 173.49 L
S
GR
GS
0.8 0.6 0.2 RC
2 LJ
2 LW
N
240.76 182.026 M
247.831 174.954 L
S
GR
GS
0.8 0.6 0.2 RC
2 LJ
2 LW
N
240.76 174.954 M
247.831 182.026 L
S
GR
GS
0.8 0.6 0.2 RC
2 LJ
2 LW
N
245.625 157.91 M
255.625 157.91 L
S
GR
GS
0.8 0.6 0.2 RC
2 LJ
2 LW
N
250.625 162.91 M
250.625 152.91 L
S
GR
GS
0.8 0.6 0.2 RC
2 LJ
2 LW
N
247.09 161.446 M
254.161 154.374 L
S
GR
GS
0.8 0.6 0.2 RC
2 LJ
2 LW
N
247.09 154.374 M
254.161 161.446 L
S
GR
GS
0.8 0.6 0.2 RC
2 LJ
2 LW
N
257.759 137.33 M
267.759 137.33 L
S
GR
GS
0.8 0.6 0.2 RC
2 LJ
2 LW
N
262.759 142.33 M
262.759 132.33 L
S
GR
GS
0.8 0.6 0.2 RC
2 LJ
2 LW
N
259.224 140.866 M
266.295 133.794 L
S
GR
GS
0.8 0.6 0.2 RC
2 LJ
2 LW
N
259.224 133.794 M
266.295 140.866 L
S
GR
GS
0.8 0.6 0.2 RC
2 LJ
2 LW
N
275.607 116.75 M
285.607 116.75 L
S
GR
GS
0.8 0.6 0.2 RC
2 LJ
2 LW
N
280.607 121.75 M
280.607 111.75 L
S
GR
GS
0.8 0.6 0.2 RC
2 LJ
2 LW
N
277.072 120.286 M
284.143 113.214 L
S
GR
GS
0.8 0.6 0.2 RC
2 LJ
2 LW
N
277.072 113.214 M
284.143 120.286 L
S
GR
GS
0.8 0.6 0.2 RC
2 LJ
2 LW
N
304.232 92.74 M
314.232 92.74 L
S
GR
GS
0.8 0.6 0.2 RC
2 LJ
2 LW
N
309.232 97.74 M
309.232 87.74 L
S
GR
GS
0.8 0.6 0.2 RC
2 LJ
2 LW
N
305.697 96.276 M
312.768 89.204 L
S
GR
GS
0.8 0.6 0.2 RC
2 LJ
2 LW
N
305.697 89.204 M
312.768 96.276 L
S
GR
GS
0.8 0.6 0.2 RC
2 LJ
2 LW
N
317.746 72.16 M
327.746 72.16 L
S
GR
GS
0.8 0.6 0.2 RC
2 LJ
2 LW
N
322.746 77.16 M
322.746 67.16 L
S
GR
GS
0.8 0.6 0.2 RC
2 LJ
2 LW
N
319.21 75.696 M
326.281 68.624 L
S
GR
GS
0.8 0.6 0.2 RC
2 LJ
2 LW
N
319.21 68.624 M
326.281 75.696 L
S
GR
GS
0.8 0.6 0.2 RC
2 LJ
2 LW
N
334.778 51.58 M
344.778 51.58 L
S
GR
GS
0.8 0.6 0.2 RC
2 LJ
2 LW
N
339.778 56.58 M
339.778 46.58 L
S
GR
GS
0.8 0.6 0.2 RC
2 LJ
2 LW
N
336.242 55.116 M
343.313 48.044 L
S
GR
GS
0.8 0.6 0.2 RC
2 LJ
2 LW
N
336.242 48.044 M
343.313 55.116 L
S
GR
GS
0.8 0.6 0.2 RC
2 LJ
2 LW
N
450.224 31 M
460.224 31 L
S
GR
GS
0.8 0.6 0.2 RC
2 LJ
2 LW
N
455.224 36 M
455.224 26 L
S
GR
GS
0.8 0.6 0.2 RC
2 LJ
2 LW
N
451.689 34.536 M
458.76 27.464 L
S
GR
GS
0.8 0.6 0.2 RC
2 LJ
2 LW
N
451.689 27.464 M
458.76 34.536 L
S
GR
GS
0.8 0.6 0.2 RC
2 LJ
2 LW
N
68 374 M
78 374 L
S
GR
GS
0.8 0.6 0.2 RC
2 LJ
2 LW
N
73 379 M
73 369 L
S
GR
GS
0.8 0.6 0.2 RC
2 LJ
2 LW
N
69.464 377.536 M
76.536 370.464 L
S
GR
GS
0.8 0.6 0.2 RC
2 LJ
2 LW
N
69.464 370.464 M
76.536 377.536 L
S
GR
GS
1 GC
N
409 112 M
409 71 L
499 71 L
499 112 L
cp
f
GR
GS
[1 0 0 1 448 79] CT
/Helvetica-Bold 11 F
GS
[1 0 0 1 0 0] CT
0 3 moveto 
1 -1 scale
(25 nodes) t 
GR
GR
GS
0.6 0 0 RC
2 setlinecap
10.0 ML
2 LW
N
415 79 M
445 79 L
S
GR
GS
0.6 0 0 RC
2 setlinecap
10.0 ML
2 LW
N
426.6 82.4 M
426.6 74.6 L
434.4 74.6 L
434.4 82.4 L
426.6 82.4 L
S
GR
GS
[1 0 0 1 448 91.5] CT
/Helvetica-Bold 11 F
GS
[1 0 0 1 0 0] CT
0 3 moveto 
1 -1 scale
(35 nodes) t 
GR
GR
GS
0 0.2 0.4 RC
2 setlinecap
10.0 ML
2 LW
N
415 91.5 M
445 91.5 L
S
GR
GS
0 0.2 0.4 RC
2 setlinecap
10.0 ML
2 LW
N
435.5 91.5 M
434.545 88.561 L
432.045 86.745 L
428.955 86.745 L
426.455 88.561 L
425.5 91.5 L
426.455 94.439 L
428.955 96.255 L
432.045 96.255 L
434.545 94.439 L
435.5 91.5 L
S
GR
GS
[1 0 0 1 448 104] CT
/Helvetica-Bold 11 F
GS
[1 0 0 1 0 0] CT
0 3 moveto 
1 -1 scale
(45 nodes) t 
GR
GR
GS
0.8 0.6 0.2 RC
2 setlinecap
10.0 ML
2 LW
N
415 104 M
445 104 L
S
GR
GS
0.8 0.6 0.2 RC
2 setlinecap
10.0 ML
2 LW
N
425 104.5 M
436 104.5 L
S
GR
GS
0.8 0.6 0.2 RC
2 setlinecap
10.0 ML
2 LW
N
430.5 110 M
430.5 99 L
S
GR
GS
0.8 0.6 0.2 RC
2 setlinecap
10.0 ML
2 LW
N
426 109 M
435 100 L
S
GR
GS
0.8 0.6 0.2 RC
2 setlinecap
10.0 ML
2 LW
N
426 100 M
435 109 L
S
GR
GS
0.149 GC
2 setlinecap
10.0 ML
N
409 112 M
409 71 L
499 71 L
499 112 L
409 112 L
S
GR
%%Trailer
%%Pages: 1
%%EOF
