%!PS-Adobe-3.0 EPSF-3.0
%%Creator: (MATLAB, The Mathworks, Inc. Version 8.5.0.197613 \(R2015a\). Operating System: Mac OS X)
%%Title: /Users/Shared/Figures/network_blue.eps
%%CreationDate: 2015-12-10T12:36:57
%%Pages: (atend)
%%BoundingBox: 0 0 560 420
%%LanguageLevel: 2
%%EndComments
%%BeginProlog
%%BeginResource: procset (Apache XML Graphics Std ProcSet) 1.2 0
%%Version: 1.2 0
%%Copyright: (Copyright 2001-2003,2010 The Apache Software Foundation. License terms: http://www.apache.org/licenses/LICENSE-2.0)
/bd{bind def}bind def
/ld{load def}bd
/GR/grestore ld
/M/moveto ld
/LJ/setlinejoin ld
/C/curveto ld
/f/fill ld
/LW/setlinewidth ld
/GC/setgray ld
/t/show ld
/N/newpath ld
/CT/concat ld
/cp/closepath ld
/S/stroke ld
/L/lineto ld
/CC/setcmykcolor ld
/A/ashow ld
/GS/gsave ld
/RC/setrgbcolor ld
/RM/rmoveto ld
/ML/setmiterlimit ld
/re {4 2 roll M
1 index 0 rlineto
0 exch rlineto
neg 0 rlineto
cp } bd
/_ctm matrix def
/_tm matrix def
/BT { _ctm currentmatrix pop matrix _tm copy pop 0 0 moveto } bd
/ET { _ctm setmatrix } bd
/iTm { _ctm setmatrix _tm concat } bd
/Tm { _tm astore pop iTm 0 0 moveto } bd
/ux 0.0 def
/uy 0.0 def
/F {
  /Tp exch def
  /Tf exch def
  Tf findfont Tp scalefont setfont
  /cf Tf def  /cs Tp def
} bd
/ULS {currentpoint /uy exch def /ux exch def} bd
/ULE {
  /Tcx currentpoint pop def
  gsave
  newpath
  cf findfont cs scalefont dup
  /FontMatrix get 0 get /Ts exch def /FontInfo get dup
  /UnderlinePosition get Ts mul /To exch def
  /UnderlineThickness get Ts mul /Tt exch def
  ux uy To add moveto  Tcx uy To add lineto
  Tt setlinewidth stroke
  grestore
} bd
/OLE {
  /Tcx currentpoint pop def
  gsave
  newpath
  cf findfont cs scalefont dup
  /FontMatrix get 0 get /Ts exch def /FontInfo get dup
  /UnderlinePosition get Ts mul /To exch def
  /UnderlineThickness get Ts mul /Tt exch def
  ux uy To add cs add moveto Tcx uy To add cs add lineto
  Tt setlinewidth stroke
  grestore
} bd
/SOE {
  /Tcx currentpoint pop def
  gsave
  newpath
  cf findfont cs scalefont dup
  /FontMatrix get 0 get /Ts exch def /FontInfo get dup
  /UnderlinePosition get Ts mul /To exch def
  /UnderlineThickness get Ts mul /Tt exch def
  ux uy To add cs 10 mul 26 idiv add moveto Tcx uy To add cs 10 mul 26 idiv add lineto
  Tt setlinewidth stroke
  grestore
} bd
/QT {
/Y22 exch store
/X22 exch store
/Y21 exch store
/X21 exch store
currentpoint
/Y21 load 2 mul add 3 div exch
/X21 load 2 mul add 3 div exch
/X21 load 2 mul /X22 load add 3 div
/Y21 load 2 mul /Y22 load add 3 div
/X22 load /Y22 load curveto
} bd
/SSPD {
dup length /d exch dict def
{
/v exch def
/k exch def
currentpagedevice k known {
/cpdv currentpagedevice k get def
v cpdv ne {
/upd false def
/nullv v type /nulltype eq def
/nullcpdv cpdv type /nulltype eq def
nullv nullcpdv or
{
/upd true def
} {
/sametype v type cpdv type eq def
sametype {
v type /arraytype eq {
/vlen v length def
/cpdvlen cpdv length def
vlen cpdvlen eq {
0 1 vlen 1 sub {
/i exch def
/obj v i get def
/cpdobj cpdv i get def
obj cpdobj ne {
/upd true def
exit
} if
} for
} {
/upd true def
} ifelse
} {
v type /dicttype eq {
v {
/dv exch def
/dk exch def
/cpddv cpdv dk get def
dv cpddv ne {
/upd true def
exit
} if
} forall
} {
/upd true def
} ifelse
} ifelse
} if
} ifelse
upd true eq {
d k v put
} if
} if
} if
} forall
d length 0 gt {
d setpagedevice
} if
} bd
%%EndResource
%%BeginResource: procset (Apache XML Graphics EPS ProcSet) 1.0 0
%%Version: 1.0 0
%%Copyright: (Copyright 2002-2003 The Apache Software Foundation. License terms: http://www.apache.org/licenses/LICENSE-2.0)
/BeginEPSF { %def
/b4_Inc_state save def         % Save state for cleanup
/dict_count countdictstack def % Count objects on dict stack
/op_count count 1 sub def      % Count objects on operand stack
userdict begin                 % Push userdict on dict stack
/showpage { } def              % Redefine showpage, { } = null proc
0 setgray 0 setlinecap         % Prepare graphics state
1 setlinewidth 0 setlinejoin
10 setmiterlimit [ ] 0 setdash newpath
/languagelevel where           % If level not equal to 1 then
{pop languagelevel             % set strokeadjust and
1 ne                           % overprint to their defaults.
{false setstrokeadjust false setoverprint
} if
} if
} bd
/EndEPSF { %def
count op_count sub {pop} repeat            % Clean up stacks
countdictstack dict_count sub {end} repeat
b4_Inc_state restore
} bd
%%EndResource
%FOPBeginFontDict
%%IncludeResource: font Courier-Bold
%%IncludeResource: font Helvetica
%%IncludeResource: font Courier-BoldOblique
%%IncludeResource: font Courier-Oblique
%%IncludeResource: font Times-Roman
%%IncludeResource: font Helvetica-BoldOblique
%%IncludeResource: font Helvetica-Bold
%%IncludeResource: font Helvetica-Oblique
%%IncludeResource: font Times-BoldItalic
%%IncludeResource: font Courier
%%IncludeResource: font Times-Italic
%%IncludeResource: font Times-Bold
%%IncludeResource: font Symbol
%%IncludeResource: font ZapfDingbats
%FOPEndFontDict
%%BeginResource: encoding WinAnsiEncoding
/WinAnsiEncoding [
/.notdef /.notdef /.notdef /.notdef /.notdef
/.notdef /.notdef /.notdef /.notdef /.notdef
/.notdef /.notdef /.notdef /.notdef /.notdef
/.notdef /.notdef /.notdef /.notdef /.notdef
/.notdef /.notdef /.notdef /.notdef /.notdef
/.notdef /.notdef /.notdef /.notdef /.notdef
/.notdef /.notdef /space /exclam /quotedbl
/numbersign /dollar /percent /ampersand /quotesingle
/parenleft /parenright /asterisk /plus /comma
/hyphen /period /slash /zero /one
/two /three /four /five /six
/seven /eight /nine /colon /semicolon
/less /equal /greater /question /at
/A /B /C /D /E
/F /G /H /I /J
/K /L /M /N /O
/P /Q /R /S /T
/U /V /W /X /Y
/Z /bracketleft /backslash /bracketright /asciicircum
/underscore /quoteleft /a /b /c
/d /e /f /g /h
/i /j /k /l /m
/n /o /p /q /r
/s /t /u /v /w
/x /y /z /braceleft /bar
/braceright /asciitilde /bullet /Euro /bullet
/quotesinglbase /florin /quotedblbase /ellipsis /dagger
/daggerdbl /circumflex /perthousand /Scaron /guilsinglleft
/OE /bullet /Zcaron /bullet /bullet
/quoteleft /quoteright /quotedblleft /quotedblright /bullet
/endash /emdash /asciitilde /trademark /scaron
/guilsinglright /oe /bullet /zcaron /Ydieresis
/space /exclamdown /cent /sterling /currency
/yen /brokenbar /section /dieresis /copyright
/ordfeminine /guillemotleft /logicalnot /sfthyphen /registered
/macron /degree /plusminus /twosuperior /threesuperior
/acute /mu /paragraph /middot /cedilla
/onesuperior /ordmasculine /guillemotright /onequarter /onehalf
/threequarters /questiondown /Agrave /Aacute /Acircumflex
/Atilde /Adieresis /Aring /AE /Ccedilla
/Egrave /Eacute /Ecircumflex /Edieresis /Igrave
/Iacute /Icircumflex /Idieresis /Eth /Ntilde
/Ograve /Oacute /Ocircumflex /Otilde /Odieresis
/multiply /Oslash /Ugrave /Uacute /Ucircumflex
/Udieresis /Yacute /Thorn /germandbls /agrave
/aacute /acircumflex /atilde /adieresis /aring
/ae /ccedilla /egrave /eacute /ecircumflex
/edieresis /igrave /iacute /icircumflex /idieresis
/eth /ntilde /ograve /oacute /ocircumflex
/otilde /odieresis /divide /oslash /ugrave
/uacute /ucircumflex /udieresis /yacute /thorn
/ydieresis
] def
%%EndResource
%FOPBeginFontReencode
/Courier-Bold findfont
dup length dict begin
  {1 index /FID ne {def} {pop pop} ifelse} forall
  /Encoding WinAnsiEncoding def
  currentdict
end
/Courier-Bold exch definefont pop
/Helvetica findfont
dup length dict begin
  {1 index /FID ne {def} {pop pop} ifelse} forall
  /Encoding WinAnsiEncoding def
  currentdict
end
/Helvetica exch definefont pop
/Courier-BoldOblique findfont
dup length dict begin
  {1 index /FID ne {def} {pop pop} ifelse} forall
  /Encoding WinAnsiEncoding def
  currentdict
end
/Courier-BoldOblique exch definefont pop
/Courier-Oblique findfont
dup length dict begin
  {1 index /FID ne {def} {pop pop} ifelse} forall
  /Encoding WinAnsiEncoding def
  currentdict
end
/Courier-Oblique exch definefont pop
/Times-Roman findfont
dup length dict begin
  {1 index /FID ne {def} {pop pop} ifelse} forall
  /Encoding WinAnsiEncoding def
  currentdict
end
/Times-Roman exch definefont pop
/Helvetica-BoldOblique findfont
dup length dict begin
  {1 index /FID ne {def} {pop pop} ifelse} forall
  /Encoding WinAnsiEncoding def
  currentdict
end
/Helvetica-BoldOblique exch definefont pop
/Helvetica-Bold findfont
dup length dict begin
  {1 index /FID ne {def} {pop pop} ifelse} forall
  /Encoding WinAnsiEncoding def
  currentdict
end
/Helvetica-Bold exch definefont pop
/Helvetica-Oblique findfont
dup length dict begin
  {1 index /FID ne {def} {pop pop} ifelse} forall
  /Encoding WinAnsiEncoding def
  currentdict
end
/Helvetica-Oblique exch definefont pop
/Times-BoldItalic findfont
dup length dict begin
  {1 index /FID ne {def} {pop pop} ifelse} forall
  /Encoding WinAnsiEncoding def
  currentdict
end
/Times-BoldItalic exch definefont pop
/Courier findfont
dup length dict begin
  {1 index /FID ne {def} {pop pop} ifelse} forall
  /Encoding WinAnsiEncoding def
  currentdict
end
/Courier exch definefont pop
/Times-Italic findfont
dup length dict begin
  {1 index /FID ne {def} {pop pop} ifelse} forall
  /Encoding WinAnsiEncoding def
  currentdict
end
/Times-Italic exch definefont pop
/Times-Bold findfont
dup length dict begin
  {1 index /FID ne {def} {pop pop} ifelse} forall
  /Encoding WinAnsiEncoding def
  currentdict
end
/Times-Bold exch definefont pop
%FOPEndFontReencode
%%EndProlog
%%Page: 1 1
%%PageBoundingBox: 0 0 560 420
%%BeginPageSetup
[1 0 0 -1 0 420] CT
%%EndPageSetup
GS
1 GC
N
0 0 560 420 re
f
GR
GS
1 GC
N
0 0 560 420 re
f
GR
GS
1 GC
N
73 374 M
507 374 L
507 31 L
73 31 L
cp
f
GR
GS
0.873 GC
2 setlinecap
10.0 ML
N
73 374 M
73 31 L
S
GR
GS
0.873 GC
2 setlinecap
10.0 ML
N
121.222 374 M
121.222 31 L
S
GR
GS
0.873 GC
2 setlinecap
10.0 ML
N
169.444 374 M
169.444 31 L
S
GR
GS
0.873 GC
2 setlinecap
10.0 ML
N
217.667 374 M
217.667 31 L
S
GR
GS
0.873 GC
2 setlinecap
10.0 ML
N
265.889 374 M
265.889 31 L
S
GR
GS
0.873 GC
2 setlinecap
10.0 ML
N
314.111 374 M
314.111 31 L
S
GR
GS
0.873 GC
2 setlinecap
10.0 ML
N
362.333 374 M
362.333 31 L
S
GR
GS
0.873 GC
2 setlinecap
10.0 ML
N
410.556 374 M
410.556 31 L
S
GR
GS
0.873 GC
2 setlinecap
10.0 ML
N
458.778 374 M
458.778 31 L
S
GR
GS
0.873 GC
2 setlinecap
10.0 ML
N
507 374 M
507 31 L
S
GR
GS
0.873 GC
2 setlinecap
10.0 ML
N
507 374 M
73 374 L
S
GR
GS
0.873 GC
2 setlinecap
10.0 ML
N
507 339.7 M
73 339.7 L
S
GR
GS
0.873 GC
2 setlinecap
10.0 ML
N
507 305.4 M
73 305.4 L
S
GR
GS
0.873 GC
2 setlinecap
10.0 ML
N
507 271.1 M
73 271.1 L
S
GR
GS
0.873 GC
2 setlinecap
10.0 ML
N
507 236.8 M
73 236.8 L
S
GR
GS
0.873 GC
2 setlinecap
10.0 ML
N
507 202.5 M
73 202.5 L
S
GR
GS
0.873 GC
2 setlinecap
10.0 ML
N
507 168.2 M
73 168.2 L
S
GR
GS
0.873 GC
2 setlinecap
10.0 ML
N
507 133.9 M
73 133.9 L
S
GR
GS
0.873 GC
2 setlinecap
10.0 ML
N
507 99.6 M
73 99.6 L
S
GR
GS
0.873 GC
2 setlinecap
10.0 ML
N
507 65.3 M
73 65.3 L
S
GR
GS
0.873 GC
2 setlinecap
10.0 ML
N
507 31 M
73 31 L
S
GR
GS
0.149 GC
2 setlinecap
10.0 ML
N
73 374 M
507 374 L
S
GR
GS
0.149 GC
2 setlinecap
10.0 ML
N
73 31 M
507 31 L
S
GR
GS
0.149 GC
2 setlinecap
10.0 ML
N
73 374 M
73 369.66 L
S
GR
GS
0.149 GC
2 setlinecap
10.0 ML
N
121.222 374 M
121.222 369.66 L
S
GR
GS
0.149 GC
2 setlinecap
10.0 ML
N
169.444 374 M
169.444 369.66 L
S
GR
GS
0.149 GC
2 setlinecap
10.0 ML
N
217.667 374 M
217.667 369.66 L
S
GR
GS
0.149 GC
2 setlinecap
10.0 ML
N
265.889 374 M
265.889 369.66 L
S
GR
GS
0.149 GC
2 setlinecap
10.0 ML
N
314.111 374 M
314.111 369.66 L
S
GR
GS
0.149 GC
2 setlinecap
10.0 ML
N
362.333 374 M
362.333 369.66 L
S
GR
GS
0.149 GC
2 setlinecap
10.0 ML
N
410.556 374 M
410.556 369.66 L
S
GR
GS
0.149 GC
2 setlinecap
10.0 ML
N
458.778 374 M
458.778 369.66 L
S
GR
GS
0.149 GC
2 setlinecap
10.0 ML
N
507 374 M
507 369.66 L
S
GR
GS
0.149 GC
2 setlinecap
10.0 ML
N
73 31 M
73 35.34 L
S
GR
GS
0.149 GC
2 setlinecap
10.0 ML
N
121.222 31 M
121.222 35.34 L
S
GR
GS
0.149 GC
2 setlinecap
10.0 ML
N
169.444 31 M
169.444 35.34 L
S
GR
GS
0.149 GC
2 setlinecap
10.0 ML
N
217.667 31 M
217.667 35.34 L
S
GR
GS
0.149 GC
2 setlinecap
10.0 ML
N
265.889 31 M
265.889 35.34 L
S
GR
GS
0.149 GC
2 setlinecap
10.0 ML
N
314.111 31 M
314.111 35.34 L
S
GR
GS
0.149 GC
2 setlinecap
10.0 ML
N
362.333 31 M
362.333 35.34 L
S
GR
GS
0.149 GC
2 setlinecap
10.0 ML
N
410.556 31 M
410.556 35.34 L
S
GR
GS
0.149 GC
2 setlinecap
10.0 ML
N
458.778 31 M
458.778 35.34 L
S
GR
GS
0.149 GC
2 setlinecap
10.0 ML
N
507 31 M
507 35.34 L
S
GR
GS
[1 0 0 1 73 378] CT
0.149 GC
/Helvetica 10 F
GS
[1 0 0 1 0 0] CT
-4.5 8 moveto 
1 -1 scale
(-2) t 
GR
GR
GS
[1 0 0 1 121.22222 378] CT
0.149 GC
/Helvetica 10 F
GS
[1 0 0 1 0 0] CT
-3 8 moveto 
1 -1 scale
(0) t 
GR
GR
GS
[1 0 0 1 169.44444 378] CT
0.149 GC
/Helvetica 10 F
GS
[1 0 0 1 0 0] CT
-3 8 moveto 
1 -1 scale
(2) t 
GR
GR
GS
[1 0 0 1 217.66667 378] CT
0.149 GC
/Helvetica 10 F
GS
[1 0 0 1 0 0] CT
-3 8 moveto 
1 -1 scale
(4) t 
GR
GR
GS
[1 0 0 1 265.88889 378] CT
0.149 GC
/Helvetica 10 F
GS
[1 0 0 1 0 0] CT
-3 8 moveto 
1 -1 scale
(6) t 
GR
GR
GS
[1 0 0 1 314.11111 378] CT
0.149 GC
/Helvetica 10 F
GS
[1 0 0 1 0 0] CT
-3 8 moveto 
1 -1 scale
(8) t 
GR
GR
GS
[1 0 0 1 362.33334 378] CT
0.149 GC
/Helvetica 10 F
GS
[1 0 0 1 0 0] CT
-6 8 moveto 
1 -1 scale
(10) t 
GR
GR
GS
[1 0 0 1 410.55554 378] CT
0.149 GC
/Helvetica 10 F
GS
[1 0 0 1 0 0] CT
-6 8 moveto 
1 -1 scale
(12) t 
GR
GR
GS
[1 0 0 1 458.77777 378] CT
0.149 GC
/Helvetica 10 F
GS
[1 0 0 1 0 0] CT
-6 8 moveto 
1 -1 scale
(14) t 
GR
GR
GS
[1 0 0 1 507 378] CT
0.149 GC
/Helvetica 10 F
GS
[1 0 0 1 0 0] CT
-6 8 moveto 
1 -1 scale
(16) t 
GR
GR
GS
0.149 GC
2 setlinecap
10.0 ML
N
73 374 M
73 31 L
S
GR
GS
0.149 GC
2 setlinecap
10.0 ML
N
507 374 M
507 31 L
S
GR
GS
0.149 GC
2 setlinecap
10.0 ML
N
73 374 M
77.34 374 L
S
GR
GS
0.149 GC
2 setlinecap
10.0 ML
N
73 339.7 M
77.34 339.7 L
S
GR
GS
0.149 GC
2 setlinecap
10.0 ML
N
73 305.4 M
77.34 305.4 L
S
GR
GS
0.149 GC
2 setlinecap
10.0 ML
N
73 271.1 M
77.34 271.1 L
S
GR
GS
0.149 GC
2 setlinecap
10.0 ML
N
73 236.8 M
77.34 236.8 L
S
GR
GS
0.149 GC
2 setlinecap
10.0 ML
N
73 202.5 M
77.34 202.5 L
S
GR
GS
0.149 GC
2 setlinecap
10.0 ML
N
73 168.2 M
77.34 168.2 L
S
GR
GS
0.149 GC
2 setlinecap
10.0 ML
N
73 133.9 M
77.34 133.9 L
S
GR
GS
0.149 GC
2 setlinecap
10.0 ML
N
73 99.6 M
77.34 99.6 L
S
GR
GS
0.149 GC
2 setlinecap
10.0 ML
N
73 65.3 M
77.34 65.3 L
S
GR
GS
0.149 GC
2 setlinecap
10.0 ML
N
73 31 M
77.34 31 L
S
GR
GS
0.149 GC
2 setlinecap
10.0 ML
N
507 374 M
502.66 374 L
S
GR
GS
0.149 GC
2 setlinecap
10.0 ML
N
507 339.7 M
502.66 339.7 L
S
GR
GS
0.149 GC
2 setlinecap
10.0 ML
N
507 305.4 M
502.66 305.4 L
S
GR
GS
0.149 GC
2 setlinecap
10.0 ML
N
507 271.1 M
502.66 271.1 L
S
GR
GS
0.149 GC
2 setlinecap
10.0 ML
N
507 236.8 M
502.66 236.8 L
S
GR
GS
0.149 GC
2 setlinecap
10.0 ML
N
507 202.5 M
502.66 202.5 L
S
GR
GS
0.149 GC
2 setlinecap
10.0 ML
N
507 168.2 M
502.66 168.2 L
S
GR
GS
0.149 GC
2 setlinecap
10.0 ML
N
507 133.9 M
502.66 133.9 L
S
GR
GS
0.149 GC
2 setlinecap
10.0 ML
N
507 99.6 M
502.66 99.6 L
S
GR
GS
0.149 GC
2 setlinecap
10.0 ML
N
507 65.3 M
502.66 65.3 L
S
GR
GS
0.149 GC
2 setlinecap
10.0 ML
N
507 31 M
502.66 31 L
S
GR
GS
[1 0 0 1 69 374] CT
0.149 GC
/Helvetica 10 F
GS
[1 0 0 1 0 0] CT
-6 2.5 moveto 
1 -1 scale
(0) t 
GR
GR
GS
[1 0 0 1 69 339.70001] CT
0.149 GC
/Helvetica 10 F
GS
[1 0 0 1 0 0] CT
-14 2.5 moveto 
1 -1 scale
(0.5) t 
GR
GR
GS
[1 0 0 1 69 305.39999] CT
0.149 GC
/Helvetica 10 F
GS
[1 0 0 1 0 0] CT
-6 2.5 moveto 
1 -1 scale
(1) t 
GR
GR
GS
[1 0 0 1 69 271.10001] CT
0.149 GC
/Helvetica 10 F
GS
[1 0 0 1 0 0] CT
-14 2.5 moveto 
1 -1 scale
(1.5) t 
GR
GR
GS
[1 0 0 1 69 236.8] CT
0.149 GC
/Helvetica 10 F
GS
[1 0 0 1 0 0] CT
-6 2.5 moveto 
1 -1 scale
(2) t 
GR
GR
GS
[1 0 0 1 69 202.5] CT
0.149 GC
/Helvetica 10 F
GS
[1 0 0 1 0 0] CT
-14 2.5 moveto 
1 -1 scale
(2.5) t 
GR
GR
GS
[1 0 0 1 69 168.2] CT
0.149 GC
/Helvetica 10 F
GS
[1 0 0 1 0 0] CT
-6 2.5 moveto 
1 -1 scale
(3) t 
GR
GR
GS
[1 0 0 1 69 133.89999] CT
0.149 GC
/Helvetica 10 F
GS
[1 0 0 1 0 0] CT
-14 2.5 moveto 
1 -1 scale
(3.5) t 
GR
GR
GS
[1 0 0 1 69 99.6] CT
0.149 GC
/Helvetica 10 F
GS
[1 0 0 1 0 0] CT
-6 2.5 moveto 
1 -1 scale
(4) t 
GR
GR
GS
[1 0 0 1 69 65.3] CT
0.149 GC
/Helvetica 10 F
GS
[1 0 0 1 0 0] CT
-14 2.5 moveto 
1 -1 scale
(4.5) t 
GR
GR
GS
[1 0 0 1 69 31] CT
0.149 GC
/Helvetica 10 F
GS
[1 0 0 1 0 0] CT
-6 2.5 moveto 
1 -1 scale
(5) t 
GR
GR
GS
1 0 0 RC
2 setlinecap
10.0 ML
N
95 33 M
100 28 L
S
GR
GS
1 0 0 RC
2 setlinecap
10.0 ML
N
95 28 M
100 33 L
S
GR
GS
1 0 0 RC
2 setlinecap
10.0 ML
N
167 102 M
172 97 L
S
GR
GS
1 0 0 RC
2 setlinecap
10.0 ML
N
167 97 M
172 102 L
S
GR
GS
1 0 0 RC
2 setlinecap
10.0 ML
N
119 33 M
124 28 L
S
GR
GS
1 0 0 RC
2 setlinecap
10.0 ML
N
119 28 M
124 33 L
S
GR
GS
1 0 0 RC
2 setlinecap
10.0 ML
N
432 239 M
437 234 L
S
GR
GS
1 0 0 RC
2 setlinecap
10.0 ML
N
432 234 M
437 239 L
S
GR
GS
1 0 0 RC
2 setlinecap
10.0 ML
N
312 33 M
317 28 L
S
GR
GS
1 0 0 RC
2 setlinecap
10.0 ML
N
312 28 M
317 33 L
S
GR
GS
1 0 0 RC
2 setlinecap
10.0 ML
N
384 102 M
389 97 L
S
GR
GS
1 0 0 RC
2 setlinecap
10.0 ML
N
384 97 M
389 102 L
S
GR
GS
1 0 0 RC
2 setlinecap
10.0 ML
N
191 376 M
196 371 L
S
GR
GS
1 0 0 RC
2 setlinecap
10.0 ML
N
191 371 M
196 376 L
S
GR
GS
1 0 0 RC
2 setlinecap
10.0 ML
N
432 308 M
437 303 L
S
GR
GS
1 0 0 RC
2 setlinecap
10.0 ML
N
432 303 M
437 308 L
S
GR
GS
1 0 0 RC
2 setlinecap
10.0 ML
N
288 239 M
293 234 L
S
GR
GS
1 0 0 RC
2 setlinecap
10.0 ML
N
288 234 M
293 239 L
S
GR
GS
1 0 0 RC
2 setlinecap
10.0 ML
N
408 239 M
413 234 L
S
GR
GS
1 0 0 RC
2 setlinecap
10.0 ML
N
408 234 M
413 239 L
S
GR
GS
1 0 0 RC
2 setlinecap
10.0 ML
N
288 33 M
293 28 L
S
GR
GS
1 0 0 RC
2 setlinecap
10.0 ML
N
288 28 M
293 33 L
S
GR
GS
1 0 0 RC
2 setlinecap
10.0 ML
N
191 239 M
196 234 L
S
GR
GS
1 0 0 RC
2 setlinecap
10.0 ML
N
191 234 M
196 239 L
S
GR
GS
1 0 0 RC
2 setlinecap
10.0 ML
N
336 308 M
341 303 L
S
GR
GS
1 0 0 RC
2 setlinecap
10.0 ML
N
336 303 M
341 308 L
S
GR
GS
1 0 0 RC
2 setlinecap
10.0 ML
N
119 102 M
124 97 L
S
GR
GS
1 0 0 RC
2 setlinecap
10.0 ML
N
119 97 M
124 102 L
S
GR
GS
1 0 0 RC
2 setlinecap
10.0 ML
N
215 33 M
220 28 L
S
GR
GS
1 0 0 RC
2 setlinecap
10.0 ML
N
215 28 M
220 33 L
S
GR
GS
1 0 0 RC
2 setlinecap
10.0 ML
N
143 102 M
148 97 L
S
GR
GS
1 0 0 RC
2 setlinecap
10.0 ML
N
143 97 M
148 102 L
S
GR
GS
1 0 0 RC
2 setlinecap
10.0 ML
N
263 376 M
268 371 L
S
GR
GS
1 0 0 RC
2 setlinecap
10.0 ML
N
263 371 M
268 376 L
S
GR
GS
1 0 0 RC
2 setlinecap
10.0 ML
N
456 33 M
461 28 L
S
GR
GS
1 0 0 RC
2 setlinecap
10.0 ML
N
456 28 M
461 33 L
S
GR
GS
1 0 0 RC
2 setlinecap
10.0 ML
N
239 33 M
244 28 L
S
GR
GS
1 0 0 RC
2 setlinecap
10.0 ML
N
239 28 M
244 33 L
S
GR
GS
1 0 0 RC
2 setlinecap
10.0 ML
N
288 171 M
293 166 L
S
GR
GS
1 0 0 RC
2 setlinecap
10.0 ML
N
288 166 M
293 171 L
S
GR
GS
1 0 0 RC
2 setlinecap
10.0 ML
N
143 239 M
148 234 L
S
GR
GS
1 0 0 RC
2 setlinecap
10.0 ML
N
143 234 M
148 239 L
S
GR
GS
1 0 0 RC
2 setlinecap
10.0 ML
N
119 376 M
124 371 L
S
GR
GS
1 0 0 RC
2 setlinecap
10.0 ML
N
119 371 M
124 376 L
S
GR
GS
1 0 0 RC
2 setlinecap
10.0 ML
N
143 33 M
148 28 L
S
GR
GS
1 0 0 RC
2 setlinecap
10.0 ML
N
143 28 M
148 33 L
S
GR
GS
1 0 0 RC
2 setlinecap
10.0 ML
N
480 308 M
485 303 L
S
GR
GS
1 0 0 RC
2 setlinecap
10.0 ML
N
480 303 M
485 308 L
S
GR
GS
1 0 0 RC
2 setlinecap
10.0 ML
N
239 239 M
244 234 L
S
GR
GS
1 0 0 RC
2 setlinecap
10.0 ML
N
239 234 M
244 239 L
S
GR
GS
1 0 0 RC
2 setlinecap
10.0 ML
N
263 239 M
268 234 L
S
GR
GS
1 0 0 RC
2 setlinecap
10.0 ML
N
263 234 M
268 239 L
S
GR
GS
1 0 0 RC
2 setlinecap
10.0 ML
N
480 102 M
485 97 L
S
GR
GS
1 0 0 RC
2 setlinecap
10.0 ML
N
480 97 M
485 102 L
S
GR
GS
1 0 0 RC
2 setlinecap
10.0 ML
N
312 171 M
317 166 L
S
GR
GS
1 0 0 RC
2 setlinecap
10.0 ML
N
312 166 M
317 171 L
S
GR
GS
1 0 0 RC
2 setlinecap
10.0 ML
N
191 33 M
196 28 L
S
GR
GS
1 0 0 RC
2 setlinecap
10.0 ML
N
191 28 M
196 33 L
S
GR
GS
1 0 0 RC
2 setlinecap
10.0 ML
N
456 171 M
461 166 L
S
GR
GS
1 0 0 RC
2 setlinecap
10.0 ML
N
456 166 M
461 171 L
S
GR
GS
1 0 0 RC
2 setlinecap
10.0 ML
N
239 171 M
244 166 L
S
GR
GS
1 0 0 RC
2 setlinecap
10.0 ML
N
239 166 M
244 171 L
S
GR
GS
1 0 0 RC
2 setlinecap
10.0 ML
N
384 376 M
389 371 L
S
GR
GS
1 0 0 RC
2 setlinecap
10.0 ML
N
384 371 M
389 376 L
S
GR
GS
1 0 0 RC
2 setlinecap
10.0 ML
N
263 171 M
268 166 L
S
GR
GS
1 0 0 RC
2 setlinecap
10.0 ML
N
263 166 M
268 171 L
S
GR
GS
1 0 0 RC
2 setlinecap
10.0 ML
N
288 308 M
293 303 L
S
GR
GS
1 0 0 RC
2 setlinecap
10.0 ML
N
288 303 M
293 308 L
S
GR
GS
1 0 0 RC
2 setlinecap
10.0 ML
N
215 308 M
220 303 L
S
GR
GS
1 0 0 RC
2 setlinecap
10.0 ML
N
215 303 M
220 308 L
S
GR
GS
1 0 0 RC
2 setlinecap
10.0 ML
N
456 376 M
461 371 L
S
GR
GS
1 0 0 RC
2 setlinecap
10.0 ML
N
456 371 M
461 376 L
S
GR
GS
1 0 0 RC
2 setlinecap
10.0 ML
N
408 376 M
413 371 L
S
GR
GS
1 0 0 RC
2 setlinecap
10.0 ML
N
408 371 M
413 376 L
S
GR
GS
1 0 0 RC
2 setlinecap
10.0 ML
N
384 171 M
389 166 L
S
GR
GS
1 0 0 RC
2 setlinecap
10.0 ML
N
384 166 M
389 171 L
S
GR
GS
1 0 0 RC
2 setlinecap
10.0 ML
N
456 308 M
461 303 L
S
GR
GS
1 0 0 RC
2 setlinecap
10.0 ML
N
456 303 M
461 308 L
S
GR
GS
1 0 0 RC
2 setlinecap
10.0 ML
N
408 102 M
413 97 L
S
GR
GS
1 0 0 RC
2 setlinecap
10.0 ML
N
408 97 M
413 102 L
S
GR
GS
1 0 0 RC
2 setlinecap
10.0 ML
N
360 308 M
365 303 L
S
GR
GS
1 0 0 RC
2 setlinecap
10.0 ML
N
360 303 M
365 308 L
S
GR
GS
1 0 0 RC
2 setlinecap
10.0 ML
N
119 171 M
124 166 L
S
GR
GS
1 0 0 RC
2 setlinecap
10.0 ML
N
119 166 M
124 171 L
S
GR
GS
1 0 0 RC
2 setlinecap
10.0 ML
N
360 33 M
365 28 L
S
GR
GS
1 0 0 RC
2 setlinecap
10.0 ML
N
360 28 M
365 33 L
S
GR
GS
1 0 0 RC
2 setlinecap
10.0 ML
N
432 376 M
437 371 L
S
GR
GS
1 0 0 RC
2 setlinecap
10.0 ML
N
432 371 M
437 376 L
S
GR
GS
1 0 0 RC
2 setlinecap
10.0 ML
N
191 102 M
196 97 L
S
GR
GS
1 0 0 RC
2 setlinecap
10.0 ML
N
191 97 M
196 102 L
S
GR
GS
1 0 0 RC
2 setlinecap
10.0 ML
N
408 308 M
413 303 L
S
GR
GS
1 0 0 RC
2 setlinecap
10.0 ML
N
408 303 M
413 308 L
S
GR
GS
1 0 0 RC
2 setlinecap
10.0 ML
N
263 102 M
268 97 L
S
GR
GS
1 0 0 RC
2 setlinecap
10.0 ML
N
263 97 M
268 102 L
S
GR
GS
1 0 0 RC
2 setlinecap
10.0 ML
N
360 171 M
365 166 L
S
GR
GS
1 0 0 RC
2 setlinecap
10.0 ML
N
360 166 M
365 171 L
S
GR
GS
1 0 0 RC
2 setlinecap
10.0 ML
N
456 102 M
461 97 L
S
GR
GS
1 0 0 RC
2 setlinecap
10.0 ML
N
456 97 M
461 102 L
S
GR
GS
1 0 0 RC
2 setlinecap
10.0 ML
N
360 102 M
365 97 L
S
GR
GS
1 0 0 RC
2 setlinecap
10.0 ML
N
360 97 M
365 102 L
S
GR
GS
1 0 0 RC
2 setlinecap
10.0 ML
N
239 376 M
244 371 L
S
GR
GS
1 0 0 RC
2 setlinecap
10.0 ML
N
239 371 M
244 376 L
S
GR
GS
0 0.447 0.741 RC
2 setlinecap
10.0 ML
N
97.111 31 M
169.444 99.6 L
97.111 31 L
193.556 236.8 L
97.111 31 L
121.222 99.6 L
97.111 31 L
217.667 31 L
97.111 31 L
145.333 99.6 L
97.111 31 L
145.333 236.8 L
97.111 31 L
145.333 31 L
97.111 31 L
193.556 31 L
97.111 31 L
121.222 168.2 L
97.111 31 L
193.556 99.6 L
S
GR
GS
0 0.447 0.741 RC
2 setlinecap
10.0 ML
N
169.444 99.6 M
97.111 31 L
169.444 99.6 L
121.222 31 L
169.444 99.6 L
193.556 374 L
169.444 99.6 L
193.556 236.8 L
169.444 99.6 L
121.222 99.6 L
169.444 99.6 L
217.667 31 L
169.444 99.6 L
241.778 31 L
169.444 99.6 L
145.333 236.8 L
169.444 99.6 L
121.222 374 L
169.444 99.6 L
145.333 31 L
169.444 99.6 L
241.778 236.8 L
169.444 99.6 L
265.889 236.8 L
169.444 99.6 L
193.556 31 L
169.444 99.6 L
241.778 168.2 L
169.444 99.6 L
265.889 168.2 L
169.444 99.6 L
217.667 305.4 L
169.444 99.6 L
121.222 168.2 L
169.444 99.6 L
265.889 99.6 L
169.444 99.6 L
241.778 374 L
S
GR
GS
0 0.447 0.741 RC
2 setlinecap
10.0 ML
N
121.222 31 M
169.444 99.6 L
121.222 31 L
193.556 236.8 L
121.222 31 L
217.667 31 L
121.222 31 L
145.333 99.6 L
121.222 31 L
241.778 31 L
121.222 31 L
145.333 236.8 L
121.222 31 L
121.222 374 L
121.222 31 L
193.556 31 L
121.222 31 L
121.222 168.2 L
121.222 31 L
193.556 99.6 L
S
GR
GS
0 0.447 0.741 RC
2 setlinecap
10.0 ML
N
434.667 236.8 M
386.444 99.6 L
434.667 236.8 L
338.222 305.4 L
434.667 236.8 L
458.778 31 L
434.667 236.8 L
482.889 305.4 L
434.667 236.8 L
482.889 99.6 L
434.667 236.8 L
458.778 168.2 L
434.667 236.8 L
386.444 374 L
434.667 236.8 L
458.778 374 L
434.667 236.8 L
410.556 374 L
434.667 236.8 L
386.444 168.2 L
434.667 236.8 L
458.778 305.4 L
434.667 236.8 L
410.556 99.6 L
434.667 236.8 L
362.333 305.4 L
434.667 236.8 L
362.333 31 L
434.667 236.8 L
434.667 374 L
434.667 236.8 L
410.556 305.4 L
434.667 236.8 L
362.333 168.2 L
434.667 236.8 L
458.778 99.6 L
434.667 236.8 L
362.333 99.6 L
S
GR
GS
0 0.447 0.741 RC
2 setlinecap
10.0 ML
N
314.111 31 M
386.444 99.6 L
314.111 31 L
290 236.8 L
314.111 31 L
410.556 236.8 L
314.111 31 L
338.222 305.4 L
314.111 31 L
217.667 31 L
314.111 31 L
241.778 31 L
314.111 31 L
290 168.2 L
314.111 31 L
241.778 236.8 L
314.111 31 L
265.889 236.8 L
314.111 31 L
314.111 168.2 L
314.111 31 L
193.556 31 L
314.111 31 L
241.778 168.2 L
314.111 31 L
265.889 168.2 L
314.111 31 L
290 305.4 L
314.111 31 L
386.444 168.2 L
314.111 31 L
410.556 99.6 L
314.111 31 L
362.333 305.4 L
314.111 31 L
362.333 31 L
314.111 31 L
265.889 99.6 L
314.111 31 L
362.333 168.2 L
314.111 31 L
362.333 99.6 L
S
GR
GS
0 0.447 0.741 RC
2 setlinecap
10.0 ML
N
386.444 99.6 M
434.667 236.8 L
386.444 99.6 L
314.111 31 L
386.444 99.6 L
434.667 305.4 L
386.444 99.6 L
290 236.8 L
386.444 99.6 L
410.556 236.8 L
386.444 99.6 L
290 31 L
386.444 99.6 L
338.222 305.4 L
386.444 99.6 L
458.778 31 L
386.444 99.6 L
290 168.2 L
386.444 99.6 L
482.889 305.4 L
386.444 99.6 L
482.889 99.6 L
386.444 99.6 L
314.111 168.2 L
386.444 99.6 L
458.778 168.2 L
386.444 99.6 L
386.444 374 L
386.444 99.6 L
290 305.4 L
386.444 99.6 L
458.778 374 L
386.444 99.6 L
410.556 374 L
386.444 99.6 L
458.778 305.4 L
386.444 99.6 L
362.333 305.4 L
386.444 99.6 L
362.333 31 L
386.444 99.6 L
434.667 374 L
386.444 99.6 L
410.556 305.4 L
386.444 99.6 L
265.889 99.6 L
386.444 99.6 L
362.333 168.2 L
386.444 99.6 L
458.778 99.6 L
S
GR
GS
0 0.447 0.741 RC
2 setlinecap
10.0 ML
N
193.556 374 M
169.444 99.6 L
193.556 374 L
290 236.8 L
193.556 374 L
193.556 236.8 L
193.556 374 L
121.222 99.6 L
193.556 374 L
145.333 99.6 L
193.556 374 L
265.889 374 L
193.556 374 L
290 168.2 L
193.556 374 L
145.333 236.8 L
193.556 374 L
121.222 374 L
193.556 374 L
241.778 236.8 L
193.556 374 L
265.889 236.8 L
193.556 374 L
193.556 31 L
193.556 374 L
241.778 168.2 L
193.556 374 L
265.889 168.2 L
193.556 374 L
290 305.4 L
193.556 374 L
217.667 305.4 L
193.556 374 L
121.222 168.2 L
193.556 374 L
193.556 99.6 L
193.556 374 L
265.889 99.6 L
193.556 374 L
241.778 374 L
S
GR
GS
0 0.447 0.741 RC
2 setlinecap
10.0 ML
N
434.667 305.4 M
386.444 99.6 L
434.667 305.4 L
410.556 236.8 L
434.667 305.4 L
338.222 305.4 L
434.667 305.4 L
458.778 31 L
434.667 305.4 L
482.889 305.4 L
434.667 305.4 L
482.889 99.6 L
434.667 305.4 L
458.778 168.2 L
434.667 305.4 L
386.444 374 L
434.667 305.4 L
458.778 374 L
434.667 305.4 L
410.556 374 L
434.667 305.4 L
386.444 168.2 L
434.667 305.4 L
410.556 99.6 L
434.667 305.4 L
362.333 305.4 L
434.667 305.4 L
362.333 31 L
434.667 305.4 L
362.333 168.2 L
434.667 305.4 L
458.778 99.6 L
434.667 305.4 L
362.333 99.6 L
S
GR
GS
0 0.447 0.741 RC
2 setlinecap
10.0 ML
N
290 236.8 M
314.111 31 L
290 236.8 L
386.444 99.6 L
290 236.8 L
193.556 374 L
290 236.8 L
410.556 236.8 L
290 236.8 L
290 31 L
290 236.8 L
193.556 236.8 L
290 236.8 L
338.222 305.4 L
290 236.8 L
217.667 31 L
290 236.8 L
265.889 374 L
290 236.8 L
241.778 31 L
290 236.8 L
241.778 236.8 L
290 236.8 L
314.111 168.2 L
290 236.8 L
193.556 31 L
290 236.8 L
241.778 168.2 L
290 236.8 L
386.444 374 L
290 236.8 L
265.889 168.2 L
290 236.8 L
217.667 305.4 L
290 236.8 L
386.444 168.2 L
290 236.8 L
362.333 305.4 L
290 236.8 L
362.333 31 L
290 236.8 L
193.556 99.6 L
290 236.8 L
265.889 99.6 L
290 236.8 L
362.333 168.2 L
290 236.8 L
362.333 99.6 L
290 236.8 L
241.778 374 L
S
GR
GS
0 0.447 0.741 RC
2 setlinecap
10.0 ML
N
410.556 236.8 M
314.111 31 L
410.556 236.8 L
386.444 99.6 L
410.556 236.8 L
434.667 305.4 L
410.556 236.8 L
290 236.8 L
410.556 236.8 L
338.222 305.4 L
410.556 236.8 L
458.778 31 L
410.556 236.8 L
482.889 305.4 L
410.556 236.8 L
482.889 99.6 L
410.556 236.8 L
314.111 168.2 L
410.556 236.8 L
458.778 168.2 L
410.556 236.8 L
386.444 374 L
410.556 236.8 L
458.778 374 L
410.556 236.8 L
410.556 374 L
410.556 236.8 L
386.444 168.2 L
410.556 236.8 L
458.778 305.4 L
410.556 236.8 L
410.556 99.6 L
410.556 236.8 L
362.333 305.4 L
410.556 236.8 L
362.333 31 L
410.556 236.8 L
434.667 374 L
410.556 236.8 L
362.333 168.2 L
410.556 236.8 L
458.778 99.6 L
410.556 236.8 L
362.333 99.6 L
S
GR
GS
0 0.447 0.741 RC
2 setlinecap
10.0 ML
N
290 31 M
386.444 99.6 L
290 31 L
290 236.8 L
290 31 L
193.556 236.8 L
290 31 L
338.222 305.4 L
290 31 L
217.667 31 L
290 31 L
241.778 31 L
290 31 L
290 168.2 L
290 31 L
241.778 236.8 L
290 31 L
265.889 236.8 L
290 31 L
314.111 168.2 L
290 31 L
193.556 31 L
290 31 L
241.778 168.2 L
290 31 L
265.889 168.2 L
290 31 L
290 305.4 L
290 31 L
217.667 305.4 L
290 31 L
386.444 168.2 L
290 31 L
362.333 305.4 L
290 31 L
362.333 31 L
290 31 L
193.556 99.6 L
290 31 L
265.889 99.6 L
290 31 L
362.333 168.2 L
290 31 L
362.333 99.6 L
S
GR
GS
0 0.447 0.741 RC
2 setlinecap
10.0 ML
N
193.556 236.8 M
97.111 31 L
193.556 236.8 L
169.444 99.6 L
193.556 236.8 L
121.222 31 L
193.556 236.8 L
193.556 374 L
193.556 236.8 L
290 236.8 L
193.556 236.8 L
290 31 L
193.556 236.8 L
121.222 99.6 L
193.556 236.8 L
217.667 31 L
193.556 236.8 L
145.333 99.6 L
193.556 236.8 L
265.889 374 L
193.556 236.8 L
241.778 31 L
193.556 236.8 L
290 168.2 L
193.556 236.8 L
145.333 236.8 L
193.556 236.8 L
121.222 374 L
193.556 236.8 L
145.333 31 L
193.556 236.8 L
241.778 236.8 L
193.556 236.8 L
265.889 236.8 L
193.556 236.8 L
193.556 31 L
193.556 236.8 L
241.778 168.2 L
193.556 236.8 L
265.889 168.2 L
193.556 236.8 L
290 305.4 L
193.556 236.8 L
217.667 305.4 L
193.556 236.8 L
121.222 168.2 L
193.556 236.8 L
193.556 99.6 L
193.556 236.8 L
265.889 99.6 L
S
GR
GS
0 0.447 0.741 RC
2 setlinecap
10.0 ML
N
265.889 99.6 M
193.556 236.8 L
241.778 374 L
S
GR
GS
0 0.447 0.741 RC
2 setlinecap
10.0 ML
N
338.222 305.4 M
434.667 236.8 L
338.222 305.4 L
314.111 31 L
338.222 305.4 L
386.444 99.6 L
338.222 305.4 L
434.667 305.4 L
338.222 305.4 L
290 236.8 L
338.222 305.4 L
410.556 236.8 L
338.222 305.4 L
290 31 L
338.222 305.4 L
265.889 374 L
338.222 305.4 L
290 168.2 L
338.222 305.4 L
241.778 236.8 L
338.222 305.4 L
265.889 236.8 L
338.222 305.4 L
314.111 168.2 L
338.222 305.4 L
241.778 168.2 L
338.222 305.4 L
386.444 374 L
338.222 305.4 L
265.889 168.2 L
338.222 305.4 L
290 305.4 L
338.222 305.4 L
217.667 305.4 L
338.222 305.4 L
410.556 374 L
338.222 305.4 L
386.444 168.2 L
338.222 305.4 L
458.778 305.4 L
338.222 305.4 L
410.556 99.6 L
338.222 305.4 L
362.333 31 L
338.222 305.4 L
434.667 374 L
338.222 305.4 L
410.556 305.4 L
338.222 305.4 L
265.889 99.6 L
S
GR
GS
0 0.447 0.741 RC
2 setlinecap
10.0 ML
N
265.889 99.6 M
338.222 305.4 L
362.333 168.2 L
338.222 305.4 L
362.333 99.6 L
338.222 305.4 L
241.778 374 L
S
GR
GS
0 0.447 0.741 RC
2 setlinecap
10.0 ML
N
121.222 99.6 M
97.111 31 L
121.222 99.6 L
169.444 99.6 L
121.222 99.6 L
193.556 374 L
121.222 99.6 L
193.556 236.8 L
121.222 99.6 L
217.667 31 L
121.222 99.6 L
145.333 236.8 L
121.222 99.6 L
121.222 374 L
121.222 99.6 L
145.333 31 L
121.222 99.6 L
193.556 31 L
121.222 99.6 L
217.667 305.4 L
121.222 99.6 L
193.556 99.6 L
S
GR
GS
0 0.447 0.741 RC
2 setlinecap
10.0 ML
N
217.667 31 M
97.111 31 L
217.667 31 L
169.444 99.6 L
217.667 31 L
121.222 31 L
217.667 31 L
314.111 31 L
217.667 31 L
290 236.8 L
217.667 31 L
290 31 L
217.667 31 L
193.556 236.8 L
217.667 31 L
121.222 99.6 L
217.667 31 L
145.333 99.6 L
217.667 31 L
290 168.2 L
217.667 31 L
145.333 236.8 L
217.667 31 L
145.333 31 L
217.667 31 L
241.778 236.8 L
217.667 31 L
265.889 236.8 L
217.667 31 L
314.111 168.2 L
217.667 31 L
241.778 168.2 L
217.667 31 L
265.889 168.2 L
217.667 31 L
290 305.4 L
217.667 31 L
217.667 305.4 L
217.667 31 L
121.222 168.2 L
217.667 31 L
193.556 99.6 L
217.667 31 L
265.889 99.6 L
S
GR
GS
0 0.447 0.741 RC
2 setlinecap
10.0 ML
N
145.333 99.6 M
97.111 31 L
145.333 99.6 L
121.222 31 L
145.333 99.6 L
193.556 374 L
145.333 99.6 L
193.556 236.8 L
145.333 99.6 L
217.667 31 L
145.333 99.6 L
241.778 31 L
145.333 99.6 L
145.333 236.8 L
145.333 99.6 L
121.222 374 L
145.333 99.6 L
241.778 236.8 L
145.333 99.6 L
193.556 31 L
145.333 99.6 L
241.778 168.2 L
145.333 99.6 L
217.667 305.4 L
145.333 99.6 L
121.222 168.2 L
145.333 99.6 L
193.556 99.6 L
145.333 99.6 L
265.889 99.6 L
S
GR
GS
0 0.447 0.741 RC
2 setlinecap
10.0 ML
N
265.889 374 M
193.556 374 L
265.889 374 L
290 236.8 L
265.889 374 L
193.556 236.8 L
265.889 374 L
338.222 305.4 L
265.889 374 L
290 168.2 L
265.889 374 L
241.778 236.8 L
265.889 374 L
265.889 236.8 L
265.889 374 L
314.111 168.2 L
265.889 374 L
241.778 168.2 L
265.889 374 L
386.444 374 L
265.889 374 L
265.889 168.2 L
265.889 374 L
290 305.4 L
265.889 374 L
217.667 305.4 L
265.889 374 L
362.333 305.4 L
265.889 374 L
193.556 99.6 L
265.889 374 L
265.889 99.6 L
265.889 374 L
362.333 168.2 L
S
GR
GS
0 0.447 0.741 RC
2 setlinecap
10.0 ML
N
458.778 31 M
434.667 236.8 L
458.778 31 L
386.444 99.6 L
458.778 31 L
434.667 305.4 L
458.778 31 L
410.556 236.8 L
458.778 31 L
482.889 305.4 L
458.778 31 L
482.889 99.6 L
458.778 31 L
458.778 168.2 L
458.778 31 L
458.778 374 L
458.778 31 L
386.444 168.2 L
458.778 31 L
458.778 305.4 L
458.778 31 L
410.556 99.6 L
458.778 31 L
362.333 31 L
458.778 31 L
410.556 305.4 L
458.778 31 L
362.333 168.2 L
458.778 31 L
362.333 99.6 L
S
GR
GS
0 0.447 0.741 RC
2 setlinecap
10.0 ML
N
241.778 31 M
169.444 99.6 L
241.778 31 L
121.222 31 L
241.778 31 L
314.111 31 L
241.778 31 L
290 236.8 L
241.778 31 L
290 31 L
241.778 31 L
193.556 236.8 L
241.778 31 L
145.333 99.6 L
241.778 31 L
290 168.2 L
241.778 31 L
145.333 236.8 L
241.778 31 L
145.333 31 L
241.778 31 L
241.778 236.8 L
241.778 31 L
265.889 236.8 L
241.778 31 L
314.111 168.2 L
241.778 31 L
193.556 31 L
241.778 31 L
241.778 168.2 L
241.778 31 L
265.889 168.2 L
241.778 31 L
290 305.4 L
241.778 31 L
217.667 305.4 L
241.778 31 L
362.333 31 L
241.778 31 L
193.556 99.6 L
241.778 31 L
265.889 99.6 L
241.778 31 L
241.778 374 L
S
GR
GS
0 0.447 0.741 RC
2 setlinecap
10.0 ML
N
290 168.2 M
314.111 31 L
290 168.2 L
386.444 99.6 L
290 168.2 L
193.556 374 L
290 168.2 L
290 31 L
290 168.2 L
193.556 236.8 L
290 168.2 L
338.222 305.4 L
290 168.2 L
217.667 31 L
290 168.2 L
265.889 374 L
290 168.2 L
241.778 31 L
290 168.2 L
241.778 236.8 L
290 168.2 L
265.889 236.8 L
290 168.2 L
193.556 31 L
290 168.2 L
241.778 168.2 L
290 168.2 L
386.444 374 L
290 168.2 L
290 305.4 L
290 168.2 L
217.667 305.4 L
290 168.2 L
386.444 168.2 L
290 168.2 L
362.333 305.4 L
290 168.2 L
362.333 31 L
290 168.2 L
193.556 99.6 L
290 168.2 L
265.889 99.6 L
290 168.2 L
362.333 168.2 L
290 168.2 L
362.333 99.6 L
290 168.2 L
241.778 374 L
S
GR
GS
0 0.447 0.741 RC
2 setlinecap
10.0 ML
N
145.333 236.8 M
97.111 31 L
145.333 236.8 L
169.444 99.6 L
145.333 236.8 L
121.222 31 L
145.333 236.8 L
193.556 374 L
145.333 236.8 L
193.556 236.8 L
145.333 236.8 L
121.222 99.6 L
145.333 236.8 L
217.667 31 L
145.333 236.8 L
145.333 99.6 L
145.333 236.8 L
241.778 31 L
145.333 236.8 L
121.222 374 L
145.333 236.8 L
145.333 31 L
145.333 236.8 L
241.778 236.8 L
145.333 236.8 L
265.889 236.8 L
145.333 236.8 L
193.556 31 L
145.333 236.8 L
241.778 168.2 L
145.333 236.8 L
217.667 305.4 L
145.333 236.8 L
121.222 168.2 L
145.333 236.8 L
193.556 99.6 L
145.333 236.8 L
241.778 374 L
S
GR
GS
0 0.447 0.741 RC
2 setlinecap
10.0 ML
N
121.222 374 M
169.444 99.6 L
121.222 374 L
121.222 31 L
121.222 374 L
193.556 374 L
121.222 374 L
193.556 236.8 L
121.222 374 L
121.222 99.6 L
121.222 374 L
145.333 99.6 L
121.222 374 L
145.333 236.8 L
121.222 374 L
217.667 305.4 L
121.222 374 L
121.222 168.2 L
121.222 374 L
193.556 99.6 L
121.222 374 L
241.778 374 L
S
GR
GS
0 0.447 0.741 RC
2 setlinecap
10.0 ML
N
145.333 31 M
97.111 31 L
145.333 31 L
169.444 99.6 L
145.333 31 L
193.556 236.8 L
145.333 31 L
121.222 99.6 L
145.333 31 L
217.667 31 L
145.333 31 L
241.778 31 L
145.333 31 L
145.333 236.8 L
145.333 31 L
241.778 236.8 L
145.333 31 L
193.556 31 L
145.333 31 L
241.778 168.2 L
145.333 31 L
217.667 305.4 L
145.333 31 L
121.222 168.2 L
145.333 31 L
193.556 99.6 L
S
GR
GS
0 0.447 0.741 RC
2 setlinecap
10.0 ML
N
482.889 305.4 M
434.667 236.8 L
482.889 305.4 L
386.444 99.6 L
482.889 305.4 L
434.667 305.4 L
482.889 305.4 L
410.556 236.8 L
482.889 305.4 L
458.778 31 L
482.889 305.4 L
482.889 99.6 L
482.889 305.4 L
458.778 168.2 L
482.889 305.4 L
386.444 374 L
482.889 305.4 L
458.778 374 L
482.889 305.4 L
410.556 374 L
482.889 305.4 L
386.444 168.2 L
482.889 305.4 L
410.556 99.6 L
482.889 305.4 L
362.333 305.4 L
482.889 305.4 L
434.667 374 L
482.889 305.4 L
410.556 305.4 L
482.889 305.4 L
458.778 99.6 L
S
GR
GS
0 0.447 0.741 RC
2 setlinecap
10.0 ML
N
241.778 236.8 M
169.444 99.6 L
241.778 236.8 L
314.111 31 L
241.778 236.8 L
193.556 374 L
241.778 236.8 L
290 236.8 L
241.778 236.8 L
290 31 L
241.778 236.8 L
193.556 236.8 L
241.778 236.8 L
338.222 305.4 L
241.778 236.8 L
217.667 31 L
241.778 236.8 L
145.333 99.6 L
241.778 236.8 L
265.889 374 L
241.778 236.8 L
241.778 31 L
241.778 236.8 L
290 168.2 L
241.778 236.8 L
145.333 236.8 L
241.778 236.8 L
145.333 31 L
241.778 236.8 L
314.111 168.2 L
241.778 236.8 L
193.556 31 L
241.778 236.8 L
265.889 168.2 L
241.778 236.8 L
290 305.4 L
241.778 236.8 L
217.667 305.4 L
241.778 236.8 L
193.556 99.6 L
241.778 236.8 L
265.889 99.6 L
241.778 236.8 L
241.778 374 L
S
GR
GS
0 0.447 0.741 RC
2 setlinecap
10.0 ML
N
265.889 236.8 M
169.444 99.6 L
265.889 236.8 L
314.111 31 L
265.889 236.8 L
193.556 374 L
265.889 236.8 L
290 31 L
265.889 236.8 L
193.556 236.8 L
265.889 236.8 L
338.222 305.4 L
265.889 236.8 L
217.667 31 L
265.889 236.8 L
265.889 374 L
265.889 236.8 L
241.778 31 L
265.889 236.8 L
290 168.2 L
265.889 236.8 L
145.333 236.8 L
265.889 236.8 L
314.111 168.2 L
265.889 236.8 L
193.556 31 L
265.889 236.8 L
241.778 168.2 L
265.889 236.8 L
290 305.4 L
265.889 236.8 L
217.667 305.4 L
265.889 236.8 L
362.333 305.4 L
265.889 236.8 L
362.333 31 L
265.889 236.8 L
193.556 99.6 L
265.889 236.8 L
265.889 99.6 L
265.889 236.8 L
362.333 168.2 L
265.889 236.8 L
362.333 99.6 L
265.889 236.8 L
241.778 374 L
S
GR
GS
0 0.447 0.741 RC
2 setlinecap
10.0 ML
N
482.889 99.6 M
434.667 236.8 L
482.889 99.6 L
386.444 99.6 L
482.889 99.6 L
434.667 305.4 L
482.889 99.6 L
410.556 236.8 L
482.889 99.6 L
458.778 31 L
482.889 99.6 L
482.889 305.4 L
482.889 99.6 L
458.778 168.2 L
482.889 99.6 L
458.778 374 L
482.889 99.6 L
410.556 374 L
482.889 99.6 L
386.444 168.2 L
482.889 99.6 L
458.778 305.4 L
482.889 99.6 L
410.556 99.6 L
482.889 99.6 L
434.667 374 L
482.889 99.6 L
410.556 305.4 L
482.889 99.6 L
362.333 99.6 L
S
GR
GS
0 0.447 0.741 RC
2 setlinecap
10.0 ML
N
314.111 168.2 M
314.111 31 L
314.111 168.2 L
386.444 99.6 L
314.111 168.2 L
290 236.8 L
314.111 168.2 L
410.556 236.8 L
314.111 168.2 L
290 31 L
314.111 168.2 L
338.222 305.4 L
314.111 168.2 L
217.667 31 L
314.111 168.2 L
265.889 374 L
314.111 168.2 L
241.778 31 L
314.111 168.2 L
241.778 236.8 L
314.111 168.2 L
265.889 236.8 L
314.111 168.2 L
241.778 168.2 L
314.111 168.2 L
386.444 374 L
314.111 168.2 L
265.889 168.2 L
314.111 168.2 L
290 305.4 L
314.111 168.2 L
217.667 305.4 L
314.111 168.2 L
410.556 374 L
314.111 168.2 L
386.444 168.2 L
314.111 168.2 L
410.556 99.6 L
314.111 168.2 L
362.333 305.4 L
314.111 168.2 L
362.333 31 L
314.111 168.2 L
410.556 305.4 L
314.111 168.2 L
265.889 99.6 L
314.111 168.2 L
362.333 168.2 L
314.111 168.2 L
362.333 99.6 L
S
GR
GS
0 0.447 0.741 RC
2 setlinecap
10.0 ML
N
362.333 99.6 M
314.111 168.2 L
241.778 374 L
S
GR
GS
0 0.447 0.741 RC
2 setlinecap
10.0 ML
N
193.556 31 M
97.111 31 L
193.556 31 L
169.444 99.6 L
193.556 31 L
121.222 31 L
193.556 31 L
314.111 31 L
193.556 31 L
193.556 374 L
193.556 31 L
290 236.8 L
193.556 31 L
290 31 L
193.556 31 L
193.556 236.8 L
193.556 31 L
121.222 99.6 L
193.556 31 L
145.333 99.6 L
193.556 31 L
241.778 31 L
193.556 31 L
290 168.2 L
193.556 31 L
145.333 236.8 L
193.556 31 L
145.333 31 L
193.556 31 L
241.778 236.8 L
193.556 31 L
265.889 236.8 L
193.556 31 L
241.778 168.2 L
193.556 31 L
265.889 168.2 L
193.556 31 L
217.667 305.4 L
193.556 31 L
121.222 168.2 L
193.556 31 L
265.889 99.6 L
S
GR
GS
0 0.447 0.741 RC
2 setlinecap
10.0 ML
N
458.778 168.2 M
434.667 236.8 L
458.778 168.2 L
386.444 99.6 L
458.778 168.2 L
434.667 305.4 L
458.778 168.2 L
410.556 236.8 L
458.778 168.2 L
458.778 31 L
458.778 168.2 L
482.889 305.4 L
458.778 168.2 L
482.889 99.6 L
458.778 168.2 L
386.444 374 L
458.778 168.2 L
458.778 374 L
458.778 168.2 L
410.556 374 L
458.778 168.2 L
386.444 168.2 L
458.778 168.2 L
458.778 305.4 L
458.778 168.2 L
410.556 99.6 L
458.778 168.2 L
362.333 305.4 L
458.778 168.2 L
362.333 31 L
458.778 168.2 L
434.667 374 L
458.778 168.2 L
410.556 305.4 L
458.778 168.2 L
362.333 168.2 L
458.778 168.2 L
362.333 99.6 L
S
GR
GS
0 0.447 0.741 RC
2 setlinecap
10.0 ML
N
241.778 168.2 M
169.444 99.6 L
241.778 168.2 L
314.111 31 L
241.778 168.2 L
193.556 374 L
241.778 168.2 L
290 236.8 L
241.778 168.2 L
290 31 L
241.778 168.2 L
193.556 236.8 L
241.778 168.2 L
338.222 305.4 L
241.778 168.2 L
217.667 31 L
241.778 168.2 L
145.333 99.6 L
241.778 168.2 L
265.889 374 L
241.778 168.2 L
241.778 31 L
241.778 168.2 L
290 168.2 L
241.778 168.2 L
145.333 236.8 L
241.778 168.2 L
145.333 31 L
241.778 168.2 L
265.889 236.8 L
241.778 168.2 L
314.111 168.2 L
241.778 168.2 L
193.556 31 L
241.778 168.2 L
290 305.4 L
241.778 168.2 L
217.667 305.4 L
241.778 168.2 L
121.222 168.2 L
241.778 168.2 L
193.556 99.6 L
241.778 168.2 L
265.889 99.6 L
241.778 168.2 L
362.333 168.2 L
241.778 168.2 L
241.778 374 L
S
GR
GS
0 0.447 0.741 RC
2 setlinecap
10.0 ML
N
386.444 374 M
434.667 236.8 L
386.444 374 L
386.444 99.6 L
386.444 374 L
434.667 305.4 L
386.444 374 L
290 236.8 L
386.444 374 L
410.556 236.8 L
386.444 374 L
338.222 305.4 L
386.444 374 L
265.889 374 L
386.444 374 L
290 168.2 L
386.444 374 L
482.889 305.4 L
386.444 374 L
314.111 168.2 L
386.444 374 L
458.778 168.2 L
386.444 374 L
290 305.4 L
386.444 374 L
458.778 374 L
386.444 374 L
386.444 168.2 L
386.444 374 L
458.778 305.4 L
386.444 374 L
410.556 99.6 L
386.444 374 L
362.333 305.4 L
386.444 374 L
434.667 374 L
386.444 374 L
410.556 305.4 L
386.444 374 L
362.333 168.2 L
386.444 374 L
458.778 99.6 L
386.444 374 L
362.333 99.6 L
S
GR
GS
0 0.447 0.741 RC
2 setlinecap
10.0 ML
N
265.889 168.2 M
169.444 99.6 L
265.889 168.2 L
314.111 31 L
265.889 168.2 L
193.556 374 L
265.889 168.2 L
290 236.8 L
265.889 168.2 L
290 31 L
265.889 168.2 L
193.556 236.8 L
265.889 168.2 L
338.222 305.4 L
265.889 168.2 L
217.667 31 L
265.889 168.2 L
265.889 374 L
265.889 168.2 L
241.778 31 L
265.889 168.2 L
241.778 236.8 L
265.889 168.2 L
314.111 168.2 L
265.889 168.2 L
193.556 31 L
265.889 168.2 L
290 305.4 L
265.889 168.2 L
217.667 305.4 L
265.889 168.2 L
386.444 168.2 L
265.889 168.2 L
362.333 305.4 L
265.889 168.2 L
362.333 31 L
265.889 168.2 L
193.556 99.6 L
265.889 168.2 L
362.333 168.2 L
265.889 168.2 L
362.333 99.6 L
265.889 168.2 L
241.778 374 L
S
GR
GS
0 0.447 0.741 RC
2 setlinecap
10.0 ML
N
290 305.4 M
314.111 31 L
290 305.4 L
386.444 99.6 L
290 305.4 L
193.556 374 L
290 305.4 L
290 31 L
290 305.4 L
193.556 236.8 L
290 305.4 L
338.222 305.4 L
290 305.4 L
217.667 31 L
290 305.4 L
265.889 374 L
290 305.4 L
241.778 31 L
290 305.4 L
290 168.2 L
290 305.4 L
241.778 236.8 L
290 305.4 L
265.889 236.8 L
290 305.4 L
314.111 168.2 L
290 305.4 L
241.778 168.2 L
290 305.4 L
386.444 374 L
290 305.4 L
265.889 168.2 L
290 305.4 L
217.667 305.4 L
290 305.4 L
386.444 168.2 L
290 305.4 L
362.333 305.4 L
290 305.4 L
362.333 31 L
290 305.4 L
193.556 99.6 L
290 305.4 L
410.556 305.4 L
290 305.4 L
265.889 99.6 L
290 305.4 L
362.333 168.2 L
290 305.4 L
362.333 99.6 L
S
GR
GS
0 0.447 0.741 RC
2 setlinecap
10.0 ML
N
362.333 99.6 M
290 305.4 L
241.778 374 L
S
GR
GS
0 0.447 0.741 RC
2 setlinecap
10.0 ML
N
217.667 305.4 M
169.444 99.6 L
217.667 305.4 L
193.556 374 L
217.667 305.4 L
290 236.8 L
217.667 305.4 L
290 31 L
217.667 305.4 L
193.556 236.8 L
217.667 305.4 L
338.222 305.4 L
217.667 305.4 L
121.222 99.6 L
217.667 305.4 L
217.667 31 L
217.667 305.4 L
145.333 99.6 L
217.667 305.4 L
265.889 374 L
217.667 305.4 L
241.778 31 L
217.667 305.4 L
290 168.2 L
217.667 305.4 L
145.333 236.8 L
217.667 305.4 L
121.222 374 L
217.667 305.4 L
145.333 31 L
217.667 305.4 L
241.778 236.8 L
217.667 305.4 L
265.889 236.8 L
217.667 305.4 L
314.111 168.2 L
217.667 305.4 L
193.556 31 L
217.667 305.4 L
241.778 168.2 L
217.667 305.4 L
265.889 168.2 L
217.667 305.4 L
290 305.4 L
217.667 305.4 L
121.222 168.2 L
217.667 305.4 L
193.556 99.6 L
217.667 305.4 L
265.889 99.6 L
S
GR
GS
0 0.447 0.741 RC
2 setlinecap
10.0 ML
N
265.889 99.6 M
217.667 305.4 L
241.778 374 L
S
GR
GS
0 0.447 0.741 RC
2 setlinecap
10.0 ML
N
458.778 374 M
434.667 236.8 L
458.778 374 L
386.444 99.6 L
458.778 374 L
434.667 305.4 L
458.778 374 L
410.556 236.8 L
458.778 374 L
458.778 31 L
458.778 374 L
482.889 305.4 L
458.778 374 L
482.889 99.6 L
458.778 374 L
458.778 168.2 L
458.778 374 L
386.444 374 L
458.778 374 L
410.556 374 L
458.778 374 L
386.444 168.2 L
458.778 374 L
410.556 99.6 L
458.778 374 L
362.333 305.4 L
458.778 374 L
410.556 305.4 L
458.778 374 L
362.333 168.2 L
458.778 374 L
458.778 99.6 L
S
GR
GS
0 0.447 0.741 RC
2 setlinecap
10.0 ML
N
410.556 374 M
434.667 236.8 L
410.556 374 L
386.444 99.6 L
410.556 374 L
434.667 305.4 L
410.556 374 L
410.556 236.8 L
410.556 374 L
338.222 305.4 L
410.556 374 L
482.889 305.4 L
410.556 374 L
482.889 99.6 L
410.556 374 L
314.111 168.2 L
410.556 374 L
458.778 168.2 L
410.556 374 L
458.778 374 L
410.556 374 L
386.444 168.2 L
410.556 374 L
458.778 305.4 L
410.556 374 L
410.556 99.6 L
410.556 374 L
362.333 305.4 L
410.556 374 L
362.333 168.2 L
410.556 374 L
458.778 99.6 L
410.556 374 L
362.333 99.6 L
S
GR
GS
0 0.447 0.741 RC
2 setlinecap
10.0 ML
N
386.444 168.2 M
434.667 236.8 L
386.444 168.2 L
314.111 31 L
386.444 168.2 L
434.667 305.4 L
386.444 168.2 L
290 236.8 L
386.444 168.2 L
410.556 236.8 L
386.444 168.2 L
290 31 L
386.444 168.2 L
338.222 305.4 L
386.444 168.2 L
458.778 31 L
386.444 168.2 L
290 168.2 L
386.444 168.2 L
482.889 305.4 L
386.444 168.2 L
482.889 99.6 L
386.444 168.2 L
314.111 168.2 L
386.444 168.2 L
458.778 168.2 L
386.444 168.2 L
386.444 374 L
386.444 168.2 L
265.889 168.2 L
386.444 168.2 L
290 305.4 L
386.444 168.2 L
458.778 374 L
386.444 168.2 L
410.556 374 L
386.444 168.2 L
458.778 305.4 L
386.444 168.2 L
410.556 99.6 L
386.444 168.2 L
362.333 305.4 L
386.444 168.2 L
362.333 31 L
386.444 168.2 L
434.667 374 L
386.444 168.2 L
410.556 305.4 L
386.444 168.2 L
458.778 99.6 L
S
GR
GS
0 0.447 0.741 RC
2 setlinecap
10.0 ML
N
458.778 99.6 M
386.444 168.2 L
362.333 99.6 L
S
GR
GS
0 0.447 0.741 RC
2 setlinecap
10.0 ML
N
458.778 305.4 M
434.667 236.8 L
458.778 305.4 L
386.444 99.6 L
458.778 305.4 L
410.556 236.8 L
458.778 305.4 L
338.222 305.4 L
458.778 305.4 L
458.778 31 L
458.778 305.4 L
482.889 99.6 L
458.778 305.4 L
458.778 168.2 L
458.778 305.4 L
386.444 374 L
458.778 305.4 L
410.556 374 L
458.778 305.4 L
386.444 168.2 L
458.778 305.4 L
410.556 99.6 L
458.778 305.4 L
362.333 305.4 L
458.778 305.4 L
434.667 374 L
458.778 305.4 L
410.556 305.4 L
458.778 305.4 L
362.333 168.2 L
458.778 305.4 L
458.778 99.6 L
458.778 305.4 L
362.333 99.6 L
S
GR
GS
0 0.447 0.741 RC
2 setlinecap
10.0 ML
N
410.556 99.6 M
434.667 236.8 L
410.556 99.6 L
314.111 31 L
410.556 99.6 L
434.667 305.4 L
410.556 99.6 L
410.556 236.8 L
410.556 99.6 L
338.222 305.4 L
410.556 99.6 L
458.778 31 L
410.556 99.6 L
482.889 305.4 L
410.556 99.6 L
482.889 99.6 L
410.556 99.6 L
314.111 168.2 L
410.556 99.6 L
458.778 168.2 L
410.556 99.6 L
386.444 374 L
410.556 99.6 L
458.778 374 L
410.556 99.6 L
410.556 374 L
410.556 99.6 L
386.444 168.2 L
410.556 99.6 L
458.778 305.4 L
410.556 99.6 L
362.333 305.4 L
410.556 99.6 L
362.333 31 L
410.556 99.6 L
434.667 374 L
410.556 99.6 L
410.556 305.4 L
410.556 99.6 L
362.333 168.2 L
410.556 99.6 L
458.778 99.6 L
410.556 99.6 L
362.333 99.6 L
S
GR
GS
0 0.447 0.741 RC
2 setlinecap
10.0 ML
N
362.333 305.4 M
434.667 236.8 L
362.333 305.4 L
314.111 31 L
362.333 305.4 L
386.444 99.6 L
362.333 305.4 L
434.667 305.4 L
362.333 305.4 L
290 236.8 L
362.333 305.4 L
410.556 236.8 L
362.333 305.4 L
290 31 L
362.333 305.4 L
265.889 374 L
362.333 305.4 L
290 168.2 L
362.333 305.4 L
482.889 305.4 L
362.333 305.4 L
265.889 236.8 L
362.333 305.4 L
314.111 168.2 L
362.333 305.4 L
458.778 168.2 L
362.333 305.4 L
386.444 374 L
362.333 305.4 L
265.889 168.2 L
362.333 305.4 L
290 305.4 L
362.333 305.4 L
458.778 374 L
362.333 305.4 L
410.556 374 L
362.333 305.4 L
386.444 168.2 L
362.333 305.4 L
458.778 305.4 L
362.333 305.4 L
410.556 99.6 L
362.333 305.4 L
362.333 31 L
362.333 305.4 L
434.667 374 L
362.333 305.4 L
410.556 305.4 L
362.333 305.4 L
265.889 99.6 L
S
GR
GS
0 0.447 0.741 RC
2 setlinecap
10.0 ML
N
265.889 99.6 M
362.333 305.4 L
362.333 168.2 L
362.333 305.4 L
458.778 99.6 L
362.333 305.4 L
362.333 99.6 L
S
GR
GS
0 0.447 0.741 RC
2 setlinecap
10.0 ML
N
121.222 168.2 M
97.111 31 L
121.222 168.2 L
169.444 99.6 L
121.222 168.2 L
121.222 31 L
121.222 168.2 L
193.556 374 L
121.222 168.2 L
193.556 236.8 L
121.222 168.2 L
217.667 31 L
121.222 168.2 L
145.333 99.6 L
121.222 168.2 L
145.333 236.8 L
121.222 168.2 L
121.222 374 L
121.222 168.2 L
145.333 31 L
121.222 168.2 L
193.556 31 L
121.222 168.2 L
241.778 168.2 L
121.222 168.2 L
217.667 305.4 L
121.222 168.2 L
193.556 99.6 L
S
GR
GS
0 0.447 0.741 RC
2 setlinecap
10.0 ML
N
362.333 31 M
434.667 236.8 L
362.333 31 L
314.111 31 L
362.333 31 L
386.444 99.6 L
362.333 31 L
434.667 305.4 L
362.333 31 L
290 236.8 L
362.333 31 L
410.556 236.8 L
362.333 31 L
290 31 L
362.333 31 L
338.222 305.4 L
362.333 31 L
458.778 31 L
362.333 31 L
241.778 31 L
362.333 31 L
290 168.2 L
362.333 31 L
265.889 236.8 L
362.333 31 L
314.111 168.2 L
362.333 31 L
458.778 168.2 L
362.333 31 L
265.889 168.2 L
362.333 31 L
290 305.4 L
362.333 31 L
386.444 168.2 L
362.333 31 L
410.556 99.6 L
362.333 31 L
362.333 305.4 L
362.333 31 L
410.556 305.4 L
362.333 31 L
265.889 99.6 L
362.333 31 L
362.333 168.2 L
362.333 31 L
458.778 99.6 L
S
GR
GS
0 0.447 0.741 RC
2 setlinecap
10.0 ML
N
434.667 374 M
434.667 236.8 L
434.667 374 L
386.444 99.6 L
434.667 374 L
410.556 236.8 L
434.667 374 L
338.222 305.4 L
434.667 374 L
482.889 305.4 L
434.667 374 L
482.889 99.6 L
434.667 374 L
458.778 168.2 L
434.667 374 L
386.444 374 L
434.667 374 L
386.444 168.2 L
434.667 374 L
458.778 305.4 L
434.667 374 L
410.556 99.6 L
434.667 374 L
362.333 305.4 L
434.667 374 L
410.556 305.4 L
434.667 374 L
362.333 168.2 L
434.667 374 L
458.778 99.6 L
434.667 374 L
362.333 99.6 L
S
GR
GS
0 0.447 0.741 RC
2 setlinecap
10.0 ML
N
193.556 99.6 M
97.111 31 L
193.556 99.6 L
121.222 31 L
193.556 99.6 L
193.556 374 L
193.556 99.6 L
290 236.8 L
193.556 99.6 L
290 31 L
193.556 99.6 L
193.556 236.8 L
193.556 99.6 L
121.222 99.6 L
193.556 99.6 L
217.667 31 L
193.556 99.6 L
145.333 99.6 L
193.556 99.6 L
265.889 374 L
193.556 99.6 L
241.778 31 L
193.556 99.6 L
290 168.2 L
193.556 99.6 L
145.333 236.8 L
193.556 99.6 L
121.222 374 L
193.556 99.6 L
145.333 31 L
193.556 99.6 L
241.778 236.8 L
193.556 99.6 L
265.889 236.8 L
193.556 99.6 L
241.778 168.2 L
193.556 99.6 L
265.889 168.2 L
193.556 99.6 L
290 305.4 L
193.556 99.6 L
217.667 305.4 L
193.556 99.6 L
121.222 168.2 L
193.556 99.6 L
265.889 99.6 L
193.556 99.6 L
241.778 374 L
S
GR
GS
0 0.447 0.741 RC
2 setlinecap
10.0 ML
N
410.556 305.4 M
434.667 236.8 L
410.556 305.4 L
386.444 99.6 L
410.556 305.4 L
338.222 305.4 L
410.556 305.4 L
458.778 31 L
410.556 305.4 L
482.889 305.4 L
410.556 305.4 L
482.889 99.6 L
410.556 305.4 L
314.111 168.2 L
410.556 305.4 L
458.778 168.2 L
410.556 305.4 L
386.444 374 L
410.556 305.4 L
290 305.4 L
410.556 305.4 L
458.778 374 L
410.556 305.4 L
386.444 168.2 L
410.556 305.4 L
458.778 305.4 L
410.556 305.4 L
410.556 99.6 L
410.556 305.4 L
362.333 305.4 L
410.556 305.4 L
362.333 31 L
410.556 305.4 L
434.667 374 L
410.556 305.4 L
362.333 168.2 L
410.556 305.4 L
458.778 99.6 L
410.556 305.4 L
362.333 99.6 L
S
GR
GS
0 0.447 0.741 RC
2 setlinecap
10.0 ML
N
265.889 99.6 M
169.444 99.6 L
265.889 99.6 L
314.111 31 L
265.889 99.6 L
386.444 99.6 L
265.889 99.6 L
193.556 374 L
265.889 99.6 L
290 236.8 L
265.889 99.6 L
290 31 L
265.889 99.6 L
193.556 236.8 L
265.889 99.6 L
338.222 305.4 L
265.889 99.6 L
217.667 31 L
265.889 99.6 L
145.333 99.6 L
265.889 99.6 L
265.889 374 L
265.889 99.6 L
241.778 31 L
265.889 99.6 L
290 168.2 L
265.889 99.6 L
241.778 236.8 L
265.889 99.6 L
265.889 236.8 L
265.889 99.6 L
314.111 168.2 L
265.889 99.6 L
193.556 31 L
265.889 99.6 L
241.778 168.2 L
265.889 99.6 L
290 305.4 L
265.889 99.6 L
217.667 305.4 L
265.889 99.6 L
362.333 305.4 L
265.889 99.6 L
362.333 31 L
265.889 99.6 L
193.556 99.6 L
265.889 99.6 L
362.333 168.2 L
265.889 99.6 L
362.333 99.6 L
S
GR
GS
0 0.447 0.741 RC
2 setlinecap
10.0 ML
N
362.333 99.6 M
265.889 99.6 L
241.778 374 L
S
GR
GS
0 0.447 0.741 RC
2 setlinecap
10.0 ML
N
362.333 168.2 M
434.667 236.8 L
362.333 168.2 L
314.111 31 L
362.333 168.2 L
386.444 99.6 L
362.333 168.2 L
434.667 305.4 L
362.333 168.2 L
290 236.8 L
362.333 168.2 L
410.556 236.8 L
362.333 168.2 L
290 31 L
362.333 168.2 L
338.222 305.4 L
362.333 168.2 L
265.889 374 L
362.333 168.2 L
458.778 31 L
362.333 168.2 L
290 168.2 L
362.333 168.2 L
265.889 236.8 L
362.333 168.2 L
314.111 168.2 L
362.333 168.2 L
458.778 168.2 L
362.333 168.2 L
241.778 168.2 L
362.333 168.2 L
386.444 374 L
362.333 168.2 L
265.889 168.2 L
362.333 168.2 L
290 305.4 L
362.333 168.2 L
458.778 374 L
362.333 168.2 L
410.556 374 L
362.333 168.2 L
458.778 305.4 L
362.333 168.2 L
410.556 99.6 L
362.333 168.2 L
362.333 305.4 L
362.333 168.2 L
362.333 31 L
362.333 168.2 L
434.667 374 L
S
GR
GS
0 0.447 0.741 RC
2 setlinecap
10.0 ML
N
434.667 374 M
362.333 168.2 L
410.556 305.4 L
362.333 168.2 L
265.889 99.6 L
362.333 168.2 L
458.778 99.6 L
S
GR
GS
0 0.447 0.741 RC
2 setlinecap
10.0 ML
N
458.778 99.6 M
434.667 236.8 L
458.778 99.6 L
386.444 99.6 L
458.778 99.6 L
434.667 305.4 L
458.778 99.6 L
410.556 236.8 L
458.778 99.6 L
482.889 305.4 L
458.778 99.6 L
386.444 374 L
458.778 99.6 L
458.778 374 L
458.778 99.6 L
410.556 374 L
458.778 99.6 L
386.444 168.2 L
458.778 99.6 L
458.778 305.4 L
458.778 99.6 L
410.556 99.6 L
458.778 99.6 L
362.333 305.4 L
458.778 99.6 L
362.333 31 L
458.778 99.6 L
434.667 374 L
458.778 99.6 L
410.556 305.4 L
458.778 99.6 L
362.333 168.2 L
458.778 99.6 L
362.333 99.6 L
S
GR
GS
0 0.447 0.741 RC
2 setlinecap
10.0 ML
N
362.333 99.6 M
434.667 236.8 L
362.333 99.6 L
314.111 31 L
362.333 99.6 L
434.667 305.4 L
362.333 99.6 L
290 236.8 L
362.333 99.6 L
410.556 236.8 L
362.333 99.6 L
290 31 L
362.333 99.6 L
338.222 305.4 L
362.333 99.6 L
458.778 31 L
362.333 99.6 L
290 168.2 L
362.333 99.6 L
265.889 236.8 L
362.333 99.6 L
482.889 99.6 L
362.333 99.6 L
314.111 168.2 L
362.333 99.6 L
458.778 168.2 L
362.333 99.6 L
386.444 374 L
362.333 99.6 L
265.889 168.2 L
362.333 99.6 L
290 305.4 L
362.333 99.6 L
410.556 374 L
362.333 99.6 L
386.444 168.2 L
362.333 99.6 L
458.778 305.4 L
362.333 99.6 L
410.556 99.6 L
362.333 99.6 L
362.333 305.4 L
362.333 99.6 L
434.667 374 L
362.333 99.6 L
410.556 305.4 L
362.333 99.6 L
265.889 99.6 L
362.333 99.6 L
458.778 99.6 L
S
GR
GS
0 0.447 0.741 RC
2 setlinecap
10.0 ML
N
241.778 374 M
169.444 99.6 L
241.778 374 L
193.556 374 L
241.778 374 L
290 236.8 L
241.778 374 L
193.556 236.8 L
241.778 374 L
338.222 305.4 L
241.778 374 L
241.778 31 L
241.778 374 L
290 168.2 L
241.778 374 L
145.333 236.8 L
241.778 374 L
121.222 374 L
241.778 374 L
241.778 236.8 L
241.778 374 L
265.889 236.8 L
241.778 374 L
314.111 168.2 L
241.778 374 L
241.778 168.2 L
241.778 374 L
265.889 168.2 L
241.778 374 L
290 305.4 L
241.778 374 L
217.667 305.4 L
241.778 374 L
193.556 99.6 L
241.778 374 L
265.889 99.6 L
S
GR
%%Trailer
%%Pages: 1
%%EOF
