%!PS-Adobe-3.0 EPSF-3.0
%%Creator: (MATLAB, The Mathworks, Inc. Version 8.5.0.197613 \(R2015a\). Operating System: Mac OS X)
%%Title: /Users/ashwinyakkundimath/Documents/Thesis_Results/plots/destinations/cdf_integration_dst_energy.eps
%%CreationDate: 2016-01-05T11:35:51
%%Pages: (atend)
%%BoundingBox: 0 0 560 420
%%LanguageLevel: 2
%%EndComments
%%BeginProlog
%%BeginResource: procset (Apache XML Graphics Std ProcSet) 1.2 0
%%Version: 1.2 0
%%Copyright: (Copyright 2001-2003,2010 The Apache Software Foundation. License terms: http://www.apache.org/licenses/LICENSE-2.0)
/bd{bind def}bind def
/ld{load def}bd
/GR/grestore ld
/M/moveto ld
/LJ/setlinejoin ld
/C/curveto ld
/f/fill ld
/LW/setlinewidth ld
/GC/setgray ld
/t/show ld
/N/newpath ld
/CT/concat ld
/cp/closepath ld
/S/stroke ld
/L/lineto ld
/CC/setcmykcolor ld
/A/ashow ld
/GS/gsave ld
/RC/setrgbcolor ld
/RM/rmoveto ld
/ML/setmiterlimit ld
/re {4 2 roll M
1 index 0 rlineto
0 exch rlineto
neg 0 rlineto
cp } bd
/_ctm matrix def
/_tm matrix def
/BT { _ctm currentmatrix pop matrix _tm copy pop 0 0 moveto } bd
/ET { _ctm setmatrix } bd
/iTm { _ctm setmatrix _tm concat } bd
/Tm { _tm astore pop iTm 0 0 moveto } bd
/ux 0.0 def
/uy 0.0 def
/F {
  /Tp exch def
  /Tf exch def
  Tf findfont Tp scalefont setfont
  /cf Tf def  /cs Tp def
} bd
/ULS {currentpoint /uy exch def /ux exch def} bd
/ULE {
  /Tcx currentpoint pop def
  gsave
  newpath
  cf findfont cs scalefont dup
  /FontMatrix get 0 get /Ts exch def /FontInfo get dup
  /UnderlinePosition get Ts mul /To exch def
  /UnderlineThickness get Ts mul /Tt exch def
  ux uy To add moveto  Tcx uy To add lineto
  Tt setlinewidth stroke
  grestore
} bd
/OLE {
  /Tcx currentpoint pop def
  gsave
  newpath
  cf findfont cs scalefont dup
  /FontMatrix get 0 get /Ts exch def /FontInfo get dup
  /UnderlinePosition get Ts mul /To exch def
  /UnderlineThickness get Ts mul /Tt exch def
  ux uy To add cs add moveto Tcx uy To add cs add lineto
  Tt setlinewidth stroke
  grestore
} bd
/SOE {
  /Tcx currentpoint pop def
  gsave
  newpath
  cf findfont cs scalefont dup
  /FontMatrix get 0 get /Ts exch def /FontInfo get dup
  /UnderlinePosition get Ts mul /To exch def
  /UnderlineThickness get Ts mul /Tt exch def
  ux uy To add cs 10 mul 26 idiv add moveto Tcx uy To add cs 10 mul 26 idiv add lineto
  Tt setlinewidth stroke
  grestore
} bd
/QT {
/Y22 exch store
/X22 exch store
/Y21 exch store
/X21 exch store
currentpoint
/Y21 load 2 mul add 3 div exch
/X21 load 2 mul add 3 div exch
/X21 load 2 mul /X22 load add 3 div
/Y21 load 2 mul /Y22 load add 3 div
/X22 load /Y22 load curveto
} bd
/SSPD {
dup length /d exch dict def
{
/v exch def
/k exch def
currentpagedevice k known {
/cpdv currentpagedevice k get def
v cpdv ne {
/upd false def
/nullv v type /nulltype eq def
/nullcpdv cpdv type /nulltype eq def
nullv nullcpdv or
{
/upd true def
} {
/sametype v type cpdv type eq def
sametype {
v type /arraytype eq {
/vlen v length def
/cpdvlen cpdv length def
vlen cpdvlen eq {
0 1 vlen 1 sub {
/i exch def
/obj v i get def
/cpdobj cpdv i get def
obj cpdobj ne {
/upd true def
exit
} if
} for
} {
/upd true def
} ifelse
} {
v type /dicttype eq {
v {
/dv exch def
/dk exch def
/cpddv cpdv dk get def
dv cpddv ne {
/upd true def
exit
} if
} forall
} {
/upd true def
} ifelse
} ifelse
} if
} ifelse
upd true eq {
d k v put
} if
} if
} if
} forall
d length 0 gt {
d setpagedevice
} if
} bd
%%EndResource
%%BeginResource: procset (Apache XML Graphics EPS ProcSet) 1.0 0
%%Version: 1.0 0
%%Copyright: (Copyright 2002-2003 The Apache Software Foundation. License terms: http://www.apache.org/licenses/LICENSE-2.0)
/BeginEPSF { %def
/b4_Inc_state save def         % Save state for cleanup
/dict_count countdictstack def % Count objects on dict stack
/op_count count 1 sub def      % Count objects on operand stack
userdict begin                 % Push userdict on dict stack
/showpage { } def              % Redefine showpage, { } = null proc
0 setgray 0 setlinecap         % Prepare graphics state
1 setlinewidth 0 setlinejoin
10 setmiterlimit [ ] 0 setdash newpath
/languagelevel where           % If level not equal to 1 then
{pop languagelevel             % set strokeadjust and
1 ne                           % overprint to their defaults.
{false setstrokeadjust false setoverprint
} if
} if
} bd
/EndEPSF { %def
count op_count sub {pop} repeat            % Clean up stacks
countdictstack dict_count sub {end} repeat
b4_Inc_state restore
} bd
%%EndResource
%FOPBeginFontDict
%%IncludeResource: font Courier-Bold
%%IncludeResource: font Helvetica
%%IncludeResource: font Courier-BoldOblique
%%IncludeResource: font Courier-Oblique
%%IncludeResource: font Times-Roman
%%IncludeResource: font Helvetica-BoldOblique
%%IncludeResource: font Helvetica-Bold
%%IncludeResource: font Helvetica-Oblique
%%IncludeResource: font Times-BoldItalic
%%IncludeResource: font Courier
%%IncludeResource: font Times-Italic
%%IncludeResource: font Times-Bold
%%IncludeResource: font Symbol
%%IncludeResource: font ZapfDingbats
%FOPEndFontDict
%%BeginResource: encoding WinAnsiEncoding
/WinAnsiEncoding [
/.notdef /.notdef /.notdef /.notdef /.notdef
/.notdef /.notdef /.notdef /.notdef /.notdef
/.notdef /.notdef /.notdef /.notdef /.notdef
/.notdef /.notdef /.notdef /.notdef /.notdef
/.notdef /.notdef /.notdef /.notdef /.notdef
/.notdef /.notdef /.notdef /.notdef /.notdef
/.notdef /.notdef /space /exclam /quotedbl
/numbersign /dollar /percent /ampersand /quotesingle
/parenleft /parenright /asterisk /plus /comma
/hyphen /period /slash /zero /one
/two /three /four /five /six
/seven /eight /nine /colon /semicolon
/less /equal /greater /question /at
/A /B /C /D /E
/F /G /H /I /J
/K /L /M /N /O
/P /Q /R /S /T
/U /V /W /X /Y
/Z /bracketleft /backslash /bracketright /asciicircum
/underscore /quoteleft /a /b /c
/d /e /f /g /h
/i /j /k /l /m
/n /o /p /q /r
/s /t /u /v /w
/x /y /z /braceleft /bar
/braceright /asciitilde /bullet /Euro /bullet
/quotesinglbase /florin /quotedblbase /ellipsis /dagger
/daggerdbl /circumflex /perthousand /Scaron /guilsinglleft
/OE /bullet /Zcaron /bullet /bullet
/quoteleft /quoteright /quotedblleft /quotedblright /bullet
/endash /emdash /asciitilde /trademark /scaron
/guilsinglright /oe /bullet /zcaron /Ydieresis
/space /exclamdown /cent /sterling /currency
/yen /brokenbar /section /dieresis /copyright
/ordfeminine /guillemotleft /logicalnot /sfthyphen /registered
/macron /degree /plusminus /twosuperior /threesuperior
/acute /mu /paragraph /middot /cedilla
/onesuperior /ordmasculine /guillemotright /onequarter /onehalf
/threequarters /questiondown /Agrave /Aacute /Acircumflex
/Atilde /Adieresis /Aring /AE /Ccedilla
/Egrave /Eacute /Ecircumflex /Edieresis /Igrave
/Iacute /Icircumflex /Idieresis /Eth /Ntilde
/Ograve /Oacute /Ocircumflex /Otilde /Odieresis
/multiply /Oslash /Ugrave /Uacute /Ucircumflex
/Udieresis /Yacute /Thorn /germandbls /agrave
/aacute /acircumflex /atilde /adieresis /aring
/ae /ccedilla /egrave /eacute /ecircumflex
/edieresis /igrave /iacute /icircumflex /idieresis
/eth /ntilde /ograve /oacute /ocircumflex
/otilde /odieresis /divide /oslash /ugrave
/uacute /ucircumflex /udieresis /yacute /thorn
/ydieresis
] def
%%EndResource
%FOPBeginFontReencode
/Courier-Bold findfont
dup length dict begin
  {1 index /FID ne {def} {pop pop} ifelse} forall
  /Encoding WinAnsiEncoding def
  currentdict
end
/Courier-Bold exch definefont pop
/Helvetica findfont
dup length dict begin
  {1 index /FID ne {def} {pop pop} ifelse} forall
  /Encoding WinAnsiEncoding def
  currentdict
end
/Helvetica exch definefont pop
/Courier-BoldOblique findfont
dup length dict begin
  {1 index /FID ne {def} {pop pop} ifelse} forall
  /Encoding WinAnsiEncoding def
  currentdict
end
/Courier-BoldOblique exch definefont pop
/Courier-Oblique findfont
dup length dict begin
  {1 index /FID ne {def} {pop pop} ifelse} forall
  /Encoding WinAnsiEncoding def
  currentdict
end
/Courier-Oblique exch definefont pop
/Times-Roman findfont
dup length dict begin
  {1 index /FID ne {def} {pop pop} ifelse} forall
  /Encoding WinAnsiEncoding def
  currentdict
end
/Times-Roman exch definefont pop
/Helvetica-BoldOblique findfont
dup length dict begin
  {1 index /FID ne {def} {pop pop} ifelse} forall
  /Encoding WinAnsiEncoding def
  currentdict
end
/Helvetica-BoldOblique exch definefont pop
/Helvetica-Bold findfont
dup length dict begin
  {1 index /FID ne {def} {pop pop} ifelse} forall
  /Encoding WinAnsiEncoding def
  currentdict
end
/Helvetica-Bold exch definefont pop
/Helvetica-Oblique findfont
dup length dict begin
  {1 index /FID ne {def} {pop pop} ifelse} forall
  /Encoding WinAnsiEncoding def
  currentdict
end
/Helvetica-Oblique exch definefont pop
/Times-BoldItalic findfont
dup length dict begin
  {1 index /FID ne {def} {pop pop} ifelse} forall
  /Encoding WinAnsiEncoding def
  currentdict
end
/Times-BoldItalic exch definefont pop
/Courier findfont
dup length dict begin
  {1 index /FID ne {def} {pop pop} ifelse} forall
  /Encoding WinAnsiEncoding def
  currentdict
end
/Courier exch definefont pop
/Times-Italic findfont
dup length dict begin
  {1 index /FID ne {def} {pop pop} ifelse} forall
  /Encoding WinAnsiEncoding def
  currentdict
end
/Times-Italic exch definefont pop
/Times-Bold findfont
dup length dict begin
  {1 index /FID ne {def} {pop pop} ifelse} forall
  /Encoding WinAnsiEncoding def
  currentdict
end
/Times-Bold exch definefont pop
%FOPEndFontReencode
%%EndProlog
%%Page: 1 1
%%PageBoundingBox: 0 0 560 420
%%BeginPageSetup
[1 0 0 -1 0 420] CT
%%EndPageSetup
GS
1 GC
N
0 0 560 420 re
f
GR
GS
1 GC
N
0 0 560 420 re
f
GR
GS
1 GC
N
73 374 M
507 374 L
507 31 L
73 31 L
cp
f
GR
GS
0.873 GC
2 setlinecap
10.0 ML
N
73 374 M
73 31 L
S
GR
GS
0.873 GC
2 setlinecap
10.0 ML
N
127.25 374 M
127.25 31 L
S
GR
GS
0.873 GC
2 setlinecap
10.0 ML
N
181.5 374 M
181.5 31 L
S
GR
GS
0.873 GC
2 setlinecap
10.0 ML
N
235.75 374 M
235.75 31 L
S
GR
GS
0.873 GC
2 setlinecap
10.0 ML
N
290 374 M
290 31 L
S
GR
GS
0.873 GC
2 setlinecap
10.0 ML
N
344.25 374 M
344.25 31 L
S
GR
GS
0.873 GC
2 setlinecap
10.0 ML
N
398.5 374 M
398.5 31 L
S
GR
GS
0.873 GC
2 setlinecap
10.0 ML
N
452.75 374 M
452.75 31 L
S
GR
GS
0.873 GC
2 setlinecap
10.0 ML
N
507 374 M
507 31 L
S
GR
GS
0.873 GC
2 setlinecap
10.0 ML
N
507 374 M
73 374 L
S
GR
GS
0.873 GC
2 setlinecap
10.0 ML
N
507 339.7 M
73 339.7 L
S
GR
GS
0.873 GC
2 setlinecap
10.0 ML
N
507 305.4 M
73 305.4 L
S
GR
GS
0.873 GC
2 setlinecap
10.0 ML
N
507 271.1 M
73 271.1 L
S
GR
GS
0.873 GC
2 setlinecap
10.0 ML
N
507 236.8 M
73 236.8 L
S
GR
GS
0.873 GC
2 setlinecap
10.0 ML
N
507 202.5 M
73 202.5 L
S
GR
GS
0.873 GC
2 setlinecap
10.0 ML
N
507 168.2 M
73 168.2 L
S
GR
GS
0.873 GC
2 setlinecap
10.0 ML
N
507 133.9 M
73 133.9 L
S
GR
GS
0.873 GC
2 setlinecap
10.0 ML
N
507 99.6 M
73 99.6 L
S
GR
GS
0.873 GC
2 setlinecap
10.0 ML
N
507 65.3 M
73 65.3 L
S
GR
GS
0.873 GC
2 setlinecap
10.0 ML
N
507 31 M
73 31 L
S
GR
GS
[1 0 0 1 290.00021 390] CT
0.149 GC
/Helvetica-Bold 11 F
GS
[1 0 0 1 0 0] CT
-33.5 9 moveto 
1 -1 scale
(Total Energy) t 
GR
GR
GS
0.149 GC
2 setlinecap
10.0 ML
N
73 374 M
507 374 L
S
GR
GS
0.149 GC
2 setlinecap
10.0 ML
N
73 374 M
73 369.66 L
S
GR
GS
0.149 GC
2 setlinecap
10.0 ML
N
127.25 374 M
127.25 369.66 L
S
GR
GS
0.149 GC
2 setlinecap
10.0 ML
N
181.5 374 M
181.5 369.66 L
S
GR
GS
0.149 GC
2 setlinecap
10.0 ML
N
235.75 374 M
235.75 369.66 L
S
GR
GS
0.149 GC
2 setlinecap
10.0 ML
N
290 374 M
290 369.66 L
S
GR
GS
0.149 GC
2 setlinecap
10.0 ML
N
344.25 374 M
344.25 369.66 L
S
GR
GS
0.149 GC
2 setlinecap
10.0 ML
N
398.5 374 M
398.5 369.66 L
S
GR
GS
0.149 GC
2 setlinecap
10.0 ML
N
452.75 374 M
452.75 369.66 L
S
GR
GS
0.149 GC
2 setlinecap
10.0 ML
N
507 374 M
507 369.66 L
S
GR
GS
[1 0 0 1 73 378] CT
0.149 GC
/Helvetica-Bold 10 F
GS
[1 0 0 1 0 0] CT
-3 8 moveto 
1 -1 scale
(0) t 
GR
GR
GS
[1 0 0 1 127.25 378] CT
0.149 GC
/Helvetica-Bold 10 F
GS
[1 0 0 1 0 0] CT
-3 8 moveto 
1 -1 scale
(2) t 
GR
GR
GS
[1 0 0 1 181.5 378] CT
0.149 GC
/Helvetica-Bold 10 F
GS
[1 0 0 1 0 0] CT
-3 8 moveto 
1 -1 scale
(4) t 
GR
GR
GS
[1 0 0 1 235.75 378] CT
0.149 GC
/Helvetica-Bold 10 F
GS
[1 0 0 1 0 0] CT
-3 8 moveto 
1 -1 scale
(6) t 
GR
GR
GS
[1 0 0 1 290 378] CT
0.149 GC
/Helvetica-Bold 10 F
GS
[1 0 0 1 0 0] CT
-3 8 moveto 
1 -1 scale
(8) t 
GR
GR
GS
[1 0 0 1 344.25 378] CT
0.149 GC
/Helvetica-Bold 10 F
GS
[1 0 0 1 0 0] CT
-6 8 moveto 
1 -1 scale
(10) t 
GR
GR
GS
[1 0 0 1 398.5 378] CT
0.149 GC
/Helvetica-Bold 10 F
GS
[1 0 0 1 0 0] CT
-6 8 moveto 
1 -1 scale
(12) t 
GR
GR
GS
[1 0 0 1 452.75 378] CT
0.149 GC
/Helvetica-Bold 10 F
GS
[1 0 0 1 0 0] CT
-6 8 moveto 
1 -1 scale
(14) t 
GR
GR
GS
[1 0 0 1 507 378] CT
0.149 GC
/Helvetica-Bold 10 F
GS
[1 0 0 1 0 0] CT
-6 8 moveto 
1 -1 scale
(16) t 
GR
GR
GS
[0 -1 1 0 52 202.49983] CT
0.149 GC
/Helvetica-Bold 11 F
GS
[1 0 0 1 0 0] CT
-60 -3 moveto 
1 -1 scale
(Cumulative Probability) t 
GR
GR
GS
0.149 GC
2 setlinecap
10.0 ML
N
73 374 M
73 31 L
S
GR
GS
0.149 GC
2 setlinecap
10.0 ML
N
73 374 M
77.34 374 L
S
GR
GS
0.149 GC
2 setlinecap
10.0 ML
N
73 339.7 M
77.34 339.7 L
S
GR
GS
0.149 GC
2 setlinecap
10.0 ML
N
73 305.4 M
77.34 305.4 L
S
GR
GS
0.149 GC
2 setlinecap
10.0 ML
N
73 271.1 M
77.34 271.1 L
S
GR
GS
0.149 GC
2 setlinecap
10.0 ML
N
73 236.8 M
77.34 236.8 L
S
GR
GS
0.149 GC
2 setlinecap
10.0 ML
N
73 202.5 M
77.34 202.5 L
S
GR
GS
0.149 GC
2 setlinecap
10.0 ML
N
73 168.2 M
77.34 168.2 L
S
GR
GS
0.149 GC
2 setlinecap
10.0 ML
N
73 133.9 M
77.34 133.9 L
S
GR
GS
0.149 GC
2 setlinecap
10.0 ML
N
73 99.6 M
77.34 99.6 L
S
GR
GS
0.149 GC
2 setlinecap
10.0 ML
N
73 65.3 M
77.34 65.3 L
S
GR
GS
0.149 GC
2 setlinecap
10.0 ML
N
73 31 M
77.34 31 L
S
GR
GS
[1 0 0 1 69 374] CT
0.149 GC
/Helvetica-Bold 10 F
GS
[1 0 0 1 0 0] CT
-6 2.5 moveto 
1 -1 scale
(0) t 
GR
GR
GS
[1 0 0 1 69 339.70001] CT
0.149 GC
/Helvetica-Bold 10 F
GS
[1 0 0 1 0 0] CT
-14 2.5 moveto 
1 -1 scale
(0.1) t 
GR
GR
GS
[1 0 0 1 69 305.39999] CT
0.149 GC
/Helvetica-Bold 10 F
GS
[1 0 0 1 0 0] CT
-14 2.5 moveto 
1 -1 scale
(0.2) t 
GR
GR
GS
[1 0 0 1 69 271.10001] CT
0.149 GC
/Helvetica-Bold 10 F
GS
[1 0 0 1 0 0] CT
-14 2.5 moveto 
1 -1 scale
(0.3) t 
GR
GR
GS
[1 0 0 1 69 236.8] CT
0.149 GC
/Helvetica-Bold 10 F
GS
[1 0 0 1 0 0] CT
-14 2.5 moveto 
1 -1 scale
(0.4) t 
GR
GR
GS
[1 0 0 1 69 202.5] CT
0.149 GC
/Helvetica-Bold 10 F
GS
[1 0 0 1 0 0] CT
-14 2.5 moveto 
1 -1 scale
(0.5) t 
GR
GR
GS
[1 0 0 1 69 168.2] CT
0.149 GC
/Helvetica-Bold 10 F
GS
[1 0 0 1 0 0] CT
-14 2.5 moveto 
1 -1 scale
(0.6) t 
GR
GR
GS
[1 0 0 1 69 133.90001] CT
0.149 GC
/Helvetica-Bold 10 F
GS
[1 0 0 1 0 0] CT
-14 2.5 moveto 
1 -1 scale
(0.7) t 
GR
GR
GS
[1 0 0 1 69 99.6] CT
0.149 GC
/Helvetica-Bold 10 F
GS
[1 0 0 1 0 0] CT
-14 2.5 moveto 
1 -1 scale
(0.8) t 
GR
GR
GS
[1 0 0 1 69 65.30001] CT
0.149 GC
/Helvetica-Bold 10 F
GS
[1 0 0 1 0 0] CT
-14 2.5 moveto 
1 -1 scale
(0.9) t 
GR
GR
GS
[1 0 0 1 69 31] CT
0.149 GC
/Helvetica-Bold 10 F
GS
[1 0 0 1 0 0] CT
-6 2.5 moveto 
1 -1 scale
(1) t 
GR
GR
GS
0.6 0 0 RC
2 LJ
2 LW
N
73 374 M
73 360.28 L
100.125 356.85 L
100.152 349.99 L
100.152 339.7 L
100.179 295.11 L
100.221 291.68 L
104.809 288.25 L
107.552 284.82 L
112.047 281.39 L
114.79 277.96 L
115.2 274.53 L
115.85 271.1 L
115.857 267.67 L
118.36 264.24 L
126.07 260.81 L
127.277 236.8 L
127.283 233.37 L
127.315 229.94 L
127.917 226.51 L
128.688 223.08 L
128.764 219.65 L
130.303 216.22 L
130.678 212.79 L
130.767 209.36 L
130.973 205.93 L
131.571 202.5 L
134.022 199.07 L
134.635 195.64 L
142.957 192.21 L
143.353 185.35 L
144.064 181.92 L
145.832 178.49 L
147.519 175.06 L
147.85 171.63 L
149.384 168.2 L
151.523 164.77 L
154.422 161.34 L
154.453 157.91 L
154.473 154.48 L
154.5 151.05 L
154.503 147.62 L
154.73 144.19 L
156.309 140.76 L
156.623 137.33 L
158.678 133.9 L
160.159 130.47 L
160.353 127.04 L
161.183 123.61 L
161.376 120.18 L
S
GR
GS
0.6 0 0 RC
2 LJ
2 LW
N
161.376 120.18 M
162.262 116.75 L
165.244 113.32 L
165.545 109.89 L
167.428 106.46 L
168.375 103.03 L
169.26 99.6 L
170.829 96.17 L
172.298 92.74 L
180.385 89.31 L
182.244 85.88 L
195.138 82.45 L
197.98 79.02 L
198.172 75.59 L
198.439 72.16 L
199.219 68.73 L
205.034 65.3 L
211.491 61.87 L
213.185 58.44 L
216.878 55.01 L
232.776 51.58 L
239.358 48.15 L
242.758 44.72 L
242.974 41.29 L
252.632 37.86 L
252.686 34.43 L
266.971 31 L
S
GR
GS
0.6 0 0 RC
2 LJ
2 LW
N
69.1 377.9 M
69.1 370.1 L
76.9 370.1 L
76.9 377.9 L
69.1 377.9 L
S
GR
GS
0.6 0 0 RC
2 LJ
2 LW
N
96.279 299.01 M
96.279 291.21 L
104.079 291.21 L
104.079 299.01 L
96.279 299.01 L
S
GR
GS
0.6 0 0 RC
2 LJ
2 LW
N
111.3 278.43 M
111.3 270.63 L
119.1 270.63 L
119.1 278.43 L
111.3 278.43 L
S
GR
GS
0.6 0 0 RC
2 LJ
2 LW
N
123.377 240.7 M
123.377 232.9 L
131.177 232.9 L
131.177 240.7 L
123.377 240.7 L
S
GR
GS
0.6 0 0 RC
2 LJ
2 LW
N
124.864 223.55 M
124.864 215.75 L
132.664 215.75 L
132.664 223.55 L
124.864 223.55 L
S
GR
GS
0.6 0 0 RC
2 LJ
2 LW
N
130.122 202.97 M
130.122 195.17 L
137.922 195.17 L
137.922 202.97 L
130.122 202.97 L
S
GR
GS
0.6 0 0 RC
2 LJ
2 LW
N
141.932 182.39 M
141.932 174.59 L
149.732 174.59 L
149.732 182.39 L
141.932 182.39 L
S
GR
GS
0.6 0 0 RC
2 LJ
2 LW
N
150.553 161.81 M
150.553 154.01 L
158.353 154.01 L
158.353 161.81 L
150.553 161.81 L
S
GR
GS
0.6 0 0 RC
2 LJ
2 LW
N
152.409 144.66 M
152.409 136.86 L
160.209 136.86 L
160.209 144.66 L
152.409 144.66 L
S
GR
GS
0.6 0 0 RC
2 LJ
2 LW
N
157.283 127.51 M
157.283 119.71 L
165.083 119.71 L
165.083 127.51 L
157.283 127.51 L
S
GR
GS
0.6 0 0 RC
2 LJ
2 LW
N
164.475 106.93 M
164.475 99.13 L
172.275 99.13 L
172.275 106.93 L
164.475 106.93 L
S
GR
GS
0.6 0 0 RC
2 LJ
2 LW
N
178.344 89.78 M
178.344 81.98 L
186.144 81.98 L
186.144 89.78 L
178.344 89.78 L
S
GR
GS
0.6 0 0 RC
2 LJ
2 LW
N
195.319 72.63 M
195.319 64.83 L
203.119 64.83 L
203.119 72.63 L
195.319 72.63 L
S
GR
GS
0.6 0 0 RC
2 LJ
2 LW
N
235.458 52.05 M
235.458 44.25 L
243.258 44.25 L
243.258 52.05 L
235.458 52.05 L
S
GR
GS
0.6 0 0 RC
2 LJ
2 LW
N
263.071 34.9 M
263.071 27.1 L
270.871 27.1 L
270.871 34.9 L
263.071 34.9 L
S
GR
GS
0.6 0 0 RC
2 LJ
2 LW
N
69.1 377.9 M
69.1 370.1 L
76.9 370.1 L
76.9 377.9 L
69.1 377.9 L
S
GR
GS
0 0.2 0.4 RC
2 LJ
2 LW
N
100.152 374 M
100.152 367.14 L
100.179 343.13 L
100.197 339.7 L
100.229 336.27 L
100.233 332.84 L
113.926 329.41 L
114.568 325.98 L
115.85 322.55 L
116.308 319.12 L
117.838 315.69 L
127.277 298.54 L
128.297 295.11 L
129.107 291.68 L
132.54 288.25 L
135.27 284.82 L
138.398 281.39 L
141.329 277.96 L
142.188 274.53 L
143.4 271.1 L
150.32 267.67 L
150.479 264.24 L
152.615 260.81 L
154.263 257.38 L
154.48 253.95 L
154.492 250.52 L
156.493 247.09 L
165.241 243.66 L
166.685 240.23 L
168.417 236.8 L
171.137 233.37 L
171.148 229.94 L
175.43 226.51 L
181.527 223.08 L
181.591 219.65 L
181.605 216.22 L
181.612 212.79 L
183.451 209.36 L
183.587 205.93 L
186.791 202.5 L
187.829 199.07 L
196.728 195.64 L
199.655 192.21 L
205.042 188.78 L
208.82 185.35 L
214.003 181.92 L
217.575 178.49 L
221.825 175.06 L
223.582 171.63 L
226.369 168.2 L
S
GR
GS
0 0.2 0.4 RC
2 LJ
2 LW
N
226.369 168.2 M
229.113 164.77 L
229.579 161.34 L
232.162 157.91 L
234.975 154.48 L
235.777 151.05 L
236.017 147.62 L
242.374 144.19 L
246.942 140.76 L
247.565 137.33 L
248.454 133.9 L
248.971 130.47 L
250.215 127.04 L
252.129 123.61 L
252.774 120.18 L
253.723 116.75 L
254.992 113.32 L
260.978 109.89 L
263.44 106.46 L
263.876 103.03 L
268.479 99.6 L
269.42 96.17 L
270.241 92.74 L
277.243 89.31 L
284.013 85.88 L
299.939 82.45 L
304.715 79.02 L
307.671 75.59 L
308.305 72.16 L
308.425 68.73 L
317.326 65.3 L
319.055 61.87 L
325.627 58.44 L
329.891 55.01 L
333.318 51.58 L
335.419 48.15 L
335.552 44.72 L
358.809 41.29 L
367.589 37.86 L
449.141 34.43 L
472.636 31 L
S
GR
GS
0 0.2 0.4 RC
2 LJ
2 LW
N
105.152 374 M
104.197 371.061 L
101.697 369.245 L
98.607 369.245 L
96.107 371.061 L
95.152 374 L
96.107 376.939 L
98.607 378.755 L
101.697 378.755 L
104.197 376.939 L
105.152 374 L
S
GR
GS
0 0.2 0.4 RC
2 LJ
2 LW
N
118.926 329.41 M
117.971 326.471 L
115.471 324.655 L
112.381 324.655 L
109.881 326.471 L
108.926 329.41 L
109.881 332.349 L
112.381 334.165 L
115.471 334.165 L
117.971 332.349 L
118.926 329.41 L
S
GR
GS
0 0.2 0.4 RC
2 LJ
2 LW
N
134.107 291.68 M
133.152 288.741 L
130.652 286.925 L
127.562 286.925 L
125.062 288.741 L
124.107 291.68 L
125.062 294.619 L
127.562 296.435 L
130.652 296.435 L
133.152 294.619 L
134.107 291.68 L
S
GR
GS
0 0.2 0.4 RC
2 LJ
2 LW
N
148.4 271.1 M
147.445 268.161 L
144.945 266.345 L
141.855 266.345 L
139.355 268.161 L
138.4 271.1 L
139.355 274.039 L
141.855 275.855 L
144.945 275.855 L
147.445 274.039 L
148.4 271.1 L
S
GR
GS
0 0.2 0.4 RC
2 LJ
2 LW
N
159.492 250.52 M
158.537 247.581 L
156.037 245.765 L
152.947 245.765 L
150.447 247.581 L
149.492 250.52 L
150.447 253.459 L
152.947 255.275 L
156.037 255.275 L
158.537 253.459 L
159.492 250.52 L
S
GR
GS
0 0.2 0.4 RC
2 LJ
2 LW
N
180.43 226.51 M
179.475 223.571 L
176.975 221.755 L
173.885 221.755 L
171.385 223.571 L
170.43 226.51 L
171.385 229.449 L
173.885 231.265 L
176.975 231.265 L
179.475 229.449 L
180.43 226.51 L
S
GR
GS
0 0.2 0.4 RC
2 LJ
2 LW
N
188.587 205.93 M
187.632 202.991 L
185.132 201.175 L
182.042 201.175 L
179.542 202.991 L
178.587 205.93 L
179.542 208.869 L
182.042 210.685 L
185.132 210.685 L
187.632 208.869 L
188.587 205.93 L
S
GR
GS
0 0.2 0.4 RC
2 LJ
2 LW
N
219.003 181.92 M
218.048 178.981 L
215.548 177.165 L
212.458 177.165 L
209.958 178.981 L
209.003 181.92 L
209.958 184.859 L
212.458 186.675 L
215.548 186.675 L
218.048 184.859 L
219.003 181.92 L
S
GR
GS
0 0.2 0.4 RC
2 LJ
2 LW
N
234.579 161.34 M
233.624 158.401 L
231.124 156.585 L
228.034 156.585 L
225.534 158.401 L
224.579 161.34 L
225.534 164.279 L
228.034 166.095 L
231.124 166.095 L
233.624 164.279 L
234.579 161.34 L
S
GR
GS
0 0.2 0.4 RC
2 LJ
2 LW
N
251.942 140.76 M
250.987 137.821 L
248.487 136.005 L
245.397 136.005 L
242.897 137.821 L
241.942 140.76 L
242.897 143.699 L
245.397 145.515 L
248.487 145.515 L
250.987 143.699 L
251.942 140.76 L
S
GR
GS
0 0.2 0.4 RC
2 LJ
2 LW
N
258.723 116.75 M
257.768 113.811 L
255.268 111.995 L
252.178 111.995 L
249.678 113.811 L
248.723 116.75 L
249.678 119.689 L
252.178 121.505 L
255.268 121.505 L
257.768 119.689 L
258.723 116.75 L
S
GR
GS
0 0.2 0.4 RC
2 LJ
2 LW
N
274.42 96.17 M
273.466 93.231 L
270.966 91.415 L
267.875 91.415 L
265.375 93.231 L
264.42 96.17 L
265.375 99.109 L
267.875 100.925 L
270.966 100.925 L
273.466 99.109 L
274.42 96.17 L
S
GR
GS
0 0.2 0.4 RC
2 LJ
2 LW
N
312.671 75.59 M
311.716 72.651 L
309.216 70.835 L
306.126 70.835 L
303.626 72.651 L
302.671 75.59 L
303.626 78.529 L
306.126 80.345 L
309.216 80.345 L
311.716 78.529 L
312.671 75.59 L
S
GR
GS
0 0.2 0.4 RC
2 LJ
2 LW
N
338.318 51.58 M
337.363 48.641 L
334.863 46.825 L
331.773 46.825 L
329.273 48.641 L
328.318 51.58 L
329.273 54.519 L
331.773 56.335 L
334.863 56.335 L
337.363 54.519 L
338.318 51.58 L
S
GR
GS
0 0.2 0.4 RC
2 LJ
2 LW
N
477.636 31 M
476.681 28.061 L
474.181 26.245 L
471.09 26.245 L
468.59 28.061 L
467.636 31 L
468.59 33.939 L
471.09 35.755 L
474.181 35.755 L
476.681 33.939 L
477.636 31 L
S
GR
GS
0 0.2 0.4 RC
2 LJ
2 LW
N
105.152 374 M
104.197 371.061 L
101.697 369.245 L
98.607 369.245 L
96.107 371.061 L
95.152 374 L
96.107 376.939 L
98.607 378.755 L
101.697 378.755 L
104.197 376.939 L
105.152 374 L
S
GR
GS
0.8 0.6 0.2 RC
2 LJ
2 LW
N
100.179 374 M
100.179 363.71 L
100.211 360.28 L
127.277 343.13 L
127.38 339.7 L
139.542 336.27 L
146.747 332.84 L
147.456 329.41 L
151.261 325.98 L
154.456 319.12 L
168.724 315.69 L
170.99 312.26 L
171.7 308.83 L
176.649 305.4 L
181.527 291.68 L
181.609 288.25 L
181.64 284.82 L
181.668 281.39 L
190.066 277.96 L
196.448 274.53 L
207.645 271.1 L
209.182 267.67 L
209.23 264.24 L
210.041 260.81 L
213.53 257.38 L
217.327 253.95 L
223.107 250.52 L
223.342 247.09 L
229.167 243.66 L
235.617 240.23 L
235.777 236.8 L
235.913 233.37 L
235.949 229.94 L
235.975 226.51 L
235.985 223.08 L
237.62 219.65 L
239.576 216.22 L
240.155 212.79 L
244.513 209.36 L
247.525 205.93 L
253.576 202.5 L
254.234 199.07 L
261.273 195.64 L
264.073 192.21 L
265.583 188.78 L
270.491 185.35 L
271.741 181.92 L
274.911 178.49 L
275.799 175.06 L
277.417 171.63 L
S
GR
GS
0.8 0.6 0.2 RC
2 LJ
2 LW
N
277.417 171.63 M
277.48 168.2 L
279.222 164.77 L
282.85 161.34 L
285.377 157.91 L
285.974 154.48 L
290.054 151.05 L
290.207 147.62 L
290.889 144.19 L
291.472 140.76 L
296.455 137.33 L
300.224 133.9 L
309.647 130.47 L
309.648 127.04 L
310.159 123.61 L
314.331 120.18 L
322.01 116.75 L
324.744 113.32 L
325.954 109.89 L
326.186 106.46 L
337.394 103.03 L
341.307 99.6 L
346.909 96.17 L
351.986 92.74 L
353.985 89.31 L
364.044 85.88 L
367.288 82.45 L
371.591 79.02 L
373.77 75.59 L
374.319 72.16 L
375.143 68.73 L
377.563 65.3 L
382.198 61.87 L
388.123 58.44 L
390.445 55.01 L
397.797 51.58 L
398.757 48.15 L
414.87 44.72 L
425.434 41.29 L
430.14 37.86 L
486.079 34.43 L
505.847 31 L
S
GR
GS
0.8 0.6 0.2 RC
2 LJ
2 LW
N
95.179 374 M
105.179 374 L
S
GR
GS
0.8 0.6 0.2 RC
2 LJ
2 LW
N
100.179 379 M
100.179 369 L
S
GR
GS
0.8 0.6 0.2 RC
2 LJ
2 LW
N
96.644 377.536 M
103.715 370.464 L
S
GR
GS
0.8 0.6 0.2 RC
2 LJ
2 LW
N
96.644 370.464 M
103.715 377.536 L
S
GR
GS
0.8 0.6 0.2 RC
2 LJ
2 LW
N
141.747 332.84 M
151.747 332.84 L
S
GR
GS
0.8 0.6 0.2 RC
2 LJ
2 LW
N
146.747 337.84 M
146.747 327.84 L
S
GR
GS
0.8 0.6 0.2 RC
2 LJ
2 LW
N
143.211 336.376 M
150.283 329.304 L
S
GR
GS
0.8 0.6 0.2 RC
2 LJ
2 LW
N
143.211 329.304 M
150.283 336.376 L
S
GR
GS
0.8 0.6 0.2 RC
2 LJ
2 LW
N
171.649 305.4 M
181.649 305.4 L
S
GR
GS
0.8 0.6 0.2 RC
2 LJ
2 LW
N
176.649 310.4 M
176.649 300.4 L
S
GR
GS
0.8 0.6 0.2 RC
2 LJ
2 LW
N
173.114 308.936 M
180.185 301.864 L
S
GR
GS
0.8 0.6 0.2 RC
2 LJ
2 LW
N
173.114 301.864 M
180.185 308.936 L
S
GR
GS
0.8 0.6 0.2 RC
2 LJ
2 LW
N
191.448 274.53 M
201.448 274.53 L
S
GR
GS
0.8 0.6 0.2 RC
2 LJ
2 LW
N
196.448 279.53 M
196.448 269.53 L
S
GR
GS
0.8 0.6 0.2 RC
2 LJ
2 LW
N
192.913 278.066 M
199.984 270.994 L
S
GR
GS
0.8 0.6 0.2 RC
2 LJ
2 LW
N
192.913 270.994 M
199.984 278.066 L
S
GR
GS
0.8 0.6 0.2 RC
2 LJ
2 LW
N
218.107 250.52 M
228.107 250.52 L
S
GR
GS
0.8 0.6 0.2 RC
2 LJ
2 LW
N
223.107 255.52 M
223.107 245.52 L
S
GR
GS
0.8 0.6 0.2 RC
2 LJ
2 LW
N
219.571 254.056 M
226.643 246.984 L
S
GR
GS
0.8 0.6 0.2 RC
2 LJ
2 LW
N
219.571 246.984 M
226.643 254.056 L
S
GR
GS
0.8 0.6 0.2 RC
2 LJ
2 LW
N
230.949 229.94 M
240.949 229.94 L
S
GR
GS
0.8 0.6 0.2 RC
2 LJ
2 LW
N
235.949 234.94 M
235.949 224.94 L
S
GR
GS
0.8 0.6 0.2 RC
2 LJ
2 LW
N
232.414 233.476 M
239.485 226.404 L
S
GR
GS
0.8 0.6 0.2 RC
2 LJ
2 LW
N
232.414 226.404 M
239.485 233.476 L
S
GR
GS
0.8 0.6 0.2 RC
2 LJ
2 LW
N
242.525 205.93 M
252.525 205.93 L
S
GR
GS
0.8 0.6 0.2 RC
2 LJ
2 LW
N
247.525 210.93 M
247.525 200.93 L
S
GR
GS
0.8 0.6 0.2 RC
2 LJ
2 LW
N
243.99 209.466 M
251.061 202.394 L
S
GR
GS
0.8 0.6 0.2 RC
2 LJ
2 LW
N
243.99 202.394 M
251.061 209.466 L
S
GR
GS
0.8 0.6 0.2 RC
2 LJ
2 LW
N
265.491 185.35 M
275.491 185.35 L
S
GR
GS
0.8 0.6 0.2 RC
2 LJ
2 LW
N
270.491 190.35 M
270.491 180.35 L
S
GR
GS
0.8 0.6 0.2 RC
2 LJ
2 LW
N
266.955 188.886 M
274.026 181.814 L
S
GR
GS
0.8 0.6 0.2 RC
2 LJ
2 LW
N
266.955 181.814 M
274.026 188.886 L
S
GR
GS
0.8 0.6 0.2 RC
2 LJ
2 LW
N
274.222 164.77 M
284.222 164.77 L
S
GR
GS
0.8 0.6 0.2 RC
2 LJ
2 LW
N
279.222 169.77 M
279.222 159.77 L
S
GR
GS
0.8 0.6 0.2 RC
2 LJ
2 LW
N
275.686 168.306 M
282.757 161.234 L
S
GR
GS
0.8 0.6 0.2 RC
2 LJ
2 LW
N
275.686 161.234 M
282.757 168.306 L
S
GR
GS
0.8 0.6 0.2 RC
2 LJ
2 LW
N
286.472 140.76 M
296.472 140.76 L
S
GR
GS
0.8 0.6 0.2 RC
2 LJ
2 LW
N
291.472 145.76 M
291.472 135.76 L
S
GR
GS
0.8 0.6 0.2 RC
2 LJ
2 LW
N
287.937 144.296 M
295.008 137.224 L
S
GR
GS
0.8 0.6 0.2 RC
2 LJ
2 LW
N
287.937 137.224 M
295.008 144.296 L
S
GR
GS
0.8 0.6 0.2 RC
2 LJ
2 LW
N
309.331 120.18 M
319.331 120.18 L
S
GR
GS
0.8 0.6 0.2 RC
2 LJ
2 LW
N
314.331 125.18 M
314.331 115.18 L
S
GR
GS
0.8 0.6 0.2 RC
2 LJ
2 LW
N
310.796 123.716 M
317.867 116.644 L
S
GR
GS
0.8 0.6 0.2 RC
2 LJ
2 LW
N
310.796 116.644 M
317.867 123.716 L
S
GR
GS
0.8 0.6 0.2 RC
2 LJ
2 LW
N
341.909 96.17 M
351.909 96.17 L
S
GR
GS
0.8 0.6 0.2 RC
2 LJ
2 LW
N
346.909 101.17 M
346.909 91.17 L
S
GR
GS
0.8 0.6 0.2 RC
2 LJ
2 LW
N
343.373 99.706 M
350.444 92.634 L
S
GR
GS
0.8 0.6 0.2 RC
2 LJ
2 LW
N
343.373 92.634 M
350.444 99.706 L
S
GR
GS
0.8 0.6 0.2 RC
2 LJ
2 LW
N
368.77 75.59 M
378.77 75.59 L
S
GR
GS
0.8 0.6 0.2 RC
2 LJ
2 LW
N
373.77 80.59 M
373.77 70.59 L
S
GR
GS
0.8 0.6 0.2 RC
2 LJ
2 LW
N
370.234 79.126 M
377.305 72.054 L
S
GR
GS
0.8 0.6 0.2 RC
2 LJ
2 LW
N
370.234 72.054 M
377.305 79.126 L
S
GR
GS
0.8 0.6 0.2 RC
2 LJ
2 LW
N
392.797 51.58 M
402.797 51.58 L
S
GR
GS
0.8 0.6 0.2 RC
2 LJ
2 LW
N
397.797 56.58 M
397.797 46.58 L
S
GR
GS
0.8 0.6 0.2 RC
2 LJ
2 LW
N
394.262 55.116 M
401.333 48.044 L
S
GR
GS
0.8 0.6 0.2 RC
2 LJ
2 LW
N
394.262 48.044 M
401.333 55.116 L
S
GR
GS
0.8 0.6 0.2 RC
2 LJ
2 LW
N
500.847 31 M
510.847 31 L
S
GR
GS
0.8 0.6 0.2 RC
2 LJ
2 LW
N
505.847 36 M
505.847 26 L
S
GR
GS
0.8 0.6 0.2 RC
2 LJ
2 LW
N
502.312 34.536 M
509.383 27.464 L
S
GR
GS
0.8 0.6 0.2 RC
2 LJ
2 LW
N
502.312 27.464 M
509.383 34.536 L
S
GR
GS
0.8 0.6 0.2 RC
2 LJ
2 LW
N
95.179 374 M
105.179 374 L
S
GR
GS
0.8 0.6 0.2 RC
2 LJ
2 LW
N
100.179 379 M
100.179 369 L
S
GR
GS
0.8 0.6 0.2 RC
2 LJ
2 LW
N
96.644 377.536 M
103.715 370.464 L
S
GR
GS
0.8 0.6 0.2 RC
2 LJ
2 LW
N
96.644 370.464 M
103.715 377.536 L
S
GR
GS
1 GC
N
429 82 M
429 41 L
497 41 L
497 82 L
cp
f
GR
GS
[1 0 0 1 468 49] CT
/Helvetica-Bold 11 F
GS
[1 0 0 1 0 0] CT
0 3 moveto 
1 -1 scale
(3 dst) t 
GR
GR
GS
0.6 0 0 RC
2 setlinecap
10.0 ML
2 LW
N
435 49 M
465 49 L
S
GR
GS
0.6 0 0 RC
2 setlinecap
10.0 ML
2 LW
N
445.6 52.4 M
445.6 44.6 L
453.4 44.6 L
453.4 52.4 L
445.6 52.4 L
S
GR
GS
[1 0 0 1 468 61.5] CT
/Helvetica-Bold 11 F
GS
[1 0 0 1 0 0] CT
0 3 moveto 
1 -1 scale
(5 dst) t 
GR
GR
GS
0 0.2 0.4 RC
2 setlinecap
10.0 ML
2 LW
N
435 61.5 M
465 61.5 L
S
GR
GS
0 0.2 0.4 RC
2 setlinecap
10.0 ML
2 LW
N
454.5 61.5 M
453.545 58.561 L
451.045 56.745 L
447.955 56.745 L
445.455 58.561 L
444.5 61.5 L
445.455 64.439 L
447.955 66.255 L
451.045 66.255 L
453.545 64.439 L
454.5 61.5 L
S
GR
GS
[1 0 0 1 468 74] CT
/Helvetica-Bold 11 F
GS
[1 0 0 1 0 0] CT
0 3 moveto 
1 -1 scale
(7 dst) t 
GR
GR
GS
0.8 0.6 0.2 RC
2 setlinecap
10.0 ML
2 LW
N
435 74 M
465 74 L
S
GR
GS
0.8 0.6 0.2 RC
2 setlinecap
10.0 ML
2 LW
N
444 74.5 M
455 74.5 L
S
GR
GS
0.8 0.6 0.2 RC
2 setlinecap
10.0 ML
2 LW
N
449.5 80 M
449.5 69 L
S
GR
GS
0.8 0.6 0.2 RC
2 setlinecap
10.0 ML
2 LW
N
445 79 M
454 70 L
S
GR
GS
0.8 0.6 0.2 RC
2 setlinecap
10.0 ML
2 LW
N
445 70 M
454 79 L
S
GR
GS
0.149 GC
2 setlinecap
10.0 ML
N
429 82 M
429 41 L
497 41 L
497 82 L
429 82 L
S
GR
%%Trailer
%%Pages: 1
%%EOF
