%!PS-Adobe-3.0 EPSF-3.0
%%Creator: (MATLAB, The Mathworks, Inc. Version 8.5.0.197613 \(R2015a\). Operating System: Mac OS X)
%%Title: /Users/ashwinyakkundimath/Documents/Thesis_Results/plots/destinations/cdf_integration_dst_thr.eps
%%CreationDate: 2016-01-05T11:35:36
%%Pages: (atend)
%%BoundingBox: 0 0 560 420
%%LanguageLevel: 2
%%EndComments
%%BeginProlog
%%BeginResource: procset (Apache XML Graphics Std ProcSet) 1.2 0
%%Version: 1.2 0
%%Copyright: (Copyright 2001-2003,2010 The Apache Software Foundation. License terms: http://www.apache.org/licenses/LICENSE-2.0)
/bd{bind def}bind def
/ld{load def}bd
/GR/grestore ld
/M/moveto ld
/LJ/setlinejoin ld
/C/curveto ld
/f/fill ld
/LW/setlinewidth ld
/GC/setgray ld
/t/show ld
/N/newpath ld
/CT/concat ld
/cp/closepath ld
/S/stroke ld
/L/lineto ld
/CC/setcmykcolor ld
/A/ashow ld
/GS/gsave ld
/RC/setrgbcolor ld
/RM/rmoveto ld
/ML/setmiterlimit ld
/re {4 2 roll M
1 index 0 rlineto
0 exch rlineto
neg 0 rlineto
cp } bd
/_ctm matrix def
/_tm matrix def
/BT { _ctm currentmatrix pop matrix _tm copy pop 0 0 moveto } bd
/ET { _ctm setmatrix } bd
/iTm { _ctm setmatrix _tm concat } bd
/Tm { _tm astore pop iTm 0 0 moveto } bd
/ux 0.0 def
/uy 0.0 def
/F {
  /Tp exch def
  /Tf exch def
  Tf findfont Tp scalefont setfont
  /cf Tf def  /cs Tp def
} bd
/ULS {currentpoint /uy exch def /ux exch def} bd
/ULE {
  /Tcx currentpoint pop def
  gsave
  newpath
  cf findfont cs scalefont dup
  /FontMatrix get 0 get /Ts exch def /FontInfo get dup
  /UnderlinePosition get Ts mul /To exch def
  /UnderlineThickness get Ts mul /Tt exch def
  ux uy To add moveto  Tcx uy To add lineto
  Tt setlinewidth stroke
  grestore
} bd
/OLE {
  /Tcx currentpoint pop def
  gsave
  newpath
  cf findfont cs scalefont dup
  /FontMatrix get 0 get /Ts exch def /FontInfo get dup
  /UnderlinePosition get Ts mul /To exch def
  /UnderlineThickness get Ts mul /Tt exch def
  ux uy To add cs add moveto Tcx uy To add cs add lineto
  Tt setlinewidth stroke
  grestore
} bd
/SOE {
  /Tcx currentpoint pop def
  gsave
  newpath
  cf findfont cs scalefont dup
  /FontMatrix get 0 get /Ts exch def /FontInfo get dup
  /UnderlinePosition get Ts mul /To exch def
  /UnderlineThickness get Ts mul /Tt exch def
  ux uy To add cs 10 mul 26 idiv add moveto Tcx uy To add cs 10 mul 26 idiv add lineto
  Tt setlinewidth stroke
  grestore
} bd
/QT {
/Y22 exch store
/X22 exch store
/Y21 exch store
/X21 exch store
currentpoint
/Y21 load 2 mul add 3 div exch
/X21 load 2 mul add 3 div exch
/X21 load 2 mul /X22 load add 3 div
/Y21 load 2 mul /Y22 load add 3 div
/X22 load /Y22 load curveto
} bd
/SSPD {
dup length /d exch dict def
{
/v exch def
/k exch def
currentpagedevice k known {
/cpdv currentpagedevice k get def
v cpdv ne {
/upd false def
/nullv v type /nulltype eq def
/nullcpdv cpdv type /nulltype eq def
nullv nullcpdv or
{
/upd true def
} {
/sametype v type cpdv type eq def
sametype {
v type /arraytype eq {
/vlen v length def
/cpdvlen cpdv length def
vlen cpdvlen eq {
0 1 vlen 1 sub {
/i exch def
/obj v i get def
/cpdobj cpdv i get def
obj cpdobj ne {
/upd true def
exit
} if
} for
} {
/upd true def
} ifelse
} {
v type /dicttype eq {
v {
/dv exch def
/dk exch def
/cpddv cpdv dk get def
dv cpddv ne {
/upd true def
exit
} if
} forall
} {
/upd true def
} ifelse
} ifelse
} if
} ifelse
upd true eq {
d k v put
} if
} if
} if
} forall
d length 0 gt {
d setpagedevice
} if
} bd
%%EndResource
%%BeginResource: procset (Apache XML Graphics EPS ProcSet) 1.0 0
%%Version: 1.0 0
%%Copyright: (Copyright 2002-2003 The Apache Software Foundation. License terms: http://www.apache.org/licenses/LICENSE-2.0)
/BeginEPSF { %def
/b4_Inc_state save def         % Save state for cleanup
/dict_count countdictstack def % Count objects on dict stack
/op_count count 1 sub def      % Count objects on operand stack
userdict begin                 % Push userdict on dict stack
/showpage { } def              % Redefine showpage, { } = null proc
0 setgray 0 setlinecap         % Prepare graphics state
1 setlinewidth 0 setlinejoin
10 setmiterlimit [ ] 0 setdash newpath
/languagelevel where           % If level not equal to 1 then
{pop languagelevel             % set strokeadjust and
1 ne                           % overprint to their defaults.
{false setstrokeadjust false setoverprint
} if
} if
} bd
/EndEPSF { %def
count op_count sub {pop} repeat            % Clean up stacks
countdictstack dict_count sub {end} repeat
b4_Inc_state restore
} bd
%%EndResource
%FOPBeginFontDict
%%IncludeResource: font Courier-Bold
%%IncludeResource: font Helvetica
%%IncludeResource: font Courier-BoldOblique
%%IncludeResource: font Courier-Oblique
%%IncludeResource: font Times-Roman
%%IncludeResource: font Helvetica-BoldOblique
%%IncludeResource: font Helvetica-Bold
%%IncludeResource: font Helvetica-Oblique
%%IncludeResource: font Times-BoldItalic
%%IncludeResource: font Courier
%%IncludeResource: font Times-Italic
%%IncludeResource: font Times-Bold
%%IncludeResource: font Symbol
%%IncludeResource: font ZapfDingbats
%FOPEndFontDict
%%BeginResource: encoding WinAnsiEncoding
/WinAnsiEncoding [
/.notdef /.notdef /.notdef /.notdef /.notdef
/.notdef /.notdef /.notdef /.notdef /.notdef
/.notdef /.notdef /.notdef /.notdef /.notdef
/.notdef /.notdef /.notdef /.notdef /.notdef
/.notdef /.notdef /.notdef /.notdef /.notdef
/.notdef /.notdef /.notdef /.notdef /.notdef
/.notdef /.notdef /space /exclam /quotedbl
/numbersign /dollar /percent /ampersand /quotesingle
/parenleft /parenright /asterisk /plus /comma
/hyphen /period /slash /zero /one
/two /three /four /five /six
/seven /eight /nine /colon /semicolon
/less /equal /greater /question /at
/A /B /C /D /E
/F /G /H /I /J
/K /L /M /N /O
/P /Q /R /S /T
/U /V /W /X /Y
/Z /bracketleft /backslash /bracketright /asciicircum
/underscore /quoteleft /a /b /c
/d /e /f /g /h
/i /j /k /l /m
/n /o /p /q /r
/s /t /u /v /w
/x /y /z /braceleft /bar
/braceright /asciitilde /bullet /Euro /bullet
/quotesinglbase /florin /quotedblbase /ellipsis /dagger
/daggerdbl /circumflex /perthousand /Scaron /guilsinglleft
/OE /bullet /Zcaron /bullet /bullet
/quoteleft /quoteright /quotedblleft /quotedblright /bullet
/endash /emdash /asciitilde /trademark /scaron
/guilsinglright /oe /bullet /zcaron /Ydieresis
/space /exclamdown /cent /sterling /currency
/yen /brokenbar /section /dieresis /copyright
/ordfeminine /guillemotleft /logicalnot /sfthyphen /registered
/macron /degree /plusminus /twosuperior /threesuperior
/acute /mu /paragraph /middot /cedilla
/onesuperior /ordmasculine /guillemotright /onequarter /onehalf
/threequarters /questiondown /Agrave /Aacute /Acircumflex
/Atilde /Adieresis /Aring /AE /Ccedilla
/Egrave /Eacute /Ecircumflex /Edieresis /Igrave
/Iacute /Icircumflex /Idieresis /Eth /Ntilde
/Ograve /Oacute /Ocircumflex /Otilde /Odieresis
/multiply /Oslash /Ugrave /Uacute /Ucircumflex
/Udieresis /Yacute /Thorn /germandbls /agrave
/aacute /acircumflex /atilde /adieresis /aring
/ae /ccedilla /egrave /eacute /ecircumflex
/edieresis /igrave /iacute /icircumflex /idieresis
/eth /ntilde /ograve /oacute /ocircumflex
/otilde /odieresis /divide /oslash /ugrave
/uacute /ucircumflex /udieresis /yacute /thorn
/ydieresis
] def
%%EndResource
%FOPBeginFontReencode
/Courier-Bold findfont
dup length dict begin
  {1 index /FID ne {def} {pop pop} ifelse} forall
  /Encoding WinAnsiEncoding def
  currentdict
end
/Courier-Bold exch definefont pop
/Helvetica findfont
dup length dict begin
  {1 index /FID ne {def} {pop pop} ifelse} forall
  /Encoding WinAnsiEncoding def
  currentdict
end
/Helvetica exch definefont pop
/Courier-BoldOblique findfont
dup length dict begin
  {1 index /FID ne {def} {pop pop} ifelse} forall
  /Encoding WinAnsiEncoding def
  currentdict
end
/Courier-BoldOblique exch definefont pop
/Courier-Oblique findfont
dup length dict begin
  {1 index /FID ne {def} {pop pop} ifelse} forall
  /Encoding WinAnsiEncoding def
  currentdict
end
/Courier-Oblique exch definefont pop
/Times-Roman findfont
dup length dict begin
  {1 index /FID ne {def} {pop pop} ifelse} forall
  /Encoding WinAnsiEncoding def
  currentdict
end
/Times-Roman exch definefont pop
/Helvetica-BoldOblique findfont
dup length dict begin
  {1 index /FID ne {def} {pop pop} ifelse} forall
  /Encoding WinAnsiEncoding def
  currentdict
end
/Helvetica-BoldOblique exch definefont pop
/Helvetica-Bold findfont
dup length dict begin
  {1 index /FID ne {def} {pop pop} ifelse} forall
  /Encoding WinAnsiEncoding def
  currentdict
end
/Helvetica-Bold exch definefont pop
/Helvetica-Oblique findfont
dup length dict begin
  {1 index /FID ne {def} {pop pop} ifelse} forall
  /Encoding WinAnsiEncoding def
  currentdict
end
/Helvetica-Oblique exch definefont pop
/Times-BoldItalic findfont
dup length dict begin
  {1 index /FID ne {def} {pop pop} ifelse} forall
  /Encoding WinAnsiEncoding def
  currentdict
end
/Times-BoldItalic exch definefont pop
/Courier findfont
dup length dict begin
  {1 index /FID ne {def} {pop pop} ifelse} forall
  /Encoding WinAnsiEncoding def
  currentdict
end
/Courier exch definefont pop
/Times-Italic findfont
dup length dict begin
  {1 index /FID ne {def} {pop pop} ifelse} forall
  /Encoding WinAnsiEncoding def
  currentdict
end
/Times-Italic exch definefont pop
/Times-Bold findfont
dup length dict begin
  {1 index /FID ne {def} {pop pop} ifelse} forall
  /Encoding WinAnsiEncoding def
  currentdict
end
/Times-Bold exch definefont pop
%FOPEndFontReencode
%%EndProlog
%%Page: 1 1
%%PageBoundingBox: 0 0 560 420
%%BeginPageSetup
[1 0 0 -1 0 420] CT
%%EndPageSetup
GS
1 GC
N
0 0 560 420 re
f
GR
GS
1 GC
N
0 0 560 420 re
f
GR
GS
1 GC
N
73 374 M
507 374 L
507 31 L
73 31 L
cp
f
GR
GS
0.873 GC
2 setlinecap
10.0 ML
N
73 374 M
73 31 L
S
GR
GS
0.873 GC
2 setlinecap
10.0 ML
N
135 374 M
135 31 L
S
GR
GS
0.873 GC
2 setlinecap
10.0 ML
N
197 374 M
197 31 L
S
GR
GS
0.873 GC
2 setlinecap
10.0 ML
N
259 374 M
259 31 L
S
GR
GS
0.873 GC
2 setlinecap
10.0 ML
N
321 374 M
321 31 L
S
GR
GS
0.873 GC
2 setlinecap
10.0 ML
N
383 374 M
383 31 L
S
GR
GS
0.873 GC
2 setlinecap
10.0 ML
N
445 374 M
445 31 L
S
GR
GS
0.873 GC
2 setlinecap
10.0 ML
N
507 374 M
507 31 L
S
GR
GS
0.873 GC
2 setlinecap
10.0 ML
N
507 374 M
73 374 L
S
GR
GS
0.873 GC
2 setlinecap
10.0 ML
N
507 339.7 M
73 339.7 L
S
GR
GS
0.873 GC
2 setlinecap
10.0 ML
N
507 305.4 M
73 305.4 L
S
GR
GS
0.873 GC
2 setlinecap
10.0 ML
N
507 271.1 M
73 271.1 L
S
GR
GS
0.873 GC
2 setlinecap
10.0 ML
N
507 236.8 M
73 236.8 L
S
GR
GS
0.873 GC
2 setlinecap
10.0 ML
N
507 202.5 M
73 202.5 L
S
GR
GS
0.873 GC
2 setlinecap
10.0 ML
N
507 168.2 M
73 168.2 L
S
GR
GS
0.873 GC
2 setlinecap
10.0 ML
N
507 133.9 M
73 133.9 L
S
GR
GS
0.873 GC
2 setlinecap
10.0 ML
N
507 99.6 M
73 99.6 L
S
GR
GS
0.873 GC
2 setlinecap
10.0 ML
N
507 65.3 M
73 65.3 L
S
GR
GS
0.873 GC
2 setlinecap
10.0 ML
N
507 31 M
73 31 L
S
GR
GS
[1 0 0 1 290.00021 390] CT
0.149 GC
/Helvetica-Bold 11 F
GS
[1 0 0 1 0 0] CT
-52 9 moveto 
1 -1 scale
(System Throughput) t 
GR
GR
GS
0.149 GC
2 setlinecap
10.0 ML
N
73 374 M
507 374 L
S
GR
GS
0.149 GC
2 setlinecap
10.0 ML
N
73 374 M
73 369.66 L
S
GR
GS
0.149 GC
2 setlinecap
10.0 ML
N
135 374 M
135 369.66 L
S
GR
GS
0.149 GC
2 setlinecap
10.0 ML
N
197 374 M
197 369.66 L
S
GR
GS
0.149 GC
2 setlinecap
10.0 ML
N
259 374 M
259 369.66 L
S
GR
GS
0.149 GC
2 setlinecap
10.0 ML
N
321 374 M
321 369.66 L
S
GR
GS
0.149 GC
2 setlinecap
10.0 ML
N
383 374 M
383 369.66 L
S
GR
GS
0.149 GC
2 setlinecap
10.0 ML
N
445 374 M
445 369.66 L
S
GR
GS
0.149 GC
2 setlinecap
10.0 ML
N
507 374 M
507 369.66 L
S
GR
GS
[1 0 0 1 73 378] CT
0.149 GC
/Helvetica-Bold 10 F
GS
[1 0 0 1 0 0] CT
-3 8 moveto 
1 -1 scale
(0) t 
GR
GR
GS
[1 0 0 1 135 378] CT
0.149 GC
/Helvetica-Bold 10 F
GS
[1 0 0 1 0 0] CT
-7 8 moveto 
1 -1 scale
(0.2) t 
GR
GR
GS
[1 0 0 1 197 378] CT
0.149 GC
/Helvetica-Bold 10 F
GS
[1 0 0 1 0 0] CT
-7 8 moveto 
1 -1 scale
(0.4) t 
GR
GR
GS
[1 0 0 1 259 378] CT
0.149 GC
/Helvetica-Bold 10 F
GS
[1 0 0 1 0 0] CT
-7 8 moveto 
1 -1 scale
(0.6) t 
GR
GR
GS
[1 0 0 1 321 378] CT
0.149 GC
/Helvetica-Bold 10 F
GS
[1 0 0 1 0 0] CT
-7 8 moveto 
1 -1 scale
(0.8) t 
GR
GR
GS
[1 0 0 1 383 378] CT
0.149 GC
/Helvetica-Bold 10 F
GS
[1 0 0 1 0 0] CT
-3 8 moveto 
1 -1 scale
(1) t 
GR
GR
GS
[1 0 0 1 445 378] CT
0.149 GC
/Helvetica-Bold 10 F
GS
[1 0 0 1 0 0] CT
-7 8 moveto 
1 -1 scale
(1.2) t 
GR
GR
GS
[1 0 0 1 507 378] CT
0.149 GC
/Helvetica-Bold 10 F
GS
[1 0 0 1 0 0] CT
-7 8 moveto 
1 -1 scale
(1.4) t 
GR
GR
GS
[0 -1 1 0 52 202.49983] CT
0.149 GC
/Helvetica-Bold 11 F
GS
[1 0 0 1 0 0] CT
-60 -3 moveto 
1 -1 scale
(Cumulative Probability) t 
GR
GR
GS
0.149 GC
2 setlinecap
10.0 ML
N
73 374 M
73 31 L
S
GR
GS
0.149 GC
2 setlinecap
10.0 ML
N
73 374 M
77.34 374 L
S
GR
GS
0.149 GC
2 setlinecap
10.0 ML
N
73 339.7 M
77.34 339.7 L
S
GR
GS
0.149 GC
2 setlinecap
10.0 ML
N
73 305.4 M
77.34 305.4 L
S
GR
GS
0.149 GC
2 setlinecap
10.0 ML
N
73 271.1 M
77.34 271.1 L
S
GR
GS
0.149 GC
2 setlinecap
10.0 ML
N
73 236.8 M
77.34 236.8 L
S
GR
GS
0.149 GC
2 setlinecap
10.0 ML
N
73 202.5 M
77.34 202.5 L
S
GR
GS
0.149 GC
2 setlinecap
10.0 ML
N
73 168.2 M
77.34 168.2 L
S
GR
GS
0.149 GC
2 setlinecap
10.0 ML
N
73 133.9 M
77.34 133.9 L
S
GR
GS
0.149 GC
2 setlinecap
10.0 ML
N
73 99.6 M
77.34 99.6 L
S
GR
GS
0.149 GC
2 setlinecap
10.0 ML
N
73 65.3 M
77.34 65.3 L
S
GR
GS
0.149 GC
2 setlinecap
10.0 ML
N
73 31 M
77.34 31 L
S
GR
GS
[1 0 0 1 69 374] CT
0.149 GC
/Helvetica-Bold 10 F
GS
[1 0 0 1 0 0] CT
-6 2.5 moveto 
1 -1 scale
(0) t 
GR
GR
GS
[1 0 0 1 69 339.70001] CT
0.149 GC
/Helvetica-Bold 10 F
GS
[1 0 0 1 0 0] CT
-14 2.5 moveto 
1 -1 scale
(0.1) t 
GR
GR
GS
[1 0 0 1 69 305.39999] CT
0.149 GC
/Helvetica-Bold 10 F
GS
[1 0 0 1 0 0] CT
-14 2.5 moveto 
1 -1 scale
(0.2) t 
GR
GR
GS
[1 0 0 1 69 271.10001] CT
0.149 GC
/Helvetica-Bold 10 F
GS
[1 0 0 1 0 0] CT
-14 2.5 moveto 
1 -1 scale
(0.3) t 
GR
GR
GS
[1 0 0 1 69 236.8] CT
0.149 GC
/Helvetica-Bold 10 F
GS
[1 0 0 1 0 0] CT
-14 2.5 moveto 
1 -1 scale
(0.4) t 
GR
GR
GS
[1 0 0 1 69 202.5] CT
0.149 GC
/Helvetica-Bold 10 F
GS
[1 0 0 1 0 0] CT
-14 2.5 moveto 
1 -1 scale
(0.5) t 
GR
GR
GS
[1 0 0 1 69 168.2] CT
0.149 GC
/Helvetica-Bold 10 F
GS
[1 0 0 1 0 0] CT
-14 2.5 moveto 
1 -1 scale
(0.6) t 
GR
GR
GS
[1 0 0 1 69 133.90001] CT
0.149 GC
/Helvetica-Bold 10 F
GS
[1 0 0 1 0 0] CT
-14 2.5 moveto 
1 -1 scale
(0.7) t 
GR
GR
GS
[1 0 0 1 69 99.6] CT
0.149 GC
/Helvetica-Bold 10 F
GS
[1 0 0 1 0 0] CT
-14 2.5 moveto 
1 -1 scale
(0.8) t 
GR
GR
GS
[1 0 0 1 69 65.30001] CT
0.149 GC
/Helvetica-Bold 10 F
GS
[1 0 0 1 0 0] CT
-14 2.5 moveto 
1 -1 scale
(0.9) t 
GR
GR
GS
[1 0 0 1 69 31] CT
0.149 GC
/Helvetica-Bold 10 F
GS
[1 0 0 1 0 0] CT
-6 2.5 moveto 
1 -1 scale
(1) t 
GR
GR
GS
0.6 0 0 RC
2 LJ
2 LW
N
73 374 M
73 360.28 L
105.045 356.85 L
105.486 353.42 L
106.69 349.99 L
109.751 346.56 L
111.59 343.13 L
115.564 339.7 L
119.751 336.27 L
120.159 332.84 L
121.634 329.41 L
125.42 325.98 L
126.423 322.55 L
127.067 319.12 L
127.445 315.69 L
131.443 312.26 L
133.862 308.83 L
136.642 305.4 L
138.006 301.97 L
140.096 298.54 L
140.437 295.11 L
141.294 291.68 L
141.466 288.25 L
142.592 284.82 L
142.705 281.39 L
142.8 277.96 L
143.048 274.53 L
143.211 271.1 L
143.561 267.67 L
144.272 264.24 L
147.242 260.81 L
147.999 257.38 L
148.809 253.95 L
149.118 250.52 L
150.5 247.09 L
154.695 243.66 L
159.66 240.23 L
161.359 236.8 L
162.757 233.37 L
165.302 229.94 L
165.462 226.51 L
165.86 223.08 L
167.81 219.65 L
168.647 216.22 L
169.316 212.79 L
170.396 209.36 L
171.045 205.93 L
175.297 202.5 L
177.696 199.07 L
177.747 195.64 L
S
GR
GS
0.6 0 0 RC
2 LJ
2 LW
N
177.747 195.64 M
178.652 192.21 L
178.686 188.78 L
178.691 185.35 L
184.594 181.92 L
185.223 178.49 L
186.099 175.06 L
187.4 171.63 L
189.661 168.2 L
191.912 164.77 L
197.45 161.34 L
198.05 157.91 L
200.26 154.48 L
206.794 147.62 L
207.602 144.19 L
207.611 127.04 L
211.039 123.61 L
218.471 120.18 L
220.364 116.75 L
221.484 109.89 L
221.621 106.46 L
251.338 103.03 L
254.045 99.6 L
254.091 89.31 L
277.653 85.88 L
277.709 82.45 L
277.787 75.59 L
277.8 72.16 L
277.825 68.73 L
302.814 65.3 L
316.001 61.87 L
363.035 58.44 L
363.048 55.01 L
363.053 51.58 L
363.091 48.15 L
363.135 44.72 L
363.181 41.29 L
363.205 34.43 L
363.29 31 L
S
GR
GS
0.6 0 0 RC
2 LJ
2 LW
N
69.1 377.9 M
69.1 370.1 L
76.9 370.1 L
76.9 377.9 L
69.1 377.9 L
S
GR
GS
0.6 0 0 RC
2 LJ
2 LW
N
107.69 347.03 M
107.69 339.23 L
115.49 339.23 L
115.49 347.03 L
107.69 347.03 L
S
GR
GS
0.6 0 0 RC
2 LJ
2 LW
N
122.523 326.45 M
122.523 318.65 L
130.323 318.65 L
130.323 326.45 L
122.523 326.45 L
S
GR
GS
0.6 0 0 RC
2 LJ
2 LW
N
136.196 302.44 M
136.196 294.64 L
143.996 294.64 L
143.996 302.44 L
136.196 302.44 L
S
GR
GS
0.6 0 0 RC
2 LJ
2 LW
N
138.9 281.86 M
138.9 274.06 L
146.7 274.06 L
146.7 281.86 L
138.9 281.86 L
S
GR
GS
0.6 0 0 RC
2 LJ
2 LW
N
144.099 261.28 M
144.099 253.48 L
151.899 253.48 L
151.899 261.28 L
144.099 261.28 L
S
GR
GS
0.6 0 0 RC
2 LJ
2 LW
N
157.459 240.7 M
157.459 232.9 L
165.259 232.9 L
165.259 240.7 L
157.459 240.7 L
S
GR
GS
0.6 0 0 RC
2 LJ
2 LW
N
165.416 216.69 M
165.416 208.89 L
173.216 208.89 L
173.216 216.69 L
165.416 216.69 L
S
GR
GS
0.6 0 0 RC
2 LJ
2 LW
N
174.752 196.11 M
174.752 188.31 L
182.552 188.31 L
182.552 196.11 L
174.752 196.11 L
S
GR
GS
0.6 0 0 RC
2 LJ
2 LW
N
183.5 175.53 M
183.5 167.73 L
191.3 167.73 L
191.3 175.53 L
183.5 175.53 L
S
GR
GS
0.6 0 0 RC
2 LJ
2 LW
N
202.894 151.52 M
202.894 143.72 L
210.694 143.72 L
210.694 151.52 L
202.894 151.52 L
S
GR
GS
0.6 0 0 RC
2 LJ
2 LW
N
217.584 113.79 M
217.584 105.99 L
225.384 105.99 L
225.384 113.79 L
217.584 113.79 L
S
GR
GS
0.6 0 0 RC
2 LJ
2 LW
N
273.887 79.49 M
273.887 71.69 L
281.687 71.69 L
281.687 79.49 L
273.887 79.49 L
S
GR
GS
0.6 0 0 RC
2 LJ
2 LW
N
359.148 58.91 M
359.148 51.11 L
366.948 51.11 L
366.948 58.91 L
359.148 58.91 L
S
GR
GS
0.6 0 0 RC
2 LJ
2 LW
N
359.39 34.9 M
359.39 27.1 L
367.19 27.1 L
367.19 34.9 L
359.39 34.9 L
S
GR
GS
0.6 0 0 RC
2 LJ
2 LW
N
69.1 377.9 M
69.1 370.1 L
76.9 370.1 L
76.9 377.9 L
69.1 377.9 L
S
GR
GS
0 0.2 0.4 RC
2 LJ
2 LW
N
119.63 374 M
119.63 370.57 L
128.43 367.14 L
136.023 363.71 L
138.631 360.28 L
143.94 356.85 L
146.082 353.42 L
146.424 349.99 L
147.089 346.56 L
147.611 343.13 L
153.801 339.7 L
154.152 336.27 L
156.63 332.84 L
160.09 329.41 L
160.159 325.98 L
165.462 322.55 L
171.583 319.12 L
172.125 315.69 L
177.696 312.26 L
177.739 308.83 L
180.943 305.4 L
184.862 301.97 L
185.503 298.54 L
185.631 295.11 L
186.06 291.68 L
187.138 288.25 L
187.487 284.82 L
188.736 281.39 L
188.932 277.96 L
189.559 274.53 L
189.781 271.1 L
191.686 267.67 L
193.8 264.24 L
194.197 260.81 L
195.625 257.38 L
196.827 253.95 L
196.9 250.52 L
199.682 247.09 L
201.045 243.66 L
201.511 240.23 L
201.644 236.8 L
201.891 233.37 L
202.383 229.94 L
205.189 226.51 L
206.732 223.08 L
207.588 219.65 L
208.102 216.22 L
209.736 212.79 L
212.914 209.36 L
213.294 205.93 L
S
GR
GS
0 0.2 0.4 RC
2 LJ
2 LW
N
213.294 205.93 M
214.857 202.5 L
215.477 199.07 L
217.035 195.64 L
220.267 192.21 L
220.364 185.35 L
221.203 181.92 L
221.484 178.49 L
227.297 175.06 L
227.809 171.63 L
227.812 168.2 L
228.633 164.77 L
229.479 157.91 L
230.708 154.48 L
232.309 151.05 L
237.288 147.62 L
254.01 144.19 L
254.088 140.76 L
254.091 137.33 L
255.5 133.9 L
256.729 130.47 L
258.668 127.04 L
259.93 123.61 L
262.703 120.18 L
265.968 116.75 L
277.787 113.32 L
277.8 109.89 L
277.802 106.46 L
277.807 103.03 L
277.857 96.17 L
282.392 92.74 L
290.107 89.31 L
292.452 85.88 L
302.961 82.45 L
303.87 79.02 L
310.651 75.59 L
342.157 72.16 L
363.083 68.73 L
363.11 65.3 L
363.149 61.87 L
363.181 58.44 L
363.204 55.01 L
363.205 48.15 L
363.269 44.72 L
363.29 37.86 L
367.631 34.43 L
367.681 31 L
S
GR
GS
0 0.2 0.4 RC
2 LJ
2 LW
N
124.63 374 M
123.675 371.061 L
121.175 369.245 L
118.085 369.245 L
115.585 371.061 L
114.63 374 L
115.585 376.939 L
118.085 378.755 L
121.175 378.755 L
123.675 376.939 L
124.63 374 L
S
GR
GS
0 0.2 0.4 RC
2 LJ
2 LW
N
151.424 349.99 M
150.469 347.051 L
147.969 345.235 L
144.879 345.235 L
142.379 347.051 L
141.424 349.99 L
142.379 352.929 L
144.879 354.745 L
147.969 354.745 L
150.469 352.929 L
151.424 349.99 L
S
GR
GS
0 0.2 0.4 RC
2 LJ
2 LW
N
165.159 325.98 M
164.204 323.041 L
161.704 321.225 L
158.614 321.225 L
156.114 323.041 L
155.159 325.98 L
156.114 328.919 L
158.614 330.735 L
161.704 330.735 L
164.204 328.919 L
165.159 325.98 L
S
GR
GS
0 0.2 0.4 RC
2 LJ
2 LW
N
185.943 305.4 M
184.989 302.461 L
182.489 300.645 L
179.398 300.645 L
176.898 302.461 L
175.943 305.4 L
176.898 308.339 L
179.398 310.155 L
182.489 310.155 L
184.989 308.339 L
185.943 305.4 L
S
GR
GS
0 0.2 0.4 RC
2 LJ
2 LW
N
193.736 281.39 M
192.781 278.451 L
190.281 276.635 L
187.19 276.635 L
184.69 278.451 L
183.736 281.39 L
184.69 284.329 L
187.19 286.145 L
190.281 286.145 L
192.781 284.329 L
193.736 281.39 L
S
GR
GS
0 0.2 0.4 RC
2 LJ
2 LW
N
200.625 257.38 M
199.67 254.441 L
197.17 252.625 L
194.08 252.625 L
191.58 254.441 L
190.625 257.38 L
191.58 260.319 L
194.08 262.135 L
197.17 262.135 L
199.67 260.319 L
200.625 257.38 L
S
GR
GS
0 0.2 0.4 RC
2 LJ
2 LW
N
206.891 233.37 M
205.936 230.431 L
203.436 228.615 L
200.346 228.615 L
197.846 230.431 L
196.891 233.37 L
197.846 236.309 L
200.346 238.125 L
203.436 238.125 L
205.936 236.309 L
206.891 233.37 L
S
GR
GS
0 0.2 0.4 RC
2 LJ
2 LW
N
217.914 209.36 M
216.959 206.421 L
214.459 204.605 L
211.369 204.605 L
208.869 206.421 L
207.914 209.36 L
208.869 212.299 L
211.369 214.115 L
214.459 214.115 L
216.959 212.299 L
217.914 209.36 L
S
GR
GS
0 0.2 0.4 RC
2 LJ
2 LW
N
225.364 185.35 M
224.409 182.411 L
221.909 180.595 L
218.819 180.595 L
216.319 182.411 L
215.364 185.35 L
216.319 188.289 L
218.819 190.105 L
221.909 190.105 L
224.409 188.289 L
225.364 185.35 L
S
GR
GS
0 0.2 0.4 RC
2 LJ
2 LW
N
234.479 157.91 M
233.524 154.971 L
231.024 153.155 L
227.934 153.155 L
225.434 154.971 L
224.479 157.91 L
225.434 160.849 L
227.934 162.665 L
231.024 162.665 L
233.524 160.849 L
234.479 157.91 L
S
GR
GS
0 0.2 0.4 RC
2 LJ
2 LW
N
260.5 133.9 M
259.545 130.961 L
257.045 129.145 L
253.955 129.145 L
251.455 130.961 L
250.5 133.9 L
251.455 136.839 L
253.955 138.655 L
257.045 138.655 L
259.545 136.839 L
260.5 133.9 L
S
GR
GS
0 0.2 0.4 RC
2 LJ
2 LW
N
282.8 109.89 M
281.845 106.951 L
279.345 105.135 L
276.255 105.135 L
273.755 106.951 L
272.8 109.89 L
273.755 112.829 L
276.255 114.645 L
279.345 114.645 L
281.845 112.829 L
282.8 109.89 L
S
GR
GS
0 0.2 0.4 RC
2 LJ
2 LW
N
297.452 85.88 M
296.497 82.941 L
293.997 81.125 L
290.907 81.125 L
288.407 82.941 L
287.452 85.88 L
288.407 88.819 L
290.907 90.635 L
293.997 90.635 L
296.497 88.819 L
297.452 85.88 L
S
GR
GS
0 0.2 0.4 RC
2 LJ
2 LW
N
368.149 61.87 M
367.195 58.931 L
364.695 57.115 L
361.604 57.115 L
359.104 58.931 L
358.149 61.87 L
359.104 64.809 L
361.604 66.625 L
364.695 66.625 L
367.195 64.809 L
368.149 61.87 L
S
GR
GS
0 0.2 0.4 RC
2 LJ
2 LW
N
372.681 31 M
371.726 28.061 L
369.226 26.245 L
366.136 26.245 L
363.636 28.061 L
362.681 31 L
363.636 33.939 L
366.136 35.755 L
369.226 35.755 L
371.726 33.939 L
372.681 31 L
S
GR
GS
0 0.2 0.4 RC
2 LJ
2 LW
N
124.63 374 M
123.675 371.061 L
121.175 369.245 L
118.085 369.245 L
115.585 371.061 L
114.63 374 L
115.585 376.939 L
118.085 378.755 L
121.175 378.755 L
123.675 376.939 L
124.63 374 L
S
GR
GS
0.8 0.6 0.2 RC
2 LJ
2 LW
N
143.229 374 M
143.229 370.57 L
161.465 367.14 L
166.767 363.71 L
171.362 360.28 L
172.336 356.85 L
178.57 353.42 L
191.972 349.99 L
192.907 346.56 L
197.613 343.13 L
199.084 339.7 L
200.067 336.27 L
200.331 332.84 L
208.241 329.41 L
208.548 325.98 L
210.15 322.55 L
210.592 319.12 L
212.394 315.69 L
212.984 312.26 L
215.661 308.83 L
215.906 305.4 L
215.936 301.97 L
216.359 298.54 L
218.451 295.11 L
219.364 291.68 L
220.364 288.25 L
222.781 284.82 L
222.842 281.39 L
223.938 277.96 L
224.83 274.53 L
224.924 271.1 L
225.652 267.67 L
228.54 264.24 L
229.344 260.81 L
231.47 257.38 L
231.973 253.95 L
236.289 250.52 L
236.817 247.09 L
238.303 243.66 L
239.16 240.23 L
241.26 236.8 L
241.577 233.37 L
242.214 229.94 L
242.783 226.51 L
244.432 223.08 L
244.988 219.65 L
245.24 216.22 L
245.346 212.79 L
245.827 209.36 L
246.65 205.93 L
S
GR
GS
0.8 0.6 0.2 RC
2 LJ
2 LW
N
246.65 205.93 M
250.177 202.5 L
250.343 199.07 L
252.386 195.64 L
253.655 192.21 L
254.05 188.78 L
254.091 185.35 L
257.337 181.92 L
257.923 178.49 L
259.016 175.06 L
259.574 171.63 L
262.261 168.2 L
262.626 164.77 L
262.981 161.34 L
264.565 157.91 L
266.595 154.48 L
272.932 151.05 L
277.816 147.62 L
277.846 144.19 L
277.857 140.76 L
279.671 137.33 L
284.861 133.9 L
284.895 130.47 L
293.674 127.04 L
296.409 123.61 L
297.543 120.18 L
309.608 116.75 L
333.475 113.32 L
337.108 109.89 L
342.189 106.46 L
354.277 103.03 L
363.09 99.6 L
363.12 96.17 L
363.167 92.74 L
363.193 89.31 L
363.205 82.45 L
363.217 79.02 L
363.248 75.59 L
363.256 72.16 L
363.29 65.3 L
367.521 61.87 L
367.681 58.44 L
390.792 55.01 L
413.587 51.58 L
435.11 44.72 L
476.72 41.29 L
482.595 34.43 L
482.67 31 L
S
GR
GS
0.8 0.6 0.2 RC
2 LJ
2 LW
N
138.229 374 M
148.229 374 L
S
GR
GS
0.8 0.6 0.2 RC
2 LJ
2 LW
N
143.229 379 M
143.229 369 L
S
GR
GS
0.8 0.6 0.2 RC
2 LJ
2 LW
N
139.694 377.536 M
146.765 370.464 L
S
GR
GS
0.8 0.6 0.2 RC
2 LJ
2 LW
N
139.694 370.464 M
146.765 377.536 L
S
GR
GS
0.8 0.6 0.2 RC
2 LJ
2 LW
N
186.972 349.99 M
196.972 349.99 L
S
GR
GS
0.8 0.6 0.2 RC
2 LJ
2 LW
N
191.972 354.99 M
191.972 344.99 L
S
GR
GS
0.8 0.6 0.2 RC
2 LJ
2 LW
N
188.437 353.526 M
195.508 346.454 L
S
GR
GS
0.8 0.6 0.2 RC
2 LJ
2 LW
N
188.437 346.454 M
195.508 353.526 L
S
GR
GS
0.8 0.6 0.2 RC
2 LJ
2 LW
N
203.548 325.98 M
213.548 325.98 L
S
GR
GS
0.8 0.6 0.2 RC
2 LJ
2 LW
N
208.548 330.98 M
208.548 320.98 L
S
GR
GS
0.8 0.6 0.2 RC
2 LJ
2 LW
N
205.012 329.516 M
212.083 322.444 L
S
GR
GS
0.8 0.6 0.2 RC
2 LJ
2 LW
N
205.012 322.444 M
212.083 329.516 L
S
GR
GS
0.8 0.6 0.2 RC
2 LJ
2 LW
N
210.936 301.97 M
220.936 301.97 L
S
GR
GS
0.8 0.6 0.2 RC
2 LJ
2 LW
N
215.936 306.97 M
215.936 296.97 L
S
GR
GS
0.8 0.6 0.2 RC
2 LJ
2 LW
N
212.401 305.506 M
219.472 298.434 L
S
GR
GS
0.8 0.6 0.2 RC
2 LJ
2 LW
N
212.401 298.434 M
219.472 305.506 L
S
GR
GS
0.8 0.6 0.2 RC
2 LJ
2 LW
N
217.842 281.39 M
227.842 281.39 L
S
GR
GS
0.8 0.6 0.2 RC
2 LJ
2 LW
N
222.842 286.39 M
222.842 276.39 L
S
GR
GS
0.8 0.6 0.2 RC
2 LJ
2 LW
N
219.307 284.926 M
226.378 277.854 L
S
GR
GS
0.8 0.6 0.2 RC
2 LJ
2 LW
N
219.307 277.854 M
226.378 284.926 L
S
GR
GS
0.8 0.6 0.2 RC
2 LJ
2 LW
N
226.47 257.38 M
236.47 257.38 L
S
GR
GS
0.8 0.6 0.2 RC
2 LJ
2 LW
N
231.47 262.38 M
231.47 252.38 L
S
GR
GS
0.8 0.6 0.2 RC
2 LJ
2 LW
N
227.934 260.916 M
235.005 253.844 L
S
GR
GS
0.8 0.6 0.2 RC
2 LJ
2 LW
N
227.934 253.844 M
235.005 260.916 L
S
GR
GS
0.8 0.6 0.2 RC
2 LJ
2 LW
N
236.577 233.37 M
246.577 233.37 L
S
GR
GS
0.8 0.6 0.2 RC
2 LJ
2 LW
N
241.577 238.37 M
241.577 228.37 L
S
GR
GS
0.8 0.6 0.2 RC
2 LJ
2 LW
N
238.042 236.906 M
245.113 229.834 L
S
GR
GS
0.8 0.6 0.2 RC
2 LJ
2 LW
N
238.042 229.834 M
245.113 236.906 L
S
GR
GS
0.8 0.6 0.2 RC
2 LJ
2 LW
N
240.827 209.36 M
250.827 209.36 L
S
GR
GS
0.8 0.6 0.2 RC
2 LJ
2 LW
N
245.827 214.36 M
245.827 204.36 L
S
GR
GS
0.8 0.6 0.2 RC
2 LJ
2 LW
N
242.291 212.896 M
249.362 205.824 L
S
GR
GS
0.8 0.6 0.2 RC
2 LJ
2 LW
N
242.291 205.824 M
249.362 212.896 L
S
GR
GS
0.8 0.6 0.2 RC
2 LJ
2 LW
N
249.091 185.35 M
259.091 185.35 L
S
GR
GS
0.8 0.6 0.2 RC
2 LJ
2 LW
N
254.091 190.35 M
254.091 180.35 L
S
GR
GS
0.8 0.6 0.2 RC
2 LJ
2 LW
N
250.556 188.886 M
257.627 181.814 L
S
GR
GS
0.8 0.6 0.2 RC
2 LJ
2 LW
N
250.556 181.814 M
257.627 188.886 L
S
GR
GS
0.8 0.6 0.2 RC
2 LJ
2 LW
N
257.981 161.34 M
267.981 161.34 L
S
GR
GS
0.8 0.6 0.2 RC
2 LJ
2 LW
N
262.981 166.34 M
262.981 156.34 L
S
GR
GS
0.8 0.6 0.2 RC
2 LJ
2 LW
N
259.446 164.876 M
266.517 157.804 L
S
GR
GS
0.8 0.6 0.2 RC
2 LJ
2 LW
N
259.446 157.804 M
266.517 164.876 L
S
GR
GS
0.8 0.6 0.2 RC
2 LJ
2 LW
N
274.671 137.33 M
284.671 137.33 L
S
GR
GS
0.8 0.6 0.2 RC
2 LJ
2 LW
N
279.671 142.33 M
279.671 132.33 L
S
GR
GS
0.8 0.6 0.2 RC
2 LJ
2 LW
N
276.136 140.866 M
283.207 133.794 L
S
GR
GS
0.8 0.6 0.2 RC
2 LJ
2 LW
N
276.136 133.794 M
283.207 140.866 L
S
GR
GS
0.8 0.6 0.2 RC
2 LJ
2 LW
N
304.608 116.75 M
314.608 116.75 L
S
GR
GS
0.8 0.6 0.2 RC
2 LJ
2 LW
N
309.608 121.75 M
309.608 111.75 L
S
GR
GS
0.8 0.6 0.2 RC
2 LJ
2 LW
N
306.073 120.286 M
313.144 113.214 L
S
GR
GS
0.8 0.6 0.2 RC
2 LJ
2 LW
N
306.073 113.214 M
313.144 120.286 L
S
GR
GS
0.8 0.6 0.2 RC
2 LJ
2 LW
N
358.167 92.74 M
368.167 92.74 L
S
GR
GS
0.8 0.6 0.2 RC
2 LJ
2 LW
N
363.167 97.74 M
363.167 87.74 L
S
GR
GS
0.8 0.6 0.2 RC
2 LJ
2 LW
N
359.631 96.276 M
366.702 89.204 L
S
GR
GS
0.8 0.6 0.2 RC
2 LJ
2 LW
N
359.631 89.204 M
366.702 96.276 L
S
GR
GS
0.8 0.6 0.2 RC
2 LJ
2 LW
N
362.521 61.87 M
372.521 61.87 L
S
GR
GS
0.8 0.6 0.2 RC
2 LJ
2 LW
N
367.521 66.87 M
367.521 56.87 L
S
GR
GS
0.8 0.6 0.2 RC
2 LJ
2 LW
N
363.985 65.406 M
371.056 58.334 L
S
GR
GS
0.8 0.6 0.2 RC
2 LJ
2 LW
N
363.985 58.334 M
371.056 65.406 L
S
GR
GS
0.8 0.6 0.2 RC
2 LJ
2 LW
N
477.67 31 M
487.67 31 L
S
GR
GS
0.8 0.6 0.2 RC
2 LJ
2 LW
N
482.67 36 M
482.67 26 L
S
GR
GS
0.8 0.6 0.2 RC
2 LJ
2 LW
N
479.134 34.536 M
486.205 27.464 L
S
GR
GS
0.8 0.6 0.2 RC
2 LJ
2 LW
N
479.134 27.464 M
486.205 34.536 L
S
GR
GS
0.8 0.6 0.2 RC
2 LJ
2 LW
N
138.229 374 M
148.229 374 L
S
GR
GS
0.8 0.6 0.2 RC
2 LJ
2 LW
N
143.229 379 M
143.229 369 L
S
GR
GS
0.8 0.6 0.2 RC
2 LJ
2 LW
N
139.694 377.536 M
146.765 370.464 L
S
GR
GS
0.8 0.6 0.2 RC
2 LJ
2 LW
N
139.694 370.464 M
146.765 377.536 L
S
GR
GS
1 GC
N
429 82 M
429 41 L
497 41 L
497 82 L
cp
f
GR
GS
[1 0 0 1 468 49] CT
/Helvetica-Bold 11 F
GS
[1 0 0 1 0 0] CT
0 3 moveto 
1 -1 scale
(3 dst) t 
GR
GR
GS
0.6 0 0 RC
2 setlinecap
10.0 ML
2 LW
N
435 49 M
465 49 L
S
GR
GS
0.6 0 0 RC
2 setlinecap
10.0 ML
2 LW
N
445.6 52.4 M
445.6 44.6 L
453.4 44.6 L
453.4 52.4 L
445.6 52.4 L
S
GR
GS
[1 0 0 1 468 61.5] CT
/Helvetica-Bold 11 F
GS
[1 0 0 1 0 0] CT
0 3 moveto 
1 -1 scale
(5 dst) t 
GR
GR
GS
0 0.2 0.4 RC
2 setlinecap
10.0 ML
2 LW
N
435 61.5 M
465 61.5 L
S
GR
GS
0 0.2 0.4 RC
2 setlinecap
10.0 ML
2 LW
N
454.5 61.5 M
453.545 58.561 L
451.045 56.745 L
447.955 56.745 L
445.455 58.561 L
444.5 61.5 L
445.455 64.439 L
447.955 66.255 L
451.045 66.255 L
453.545 64.439 L
454.5 61.5 L
S
GR
GS
[1 0 0 1 468 74] CT
/Helvetica-Bold 11 F
GS
[1 0 0 1 0 0] CT
0 3 moveto 
1 -1 scale
(7 dst) t 
GR
GR
GS
0.8 0.6 0.2 RC
2 setlinecap
10.0 ML
2 LW
N
435 74 M
465 74 L
S
GR
GS
0.8 0.6 0.2 RC
2 setlinecap
10.0 ML
2 LW
N
444 74.5 M
455 74.5 L
S
GR
GS
0.8 0.6 0.2 RC
2 setlinecap
10.0 ML
2 LW
N
449.5 80 M
449.5 69 L
S
GR
GS
0.8 0.6 0.2 RC
2 setlinecap
10.0 ML
2 LW
N
445 79 M
454 70 L
S
GR
GS
0.8 0.6 0.2 RC
2 setlinecap
10.0 ML
2 LW
N
445 70 M
454 79 L
S
GR
GS
0.149 GC
2 setlinecap
10.0 ML
N
429 82 M
429 41 L
497 41 L
497 82 L
429 82 L
S
GR
%%Trailer
%%Pages: 1
%%EOF
