%!PS-Adobe-3.0 EPSF-3.0
%%Creator: (MATLAB, The Mathworks, Inc. Version 8.5.0.197613 \(R2015a\). Operating System: Mac OS X)
%%Title: /Users/ashwinyakkundimath/Documents/Thesis_Results/plots/switching/broadcast-networks.eps
%%CreationDate: 2016-01-03T00:26:17
%%Pages: (atend)
%%BoundingBox: 0 0 560 420
%%LanguageLevel: 2
%%EndComments
%%BeginProlog
%%BeginResource: procset (Apache XML Graphics Std ProcSet) 1.2 0
%%Version: 1.2 0
%%Copyright: (Copyright 2001-2003,2010 The Apache Software Foundation. License terms: http://www.apache.org/licenses/LICENSE-2.0)
/bd{bind def}bind def
/ld{load def}bd
/GR/grestore ld
/M/moveto ld
/LJ/setlinejoin ld
/C/curveto ld
/f/fill ld
/LW/setlinewidth ld
/GC/setgray ld
/t/show ld
/N/newpath ld
/CT/concat ld
/cp/closepath ld
/S/stroke ld
/L/lineto ld
/CC/setcmykcolor ld
/A/ashow ld
/GS/gsave ld
/RC/setrgbcolor ld
/RM/rmoveto ld
/ML/setmiterlimit ld
/re {4 2 roll M
1 index 0 rlineto
0 exch rlineto
neg 0 rlineto
cp } bd
/_ctm matrix def
/_tm matrix def
/BT { _ctm currentmatrix pop matrix _tm copy pop 0 0 moveto } bd
/ET { _ctm setmatrix } bd
/iTm { _ctm setmatrix _tm concat } bd
/Tm { _tm astore pop iTm 0 0 moveto } bd
/ux 0.0 def
/uy 0.0 def
/F {
  /Tp exch def
  /Tf exch def
  Tf findfont Tp scalefont setfont
  /cf Tf def  /cs Tp def
} bd
/ULS {currentpoint /uy exch def /ux exch def} bd
/ULE {
  /Tcx currentpoint pop def
  gsave
  newpath
  cf findfont cs scalefont dup
  /FontMatrix get 0 get /Ts exch def /FontInfo get dup
  /UnderlinePosition get Ts mul /To exch def
  /UnderlineThickness get Ts mul /Tt exch def
  ux uy To add moveto  Tcx uy To add lineto
  Tt setlinewidth stroke
  grestore
} bd
/OLE {
  /Tcx currentpoint pop def
  gsave
  newpath
  cf findfont cs scalefont dup
  /FontMatrix get 0 get /Ts exch def /FontInfo get dup
  /UnderlinePosition get Ts mul /To exch def
  /UnderlineThickness get Ts mul /Tt exch def
  ux uy To add cs add moveto Tcx uy To add cs add lineto
  Tt setlinewidth stroke
  grestore
} bd
/SOE {
  /Tcx currentpoint pop def
  gsave
  newpath
  cf findfont cs scalefont dup
  /FontMatrix get 0 get /Ts exch def /FontInfo get dup
  /UnderlinePosition get Ts mul /To exch def
  /UnderlineThickness get Ts mul /Tt exch def
  ux uy To add cs 10 mul 26 idiv add moveto Tcx uy To add cs 10 mul 26 idiv add lineto
  Tt setlinewidth stroke
  grestore
} bd
/QT {
/Y22 exch store
/X22 exch store
/Y21 exch store
/X21 exch store
currentpoint
/Y21 load 2 mul add 3 div exch
/X21 load 2 mul add 3 div exch
/X21 load 2 mul /X22 load add 3 div
/Y21 load 2 mul /Y22 load add 3 div
/X22 load /Y22 load curveto
} bd
/SSPD {
dup length /d exch dict def
{
/v exch def
/k exch def
currentpagedevice k known {
/cpdv currentpagedevice k get def
v cpdv ne {
/upd false def
/nullv v type /nulltype eq def
/nullcpdv cpdv type /nulltype eq def
nullv nullcpdv or
{
/upd true def
} {
/sametype v type cpdv type eq def
sametype {
v type /arraytype eq {
/vlen v length def
/cpdvlen cpdv length def
vlen cpdvlen eq {
0 1 vlen 1 sub {
/i exch def
/obj v i get def
/cpdobj cpdv i get def
obj cpdobj ne {
/upd true def
exit
} if
} for
} {
/upd true def
} ifelse
} {
v type /dicttype eq {
v {
/dv exch def
/dk exch def
/cpddv cpdv dk get def
dv cpddv ne {
/upd true def
exit
} if
} forall
} {
/upd true def
} ifelse
} ifelse
} if
} ifelse
upd true eq {
d k v put
} if
} if
} if
} forall
d length 0 gt {
d setpagedevice
} if
} bd
%%EndResource
%%BeginResource: procset (Apache XML Graphics EPS ProcSet) 1.0 0
%%Version: 1.0 0
%%Copyright: (Copyright 2002-2003 The Apache Software Foundation. License terms: http://www.apache.org/licenses/LICENSE-2.0)
/BeginEPSF { %def
/b4_Inc_state save def         % Save state for cleanup
/dict_count countdictstack def % Count objects on dict stack
/op_count count 1 sub def      % Count objects on operand stack
userdict begin                 % Push userdict on dict stack
/showpage { } def              % Redefine showpage, { } = null proc
0 setgray 0 setlinecap         % Prepare graphics state
1 setlinewidth 0 setlinejoin
10 setmiterlimit [ ] 0 setdash newpath
/languagelevel where           % If level not equal to 1 then
{pop languagelevel             % set strokeadjust and
1 ne                           % overprint to their defaults.
{false setstrokeadjust false setoverprint
} if
} if
} bd
/EndEPSF { %def
count op_count sub {pop} repeat            % Clean up stacks
countdictstack dict_count sub {end} repeat
b4_Inc_state restore
} bd
%%EndResource
%FOPBeginFontDict
%%IncludeResource: font Courier-Bold
%%IncludeResource: font Helvetica
%%IncludeResource: font Courier-BoldOblique
%%IncludeResource: font Courier-Oblique
%%IncludeResource: font Times-Roman
%%IncludeResource: font Helvetica-BoldOblique
%%IncludeResource: font Helvetica-Bold
%%IncludeResource: font Helvetica-Oblique
%%IncludeResource: font Times-BoldItalic
%%IncludeResource: font Courier
%%IncludeResource: font Times-Italic
%%IncludeResource: font Times-Bold
%%IncludeResource: font Symbol
%%IncludeResource: font ZapfDingbats
%FOPEndFontDict
%%BeginResource: encoding WinAnsiEncoding
/WinAnsiEncoding [
/.notdef /.notdef /.notdef /.notdef /.notdef
/.notdef /.notdef /.notdef /.notdef /.notdef
/.notdef /.notdef /.notdef /.notdef /.notdef
/.notdef /.notdef /.notdef /.notdef /.notdef
/.notdef /.notdef /.notdef /.notdef /.notdef
/.notdef /.notdef /.notdef /.notdef /.notdef
/.notdef /.notdef /space /exclam /quotedbl
/numbersign /dollar /percent /ampersand /quotesingle
/parenleft /parenright /asterisk /plus /comma
/hyphen /period /slash /zero /one
/two /three /four /five /six
/seven /eight /nine /colon /semicolon
/less /equal /greater /question /at
/A /B /C /D /E
/F /G /H /I /J
/K /L /M /N /O
/P /Q /R /S /T
/U /V /W /X /Y
/Z /bracketleft /backslash /bracketright /asciicircum
/underscore /quoteleft /a /b /c
/d /e /f /g /h
/i /j /k /l /m
/n /o /p /q /r
/s /t /u /v /w
/x /y /z /braceleft /bar
/braceright /asciitilde /bullet /Euro /bullet
/quotesinglbase /florin /quotedblbase /ellipsis /dagger
/daggerdbl /circumflex /perthousand /Scaron /guilsinglleft
/OE /bullet /Zcaron /bullet /bullet
/quoteleft /quoteright /quotedblleft /quotedblright /bullet
/endash /emdash /asciitilde /trademark /scaron
/guilsinglright /oe /bullet /zcaron /Ydieresis
/space /exclamdown /cent /sterling /currency
/yen /brokenbar /section /dieresis /copyright
/ordfeminine /guillemotleft /logicalnot /sfthyphen /registered
/macron /degree /plusminus /twosuperior /threesuperior
/acute /mu /paragraph /middot /cedilla
/onesuperior /ordmasculine /guillemotright /onequarter /onehalf
/threequarters /questiondown /Agrave /Aacute /Acircumflex
/Atilde /Adieresis /Aring /AE /Ccedilla
/Egrave /Eacute /Ecircumflex /Edieresis /Igrave
/Iacute /Icircumflex /Idieresis /Eth /Ntilde
/Ograve /Oacute /Ocircumflex /Otilde /Odieresis
/multiply /Oslash /Ugrave /Uacute /Ucircumflex
/Udieresis /Yacute /Thorn /germandbls /agrave
/aacute /acircumflex /atilde /adieresis /aring
/ae /ccedilla /egrave /eacute /ecircumflex
/edieresis /igrave /iacute /icircumflex /idieresis
/eth /ntilde /ograve /oacute /ocircumflex
/otilde /odieresis /divide /oslash /ugrave
/uacute /ucircumflex /udieresis /yacute /thorn
/ydieresis
] def
%%EndResource
%FOPBeginFontReencode
/Courier-Bold findfont
dup length dict begin
  {1 index /FID ne {def} {pop pop} ifelse} forall
  /Encoding WinAnsiEncoding def
  currentdict
end
/Courier-Bold exch definefont pop
/Helvetica findfont
dup length dict begin
  {1 index /FID ne {def} {pop pop} ifelse} forall
  /Encoding WinAnsiEncoding def
  currentdict
end
/Helvetica exch definefont pop
/Courier-BoldOblique findfont
dup length dict begin
  {1 index /FID ne {def} {pop pop} ifelse} forall
  /Encoding WinAnsiEncoding def
  currentdict
end
/Courier-BoldOblique exch definefont pop
/Courier-Oblique findfont
dup length dict begin
  {1 index /FID ne {def} {pop pop} ifelse} forall
  /Encoding WinAnsiEncoding def
  currentdict
end
/Courier-Oblique exch definefont pop
/Times-Roman findfont
dup length dict begin
  {1 index /FID ne {def} {pop pop} ifelse} forall
  /Encoding WinAnsiEncoding def
  currentdict
end
/Times-Roman exch definefont pop
/Helvetica-BoldOblique findfont
dup length dict begin
  {1 index /FID ne {def} {pop pop} ifelse} forall
  /Encoding WinAnsiEncoding def
  currentdict
end
/Helvetica-BoldOblique exch definefont pop
/Helvetica-Bold findfont
dup length dict begin
  {1 index /FID ne {def} {pop pop} ifelse} forall
  /Encoding WinAnsiEncoding def
  currentdict
end
/Helvetica-Bold exch definefont pop
/Helvetica-Oblique findfont
dup length dict begin
  {1 index /FID ne {def} {pop pop} ifelse} forall
  /Encoding WinAnsiEncoding def
  currentdict
end
/Helvetica-Oblique exch definefont pop
/Times-BoldItalic findfont
dup length dict begin
  {1 index /FID ne {def} {pop pop} ifelse} forall
  /Encoding WinAnsiEncoding def
  currentdict
end
/Times-BoldItalic exch definefont pop
/Courier findfont
dup length dict begin
  {1 index /FID ne {def} {pop pop} ifelse} forall
  /Encoding WinAnsiEncoding def
  currentdict
end
/Courier exch definefont pop
/Times-Italic findfont
dup length dict begin
  {1 index /FID ne {def} {pop pop} ifelse} forall
  /Encoding WinAnsiEncoding def
  currentdict
end
/Times-Italic exch definefont pop
/Times-Bold findfont
dup length dict begin
  {1 index /FID ne {def} {pop pop} ifelse} forall
  /Encoding WinAnsiEncoding def
  currentdict
end
/Times-Bold exch definefont pop
%FOPEndFontReencode
%%EndProlog
%%Page: 1 1
%%PageBoundingBox: 0 0 560 420
%%BeginPageSetup
[1 0 0 -1 0 420] CT
%%EndPageSetup
GS
1 GC
N
0 0 560 420 re
f
GR
GS
1 GC
N
0 0 560 420 re
f
GR
GS
1 GC
N
73 175 M
507 175 L
507 31 L
73 31 L
cp
f
GR
GS
0.873 GC
2 setlinecap
10.0 ML
N
73 175 M
73 31 L
S
GR
GS
0.873 GC
2 setlinecap
10.0 ML
N
127.25 175 M
127.25 31 L
S
GR
GS
0.873 GC
2 setlinecap
10.0 ML
N
181.5 175 M
181.5 31 L
S
GR
GS
0.873 GC
2 setlinecap
10.0 ML
N
235.75 175 M
235.75 31 L
S
GR
GS
0.873 GC
2 setlinecap
10.0 ML
N
290 175 M
290 31 L
S
GR
GS
0.873 GC
2 setlinecap
10.0 ML
N
344.25 175 M
344.25 31 L
S
GR
GS
0.873 GC
2 setlinecap
10.0 ML
N
398.5 175 M
398.5 31 L
S
GR
GS
0.873 GC
2 setlinecap
10.0 ML
N
452.75 175 M
452.75 31 L
S
GR
GS
0.873 GC
2 setlinecap
10.0 ML
N
507 175 M
507 31 L
S
GR
GS
0.873 GC
2 setlinecap
10.0 ML
N
507 175 M
73 175 L
S
GR
GS
0.873 GC
2 setlinecap
10.0 ML
N
507 154.429 M
73 154.429 L
S
GR
GS
0.873 GC
2 setlinecap
10.0 ML
N
507 133.857 M
73 133.857 L
S
GR
GS
0.873 GC
2 setlinecap
10.0 ML
N
507 113.286 M
73 113.286 L
S
GR
GS
0.873 GC
2 setlinecap
10.0 ML
N
507 92.714 M
73 92.714 L
S
GR
GS
0.873 GC
2 setlinecap
10.0 ML
N
507 72.143 M
73 72.143 L
S
GR
GS
0.873 GC
2 setlinecap
10.0 ML
N
507 51.571 M
73 51.571 L
S
GR
GS
0.873 GC
2 setlinecap
10.0 ML
N
507 31 M
73 31 L
S
GR
GS
[1 0 0 1 290.00021 191] CT
0.149 GC
/Helvetica-Bold 11 F
GS
[1 0 0 1 0 0] CT
-53 9 moveto 
1 -1 scale
(No of transmissions) t 
GR
GR
GS
0.149 GC
2 setlinecap
10.0 ML
N
73 175 M
507 175 L
S
GR
GS
0.149 GC
2 setlinecap
10.0 ML
N
73 31 M
507 31 L
S
GR
GS
0.149 GC
2 setlinecap
10.0 ML
N
73 175 M
73 170.66 L
S
GR
GS
0.149 GC
2 setlinecap
10.0 ML
N
127.25 175 M
127.25 170.66 L
S
GR
GS
0.149 GC
2 setlinecap
10.0 ML
N
181.5 175 M
181.5 170.66 L
S
GR
GS
0.149 GC
2 setlinecap
10.0 ML
N
235.75 175 M
235.75 170.66 L
S
GR
GS
0.149 GC
2 setlinecap
10.0 ML
N
290 175 M
290 170.66 L
S
GR
GS
0.149 GC
2 setlinecap
10.0 ML
N
344.25 175 M
344.25 170.66 L
S
GR
GS
0.149 GC
2 setlinecap
10.0 ML
N
398.5 175 M
398.5 170.66 L
S
GR
GS
0.149 GC
2 setlinecap
10.0 ML
N
452.75 175 M
452.75 170.66 L
S
GR
GS
0.149 GC
2 setlinecap
10.0 ML
N
507 175 M
507 170.66 L
S
GR
GS
0.149 GC
2 setlinecap
10.0 ML
N
73 31 M
73 35.34 L
S
GR
GS
0.149 GC
2 setlinecap
10.0 ML
N
127.25 31 M
127.25 35.34 L
S
GR
GS
0.149 GC
2 setlinecap
10.0 ML
N
181.5 31 M
181.5 35.34 L
S
GR
GS
0.149 GC
2 setlinecap
10.0 ML
N
235.75 31 M
235.75 35.34 L
S
GR
GS
0.149 GC
2 setlinecap
10.0 ML
N
290 31 M
290 35.34 L
S
GR
GS
0.149 GC
2 setlinecap
10.0 ML
N
344.25 31 M
344.25 35.34 L
S
GR
GS
0.149 GC
2 setlinecap
10.0 ML
N
398.5 31 M
398.5 35.34 L
S
GR
GS
0.149 GC
2 setlinecap
10.0 ML
N
452.75 31 M
452.75 35.34 L
S
GR
GS
0.149 GC
2 setlinecap
10.0 ML
N
507 31 M
507 35.34 L
S
GR
GS
[1 0 0 1 73 179] CT
0.149 GC
/Helvetica-Bold 10 F
GS
[1 0 0 1 0 0] CT
-3 8 moveto 
1 -1 scale
(0) t 
GR
GR
GS
[1 0 0 1 127.25 179] CT
0.149 GC
/Helvetica-Bold 10 F
GS
[1 0 0 1 0 0] CT
-6 8 moveto 
1 -1 scale
(10) t 
GR
GR
GS
[1 0 0 1 181.5 179] CT
0.149 GC
/Helvetica-Bold 10 F
GS
[1 0 0 1 0 0] CT
-6 8 moveto 
1 -1 scale
(20) t 
GR
GR
GS
[1 0 0 1 235.75 179] CT
0.149 GC
/Helvetica-Bold 10 F
GS
[1 0 0 1 0 0] CT
-6 8 moveto 
1 -1 scale
(30) t 
GR
GR
GS
[1 0 0 1 290 179] CT
0.149 GC
/Helvetica-Bold 10 F
GS
[1 0 0 1 0 0] CT
-6 8 moveto 
1 -1 scale
(40) t 
GR
GR
GS
[1 0 0 1 344.25 179] CT
0.149 GC
/Helvetica-Bold 10 F
GS
[1 0 0 1 0 0] CT
-6 8 moveto 
1 -1 scale
(50) t 
GR
GR
GS
[1 0 0 1 398.5 179] CT
0.149 GC
/Helvetica-Bold 10 F
GS
[1 0 0 1 0 0] CT
-6 8 moveto 
1 -1 scale
(60) t 
GR
GR
GS
[1 0 0 1 452.75 179] CT
0.149 GC
/Helvetica-Bold 10 F
GS
[1 0 0 1 0 0] CT
-6 8 moveto 
1 -1 scale
(70) t 
GR
GR
GS
[1 0 0 1 507 179] CT
0.149 GC
/Helvetica-Bold 10 F
GS
[1 0 0 1 0 0] CT
-6 8 moveto 
1 -1 scale
(80) t 
GR
GR
GS
[0 -1 1 0 46 102.99993] CT
0.149 GC
/Helvetica-Bold 11 F
GS
[1 0 0 1 0 0] CT
-52 -3 moveto 
1 -1 scale
(System Throughput) t 
GR
GR
GS
0.149 GC
2 setlinecap
10.0 ML
N
73 175 M
73 31 L
S
GR
GS
0.149 GC
2 setlinecap
10.0 ML
N
507 175 M
507 31 L
S
GR
GS
0.149 GC
2 setlinecap
10.0 ML
N
73 175 M
77.34 175 L
S
GR
GS
0.149 GC
2 setlinecap
10.0 ML
N
73 154.429 M
77.34 154.429 L
S
GR
GS
0.149 GC
2 setlinecap
10.0 ML
N
73 133.857 M
77.34 133.857 L
S
GR
GS
0.149 GC
2 setlinecap
10.0 ML
N
73 113.286 M
77.34 113.286 L
S
GR
GS
0.149 GC
2 setlinecap
10.0 ML
N
73 92.714 M
77.34 92.714 L
S
GR
GS
0.149 GC
2 setlinecap
10.0 ML
N
73 72.143 M
77.34 72.143 L
S
GR
GS
0.149 GC
2 setlinecap
10.0 ML
N
73 51.571 M
77.34 51.571 L
S
GR
GS
0.149 GC
2 setlinecap
10.0 ML
N
73 31 M
77.34 31 L
S
GR
GS
0.149 GC
2 setlinecap
10.0 ML
N
507 175 M
502.66 175 L
S
GR
GS
0.149 GC
2 setlinecap
10.0 ML
N
507 154.429 M
502.66 154.429 L
S
GR
GS
0.149 GC
2 setlinecap
10.0 ML
N
507 133.857 M
502.66 133.857 L
S
GR
GS
0.149 GC
2 setlinecap
10.0 ML
N
507 113.286 M
502.66 113.286 L
S
GR
GS
0.149 GC
2 setlinecap
10.0 ML
N
507 92.714 M
502.66 92.714 L
S
GR
GS
0.149 GC
2 setlinecap
10.0 ML
N
507 72.143 M
502.66 72.143 L
S
GR
GS
0.149 GC
2 setlinecap
10.0 ML
N
507 51.571 M
502.66 51.571 L
S
GR
GS
0.149 GC
2 setlinecap
10.0 ML
N
507 31 M
502.66 31 L
S
GR
GS
[1 0 0 1 69 175] CT
0.149 GC
/Helvetica-Bold 10 F
GS
[1 0 0 1 0 0] CT
-6 2.5 moveto 
1 -1 scale
(0) t 
GR
GR
GS
[1 0 0 1 69 154.42857] CT
0.149 GC
/Helvetica-Bold 10 F
GS
[1 0 0 1 0 0] CT
-20 2.5 moveto 
1 -1 scale
(0.05) t 
GR
GR
GS
[1 0 0 1 69 133.85715] CT
0.149 GC
/Helvetica-Bold 10 F
GS
[1 0 0 1 0 0] CT
-14 2.5 moveto 
1 -1 scale
(0.1) t 
GR
GR
GS
[1 0 0 1 69 113.28571] CT
0.149 GC
/Helvetica-Bold 10 F
GS
[1 0 0 1 0 0] CT
-20 2.5 moveto 
1 -1 scale
(0.15) t 
GR
GR
GS
[1 0 0 1 69 92.71429] CT
0.149 GC
/Helvetica-Bold 10 F
GS
[1 0 0 1 0 0] CT
-14 2.5 moveto 
1 -1 scale
(0.2) t 
GR
GR
GS
[1 0 0 1 69 72.14286] CT
0.149 GC
/Helvetica-Bold 10 F
GS
[1 0 0 1 0 0] CT
-20 2.5 moveto 
1 -1 scale
(0.25) t 
GR
GR
GS
[1 0 0 1 69 51.57142] CT
0.149 GC
/Helvetica-Bold 10 F
GS
[1 0 0 1 0 0] CT
-14 2.5 moveto 
1 -1 scale
(0.3) t 
GR
GR
GS
[1 0 0 1 69 31] CT
0.149 GC
/Helvetica-Bold 10 F
GS
[1 0 0 1 0 0] CT
-20 2.5 moveto 
1 -1 scale
(0.35) t 
GR
GR
GS
0 1 0 RC
2 LJ
2 LW
N
78.425 87.573 M
83.85 87.573 L
89.275 87.573 L
94.7 87.573 L
100.125 87.573 L
105.55 87.573 L
110.975 87.573 L
116.4 87.573 L
121.825 89.884 L
127.25 89.884 L
132.675 113.828 L
138.1 113.828 L
143.525 113.828 L
148.95 114.547 L
154.375 115.978 L
159.8 153.812 L
165.225 153.812 L
170.65 153.812 L
176.075 155.636 L
181.5 159.488 L
186.925 163.216 L
192.35 164.209 L
197.775 164.209 L
203.2 164.209 L
208.625 164.209 L
214.05 164.736 L
219.475 165.443 L
224.9 165.779 L
230.325 168.756 L
235.75 174.525 L
241.175 174.525 L
246.6 174.525 L
252.025 174.525 L
257.45 174.825 L
262.875 174.825 L
268.3 174.825 L
273.725 174.825 L
279.15 174.825 L
284.575 174.825 L
290 174.825 L
295.425 174.825 L
300.85 174.825 L
306.275 174.825 L
311.7 174.825 L
317.125 174.825 L
322.55 174.825 L
327.975 174.825 L
333.4 174.825 L
338.825 174.825 L
344.25 174.825 L
S
GR
GS
0 1 0 RC
2 LJ
2 LW
N
344.25 174.825 M
349.675 174.825 L
355.1 174.825 L
360.525 174.825 L
365.95 174.825 L
371.375 174.825 L
376.8 174.825 L
382.225 174.825 L
387.65 174.825 L
393.075 175 L
398.5 175 L
403.925 175 L
409.35 175 L
414.775 175 L
420.2 175 L
425.625 175 L
431.05 175 L
436.475 175 L
441.9 175 L
447.325 175 L
452.75 175 L
458.175 175 L
463.6 175 L
S
GR
GS
0 1 0 RC
2 LJ
2 LW
N
75 87.5 M
82 87.5 L
S
GR
GS
0 1 0 RC
2 LJ
2 LW
N
78.5 91 M
78.5 84 L
S
GR
GS
0 1 0 RC
2 LJ
2 LW
N
80 87.5 M
87 87.5 L
S
GR
GS
0 1 0 RC
2 LJ
2 LW
N
83.5 91 M
83.5 84 L
S
GR
GS
0 1 0 RC
2 LJ
2 LW
N
86 87.5 M
93 87.5 L
S
GR
GS
0 1 0 RC
2 LJ
2 LW
N
89.5 91 M
89.5 84 L
S
GR
GS
0 1 0 RC
2 LJ
2 LW
N
91 87.5 M
98 87.5 L
S
GR
GS
0 1 0 RC
2 LJ
2 LW
N
94.5 91 M
94.5 84 L
S
GR
GS
0 1 0 RC
2 LJ
2 LW
N
97 87.5 M
104 87.5 L
S
GR
GS
0 1 0 RC
2 LJ
2 LW
N
100.5 91 M
100.5 84 L
S
GR
GS
0 1 0 RC
2 LJ
2 LW
N
102 87.5 M
109 87.5 L
S
GR
GS
0 1 0 RC
2 LJ
2 LW
N
105.5 91 M
105.5 84 L
S
GR
GS
0 1 0 RC
2 LJ
2 LW
N
107 87.5 M
114 87.5 L
S
GR
GS
0 1 0 RC
2 LJ
2 LW
N
110.5 91 M
110.5 84 L
S
GR
GS
0 1 0 RC
2 LJ
2 LW
N
113 87.5 M
120 87.5 L
S
GR
GS
0 1 0 RC
2 LJ
2 LW
N
116.5 91 M
116.5 84 L
S
GR
GS
0 1 0 RC
2 LJ
2 LW
N
118 89.5 M
125 89.5 L
S
GR
GS
0 1 0 RC
2 LJ
2 LW
N
121.5 93 M
121.5 86 L
S
GR
GS
0 1 0 RC
2 LJ
2 LW
N
124 89.5 M
131 89.5 L
S
GR
GS
0 1 0 RC
2 LJ
2 LW
N
127.5 93 M
127.5 86 L
S
GR
GS
0 1 0 RC
2 LJ
2 LW
N
129 113.5 M
136 113.5 L
S
GR
GS
0 1 0 RC
2 LJ
2 LW
N
132.5 117 M
132.5 110 L
S
GR
GS
0 1 0 RC
2 LJ
2 LW
N
135 113.5 M
142 113.5 L
S
GR
GS
0 1 0 RC
2 LJ
2 LW
N
138.5 117 M
138.5 110 L
S
GR
GS
0 1 0 RC
2 LJ
2 LW
N
140 113.5 M
147 113.5 L
S
GR
GS
0 1 0 RC
2 LJ
2 LW
N
143.5 117 M
143.5 110 L
S
GR
GS
0 1 0 RC
2 LJ
2 LW
N
145 114.5 M
152 114.5 L
S
GR
GS
0 1 0 RC
2 LJ
2 LW
N
148.5 118 M
148.5 111 L
S
GR
GS
0 1 0 RC
2 LJ
2 LW
N
151 115.5 M
158 115.5 L
S
GR
GS
0 1 0 RC
2 LJ
2 LW
N
154.5 119 M
154.5 112 L
S
GR
GS
0 1 0 RC
2 LJ
2 LW
N
156 153.5 M
163 153.5 L
S
GR
GS
0 1 0 RC
2 LJ
2 LW
N
159.5 157 M
159.5 150 L
S
GR
GS
0 1 0 RC
2 LJ
2 LW
N
162 153.5 M
169 153.5 L
S
GR
GS
0 1 0 RC
2 LJ
2 LW
N
165.5 157 M
165.5 150 L
S
GR
GS
0 1 0 RC
2 LJ
2 LW
N
167 153.5 M
174 153.5 L
S
GR
GS
0 1 0 RC
2 LJ
2 LW
N
170.5 157 M
170.5 150 L
S
GR
GS
0 1 0 RC
2 LJ
2 LW
N
173 155.5 M
180 155.5 L
S
GR
GS
0 1 0 RC
2 LJ
2 LW
N
176.5 159 M
176.5 152 L
S
GR
GS
0 1 0 RC
2 LJ
2 LW
N
178 159.5 M
185 159.5 L
S
GR
GS
0 1 0 RC
2 LJ
2 LW
N
181.5 163 M
181.5 156 L
S
GR
GS
0 1 0 RC
2 LJ
2 LW
N
183 163.5 M
190 163.5 L
S
GR
GS
0 1 0 RC
2 LJ
2 LW
N
186.5 167 M
186.5 160 L
S
GR
GS
0 1 0 RC
2 LJ
2 LW
N
189 164.5 M
196 164.5 L
S
GR
GS
0 1 0 RC
2 LJ
2 LW
N
192.5 168 M
192.5 161 L
S
GR
GS
0 1 0 RC
2 LJ
2 LW
N
194 164.5 M
201 164.5 L
S
GR
GS
0 1 0 RC
2 LJ
2 LW
N
197.5 168 M
197.5 161 L
S
GR
GS
0 1 0 RC
2 LJ
2 LW
N
200 164.5 M
207 164.5 L
S
GR
GS
0 1 0 RC
2 LJ
2 LW
N
203.5 168 M
203.5 161 L
S
GR
GS
0 1 0 RC
2 LJ
2 LW
N
205 164.5 M
212 164.5 L
S
GR
GS
0 1 0 RC
2 LJ
2 LW
N
208.5 168 M
208.5 161 L
S
GR
GS
0 1 0 RC
2 LJ
2 LW
N
211 164.5 M
218 164.5 L
S
GR
GS
0 1 0 RC
2 LJ
2 LW
N
214.5 168 M
214.5 161 L
S
GR
GS
0 1 0 RC
2 LJ
2 LW
N
216 165.5 M
223 165.5 L
S
GR
GS
0 1 0 RC
2 LJ
2 LW
N
219.5 169 M
219.5 162 L
S
GR
GS
0 1 0 RC
2 LJ
2 LW
N
221 165.5 M
228 165.5 L
S
GR
GS
0 1 0 RC
2 LJ
2 LW
N
224.5 169 M
224.5 162 L
S
GR
GS
0 1 0 RC
2 LJ
2 LW
N
227 168.5 M
234 168.5 L
S
GR
GS
0 1 0 RC
2 LJ
2 LW
N
230.5 172 M
230.5 165 L
S
GR
GS
0 1 0 RC
2 LJ
2 LW
N
232 174.5 M
239 174.5 L
S
GR
GS
0 1 0 RC
2 LJ
2 LW
N
235.5 178 M
235.5 171 L
S
GR
GS
0 1 0 RC
2 LJ
2 LW
N
238 174.5 M
245 174.5 L
S
GR
GS
0 1 0 RC
2 LJ
2 LW
N
241.5 178 M
241.5 171 L
S
GR
GS
0 1 0 RC
2 LJ
2 LW
N
243 174.5 M
250 174.5 L
S
GR
GS
0 1 0 RC
2 LJ
2 LW
N
246.5 178 M
246.5 171 L
S
GR
GS
0 1 0 RC
2 LJ
2 LW
N
249 174.5 M
256 174.5 L
S
GR
GS
0 1 0 RC
2 LJ
2 LW
N
252.5 178 M
252.5 171 L
S
GR
GS
0 1 0 RC
2 LJ
2 LW
N
254 174.5 M
261 174.5 L
S
GR
GS
0 1 0 RC
2 LJ
2 LW
N
257.5 178 M
257.5 171 L
S
GR
GS
0 1 0 RC
2 LJ
2 LW
N
259 174.5 M
266 174.5 L
S
GR
GS
0 1 0 RC
2 LJ
2 LW
N
262.5 178 M
262.5 171 L
S
GR
GS
0 1 0 RC
2 LJ
2 LW
N
265 174.5 M
272 174.5 L
S
GR
GS
0 1 0 RC
2 LJ
2 LW
N
268.5 178 M
268.5 171 L
S
GR
GS
0 1 0 RC
2 LJ
2 LW
N
270 174.5 M
277 174.5 L
S
GR
GS
0 1 0 RC
2 LJ
2 LW
N
273.5 178 M
273.5 171 L
S
GR
GS
0 1 0 RC
2 LJ
2 LW
N
276 174.5 M
283 174.5 L
S
GR
GS
0 1 0 RC
2 LJ
2 LW
N
279.5 178 M
279.5 171 L
S
GR
GS
0 1 0 RC
2 LJ
2 LW
N
281 174.5 M
288 174.5 L
S
GR
GS
0 1 0 RC
2 LJ
2 LW
N
284.5 178 M
284.5 171 L
S
GR
GS
0 1 0 RC
2 LJ
2 LW
N
287 174.5 M
294 174.5 L
S
GR
GS
0 1 0 RC
2 LJ
2 LW
N
290.5 178 M
290.5 171 L
S
GR
GS
0 1 0 RC
2 LJ
2 LW
N
292 174.5 M
299 174.5 L
S
GR
GS
0 1 0 RC
2 LJ
2 LW
N
295.5 178 M
295.5 171 L
S
GR
GS
0 1 0 RC
2 LJ
2 LW
N
297 174.5 M
304 174.5 L
S
GR
GS
0 1 0 RC
2 LJ
2 LW
N
300.5 178 M
300.5 171 L
S
GR
GS
0 1 0 RC
2 LJ
2 LW
N
303 174.5 M
310 174.5 L
S
GR
GS
0 1 0 RC
2 LJ
2 LW
N
306.5 178 M
306.5 171 L
S
GR
GS
0 1 0 RC
2 LJ
2 LW
N
308 174.5 M
315 174.5 L
S
GR
GS
0 1 0 RC
2 LJ
2 LW
N
311.5 178 M
311.5 171 L
S
GR
GS
0 1 0 RC
2 LJ
2 LW
N
314 174.5 M
321 174.5 L
S
GR
GS
0 1 0 RC
2 LJ
2 LW
N
317.5 178 M
317.5 171 L
S
GR
GS
0 1 0 RC
2 LJ
2 LW
N
319 174.5 M
326 174.5 L
S
GR
GS
0 1 0 RC
2 LJ
2 LW
N
322.5 178 M
322.5 171 L
S
GR
GS
0 1 0 RC
2 LJ
2 LW
N
324 174.5 M
331 174.5 L
S
GR
GS
0 1 0 RC
2 LJ
2 LW
N
327.5 178 M
327.5 171 L
S
GR
GS
0 1 0 RC
2 LJ
2 LW
N
330 174.5 M
337 174.5 L
S
GR
GS
0 1 0 RC
2 LJ
2 LW
N
333.5 178 M
333.5 171 L
S
GR
GS
0 1 0 RC
2 LJ
2 LW
N
335 174.5 M
342 174.5 L
S
GR
GS
0 1 0 RC
2 LJ
2 LW
N
338.5 178 M
338.5 171 L
S
GR
GS
0 1 0 RC
2 LJ
2 LW
N
341 174.5 M
348 174.5 L
S
GR
GS
0 1 0 RC
2 LJ
2 LW
N
344.5 178 M
344.5 171 L
S
GR
GS
0 1 0 RC
2 LJ
2 LW
N
346 174.5 M
353 174.5 L
S
GR
GS
0 1 0 RC
2 LJ
2 LW
N
349.5 178 M
349.5 171 L
S
GR
GS
0 1 0 RC
2 LJ
2 LW
N
352 174.5 M
359 174.5 L
S
GR
GS
0 1 0 RC
2 LJ
2 LW
N
355.5 178 M
355.5 171 L
S
GR
GS
0 1 0 RC
2 LJ
2 LW
N
357 174.5 M
364 174.5 L
S
GR
GS
0 1 0 RC
2 LJ
2 LW
N
360.5 178 M
360.5 171 L
S
GR
GS
0 1 0 RC
2 LJ
2 LW
N
362 174.5 M
369 174.5 L
S
GR
GS
0 1 0 RC
2 LJ
2 LW
N
365.5 178 M
365.5 171 L
S
GR
GS
0 1 0 RC
2 LJ
2 LW
N
368 174.5 M
375 174.5 L
S
GR
GS
0 1 0 RC
2 LJ
2 LW
N
371.5 178 M
371.5 171 L
S
GR
GS
0 1 0 RC
2 LJ
2 LW
N
373 174.5 M
380 174.5 L
S
GR
GS
0 1 0 RC
2 LJ
2 LW
N
376.5 178 M
376.5 171 L
S
GR
GS
0 1 0 RC
2 LJ
2 LW
N
379 174.5 M
386 174.5 L
S
GR
GS
0 1 0 RC
2 LJ
2 LW
N
382.5 178 M
382.5 171 L
S
GR
GS
0 1 0 RC
2 LJ
2 LW
N
384 174.5 M
391 174.5 L
S
GR
GS
0 1 0 RC
2 LJ
2 LW
N
387.5 178 M
387.5 171 L
S
GR
GS
0 1 0 RC
2 LJ
2 LW
N
390 174.5 M
397 174.5 L
S
GR
GS
0 1 0 RC
2 LJ
2 LW
N
393.5 178 M
393.5 171 L
S
GR
GS
0 1 0 RC
2 LJ
2 LW
N
395 174.5 M
402 174.5 L
S
GR
GS
0 1 0 RC
2 LJ
2 LW
N
398.5 178 M
398.5 171 L
S
GR
GS
0 1 0 RC
2 LJ
2 LW
N
400 174.5 M
407 174.5 L
S
GR
GS
0 1 0 RC
2 LJ
2 LW
N
403.5 178 M
403.5 171 L
S
GR
GS
0 1 0 RC
2 LJ
2 LW
N
406 174.5 M
413 174.5 L
S
GR
GS
0 1 0 RC
2 LJ
2 LW
N
409.5 178 M
409.5 171 L
S
GR
GS
0 1 0 RC
2 LJ
2 LW
N
411 174.5 M
418 174.5 L
S
GR
GS
0 1 0 RC
2 LJ
2 LW
N
414.5 178 M
414.5 171 L
S
GR
GS
0 1 0 RC
2 LJ
2 LW
N
417 174.5 M
424 174.5 L
S
GR
GS
0 1 0 RC
2 LJ
2 LW
N
420.5 178 M
420.5 171 L
S
GR
GS
0 1 0 RC
2 LJ
2 LW
N
422 174.5 M
429 174.5 L
S
GR
GS
0 1 0 RC
2 LJ
2 LW
N
425.5 178 M
425.5 171 L
S
GR
GS
0 1 0 RC
2 LJ
2 LW
N
428 174.5 M
435 174.5 L
S
GR
GS
0 1 0 RC
2 LJ
2 LW
N
431.5 178 M
431.5 171 L
S
GR
GS
0 1 0 RC
2 LJ
2 LW
N
433 174.5 M
440 174.5 L
S
GR
GS
0 1 0 RC
2 LJ
2 LW
N
436.5 178 M
436.5 171 L
S
GR
GS
0 1 0 RC
2 LJ
2 LW
N
438 174.5 M
445 174.5 L
S
GR
GS
0 1 0 RC
2 LJ
2 LW
N
441.5 178 M
441.5 171 L
S
GR
GS
0 1 0 RC
2 LJ
2 LW
N
444 174.5 M
451 174.5 L
S
GR
GS
0 1 0 RC
2 LJ
2 LW
N
447.5 178 M
447.5 171 L
S
GR
GS
0 1 0 RC
2 LJ
2 LW
N
449 174.5 M
456 174.5 L
S
GR
GS
0 1 0 RC
2 LJ
2 LW
N
452.5 178 M
452.5 171 L
S
GR
GS
0 1 0 RC
2 LJ
2 LW
N
455 174.5 M
462 174.5 L
S
GR
GS
0 1 0 RC
2 LJ
2 LW
N
458.5 178 M
458.5 171 L
S
GR
GS
0 1 0 RC
2 LJ
2 LW
N
460 174.5 M
467 174.5 L
S
GR
GS
0 1 0 RC
2 LJ
2 LW
N
463.5 178 M
463.5 171 L
S
GR
GS
1 0 0 RC
[8 8] 0 setdash
2 LJ
2 LW
N
78.425 56.781 M
83.85 56.781 L
89.275 56.781 L
94.7 56.781 L
100.125 56.781 L
105.55 56.781 L
110.975 56.781 L
116.4 56.781 L
121.825 56.781 L
127.25 56.781 L
132.675 56.781 L
138.1 56.781 L
143.525 56.781 L
148.95 56.781 L
154.375 56.781 L
159.8 45.678 L
165.225 45.678 L
170.65 47.464 L
176.075 47.464 L
181.5 49.25 L
186.925 54.404 L
192.35 54.404 L
197.775 57.015 L
203.2 76.88 L
208.625 77.665 L
214.05 82.091 L
219.475 85.074 L
224.9 86.85 L
230.325 88.308 L
235.75 112.216 L
241.175 136.526 L
246.6 137.978 L
252.025 139.787 L
257.45 144.04 L
262.875 146.999 L
268.3 152.191 L
273.725 154.301 L
279.15 154.301 L
284.575 156.486 L
290 156.486 L
295.425 158.874 L
300.85 160.132 L
306.275 160.132 L
311.7 160.618 L
317.125 161.292 L
322.55 163.717 L
327.975 166.532 L
333.4 167.701 L
338.825 168.445 L
344.25 168.86 L
349.675 169.079 L
355.1 169.384 L
360.525 169.642 L
365.95 170.494 L
371.375 170.494 L
376.8 170.494 L
382.225 171.668 L
387.65 171.668 L
393.075 172.12 L
398.5 172.12 L
403.925 172.762 L
409.35 173.374 L
414.775 173.374 L
420.2 173.949 L
425.625 173.949 L
431.05 173.949 L
436.475 173.949 L
441.9 173.949 L
447.325 173.949 L
452.75 173.949 L
458.175 174.409 L
463.6 174.409 L
S
GR
GS
1 0 0 RC
2 setlinecap
10.0 ML
2 LW
N
81.5 56.5 M
80.621 54.379 L
78.5 53.5 L
76.379 54.379 L
75.5 56.5 L
76.379 58.621 L
78.5 59.5 L
80.621 58.621 L
81.5 56.5 L
S
GR
GS
1 0 0 RC
2 setlinecap
10.0 ML
2 LW
N
86.5 56.5 M
85.621 54.379 L
83.5 53.5 L
81.379 54.379 L
80.5 56.5 L
81.379 58.621 L
83.5 59.5 L
85.621 58.621 L
86.5 56.5 L
S
GR
GS
1 0 0 RC
2 setlinecap
10.0 ML
2 LW
N
92.5 56.5 M
91.621 54.379 L
89.5 53.5 L
87.379 54.379 L
86.5 56.5 L
87.379 58.621 L
89.5 59.5 L
91.621 58.621 L
92.5 56.5 L
S
GR
GS
1 0 0 RC
2 setlinecap
10.0 ML
2 LW
N
97.5 56.5 M
96.621 54.379 L
94.5 53.5 L
92.379 54.379 L
91.5 56.5 L
92.379 58.621 L
94.5 59.5 L
96.621 58.621 L
97.5 56.5 L
S
GR
GS
1 0 0 RC
2 setlinecap
10.0 ML
2 LW
N
103.5 56.5 M
102.621 54.379 L
100.5 53.5 L
98.379 54.379 L
97.5 56.5 L
98.379 58.621 L
100.5 59.5 L
102.621 58.621 L
103.5 56.5 L
S
GR
GS
1 0 0 RC
2 setlinecap
10.0 ML
2 LW
N
108.5 56.5 M
107.621 54.379 L
105.5 53.5 L
103.379 54.379 L
102.5 56.5 L
103.379 58.621 L
105.5 59.5 L
107.621 58.621 L
108.5 56.5 L
S
GR
GS
1 0 0 RC
2 setlinecap
10.0 ML
2 LW
N
113.5 56.5 M
112.621 54.379 L
110.5 53.5 L
108.379 54.379 L
107.5 56.5 L
108.379 58.621 L
110.5 59.5 L
112.621 58.621 L
113.5 56.5 L
S
GR
GS
1 0 0 RC
2 setlinecap
10.0 ML
2 LW
N
119.5 56.5 M
118.621 54.379 L
116.5 53.5 L
114.379 54.379 L
113.5 56.5 L
114.379 58.621 L
116.5 59.5 L
118.621 58.621 L
119.5 56.5 L
S
GR
GS
1 0 0 RC
2 setlinecap
10.0 ML
2 LW
N
124.5 56.5 M
123.621 54.379 L
121.5 53.5 L
119.379 54.379 L
118.5 56.5 L
119.379 58.621 L
121.5 59.5 L
123.621 58.621 L
124.5 56.5 L
S
GR
GS
1 0 0 RC
2 setlinecap
10.0 ML
2 LW
N
130.5 56.5 M
129.621 54.379 L
127.5 53.5 L
125.379 54.379 L
124.5 56.5 L
125.379 58.621 L
127.5 59.5 L
129.621 58.621 L
130.5 56.5 L
S
GR
GS
1 0 0 RC
2 setlinecap
10.0 ML
2 LW
N
135.5 56.5 M
134.621 54.379 L
132.5 53.5 L
130.379 54.379 L
129.5 56.5 L
130.379 58.621 L
132.5 59.5 L
134.621 58.621 L
135.5 56.5 L
S
GR
GS
1 0 0 RC
2 setlinecap
10.0 ML
2 LW
N
141.5 56.5 M
140.621 54.379 L
138.5 53.5 L
136.379 54.379 L
135.5 56.5 L
136.379 58.621 L
138.5 59.5 L
140.621 58.621 L
141.5 56.5 L
S
GR
GS
1 0 0 RC
2 setlinecap
10.0 ML
2 LW
N
146.5 56.5 M
145.621 54.379 L
143.5 53.5 L
141.379 54.379 L
140.5 56.5 L
141.379 58.621 L
143.5 59.5 L
145.621 58.621 L
146.5 56.5 L
S
GR
GS
1 0 0 RC
2 setlinecap
10.0 ML
2 LW
N
151.5 56.5 M
150.621 54.379 L
148.5 53.5 L
146.379 54.379 L
145.5 56.5 L
146.379 58.621 L
148.5 59.5 L
150.621 58.621 L
151.5 56.5 L
S
GR
GS
1 0 0 RC
2 setlinecap
10.0 ML
2 LW
N
157.5 56.5 M
156.621 54.379 L
154.5 53.5 L
152.379 54.379 L
151.5 56.5 L
152.379 58.621 L
154.5 59.5 L
156.621 58.621 L
157.5 56.5 L
S
GR
GS
1 0 0 RC
2 setlinecap
10.0 ML
2 LW
N
162.5 45.5 M
161.621 43.379 L
159.5 42.5 L
157.379 43.379 L
156.5 45.5 L
157.379 47.621 L
159.5 48.5 L
161.621 47.621 L
162.5 45.5 L
S
GR
GS
1 0 0 RC
2 setlinecap
10.0 ML
2 LW
N
168.5 45.5 M
167.621 43.379 L
165.5 42.5 L
163.379 43.379 L
162.5 45.5 L
163.379 47.621 L
165.5 48.5 L
167.621 47.621 L
168.5 45.5 L
S
GR
GS
1 0 0 RC
2 setlinecap
10.0 ML
2 LW
N
173.5 47.5 M
172.621 45.379 L
170.5 44.5 L
168.379 45.379 L
167.5 47.5 L
168.379 49.621 L
170.5 50.5 L
172.621 49.621 L
173.5 47.5 L
S
GR
GS
1 0 0 RC
2 setlinecap
10.0 ML
2 LW
N
179.5 47.5 M
178.621 45.379 L
176.5 44.5 L
174.379 45.379 L
173.5 47.5 L
174.379 49.621 L
176.5 50.5 L
178.621 49.621 L
179.5 47.5 L
S
GR
GS
1 0 0 RC
2 setlinecap
10.0 ML
2 LW
N
184.5 49.5 M
183.621 47.379 L
181.5 46.5 L
179.379 47.379 L
178.5 49.5 L
179.379 51.621 L
181.5 52.5 L
183.621 51.621 L
184.5 49.5 L
S
GR
GS
1 0 0 RC
2 setlinecap
10.0 ML
2 LW
N
189.5 54.5 M
188.621 52.379 L
186.5 51.5 L
184.379 52.379 L
183.5 54.5 L
184.379 56.621 L
186.5 57.5 L
188.621 56.621 L
189.5 54.5 L
S
GR
GS
1 0 0 RC
2 setlinecap
10.0 ML
2 LW
N
195.5 54.5 M
194.621 52.379 L
192.5 51.5 L
190.379 52.379 L
189.5 54.5 L
190.379 56.621 L
192.5 57.5 L
194.621 56.621 L
195.5 54.5 L
S
GR
GS
1 0 0 RC
2 setlinecap
10.0 ML
2 LW
N
200.5 57.5 M
199.621 55.379 L
197.5 54.5 L
195.379 55.379 L
194.5 57.5 L
195.379 59.621 L
197.5 60.5 L
199.621 59.621 L
200.5 57.5 L
S
GR
GS
1 0 0 RC
2 setlinecap
10.0 ML
2 LW
N
206.5 76.5 M
205.621 74.379 L
203.5 73.5 L
201.379 74.379 L
200.5 76.5 L
201.379 78.621 L
203.5 79.5 L
205.621 78.621 L
206.5 76.5 L
S
GR
GS
1 0 0 RC
2 setlinecap
10.0 ML
2 LW
N
211.5 77.5 M
210.621 75.379 L
208.5 74.5 L
206.379 75.379 L
205.5 77.5 L
206.379 79.621 L
208.5 80.5 L
210.621 79.621 L
211.5 77.5 L
S
GR
GS
1 0 0 RC
2 setlinecap
10.0 ML
2 LW
N
217.5 82.5 M
216.621 80.379 L
214.5 79.5 L
212.379 80.379 L
211.5 82.5 L
212.379 84.621 L
214.5 85.5 L
216.621 84.621 L
217.5 82.5 L
S
GR
GS
1 0 0 RC
2 setlinecap
10.0 ML
2 LW
N
222.5 85.5 M
221.621 83.379 L
219.5 82.5 L
217.379 83.379 L
216.5 85.5 L
217.379 87.621 L
219.5 88.5 L
221.621 87.621 L
222.5 85.5 L
S
GR
GS
1 0 0 RC
2 setlinecap
10.0 ML
2 LW
N
227.5 86.5 M
226.621 84.379 L
224.5 83.5 L
222.379 84.379 L
221.5 86.5 L
222.379 88.621 L
224.5 89.5 L
226.621 88.621 L
227.5 86.5 L
S
GR
GS
1 0 0 RC
2 setlinecap
10.0 ML
2 LW
N
233.5 88.5 M
232.621 86.379 L
230.5 85.5 L
228.379 86.379 L
227.5 88.5 L
228.379 90.621 L
230.5 91.5 L
232.621 90.621 L
233.5 88.5 L
S
GR
GS
1 0 0 RC
2 setlinecap
10.0 ML
2 LW
N
238.5 112.5 M
237.621 110.379 L
235.5 109.5 L
233.379 110.379 L
232.5 112.5 L
233.379 114.621 L
235.5 115.5 L
237.621 114.621 L
238.5 112.5 L
S
GR
GS
1 0 0 RC
2 setlinecap
10.0 ML
2 LW
N
244.5 136.5 M
243.621 134.379 L
241.5 133.5 L
239.379 134.379 L
238.5 136.5 L
239.379 138.621 L
241.5 139.5 L
243.621 138.621 L
244.5 136.5 L
S
GR
GS
1 0 0 RC
2 setlinecap
10.0 ML
2 LW
N
249.5 137.5 M
248.621 135.379 L
246.5 134.5 L
244.379 135.379 L
243.5 137.5 L
244.379 139.621 L
246.5 140.5 L
248.621 139.621 L
249.5 137.5 L
S
GR
GS
1 0 0 RC
2 setlinecap
10.0 ML
2 LW
N
255.5 139.5 M
254.621 137.379 L
252.5 136.5 L
250.379 137.379 L
249.5 139.5 L
250.379 141.621 L
252.5 142.5 L
254.621 141.621 L
255.5 139.5 L
S
GR
GS
1 0 0 RC
2 setlinecap
10.0 ML
2 LW
N
260.5 144.5 M
259.621 142.379 L
257.5 141.5 L
255.379 142.379 L
254.5 144.5 L
255.379 146.621 L
257.5 147.5 L
259.621 146.621 L
260.5 144.5 L
S
GR
GS
1 0 0 RC
2 setlinecap
10.0 ML
2 LW
N
265.5 146.5 M
264.621 144.379 L
262.5 143.5 L
260.379 144.379 L
259.5 146.5 L
260.379 148.621 L
262.5 149.5 L
264.621 148.621 L
265.5 146.5 L
S
GR
GS
1 0 0 RC
2 setlinecap
10.0 ML
2 LW
N
271.5 152.5 M
270.621 150.379 L
268.5 149.5 L
266.379 150.379 L
265.5 152.5 L
266.379 154.621 L
268.5 155.5 L
270.621 154.621 L
271.5 152.5 L
S
GR
GS
1 0 0 RC
2 setlinecap
10.0 ML
2 LW
N
276.5 154.5 M
275.621 152.379 L
273.5 151.5 L
271.379 152.379 L
270.5 154.5 L
271.379 156.621 L
273.5 157.5 L
275.621 156.621 L
276.5 154.5 L
S
GR
GS
1 0 0 RC
2 setlinecap
10.0 ML
2 LW
N
282.5 154.5 M
281.621 152.379 L
279.5 151.5 L
277.379 152.379 L
276.5 154.5 L
277.379 156.621 L
279.5 157.5 L
281.621 156.621 L
282.5 154.5 L
S
GR
GS
1 0 0 RC
2 setlinecap
10.0 ML
2 LW
N
287.5 156.5 M
286.621 154.379 L
284.5 153.5 L
282.379 154.379 L
281.5 156.5 L
282.379 158.621 L
284.5 159.5 L
286.621 158.621 L
287.5 156.5 L
S
GR
GS
1 0 0 RC
2 setlinecap
10.0 ML
2 LW
N
293.5 156.5 M
292.621 154.379 L
290.5 153.5 L
288.379 154.379 L
287.5 156.5 L
288.379 158.621 L
290.5 159.5 L
292.621 158.621 L
293.5 156.5 L
S
GR
GS
1 0 0 RC
2 setlinecap
10.0 ML
2 LW
N
298.5 158.5 M
297.621 156.379 L
295.5 155.5 L
293.379 156.379 L
292.5 158.5 L
293.379 160.621 L
295.5 161.5 L
297.621 160.621 L
298.5 158.5 L
S
GR
GS
1 0 0 RC
2 setlinecap
10.0 ML
2 LW
N
303.5 160.5 M
302.621 158.379 L
300.5 157.5 L
298.379 158.379 L
297.5 160.5 L
298.379 162.621 L
300.5 163.5 L
302.621 162.621 L
303.5 160.5 L
S
GR
GS
1 0 0 RC
2 setlinecap
10.0 ML
2 LW
N
309.5 160.5 M
308.621 158.379 L
306.5 157.5 L
304.379 158.379 L
303.5 160.5 L
304.379 162.621 L
306.5 163.5 L
308.621 162.621 L
309.5 160.5 L
S
GR
GS
1 0 0 RC
2 setlinecap
10.0 ML
2 LW
N
314.5 160.5 M
313.621 158.379 L
311.5 157.5 L
309.379 158.379 L
308.5 160.5 L
309.379 162.621 L
311.5 163.5 L
313.621 162.621 L
314.5 160.5 L
S
GR
GS
1 0 0 RC
2 setlinecap
10.0 ML
2 LW
N
320.5 161.5 M
319.621 159.379 L
317.5 158.5 L
315.379 159.379 L
314.5 161.5 L
315.379 163.621 L
317.5 164.5 L
319.621 163.621 L
320.5 161.5 L
S
GR
GS
1 0 0 RC
2 setlinecap
10.0 ML
2 LW
N
325.5 163.5 M
324.621 161.379 L
322.5 160.5 L
320.379 161.379 L
319.5 163.5 L
320.379 165.621 L
322.5 166.5 L
324.621 165.621 L
325.5 163.5 L
S
GR
GS
1 0 0 RC
2 setlinecap
10.0 ML
2 LW
N
330.5 166.5 M
329.621 164.379 L
327.5 163.5 L
325.379 164.379 L
324.5 166.5 L
325.379 168.621 L
327.5 169.5 L
329.621 168.621 L
330.5 166.5 L
S
GR
GS
1 0 0 RC
2 setlinecap
10.0 ML
2 LW
N
336.5 167.5 M
335.621 165.379 L
333.5 164.5 L
331.379 165.379 L
330.5 167.5 L
331.379 169.621 L
333.5 170.5 L
335.621 169.621 L
336.5 167.5 L
S
GR
GS
1 0 0 RC
2 setlinecap
10.0 ML
2 LW
N
341.5 168.5 M
340.621 166.379 L
338.5 165.5 L
336.379 166.379 L
335.5 168.5 L
336.379 170.621 L
338.5 171.5 L
340.621 170.621 L
341.5 168.5 L
S
GR
GS
1 0 0 RC
2 setlinecap
10.0 ML
2 LW
N
347.5 168.5 M
346.621 166.379 L
344.5 165.5 L
342.379 166.379 L
341.5 168.5 L
342.379 170.621 L
344.5 171.5 L
346.621 170.621 L
347.5 168.5 L
S
GR
GS
1 0 0 RC
2 setlinecap
10.0 ML
2 LW
N
352.5 169.5 M
351.621 167.379 L
349.5 166.5 L
347.379 167.379 L
346.5 169.5 L
347.379 171.621 L
349.5 172.5 L
351.621 171.621 L
352.5 169.5 L
S
GR
GS
1 0 0 RC
2 setlinecap
10.0 ML
2 LW
N
358.5 169.5 M
357.621 167.379 L
355.5 166.5 L
353.379 167.379 L
352.5 169.5 L
353.379 171.621 L
355.5 172.5 L
357.621 171.621 L
358.5 169.5 L
S
GR
GS
1 0 0 RC
2 setlinecap
10.0 ML
2 LW
N
363.5 169.5 M
362.621 167.379 L
360.5 166.5 L
358.379 167.379 L
357.5 169.5 L
358.379 171.621 L
360.5 172.5 L
362.621 171.621 L
363.5 169.5 L
S
GR
GS
1 0 0 RC
2 setlinecap
10.0 ML
2 LW
N
368.5 170.5 M
367.621 168.379 L
365.5 167.5 L
363.379 168.379 L
362.5 170.5 L
363.379 172.621 L
365.5 173.5 L
367.621 172.621 L
368.5 170.5 L
S
GR
GS
1 0 0 RC
2 setlinecap
10.0 ML
2 LW
N
374.5 170.5 M
373.621 168.379 L
371.5 167.5 L
369.379 168.379 L
368.5 170.5 L
369.379 172.621 L
371.5 173.5 L
373.621 172.621 L
374.5 170.5 L
S
GR
GS
1 0 0 RC
2 setlinecap
10.0 ML
2 LW
N
379.5 170.5 M
378.621 168.379 L
376.5 167.5 L
374.379 168.379 L
373.5 170.5 L
374.379 172.621 L
376.5 173.5 L
378.621 172.621 L
379.5 170.5 L
S
GR
GS
1 0 0 RC
2 setlinecap
10.0 ML
2 LW
N
385.5 171.5 M
384.621 169.379 L
382.5 168.5 L
380.379 169.379 L
379.5 171.5 L
380.379 173.621 L
382.5 174.5 L
384.621 173.621 L
385.5 171.5 L
S
GR
GS
1 0 0 RC
2 setlinecap
10.0 ML
2 LW
N
390.5 171.5 M
389.621 169.379 L
387.5 168.5 L
385.379 169.379 L
384.5 171.5 L
385.379 173.621 L
387.5 174.5 L
389.621 173.621 L
390.5 171.5 L
S
GR
GS
1 0 0 RC
2 setlinecap
10.0 ML
2 LW
N
396.5 172.5 M
395.621 170.379 L
393.5 169.5 L
391.379 170.379 L
390.5 172.5 L
391.379 174.621 L
393.5 175.5 L
395.621 174.621 L
396.5 172.5 L
S
GR
GS
1 0 0 RC
2 setlinecap
10.0 ML
2 LW
N
401.5 172.5 M
400.621 170.379 L
398.5 169.5 L
396.379 170.379 L
395.5 172.5 L
396.379 174.621 L
398.5 175.5 L
400.621 174.621 L
401.5 172.5 L
S
GR
GS
1 0 0 RC
2 setlinecap
10.0 ML
2 LW
N
406.5 172.5 M
405.621 170.379 L
403.5 169.5 L
401.379 170.379 L
400.5 172.5 L
401.379 174.621 L
403.5 175.5 L
405.621 174.621 L
406.5 172.5 L
S
GR
GS
1 0 0 RC
2 setlinecap
10.0 ML
2 LW
N
412.5 173.5 M
411.621 171.379 L
409.5 170.5 L
407.379 171.379 L
406.5 173.5 L
407.379 175.621 L
409.5 176.5 L
411.621 175.621 L
412.5 173.5 L
S
GR
GS
1 0 0 RC
2 setlinecap
10.0 ML
2 LW
N
417.5 173.5 M
416.621 171.379 L
414.5 170.5 L
412.379 171.379 L
411.5 173.5 L
412.379 175.621 L
414.5 176.5 L
416.621 175.621 L
417.5 173.5 L
S
GR
GS
1 0 0 RC
2 setlinecap
10.0 ML
2 LW
N
423.5 173.5 M
422.621 171.379 L
420.5 170.5 L
418.379 171.379 L
417.5 173.5 L
418.379 175.621 L
420.5 176.5 L
422.621 175.621 L
423.5 173.5 L
S
GR
GS
1 0 0 RC
2 setlinecap
10.0 ML
2 LW
N
428.5 173.5 M
427.621 171.379 L
425.5 170.5 L
423.379 171.379 L
422.5 173.5 L
423.379 175.621 L
425.5 176.5 L
427.621 175.621 L
428.5 173.5 L
S
GR
GS
1 0 0 RC
2 setlinecap
10.0 ML
2 LW
N
434.5 173.5 M
433.621 171.379 L
431.5 170.5 L
429.379 171.379 L
428.5 173.5 L
429.379 175.621 L
431.5 176.5 L
433.621 175.621 L
434.5 173.5 L
S
GR
GS
1 0 0 RC
2 setlinecap
10.0 ML
2 LW
N
439.5 173.5 M
438.621 171.379 L
436.5 170.5 L
434.379 171.379 L
433.5 173.5 L
434.379 175.621 L
436.5 176.5 L
438.621 175.621 L
439.5 173.5 L
S
GR
GS
1 0 0 RC
2 setlinecap
10.0 ML
2 LW
N
444.5 173.5 M
443.621 171.379 L
441.5 170.5 L
439.379 171.379 L
438.5 173.5 L
439.379 175.621 L
441.5 176.5 L
443.621 175.621 L
444.5 173.5 L
S
GR
GS
1 0 0 RC
2 setlinecap
10.0 ML
2 LW
N
450.5 173.5 M
449.621 171.379 L
447.5 170.5 L
445.379 171.379 L
444.5 173.5 L
445.379 175.621 L
447.5 176.5 L
449.621 175.621 L
450.5 173.5 L
S
GR
GS
1 0 0 RC
2 setlinecap
10.0 ML
2 LW
N
455.5 173.5 M
454.621 171.379 L
452.5 170.5 L
450.379 171.379 L
449.5 173.5 L
450.379 175.621 L
452.5 176.5 L
454.621 175.621 L
455.5 173.5 L
S
GR
GS
1 0 0 RC
2 setlinecap
10.0 ML
2 LW
N
461.5 174.5 M
460.621 172.379 L
458.5 171.5 L
456.379 172.379 L
455.5 174.5 L
456.379 176.621 L
458.5 177.5 L
460.621 176.621 L
461.5 174.5 L
S
GR
GS
1 0 0 RC
2 setlinecap
10.0 ML
2 LW
N
466.5 174.5 M
465.621 172.379 L
463.5 171.5 L
461.379 172.379 L
460.5 174.5 L
461.379 176.621 L
463.5 177.5 L
465.621 176.621 L
466.5 174.5 L
S
GR
GS
1 GC
N
379 66 M
379 41 L
497 41 L
497 66 L
cp
f
GR
GS
[1 0 0 1 418 48.14286] CT
/Helvetica-Bold 9 F
GS
[1 0 0 1 0 0] CT
0 2 moveto 
1 -1 scale
(without switching) t 
GR
GR
GS
0 1 0 RC
2 setlinecap
10.0 ML
2 LW
N
385 48.143 M
415 48.143 L
S
GR
GS
0 1 0 RC
2 setlinecap
10.0 ML
2 LW
N
397 48.5 M
404 48.5 L
S
GR
GS
0 1 0 RC
2 setlinecap
10.0 ML
2 LW
N
400.5 52 M
400.5 45 L
S
GR
GS
[1 0 0 1 418 58.85714] CT
/Helvetica-Bold 9 F
GS
[1 0 0 1 0 0] CT
0 2 moveto 
1 -1 scale
(with switching) t 
GR
GR
GS
1 0 0 RC
[8 8] 0 setdash
2 LJ
2 LW
N
385 58.857 M
415 58.857 L
S
GR
GS
1 0 0 RC
2 setlinecap
10.0 ML
2 LW
N
403.5 58.5 M
402.621 56.379 L
400.5 55.5 L
398.379 56.379 L
397.5 58.5 L
398.379 60.621 L
400.5 61.5 L
402.621 60.621 L
403.5 58.5 L
S
GR
GS
0.149 GC
2 setlinecap
10.0 ML
N
379 66 M
379 41 L
497 41 L
497 66 L
379 66 L
S
GR
GS
1 GC
N
73 374 M
507 374 L
507 231 L
73 231 L
cp
f
GR
GS
0.873 GC
2 setlinecap
10.0 ML
N
73 374 M
73 231 L
S
GR
GS
0.873 GC
2 setlinecap
10.0 ML
N
127.25 374 M
127.25 231 L
S
GR
GS
0.873 GC
2 setlinecap
10.0 ML
N
181.5 374 M
181.5 231 L
S
GR
GS
0.873 GC
2 setlinecap
10.0 ML
N
235.75 374 M
235.75 231 L
S
GR
GS
0.873 GC
2 setlinecap
10.0 ML
N
290 374 M
290 231 L
S
GR
GS
0.873 GC
2 setlinecap
10.0 ML
N
344.25 374 M
344.25 231 L
S
GR
GS
0.873 GC
2 setlinecap
10.0 ML
N
398.5 374 M
398.5 231 L
S
GR
GS
0.873 GC
2 setlinecap
10.0 ML
N
452.75 374 M
452.75 231 L
S
GR
GS
0.873 GC
2 setlinecap
10.0 ML
N
507 374 M
507 231 L
S
GR
GS
0.873 GC
2 setlinecap
10.0 ML
N
507 374 M
73 374 L
S
GR
GS
0.873 GC
2 setlinecap
10.0 ML
N
507 350.167 M
73 350.167 L
S
GR
GS
0.873 GC
2 setlinecap
10.0 ML
N
507 326.333 M
73 326.333 L
S
GR
GS
0.873 GC
2 setlinecap
10.0 ML
N
507 302.5 M
73 302.5 L
S
GR
GS
0.873 GC
2 setlinecap
10.0 ML
N
507 278.667 M
73 278.667 L
S
GR
GS
0.873 GC
2 setlinecap
10.0 ML
N
507 254.833 M
73 254.833 L
S
GR
GS
0.873 GC
2 setlinecap
10.0 ML
N
507 231 M
73 231 L
S
GR
GS
[1 0 0 1 290.00021 390] CT
0.149 GC
/Helvetica-Bold 11 F
GS
[1 0 0 1 0 0] CT
-53 9 moveto 
1 -1 scale
(No of transmissions) t 
GR
GR
GS
0.149 GC
2 setlinecap
10.0 ML
N
73 374 M
507 374 L
S
GR
GS
0.149 GC
2 setlinecap
10.0 ML
N
73 231 M
507 231 L
S
GR
GS
0.149 GC
2 setlinecap
10.0 ML
N
73 374 M
73 369.66 L
S
GR
GS
0.149 GC
2 setlinecap
10.0 ML
N
127.25 374 M
127.25 369.66 L
S
GR
GS
0.149 GC
2 setlinecap
10.0 ML
N
181.5 374 M
181.5 369.66 L
S
GR
GS
0.149 GC
2 setlinecap
10.0 ML
N
235.75 374 M
235.75 369.66 L
S
GR
GS
0.149 GC
2 setlinecap
10.0 ML
N
290 374 M
290 369.66 L
S
GR
GS
0.149 GC
2 setlinecap
10.0 ML
N
344.25 374 M
344.25 369.66 L
S
GR
GS
0.149 GC
2 setlinecap
10.0 ML
N
398.5 374 M
398.5 369.66 L
S
GR
GS
0.149 GC
2 setlinecap
10.0 ML
N
452.75 374 M
452.75 369.66 L
S
GR
GS
0.149 GC
2 setlinecap
10.0 ML
N
507 374 M
507 369.66 L
S
GR
GS
0.149 GC
2 setlinecap
10.0 ML
N
73 231 M
73 235.34 L
S
GR
GS
0.149 GC
2 setlinecap
10.0 ML
N
127.25 231 M
127.25 235.34 L
S
GR
GS
0.149 GC
2 setlinecap
10.0 ML
N
181.5 231 M
181.5 235.34 L
S
GR
GS
0.149 GC
2 setlinecap
10.0 ML
N
235.75 231 M
235.75 235.34 L
S
GR
GS
0.149 GC
2 setlinecap
10.0 ML
N
290 231 M
290 235.34 L
S
GR
GS
0.149 GC
2 setlinecap
10.0 ML
N
344.25 231 M
344.25 235.34 L
S
GR
GS
0.149 GC
2 setlinecap
10.0 ML
N
398.5 231 M
398.5 235.34 L
S
GR
GS
0.149 GC
2 setlinecap
10.0 ML
N
452.75 231 M
452.75 235.34 L
S
GR
GS
0.149 GC
2 setlinecap
10.0 ML
N
507 231 M
507 235.34 L
S
GR
GS
[1 0 0 1 73 378] CT
0.149 GC
/Helvetica-Bold 10 F
GS
[1 0 0 1 0 0] CT
-3 8 moveto 
1 -1 scale
(0) t 
GR
GR
GS
[1 0 0 1 127.25 378] CT
0.149 GC
/Helvetica-Bold 10 F
GS
[1 0 0 1 0 0] CT
-6 8 moveto 
1 -1 scale
(10) t 
GR
GR
GS
[1 0 0 1 181.5 378] CT
0.149 GC
/Helvetica-Bold 10 F
GS
[1 0 0 1 0 0] CT
-6 8 moveto 
1 -1 scale
(20) t 
GR
GR
GS
[1 0 0 1 235.75 378] CT
0.149 GC
/Helvetica-Bold 10 F
GS
[1 0 0 1 0 0] CT
-6 8 moveto 
1 -1 scale
(30) t 
GR
GR
GS
[1 0 0 1 290 378] CT
0.149 GC
/Helvetica-Bold 10 F
GS
[1 0 0 1 0 0] CT
-6 8 moveto 
1 -1 scale
(40) t 
GR
GR
GS
[1 0 0 1 344.25 378] CT
0.149 GC
/Helvetica-Bold 10 F
GS
[1 0 0 1 0 0] CT
-6 8 moveto 
1 -1 scale
(50) t 
GR
GR
GS
[1 0 0 1 398.5 378] CT
0.149 GC
/Helvetica-Bold 10 F
GS
[1 0 0 1 0 0] CT
-6 8 moveto 
1 -1 scale
(60) t 
GR
GR
GS
[1 0 0 1 452.75 378] CT
0.149 GC
/Helvetica-Bold 10 F
GS
[1 0 0 1 0 0] CT
-6 8 moveto 
1 -1 scale
(70) t 
GR
GR
GS
[1 0 0 1 507 378] CT
0.149 GC
/Helvetica-Bold 10 F
GS
[1 0 0 1 0 0] CT
-6 8 moveto 
1 -1 scale
(80) t 
GR
GR
GS
[0 -1 1 0 60 302.49994] CT
0.149 GC
/Helvetica-Bold 11 F
GS
[1 0 0 1 0 0] CT
-55 -3 moveto 
1 -1 scale
(Energy consumption) t 
GR
GR
GS
0.149 GC
2 setlinecap
10.0 ML
N
73 374 M
73 231 L
S
GR
GS
0.149 GC
2 setlinecap
10.0 ML
N
507 374 M
507 231 L
S
GR
GS
0.149 GC
2 setlinecap
10.0 ML
N
73 374 M
77.34 374 L
S
GR
GS
0.149 GC
2 setlinecap
10.0 ML
N
73 350.167 M
77.34 350.167 L
S
GR
GS
0.149 GC
2 setlinecap
10.0 ML
N
73 326.333 M
77.34 326.333 L
S
GR
GS
0.149 GC
2 setlinecap
10.0 ML
N
73 302.5 M
77.34 302.5 L
S
GR
GS
0.149 GC
2 setlinecap
10.0 ML
N
73 278.667 M
77.34 278.667 L
S
GR
GS
0.149 GC
2 setlinecap
10.0 ML
N
73 254.833 M
77.34 254.833 L
S
GR
GS
0.149 GC
2 setlinecap
10.0 ML
N
73 231 M
77.34 231 L
S
GR
GS
0.149 GC
2 setlinecap
10.0 ML
N
507 374 M
502.66 374 L
S
GR
GS
0.149 GC
2 setlinecap
10.0 ML
N
507 350.167 M
502.66 350.167 L
S
GR
GS
0.149 GC
2 setlinecap
10.0 ML
N
507 326.333 M
502.66 326.333 L
S
GR
GS
0.149 GC
2 setlinecap
10.0 ML
N
507 302.5 M
502.66 302.5 L
S
GR
GS
0.149 GC
2 setlinecap
10.0 ML
N
507 278.667 M
502.66 278.667 L
S
GR
GS
0.149 GC
2 setlinecap
10.0 ML
N
507 254.833 M
502.66 254.833 L
S
GR
GS
0.149 GC
2 setlinecap
10.0 ML
N
507 231 M
502.66 231 L
S
GR
GS
[1 0 0 1 69 374] CT
0.149 GC
/Helvetica-Bold 10 F
GS
[1 0 0 1 0 0] CT
-6 2.5 moveto 
1 -1 scale
(0) t 
GR
GR
GS
[1 0 0 1 69 350.16666] CT
0.149 GC
/Helvetica-Bold 10 F
GS
[1 0 0 1 0 0] CT
-6 2.5 moveto 
1 -1 scale
(1) t 
GR
GR
GS
[1 0 0 1 69 326.33334] CT
0.149 GC
/Helvetica-Bold 10 F
GS
[1 0 0 1 0 0] CT
-6 2.5 moveto 
1 -1 scale
(2) t 
GR
GR
GS
[1 0 0 1 69 302.5] CT
0.149 GC
/Helvetica-Bold 10 F
GS
[1 0 0 1 0 0] CT
-6 2.5 moveto 
1 -1 scale
(3) t 
GR
GR
GS
[1 0 0 1 69 278.66666] CT
0.149 GC
/Helvetica-Bold 10 F
GS
[1 0 0 1 0 0] CT
-6 2.5 moveto 
1 -1 scale
(4) t 
GR
GR
GS
[1 0 0 1 69 254.83333] CT
0.149 GC
/Helvetica-Bold 10 F
GS
[1 0 0 1 0 0] CT
-6 2.5 moveto 
1 -1 scale
(5) t 
GR
GR
GS
[1 0 0 1 69 231] CT
0.149 GC
/Helvetica-Bold 10 F
GS
[1 0 0 1 0 0] CT
-6 2.5 moveto 
1 -1 scale
(6) t 
GR
GR
GS
0 1 0 RC
2 LJ
2 LW
N
78.425 253.288 M
83.85 253.288 L
89.275 253.288 L
94.7 253.288 L
100.125 253.288 L
105.55 253.288 L
110.975 253.288 L
116.4 253.288 L
121.825 256.627 L
127.25 256.627 L
132.675 284.051 L
138.1 284.051 L
143.525 284.051 L
148.95 285.168 L
154.375 288.031 L
159.8 336.667 L
165.225 336.667 L
170.65 336.667 L
176.075 339.727 L
181.5 347.659 L
186.925 355.947 L
192.35 357.855 L
197.775 357.855 L
203.2 357.855 L
208.625 357.855 L
214.05 359.385 L
219.475 360.138 L
224.9 361.092 L
230.325 365.876 L
235.75 372.569 L
241.175 372.569 L
246.6 372.569 L
252.025 372.569 L
257.45 373.523 L
262.875 373.523 L
268.3 373.523 L
273.725 373.523 L
279.15 373.523 L
284.575 373.523 L
290 373.523 L
295.425 373.523 L
300.85 373.523 L
306.275 373.523 L
311.7 373.523 L
317.125 373.523 L
322.55 373.523 L
327.975 373.523 L
333.4 373.523 L
338.825 373.523 L
344.25 373.523 L
S
GR
GS
0 1 0 RC
2 LJ
2 LW
N
344.25 373.523 M
349.675 373.523 L
355.1 373.523 L
360.525 373.523 L
365.95 373.523 L
371.375 373.523 L
376.8 373.523 L
382.225 373.523 L
387.65 373.523 L
393.075 374 L
398.5 374 L
403.925 374 L
409.35 374 L
414.775 374 L
420.2 374 L
425.625 374 L
431.05 374 L
436.475 374 L
441.9 374 L
447.325 374 L
452.75 374 L
458.175 374 L
463.6 374 L
S
GR
GS
0 1 0 RC
2 LJ
2 LW
N
75 253.5 M
82 253.5 L
S
GR
GS
0 1 0 RC
2 LJ
2 LW
N
78.5 257 M
78.5 250 L
S
GR
GS
0 1 0 RC
2 LJ
2 LW
N
80 253.5 M
87 253.5 L
S
GR
GS
0 1 0 RC
2 LJ
2 LW
N
83.5 257 M
83.5 250 L
S
GR
GS
0 1 0 RC
2 LJ
2 LW
N
86 253.5 M
93 253.5 L
S
GR
GS
0 1 0 RC
2 LJ
2 LW
N
89.5 257 M
89.5 250 L
S
GR
GS
0 1 0 RC
2 LJ
2 LW
N
91 253.5 M
98 253.5 L
S
GR
GS
0 1 0 RC
2 LJ
2 LW
N
94.5 257 M
94.5 250 L
S
GR
GS
0 1 0 RC
2 LJ
2 LW
N
97 253.5 M
104 253.5 L
S
GR
GS
0 1 0 RC
2 LJ
2 LW
N
100.5 257 M
100.5 250 L
S
GR
GS
0 1 0 RC
2 LJ
2 LW
N
102 253.5 M
109 253.5 L
S
GR
GS
0 1 0 RC
2 LJ
2 LW
N
105.5 257 M
105.5 250 L
S
GR
GS
0 1 0 RC
2 LJ
2 LW
N
107 253.5 M
114 253.5 L
S
GR
GS
0 1 0 RC
2 LJ
2 LW
N
110.5 257 M
110.5 250 L
S
GR
GS
0 1 0 RC
2 LJ
2 LW
N
113 253.5 M
120 253.5 L
S
GR
GS
0 1 0 RC
2 LJ
2 LW
N
116.5 257 M
116.5 250 L
S
GR
GS
0 1 0 RC
2 LJ
2 LW
N
118 256.5 M
125 256.5 L
S
GR
GS
0 1 0 RC
2 LJ
2 LW
N
121.5 260 M
121.5 253 L
S
GR
GS
0 1 0 RC
2 LJ
2 LW
N
124 256.5 M
131 256.5 L
S
GR
GS
0 1 0 RC
2 LJ
2 LW
N
127.5 260 M
127.5 253 L
S
GR
GS
0 1 0 RC
2 LJ
2 LW
N
129 284.5 M
136 284.5 L
S
GR
GS
0 1 0 RC
2 LJ
2 LW
N
132.5 288 M
132.5 281 L
S
GR
GS
0 1 0 RC
2 LJ
2 LW
N
135 284.5 M
142 284.5 L
S
GR
GS
0 1 0 RC
2 LJ
2 LW
N
138.5 288 M
138.5 281 L
S
GR
GS
0 1 0 RC
2 LJ
2 LW
N
140 284.5 M
147 284.5 L
S
GR
GS
0 1 0 RC
2 LJ
2 LW
N
143.5 288 M
143.5 281 L
S
GR
GS
0 1 0 RC
2 LJ
2 LW
N
145 285.5 M
152 285.5 L
S
GR
GS
0 1 0 RC
2 LJ
2 LW
N
148.5 289 M
148.5 282 L
S
GR
GS
0 1 0 RC
2 LJ
2 LW
N
151 288.5 M
158 288.5 L
S
GR
GS
0 1 0 RC
2 LJ
2 LW
N
154.5 292 M
154.5 285 L
S
GR
GS
0 1 0 RC
2 LJ
2 LW
N
156 336.5 M
163 336.5 L
S
GR
GS
0 1 0 RC
2 LJ
2 LW
N
159.5 340 M
159.5 333 L
S
GR
GS
0 1 0 RC
2 LJ
2 LW
N
162 336.5 M
169 336.5 L
S
GR
GS
0 1 0 RC
2 LJ
2 LW
N
165.5 340 M
165.5 333 L
S
GR
GS
0 1 0 RC
2 LJ
2 LW
N
167 336.5 M
174 336.5 L
S
GR
GS
0 1 0 RC
2 LJ
2 LW
N
170.5 340 M
170.5 333 L
S
GR
GS
0 1 0 RC
2 LJ
2 LW
N
173 339.5 M
180 339.5 L
S
GR
GS
0 1 0 RC
2 LJ
2 LW
N
176.5 343 M
176.5 336 L
S
GR
GS
0 1 0 RC
2 LJ
2 LW
N
178 347.5 M
185 347.5 L
S
GR
GS
0 1 0 RC
2 LJ
2 LW
N
181.5 351 M
181.5 344 L
S
GR
GS
0 1 0 RC
2 LJ
2 LW
N
183 355.5 M
190 355.5 L
S
GR
GS
0 1 0 RC
2 LJ
2 LW
N
186.5 359 M
186.5 352 L
S
GR
GS
0 1 0 RC
2 LJ
2 LW
N
189 357.5 M
196 357.5 L
S
GR
GS
0 1 0 RC
2 LJ
2 LW
N
192.5 361 M
192.5 354 L
S
GR
GS
0 1 0 RC
2 LJ
2 LW
N
194 357.5 M
201 357.5 L
S
GR
GS
0 1 0 RC
2 LJ
2 LW
N
197.5 361 M
197.5 354 L
S
GR
GS
0 1 0 RC
2 LJ
2 LW
N
200 357.5 M
207 357.5 L
S
GR
GS
0 1 0 RC
2 LJ
2 LW
N
203.5 361 M
203.5 354 L
S
GR
GS
0 1 0 RC
2 LJ
2 LW
N
205 357.5 M
212 357.5 L
S
GR
GS
0 1 0 RC
2 LJ
2 LW
N
208.5 361 M
208.5 354 L
S
GR
GS
0 1 0 RC
2 LJ
2 LW
N
211 359.5 M
218 359.5 L
S
GR
GS
0 1 0 RC
2 LJ
2 LW
N
214.5 363 M
214.5 356 L
S
GR
GS
0 1 0 RC
2 LJ
2 LW
N
216 360.5 M
223 360.5 L
S
GR
GS
0 1 0 RC
2 LJ
2 LW
N
219.5 364 M
219.5 357 L
S
GR
GS
0 1 0 RC
2 LJ
2 LW
N
221 361.5 M
228 361.5 L
S
GR
GS
0 1 0 RC
2 LJ
2 LW
N
224.5 365 M
224.5 358 L
S
GR
GS
0 1 0 RC
2 LJ
2 LW
N
227 365.5 M
234 365.5 L
S
GR
GS
0 1 0 RC
2 LJ
2 LW
N
230.5 369 M
230.5 362 L
S
GR
GS
0 1 0 RC
2 LJ
2 LW
N
232 372.5 M
239 372.5 L
S
GR
GS
0 1 0 RC
2 LJ
2 LW
N
235.5 376 M
235.5 369 L
S
GR
GS
0 1 0 RC
2 LJ
2 LW
N
238 372.5 M
245 372.5 L
S
GR
GS
0 1 0 RC
2 LJ
2 LW
N
241.5 376 M
241.5 369 L
S
GR
GS
0 1 0 RC
2 LJ
2 LW
N
243 372.5 M
250 372.5 L
S
GR
GS
0 1 0 RC
2 LJ
2 LW
N
246.5 376 M
246.5 369 L
S
GR
GS
0 1 0 RC
2 LJ
2 LW
N
249 372.5 M
256 372.5 L
S
GR
GS
0 1 0 RC
2 LJ
2 LW
N
252.5 376 M
252.5 369 L
S
GR
GS
0 1 0 RC
2 LJ
2 LW
N
254 373.5 M
261 373.5 L
S
GR
GS
0 1 0 RC
2 LJ
2 LW
N
257.5 377 M
257.5 370 L
S
GR
GS
0 1 0 RC
2 LJ
2 LW
N
259 373.5 M
266 373.5 L
S
GR
GS
0 1 0 RC
2 LJ
2 LW
N
262.5 377 M
262.5 370 L
S
GR
GS
0 1 0 RC
2 LJ
2 LW
N
265 373.5 M
272 373.5 L
S
GR
GS
0 1 0 RC
2 LJ
2 LW
N
268.5 377 M
268.5 370 L
S
GR
GS
0 1 0 RC
2 LJ
2 LW
N
270 373.5 M
277 373.5 L
S
GR
GS
0 1 0 RC
2 LJ
2 LW
N
273.5 377 M
273.5 370 L
S
GR
GS
0 1 0 RC
2 LJ
2 LW
N
276 373.5 M
283 373.5 L
S
GR
GS
0 1 0 RC
2 LJ
2 LW
N
279.5 377 M
279.5 370 L
S
GR
GS
0 1 0 RC
2 LJ
2 LW
N
281 373.5 M
288 373.5 L
S
GR
GS
0 1 0 RC
2 LJ
2 LW
N
284.5 377 M
284.5 370 L
S
GR
GS
0 1 0 RC
2 LJ
2 LW
N
287 373.5 M
294 373.5 L
S
GR
GS
0 1 0 RC
2 LJ
2 LW
N
290.5 377 M
290.5 370 L
S
GR
GS
0 1 0 RC
2 LJ
2 LW
N
292 373.5 M
299 373.5 L
S
GR
GS
0 1 0 RC
2 LJ
2 LW
N
295.5 377 M
295.5 370 L
S
GR
GS
0 1 0 RC
2 LJ
2 LW
N
297 373.5 M
304 373.5 L
S
GR
GS
0 1 0 RC
2 LJ
2 LW
N
300.5 377 M
300.5 370 L
S
GR
GS
0 1 0 RC
2 LJ
2 LW
N
303 373.5 M
310 373.5 L
S
GR
GS
0 1 0 RC
2 LJ
2 LW
N
306.5 377 M
306.5 370 L
S
GR
GS
0 1 0 RC
2 LJ
2 LW
N
308 373.5 M
315 373.5 L
S
GR
GS
0 1 0 RC
2 LJ
2 LW
N
311.5 377 M
311.5 370 L
S
GR
GS
0 1 0 RC
2 LJ
2 LW
N
314 373.5 M
321 373.5 L
S
GR
GS
0 1 0 RC
2 LJ
2 LW
N
317.5 377 M
317.5 370 L
S
GR
GS
0 1 0 RC
2 LJ
2 LW
N
319 373.5 M
326 373.5 L
S
GR
GS
0 1 0 RC
2 LJ
2 LW
N
322.5 377 M
322.5 370 L
S
GR
GS
0 1 0 RC
2 LJ
2 LW
N
324 373.5 M
331 373.5 L
S
GR
GS
0 1 0 RC
2 LJ
2 LW
N
327.5 377 M
327.5 370 L
S
GR
GS
0 1 0 RC
2 LJ
2 LW
N
330 373.5 M
337 373.5 L
S
GR
GS
0 1 0 RC
2 LJ
2 LW
N
333.5 377 M
333.5 370 L
S
GR
GS
0 1 0 RC
2 LJ
2 LW
N
335 373.5 M
342 373.5 L
S
GR
GS
0 1 0 RC
2 LJ
2 LW
N
338.5 377 M
338.5 370 L
S
GR
GS
0 1 0 RC
2 LJ
2 LW
N
341 373.5 M
348 373.5 L
S
GR
GS
0 1 0 RC
2 LJ
2 LW
N
344.5 377 M
344.5 370 L
S
GR
GS
0 1 0 RC
2 LJ
2 LW
N
346 373.5 M
353 373.5 L
S
GR
GS
0 1 0 RC
2 LJ
2 LW
N
349.5 377 M
349.5 370 L
S
GR
GS
0 1 0 RC
2 LJ
2 LW
N
352 373.5 M
359 373.5 L
S
GR
GS
0 1 0 RC
2 LJ
2 LW
N
355.5 377 M
355.5 370 L
S
GR
GS
0 1 0 RC
2 LJ
2 LW
N
357 373.5 M
364 373.5 L
S
GR
GS
0 1 0 RC
2 LJ
2 LW
N
360.5 377 M
360.5 370 L
S
GR
GS
0 1 0 RC
2 LJ
2 LW
N
362 373.5 M
369 373.5 L
S
GR
GS
0 1 0 RC
2 LJ
2 LW
N
365.5 377 M
365.5 370 L
S
GR
GS
0 1 0 RC
2 LJ
2 LW
N
368 373.5 M
375 373.5 L
S
GR
GS
0 1 0 RC
2 LJ
2 LW
N
371.5 377 M
371.5 370 L
S
GR
GS
0 1 0 RC
2 LJ
2 LW
N
373 373.5 M
380 373.5 L
S
GR
GS
0 1 0 RC
2 LJ
2 LW
N
376.5 377 M
376.5 370 L
S
GR
GS
0 1 0 RC
2 LJ
2 LW
N
379 373.5 M
386 373.5 L
S
GR
GS
0 1 0 RC
2 LJ
2 LW
N
382.5 377 M
382.5 370 L
S
GR
GS
0 1 0 RC
2 LJ
2 LW
N
384 373.5 M
391 373.5 L
S
GR
GS
0 1 0 RC
2 LJ
2 LW
N
387.5 377 M
387.5 370 L
S
GR
GS
0 1 0 RC
2 LJ
2 LW
N
390 373.5 M
397 373.5 L
S
GR
GS
0 1 0 RC
2 LJ
2 LW
N
393.5 377 M
393.5 370 L
S
GR
GS
0 1 0 RC
2 LJ
2 LW
N
395 373.5 M
402 373.5 L
S
GR
GS
0 1 0 RC
2 LJ
2 LW
N
398.5 377 M
398.5 370 L
S
GR
GS
0 1 0 RC
2 LJ
2 LW
N
400 373.5 M
407 373.5 L
S
GR
GS
0 1 0 RC
2 LJ
2 LW
N
403.5 377 M
403.5 370 L
S
GR
GS
0 1 0 RC
2 LJ
2 LW
N
406 373.5 M
413 373.5 L
S
GR
GS
0 1 0 RC
2 LJ
2 LW
N
409.5 377 M
409.5 370 L
S
GR
GS
0 1 0 RC
2 LJ
2 LW
N
411 373.5 M
418 373.5 L
S
GR
GS
0 1 0 RC
2 LJ
2 LW
N
414.5 377 M
414.5 370 L
S
GR
GS
0 1 0 RC
2 LJ
2 LW
N
417 373.5 M
424 373.5 L
S
GR
GS
0 1 0 RC
2 LJ
2 LW
N
420.5 377 M
420.5 370 L
S
GR
GS
0 1 0 RC
2 LJ
2 LW
N
422 373.5 M
429 373.5 L
S
GR
GS
0 1 0 RC
2 LJ
2 LW
N
425.5 377 M
425.5 370 L
S
GR
GS
0 1 0 RC
2 LJ
2 LW
N
428 373.5 M
435 373.5 L
S
GR
GS
0 1 0 RC
2 LJ
2 LW
N
431.5 377 M
431.5 370 L
S
GR
GS
0 1 0 RC
2 LJ
2 LW
N
433 373.5 M
440 373.5 L
S
GR
GS
0 1 0 RC
2 LJ
2 LW
N
436.5 377 M
436.5 370 L
S
GR
GS
0 1 0 RC
2 LJ
2 LW
N
438 373.5 M
445 373.5 L
S
GR
GS
0 1 0 RC
2 LJ
2 LW
N
441.5 377 M
441.5 370 L
S
GR
GS
0 1 0 RC
2 LJ
2 LW
N
444 373.5 M
451 373.5 L
S
GR
GS
0 1 0 RC
2 LJ
2 LW
N
447.5 377 M
447.5 370 L
S
GR
GS
0 1 0 RC
2 LJ
2 LW
N
449 373.5 M
456 373.5 L
S
GR
GS
0 1 0 RC
2 LJ
2 LW
N
452.5 377 M
452.5 370 L
S
GR
GS
0 1 0 RC
2 LJ
2 LW
N
455 373.5 M
462 373.5 L
S
GR
GS
0 1 0 RC
2 LJ
2 LW
N
458.5 377 M
458.5 370 L
S
GR
GS
0 1 0 RC
2 LJ
2 LW
N
460 373.5 M
467 373.5 L
S
GR
GS
0 1 0 RC
2 LJ
2 LW
N
463.5 377 M
463.5 370 L
S
GR
GS
1 0 0 RC
[8 8] 0 setdash
2 LJ
2 LW
N
78.425 317.215 M
83.85 318.409 L
89.275 318.987 L
94.7 317.215 L
100.125 320.454 L
105.55 320.316 L
110.975 319.839 L
116.4 320.078 L
121.825 319.839 L
127.25 318.169 L
132.675 318.646 L
138.1 319.601 L
143.525 319.363 L
148.95 320.555 L
154.375 320.793 L
159.8 275.147 L
165.225 275.147 L
170.65 275.624 L
176.075 275.624 L
181.5 278.009 L
186.925 280.87 L
192.35 280.87 L
197.775 283.972 L
203.2 293.702 L
208.625 296.023 L
214.05 297.507 L
219.475 299.162 L
224.9 299.529 L
230.325 301.198 L
235.75 312.789 L
241.175 321.373 L
246.6 322.611 L
252.025 324.361 L
257.45 330.623 L
262.875 335.476 L
268.3 342.477 L
273.725 346.086 L
279.15 346.086 L
284.575 349.96 L
290 349.96 L
295.425 353.438 L
300.85 355.25 L
306.275 355.25 L
311.7 355.983 L
317.125 356.937 L
322.55 359.421 L
327.975 362.762 L
333.4 364.006 L
338.825 364.996 L
344.25 365.473 L
349.675 365.95 L
355.1 366.427 L
360.525 366.875 L
365.95 368.152 L
371.375 368.152 L
376.8 368.152 L
382.225 369.269 L
387.65 369.269 L
393.075 370.223 L
398.5 370.223 L
403.925 371.177 L
409.35 371.655 L
414.775 371.655 L
420.2 372.609 L
425.625 372.609 L
431.05 372.609 L
436.475 372.609 L
441.9 372.609 L
447.325 372.609 L
452.75 372.609 L
458.175 373.046 L
463.6 373.046 L
S
GR
GS
1 0 0 RC
2 setlinecap
10.0 ML
2 LW
N
81.5 317.5 M
80.621 315.379 L
78.5 314.5 L
76.379 315.379 L
75.5 317.5 L
76.379 319.621 L
78.5 320.5 L
80.621 319.621 L
81.5 317.5 L
S
GR
GS
1 0 0 RC
2 setlinecap
10.0 ML
2 LW
N
86.5 318.5 M
85.621 316.379 L
83.5 315.5 L
81.379 316.379 L
80.5 318.5 L
81.379 320.621 L
83.5 321.5 L
85.621 320.621 L
86.5 318.5 L
S
GR
GS
1 0 0 RC
2 setlinecap
10.0 ML
2 LW
N
92.5 318.5 M
91.621 316.379 L
89.5 315.5 L
87.379 316.379 L
86.5 318.5 L
87.379 320.621 L
89.5 321.5 L
91.621 320.621 L
92.5 318.5 L
S
GR
GS
1 0 0 RC
2 setlinecap
10.0 ML
2 LW
N
97.5 317.5 M
96.621 315.379 L
94.5 314.5 L
92.379 315.379 L
91.5 317.5 L
92.379 319.621 L
94.5 320.5 L
96.621 319.621 L
97.5 317.5 L
S
GR
GS
1 0 0 RC
2 setlinecap
10.0 ML
2 LW
N
103.5 320.5 M
102.621 318.379 L
100.5 317.5 L
98.379 318.379 L
97.5 320.5 L
98.379 322.621 L
100.5 323.5 L
102.621 322.621 L
103.5 320.5 L
S
GR
GS
1 0 0 RC
2 setlinecap
10.0 ML
2 LW
N
108.5 320.5 M
107.621 318.379 L
105.5 317.5 L
103.379 318.379 L
102.5 320.5 L
103.379 322.621 L
105.5 323.5 L
107.621 322.621 L
108.5 320.5 L
S
GR
GS
1 0 0 RC
2 setlinecap
10.0 ML
2 LW
N
113.5 319.5 M
112.621 317.379 L
110.5 316.5 L
108.379 317.379 L
107.5 319.5 L
108.379 321.621 L
110.5 322.5 L
112.621 321.621 L
113.5 319.5 L
S
GR
GS
1 0 0 RC
2 setlinecap
10.0 ML
2 LW
N
119.5 320.5 M
118.621 318.379 L
116.5 317.5 L
114.379 318.379 L
113.5 320.5 L
114.379 322.621 L
116.5 323.5 L
118.621 322.621 L
119.5 320.5 L
S
GR
GS
1 0 0 RC
2 setlinecap
10.0 ML
2 LW
N
124.5 319.5 M
123.621 317.379 L
121.5 316.5 L
119.379 317.379 L
118.5 319.5 L
119.379 321.621 L
121.5 322.5 L
123.621 321.621 L
124.5 319.5 L
S
GR
GS
1 0 0 RC
2 setlinecap
10.0 ML
2 LW
N
130.5 318.5 M
129.621 316.379 L
127.5 315.5 L
125.379 316.379 L
124.5 318.5 L
125.379 320.621 L
127.5 321.5 L
129.621 320.621 L
130.5 318.5 L
S
GR
GS
1 0 0 RC
2 setlinecap
10.0 ML
2 LW
N
135.5 318.5 M
134.621 316.379 L
132.5 315.5 L
130.379 316.379 L
129.5 318.5 L
130.379 320.621 L
132.5 321.5 L
134.621 320.621 L
135.5 318.5 L
S
GR
GS
1 0 0 RC
2 setlinecap
10.0 ML
2 LW
N
141.5 319.5 M
140.621 317.379 L
138.5 316.5 L
136.379 317.379 L
135.5 319.5 L
136.379 321.621 L
138.5 322.5 L
140.621 321.621 L
141.5 319.5 L
S
GR
GS
1 0 0 RC
2 setlinecap
10.0 ML
2 LW
N
146.5 319.5 M
145.621 317.379 L
143.5 316.5 L
141.379 317.379 L
140.5 319.5 L
141.379 321.621 L
143.5 322.5 L
145.621 321.621 L
146.5 319.5 L
S
GR
GS
1 0 0 RC
2 setlinecap
10.0 ML
2 LW
N
151.5 320.5 M
150.621 318.379 L
148.5 317.5 L
146.379 318.379 L
145.5 320.5 L
146.379 322.621 L
148.5 323.5 L
150.621 322.621 L
151.5 320.5 L
S
GR
GS
1 0 0 RC
2 setlinecap
10.0 ML
2 LW
N
157.5 320.5 M
156.621 318.379 L
154.5 317.5 L
152.379 318.379 L
151.5 320.5 L
152.379 322.621 L
154.5 323.5 L
156.621 322.621 L
157.5 320.5 L
S
GR
GS
1 0 0 RC
2 setlinecap
10.0 ML
2 LW
N
162.5 275.5 M
161.621 273.379 L
159.5 272.5 L
157.379 273.379 L
156.5 275.5 L
157.379 277.621 L
159.5 278.5 L
161.621 277.621 L
162.5 275.5 L
S
GR
GS
1 0 0 RC
2 setlinecap
10.0 ML
2 LW
N
168.5 275.5 M
167.621 273.379 L
165.5 272.5 L
163.379 273.379 L
162.5 275.5 L
163.379 277.621 L
165.5 278.5 L
167.621 277.621 L
168.5 275.5 L
S
GR
GS
1 0 0 RC
2 setlinecap
10.0 ML
2 LW
N
173.5 275.5 M
172.621 273.379 L
170.5 272.5 L
168.379 273.379 L
167.5 275.5 L
168.379 277.621 L
170.5 278.5 L
172.621 277.621 L
173.5 275.5 L
S
GR
GS
1 0 0 RC
2 setlinecap
10.0 ML
2 LW
N
179.5 275.5 M
178.621 273.379 L
176.5 272.5 L
174.379 273.379 L
173.5 275.5 L
174.379 277.621 L
176.5 278.5 L
178.621 277.621 L
179.5 275.5 L
S
GR
GS
1 0 0 RC
2 setlinecap
10.0 ML
2 LW
N
184.5 278.5 M
183.621 276.379 L
181.5 275.5 L
179.379 276.379 L
178.5 278.5 L
179.379 280.621 L
181.5 281.5 L
183.621 280.621 L
184.5 278.5 L
S
GR
GS
1 0 0 RC
2 setlinecap
10.0 ML
2 LW
N
189.5 280.5 M
188.621 278.379 L
186.5 277.5 L
184.379 278.379 L
183.5 280.5 L
184.379 282.621 L
186.5 283.5 L
188.621 282.621 L
189.5 280.5 L
S
GR
GS
1 0 0 RC
2 setlinecap
10.0 ML
2 LW
N
195.5 280.5 M
194.621 278.379 L
192.5 277.5 L
190.379 278.379 L
189.5 280.5 L
190.379 282.621 L
192.5 283.5 L
194.621 282.621 L
195.5 280.5 L
S
GR
GS
1 0 0 RC
2 setlinecap
10.0 ML
2 LW
N
200.5 283.5 M
199.621 281.379 L
197.5 280.5 L
195.379 281.379 L
194.5 283.5 L
195.379 285.621 L
197.5 286.5 L
199.621 285.621 L
200.5 283.5 L
S
GR
GS
1 0 0 RC
2 setlinecap
10.0 ML
2 LW
N
206.5 293.5 M
205.621 291.379 L
203.5 290.5 L
201.379 291.379 L
200.5 293.5 L
201.379 295.621 L
203.5 296.5 L
205.621 295.621 L
206.5 293.5 L
S
GR
GS
1 0 0 RC
2 setlinecap
10.0 ML
2 LW
N
211.5 296.5 M
210.621 294.379 L
208.5 293.5 L
206.379 294.379 L
205.5 296.5 L
206.379 298.621 L
208.5 299.5 L
210.621 298.621 L
211.5 296.5 L
S
GR
GS
1 0 0 RC
2 setlinecap
10.0 ML
2 LW
N
217.5 297.5 M
216.621 295.379 L
214.5 294.5 L
212.379 295.379 L
211.5 297.5 L
212.379 299.621 L
214.5 300.5 L
216.621 299.621 L
217.5 297.5 L
S
GR
GS
1 0 0 RC
2 setlinecap
10.0 ML
2 LW
N
222.5 299.5 M
221.621 297.379 L
219.5 296.5 L
217.379 297.379 L
216.5 299.5 L
217.379 301.621 L
219.5 302.5 L
221.621 301.621 L
222.5 299.5 L
S
GR
GS
1 0 0 RC
2 setlinecap
10.0 ML
2 LW
N
227.5 299.5 M
226.621 297.379 L
224.5 296.5 L
222.379 297.379 L
221.5 299.5 L
222.379 301.621 L
224.5 302.5 L
226.621 301.621 L
227.5 299.5 L
S
GR
GS
1 0 0 RC
2 setlinecap
10.0 ML
2 LW
N
233.5 301.5 M
232.621 299.379 L
230.5 298.5 L
228.379 299.379 L
227.5 301.5 L
228.379 303.621 L
230.5 304.5 L
232.621 303.621 L
233.5 301.5 L
S
GR
GS
1 0 0 RC
2 setlinecap
10.0 ML
2 LW
N
238.5 312.5 M
237.621 310.379 L
235.5 309.5 L
233.379 310.379 L
232.5 312.5 L
233.379 314.621 L
235.5 315.5 L
237.621 314.621 L
238.5 312.5 L
S
GR
GS
1 0 0 RC
2 setlinecap
10.0 ML
2 LW
N
244.5 321.5 M
243.621 319.379 L
241.5 318.5 L
239.379 319.379 L
238.5 321.5 L
239.379 323.621 L
241.5 324.5 L
243.621 323.621 L
244.5 321.5 L
S
GR
GS
1 0 0 RC
2 setlinecap
10.0 ML
2 LW
N
249.5 322.5 M
248.621 320.379 L
246.5 319.5 L
244.379 320.379 L
243.5 322.5 L
244.379 324.621 L
246.5 325.5 L
248.621 324.621 L
249.5 322.5 L
S
GR
GS
1 0 0 RC
2 setlinecap
10.0 ML
2 LW
N
255.5 324.5 M
254.621 322.379 L
252.5 321.5 L
250.379 322.379 L
249.5 324.5 L
250.379 326.621 L
252.5 327.5 L
254.621 326.621 L
255.5 324.5 L
S
GR
GS
1 0 0 RC
2 setlinecap
10.0 ML
2 LW
N
260.5 330.5 M
259.621 328.379 L
257.5 327.5 L
255.379 328.379 L
254.5 330.5 L
255.379 332.621 L
257.5 333.5 L
259.621 332.621 L
260.5 330.5 L
S
GR
GS
1 0 0 RC
2 setlinecap
10.0 ML
2 LW
N
265.5 335.5 M
264.621 333.379 L
262.5 332.5 L
260.379 333.379 L
259.5 335.5 L
260.379 337.621 L
262.5 338.5 L
264.621 337.621 L
265.5 335.5 L
S
GR
GS
1 0 0 RC
2 setlinecap
10.0 ML
2 LW
N
271.5 342.5 M
270.621 340.379 L
268.5 339.5 L
266.379 340.379 L
265.5 342.5 L
266.379 344.621 L
268.5 345.5 L
270.621 344.621 L
271.5 342.5 L
S
GR
GS
1 0 0 RC
2 setlinecap
10.0 ML
2 LW
N
276.5 346.5 M
275.621 344.379 L
273.5 343.5 L
271.379 344.379 L
270.5 346.5 L
271.379 348.621 L
273.5 349.5 L
275.621 348.621 L
276.5 346.5 L
S
GR
GS
1 0 0 RC
2 setlinecap
10.0 ML
2 LW
N
282.5 346.5 M
281.621 344.379 L
279.5 343.5 L
277.379 344.379 L
276.5 346.5 L
277.379 348.621 L
279.5 349.5 L
281.621 348.621 L
282.5 346.5 L
S
GR
GS
1 0 0 RC
2 setlinecap
10.0 ML
2 LW
N
287.5 349.5 M
286.621 347.379 L
284.5 346.5 L
282.379 347.379 L
281.5 349.5 L
282.379 351.621 L
284.5 352.5 L
286.621 351.621 L
287.5 349.5 L
S
GR
GS
1 0 0 RC
2 setlinecap
10.0 ML
2 LW
N
293.5 349.5 M
292.621 347.379 L
290.5 346.5 L
288.379 347.379 L
287.5 349.5 L
288.379 351.621 L
290.5 352.5 L
292.621 351.621 L
293.5 349.5 L
S
GR
GS
1 0 0 RC
2 setlinecap
10.0 ML
2 LW
N
298.5 353.5 M
297.621 351.379 L
295.5 350.5 L
293.379 351.379 L
292.5 353.5 L
293.379 355.621 L
295.5 356.5 L
297.621 355.621 L
298.5 353.5 L
S
GR
GS
1 0 0 RC
2 setlinecap
10.0 ML
2 LW
N
303.5 355.5 M
302.621 353.379 L
300.5 352.5 L
298.379 353.379 L
297.5 355.5 L
298.379 357.621 L
300.5 358.5 L
302.621 357.621 L
303.5 355.5 L
S
GR
GS
1 0 0 RC
2 setlinecap
10.0 ML
2 LW
N
309.5 355.5 M
308.621 353.379 L
306.5 352.5 L
304.379 353.379 L
303.5 355.5 L
304.379 357.621 L
306.5 358.5 L
308.621 357.621 L
309.5 355.5 L
S
GR
GS
1 0 0 RC
2 setlinecap
10.0 ML
2 LW
N
314.5 355.5 M
313.621 353.379 L
311.5 352.5 L
309.379 353.379 L
308.5 355.5 L
309.379 357.621 L
311.5 358.5 L
313.621 357.621 L
314.5 355.5 L
S
GR
GS
1 0 0 RC
2 setlinecap
10.0 ML
2 LW
N
320.5 356.5 M
319.621 354.379 L
317.5 353.5 L
315.379 354.379 L
314.5 356.5 L
315.379 358.621 L
317.5 359.5 L
319.621 358.621 L
320.5 356.5 L
S
GR
GS
1 0 0 RC
2 setlinecap
10.0 ML
2 LW
N
325.5 359.5 M
324.621 357.379 L
322.5 356.5 L
320.379 357.379 L
319.5 359.5 L
320.379 361.621 L
322.5 362.5 L
324.621 361.621 L
325.5 359.5 L
S
GR
GS
1 0 0 RC
2 setlinecap
10.0 ML
2 LW
N
330.5 362.5 M
329.621 360.379 L
327.5 359.5 L
325.379 360.379 L
324.5 362.5 L
325.379 364.621 L
327.5 365.5 L
329.621 364.621 L
330.5 362.5 L
S
GR
GS
1 0 0 RC
2 setlinecap
10.0 ML
2 LW
N
336.5 364.5 M
335.621 362.379 L
333.5 361.5 L
331.379 362.379 L
330.5 364.5 L
331.379 366.621 L
333.5 367.5 L
335.621 366.621 L
336.5 364.5 L
S
GR
GS
1 0 0 RC
2 setlinecap
10.0 ML
2 LW
N
341.5 364.5 M
340.621 362.379 L
338.5 361.5 L
336.379 362.379 L
335.5 364.5 L
336.379 366.621 L
338.5 367.5 L
340.621 366.621 L
341.5 364.5 L
S
GR
GS
1 0 0 RC
2 setlinecap
10.0 ML
2 LW
N
347.5 365.5 M
346.621 363.379 L
344.5 362.5 L
342.379 363.379 L
341.5 365.5 L
342.379 367.621 L
344.5 368.5 L
346.621 367.621 L
347.5 365.5 L
S
GR
GS
1 0 0 RC
2 setlinecap
10.0 ML
2 LW
N
352.5 365.5 M
351.621 363.379 L
349.5 362.5 L
347.379 363.379 L
346.5 365.5 L
347.379 367.621 L
349.5 368.5 L
351.621 367.621 L
352.5 365.5 L
S
GR
GS
1 0 0 RC
2 setlinecap
10.0 ML
2 LW
N
358.5 366.5 M
357.621 364.379 L
355.5 363.5 L
353.379 364.379 L
352.5 366.5 L
353.379 368.621 L
355.5 369.5 L
357.621 368.621 L
358.5 366.5 L
S
GR
GS
1 0 0 RC
2 setlinecap
10.0 ML
2 LW
N
363.5 366.5 M
362.621 364.379 L
360.5 363.5 L
358.379 364.379 L
357.5 366.5 L
358.379 368.621 L
360.5 369.5 L
362.621 368.621 L
363.5 366.5 L
S
GR
GS
1 0 0 RC
2 setlinecap
10.0 ML
2 LW
N
368.5 368.5 M
367.621 366.379 L
365.5 365.5 L
363.379 366.379 L
362.5 368.5 L
363.379 370.621 L
365.5 371.5 L
367.621 370.621 L
368.5 368.5 L
S
GR
GS
1 0 0 RC
2 setlinecap
10.0 ML
2 LW
N
374.5 368.5 M
373.621 366.379 L
371.5 365.5 L
369.379 366.379 L
368.5 368.5 L
369.379 370.621 L
371.5 371.5 L
373.621 370.621 L
374.5 368.5 L
S
GR
GS
1 0 0 RC
2 setlinecap
10.0 ML
2 LW
N
379.5 368.5 M
378.621 366.379 L
376.5 365.5 L
374.379 366.379 L
373.5 368.5 L
374.379 370.621 L
376.5 371.5 L
378.621 370.621 L
379.5 368.5 L
S
GR
GS
1 0 0 RC
2 setlinecap
10.0 ML
2 LW
N
385.5 369.5 M
384.621 367.379 L
382.5 366.5 L
380.379 367.379 L
379.5 369.5 L
380.379 371.621 L
382.5 372.5 L
384.621 371.621 L
385.5 369.5 L
S
GR
GS
1 0 0 RC
2 setlinecap
10.0 ML
2 LW
N
390.5 369.5 M
389.621 367.379 L
387.5 366.5 L
385.379 367.379 L
384.5 369.5 L
385.379 371.621 L
387.5 372.5 L
389.621 371.621 L
390.5 369.5 L
S
GR
GS
1 0 0 RC
2 setlinecap
10.0 ML
2 LW
N
396.5 370.5 M
395.621 368.379 L
393.5 367.5 L
391.379 368.379 L
390.5 370.5 L
391.379 372.621 L
393.5 373.5 L
395.621 372.621 L
396.5 370.5 L
S
GR
GS
1 0 0 RC
2 setlinecap
10.0 ML
2 LW
N
401.5 370.5 M
400.621 368.379 L
398.5 367.5 L
396.379 368.379 L
395.5 370.5 L
396.379 372.621 L
398.5 373.5 L
400.621 372.621 L
401.5 370.5 L
S
GR
GS
1 0 0 RC
2 setlinecap
10.0 ML
2 LW
N
406.5 371.5 M
405.621 369.379 L
403.5 368.5 L
401.379 369.379 L
400.5 371.5 L
401.379 373.621 L
403.5 374.5 L
405.621 373.621 L
406.5 371.5 L
S
GR
GS
1 0 0 RC
2 setlinecap
10.0 ML
2 LW
N
412.5 371.5 M
411.621 369.379 L
409.5 368.5 L
407.379 369.379 L
406.5 371.5 L
407.379 373.621 L
409.5 374.5 L
411.621 373.621 L
412.5 371.5 L
S
GR
GS
1 0 0 RC
2 setlinecap
10.0 ML
2 LW
N
417.5 371.5 M
416.621 369.379 L
414.5 368.5 L
412.379 369.379 L
411.5 371.5 L
412.379 373.621 L
414.5 374.5 L
416.621 373.621 L
417.5 371.5 L
S
GR
GS
1 0 0 RC
2 setlinecap
10.0 ML
2 LW
N
423.5 372.5 M
422.621 370.379 L
420.5 369.5 L
418.379 370.379 L
417.5 372.5 L
418.379 374.621 L
420.5 375.5 L
422.621 374.621 L
423.5 372.5 L
S
GR
GS
1 0 0 RC
2 setlinecap
10.0 ML
2 LW
N
428.5 372.5 M
427.621 370.379 L
425.5 369.5 L
423.379 370.379 L
422.5 372.5 L
423.379 374.621 L
425.5 375.5 L
427.621 374.621 L
428.5 372.5 L
S
GR
GS
1 0 0 RC
2 setlinecap
10.0 ML
2 LW
N
434.5 372.5 M
433.621 370.379 L
431.5 369.5 L
429.379 370.379 L
428.5 372.5 L
429.379 374.621 L
431.5 375.5 L
433.621 374.621 L
434.5 372.5 L
S
GR
GS
1 0 0 RC
2 setlinecap
10.0 ML
2 LW
N
439.5 372.5 M
438.621 370.379 L
436.5 369.5 L
434.379 370.379 L
433.5 372.5 L
434.379 374.621 L
436.5 375.5 L
438.621 374.621 L
439.5 372.5 L
S
GR
GS
1 0 0 RC
2 setlinecap
10.0 ML
2 LW
N
444.5 372.5 M
443.621 370.379 L
441.5 369.5 L
439.379 370.379 L
438.5 372.5 L
439.379 374.621 L
441.5 375.5 L
443.621 374.621 L
444.5 372.5 L
S
GR
GS
1 0 0 RC
2 setlinecap
10.0 ML
2 LW
N
450.5 372.5 M
449.621 370.379 L
447.5 369.5 L
445.379 370.379 L
444.5 372.5 L
445.379 374.621 L
447.5 375.5 L
449.621 374.621 L
450.5 372.5 L
S
GR
GS
1 0 0 RC
2 setlinecap
10.0 ML
2 LW
N
455.5 372.5 M
454.621 370.379 L
452.5 369.5 L
450.379 370.379 L
449.5 372.5 L
450.379 374.621 L
452.5 375.5 L
454.621 374.621 L
455.5 372.5 L
S
GR
GS
1 0 0 RC
2 setlinecap
10.0 ML
2 LW
N
461.5 373.5 M
460.621 371.379 L
458.5 370.5 L
456.379 371.379 L
455.5 373.5 L
456.379 375.621 L
458.5 376.5 L
460.621 375.621 L
461.5 373.5 L
S
GR
GS
1 0 0 RC
2 setlinecap
10.0 ML
2 LW
N
466.5 373.5 M
465.621 371.379 L
463.5 370.5 L
461.379 371.379 L
460.5 373.5 L
461.379 375.621 L
463.5 376.5 L
465.621 375.621 L
466.5 373.5 L
S
GR
GS
1 GC
N
379 265 M
379 241 L
497 241 L
497 265 L
cp
f
GR
GS
[1 0 0 1 418 247.85715] CT
/Helvetica-Bold 9 F
GS
[1 0 0 1 0 0] CT
0 2 moveto 
1 -1 scale
(without switching) t 
GR
GR
GS
0 1 0 RC
2 setlinecap
10.0 ML
2 LW
N
385 247.857 M
415 247.857 L
S
GR
GS
0 1 0 RC
2 setlinecap
10.0 ML
2 LW
N
397 247.5 M
404 247.5 L
S
GR
GS
0 1 0 RC
2 setlinecap
10.0 ML
2 LW
N
400.5 251 M
400.5 244 L
S
GR
GS
[1 0 0 1 418 258.14285] CT
/Helvetica-Bold 9 F
GS
[1 0 0 1 0 0] CT
0 2 moveto 
1 -1 scale
(with switching) t 
GR
GR
GS
1 0 0 RC
[8 8] 0 setdash
2 LJ
2 LW
N
385 258.143 M
415 258.143 L
S
GR
GS
1 0 0 RC
2 setlinecap
10.0 ML
2 LW
N
403.5 258.5 M
402.621 256.379 L
400.5 255.5 L
398.379 256.379 L
397.5 258.5 L
398.379 260.621 L
400.5 261.5 L
402.621 260.621 L
403.5 258.5 L
S
GR
GS
0.149 GC
2 setlinecap
10.0 ML
N
379 265 M
379 241 L
497 241 L
497 265 L
379 265 L
S
GR
%%Trailer
%%Pages: 1
%%EOF
