%!PS-Adobe-3.0 EPSF-3.0
%%Creator: (MATLAB, The Mathworks, Inc. Version 8.5.0.197613 \(R2015a\). Operating System: Mac OS X)
%%Title: /Users/ashwinyakkundimath/Documents/Thesis_Results/plots/switching/switching-cross-thr.eps
%%CreationDate: 2016-01-05T12:03:14
%%Pages: (atend)
%%BoundingBox: 0 0 560 420
%%LanguageLevel: 2
%%EndComments
%%BeginProlog
%%BeginResource: procset (Apache XML Graphics Std ProcSet) 1.2 0
%%Version: 1.2 0
%%Copyright: (Copyright 2001-2003,2010 The Apache Software Foundation. License terms: http://www.apache.org/licenses/LICENSE-2.0)
/bd{bind def}bind def
/ld{load def}bd
/GR/grestore ld
/M/moveto ld
/LJ/setlinejoin ld
/C/curveto ld
/f/fill ld
/LW/setlinewidth ld
/GC/setgray ld
/t/show ld
/N/newpath ld
/CT/concat ld
/cp/closepath ld
/S/stroke ld
/L/lineto ld
/CC/setcmykcolor ld
/A/ashow ld
/GS/gsave ld
/RC/setrgbcolor ld
/RM/rmoveto ld
/ML/setmiterlimit ld
/re {4 2 roll M
1 index 0 rlineto
0 exch rlineto
neg 0 rlineto
cp } bd
/_ctm matrix def
/_tm matrix def
/BT { _ctm currentmatrix pop matrix _tm copy pop 0 0 moveto } bd
/ET { _ctm setmatrix } bd
/iTm { _ctm setmatrix _tm concat } bd
/Tm { _tm astore pop iTm 0 0 moveto } bd
/ux 0.0 def
/uy 0.0 def
/F {
  /Tp exch def
  /Tf exch def
  Tf findfont Tp scalefont setfont
  /cf Tf def  /cs Tp def
} bd
/ULS {currentpoint /uy exch def /ux exch def} bd
/ULE {
  /Tcx currentpoint pop def
  gsave
  newpath
  cf findfont cs scalefont dup
  /FontMatrix get 0 get /Ts exch def /FontInfo get dup
  /UnderlinePosition get Ts mul /To exch def
  /UnderlineThickness get Ts mul /Tt exch def
  ux uy To add moveto  Tcx uy To add lineto
  Tt setlinewidth stroke
  grestore
} bd
/OLE {
  /Tcx currentpoint pop def
  gsave
  newpath
  cf findfont cs scalefont dup
  /FontMatrix get 0 get /Ts exch def /FontInfo get dup
  /UnderlinePosition get Ts mul /To exch def
  /UnderlineThickness get Ts mul /Tt exch def
  ux uy To add cs add moveto Tcx uy To add cs add lineto
  Tt setlinewidth stroke
  grestore
} bd
/SOE {
  /Tcx currentpoint pop def
  gsave
  newpath
  cf findfont cs scalefont dup
  /FontMatrix get 0 get /Ts exch def /FontInfo get dup
  /UnderlinePosition get Ts mul /To exch def
  /UnderlineThickness get Ts mul /Tt exch def
  ux uy To add cs 10 mul 26 idiv add moveto Tcx uy To add cs 10 mul 26 idiv add lineto
  Tt setlinewidth stroke
  grestore
} bd
/QT {
/Y22 exch store
/X22 exch store
/Y21 exch store
/X21 exch store
currentpoint
/Y21 load 2 mul add 3 div exch
/X21 load 2 mul add 3 div exch
/X21 load 2 mul /X22 load add 3 div
/Y21 load 2 mul /Y22 load add 3 div
/X22 load /Y22 load curveto
} bd
/SSPD {
dup length /d exch dict def
{
/v exch def
/k exch def
currentpagedevice k known {
/cpdv currentpagedevice k get def
v cpdv ne {
/upd false def
/nullv v type /nulltype eq def
/nullcpdv cpdv type /nulltype eq def
nullv nullcpdv or
{
/upd true def
} {
/sametype v type cpdv type eq def
sametype {
v type /arraytype eq {
/vlen v length def
/cpdvlen cpdv length def
vlen cpdvlen eq {
0 1 vlen 1 sub {
/i exch def
/obj v i get def
/cpdobj cpdv i get def
obj cpdobj ne {
/upd true def
exit
} if
} for
} {
/upd true def
} ifelse
} {
v type /dicttype eq {
v {
/dv exch def
/dk exch def
/cpddv cpdv dk get def
dv cpddv ne {
/upd true def
exit
} if
} forall
} {
/upd true def
} ifelse
} ifelse
} if
} ifelse
upd true eq {
d k v put
} if
} if
} if
} forall
d length 0 gt {
d setpagedevice
} if
} bd
%%EndResource
%%BeginResource: procset (Apache XML Graphics EPS ProcSet) 1.0 0
%%Version: 1.0 0
%%Copyright: (Copyright 2002-2003 The Apache Software Foundation. License terms: http://www.apache.org/licenses/LICENSE-2.0)
/BeginEPSF { %def
/b4_Inc_state save def         % Save state for cleanup
/dict_count countdictstack def % Count objects on dict stack
/op_count count 1 sub def      % Count objects on operand stack
userdict begin                 % Push userdict on dict stack
/showpage { } def              % Redefine showpage, { } = null proc
0 setgray 0 setlinecap         % Prepare graphics state
1 setlinewidth 0 setlinejoin
10 setmiterlimit [ ] 0 setdash newpath
/languagelevel where           % If level not equal to 1 then
{pop languagelevel             % set strokeadjust and
1 ne                           % overprint to their defaults.
{false setstrokeadjust false setoverprint
} if
} if
} bd
/EndEPSF { %def
count op_count sub {pop} repeat            % Clean up stacks
countdictstack dict_count sub {end} repeat
b4_Inc_state restore
} bd
%%EndResource
%FOPBeginFontDict
%%IncludeResource: font Courier-Bold
%%IncludeResource: font Helvetica
%%IncludeResource: font Courier-BoldOblique
%%IncludeResource: font Courier-Oblique
%%IncludeResource: font Times-Roman
%%IncludeResource: font Helvetica-BoldOblique
%%IncludeResource: font Helvetica-Bold
%%IncludeResource: font Helvetica-Oblique
%%IncludeResource: font Times-BoldItalic
%%IncludeResource: font Courier
%%IncludeResource: font Times-Italic
%%IncludeResource: font Times-Bold
%%IncludeResource: font Symbol
%%IncludeResource: font ZapfDingbats
%FOPEndFontDict
%%BeginResource: encoding WinAnsiEncoding
/WinAnsiEncoding [
/.notdef /.notdef /.notdef /.notdef /.notdef
/.notdef /.notdef /.notdef /.notdef /.notdef
/.notdef /.notdef /.notdef /.notdef /.notdef
/.notdef /.notdef /.notdef /.notdef /.notdef
/.notdef /.notdef /.notdef /.notdef /.notdef
/.notdef /.notdef /.notdef /.notdef /.notdef
/.notdef /.notdef /space /exclam /quotedbl
/numbersign /dollar /percent /ampersand /quotesingle
/parenleft /parenright /asterisk /plus /comma
/hyphen /period /slash /zero /one
/two /three /four /five /six
/seven /eight /nine /colon /semicolon
/less /equal /greater /question /at
/A /B /C /D /E
/F /G /H /I /J
/K /L /M /N /O
/P /Q /R /S /T
/U /V /W /X /Y
/Z /bracketleft /backslash /bracketright /asciicircum
/underscore /quoteleft /a /b /c
/d /e /f /g /h
/i /j /k /l /m
/n /o /p /q /r
/s /t /u /v /w
/x /y /z /braceleft /bar
/braceright /asciitilde /bullet /Euro /bullet
/quotesinglbase /florin /quotedblbase /ellipsis /dagger
/daggerdbl /circumflex /perthousand /Scaron /guilsinglleft
/OE /bullet /Zcaron /bullet /bullet
/quoteleft /quoteright /quotedblleft /quotedblright /bullet
/endash /emdash /asciitilde /trademark /scaron
/guilsinglright /oe /bullet /zcaron /Ydieresis
/space /exclamdown /cent /sterling /currency
/yen /brokenbar /section /dieresis /copyright
/ordfeminine /guillemotleft /logicalnot /sfthyphen /registered
/macron /degree /plusminus /twosuperior /threesuperior
/acute /mu /paragraph /middot /cedilla
/onesuperior /ordmasculine /guillemotright /onequarter /onehalf
/threequarters /questiondown /Agrave /Aacute /Acircumflex
/Atilde /Adieresis /Aring /AE /Ccedilla
/Egrave /Eacute /Ecircumflex /Edieresis /Igrave
/Iacute /Icircumflex /Idieresis /Eth /Ntilde
/Ograve /Oacute /Ocircumflex /Otilde /Odieresis
/multiply /Oslash /Ugrave /Uacute /Ucircumflex
/Udieresis /Yacute /Thorn /germandbls /agrave
/aacute /acircumflex /atilde /adieresis /aring
/ae /ccedilla /egrave /eacute /ecircumflex
/edieresis /igrave /iacute /icircumflex /idieresis
/eth /ntilde /ograve /oacute /ocircumflex
/otilde /odieresis /divide /oslash /ugrave
/uacute /ucircumflex /udieresis /yacute /thorn
/ydieresis
] def
%%EndResource
%FOPBeginFontReencode
/Courier-Bold findfont
dup length dict begin
  {1 index /FID ne {def} {pop pop} ifelse} forall
  /Encoding WinAnsiEncoding def
  currentdict
end
/Courier-Bold exch definefont pop
/Helvetica findfont
dup length dict begin
  {1 index /FID ne {def} {pop pop} ifelse} forall
  /Encoding WinAnsiEncoding def
  currentdict
end
/Helvetica exch definefont pop
/Courier-BoldOblique findfont
dup length dict begin
  {1 index /FID ne {def} {pop pop} ifelse} forall
  /Encoding WinAnsiEncoding def
  currentdict
end
/Courier-BoldOblique exch definefont pop
/Courier-Oblique findfont
dup length dict begin
  {1 index /FID ne {def} {pop pop} ifelse} forall
  /Encoding WinAnsiEncoding def
  currentdict
end
/Courier-Oblique exch definefont pop
/Times-Roman findfont
dup length dict begin
  {1 index /FID ne {def} {pop pop} ifelse} forall
  /Encoding WinAnsiEncoding def
  currentdict
end
/Times-Roman exch definefont pop
/Helvetica-BoldOblique findfont
dup length dict begin
  {1 index /FID ne {def} {pop pop} ifelse} forall
  /Encoding WinAnsiEncoding def
  currentdict
end
/Helvetica-BoldOblique exch definefont pop
/Helvetica-Bold findfont
dup length dict begin
  {1 index /FID ne {def} {pop pop} ifelse} forall
  /Encoding WinAnsiEncoding def
  currentdict
end
/Helvetica-Bold exch definefont pop
/Helvetica-Oblique findfont
dup length dict begin
  {1 index /FID ne {def} {pop pop} ifelse} forall
  /Encoding WinAnsiEncoding def
  currentdict
end
/Helvetica-Oblique exch definefont pop
/Times-BoldItalic findfont
dup length dict begin
  {1 index /FID ne {def} {pop pop} ifelse} forall
  /Encoding WinAnsiEncoding def
  currentdict
end
/Times-BoldItalic exch definefont pop
/Courier findfont
dup length dict begin
  {1 index /FID ne {def} {pop pop} ifelse} forall
  /Encoding WinAnsiEncoding def
  currentdict
end
/Courier exch definefont pop
/Times-Italic findfont
dup length dict begin
  {1 index /FID ne {def} {pop pop} ifelse} forall
  /Encoding WinAnsiEncoding def
  currentdict
end
/Times-Italic exch definefont pop
/Times-Bold findfont
dup length dict begin
  {1 index /FID ne {def} {pop pop} ifelse} forall
  /Encoding WinAnsiEncoding def
  currentdict
end
/Times-Bold exch definefont pop
%FOPEndFontReencode
%%EndProlog
%%Page: 1 1
%%PageBoundingBox: 0 0 560 420
%%BeginPageSetup
[1 0 0 -1 0 420] CT
%%EndPageSetup
GS
1 GC
N
0 0 560 420 re
f
GR
GS
1 GC
N
0 0 560 420 re
f
GR
GS
1 GC
N
73 374 M
507 374 L
507 31 L
73 31 L
cp
f
GR
GS
0.873 GC
2 setlinecap
10.0 ML
N
73 374 M
73 31 L
S
GR
GS
0.873 GC
2 setlinecap
10.0 ML
N
127.25 374 M
127.25 31 L
S
GR
GS
0.873 GC
2 setlinecap
10.0 ML
N
181.5 374 M
181.5 31 L
S
GR
GS
0.873 GC
2 setlinecap
10.0 ML
N
235.75 374 M
235.75 31 L
S
GR
GS
0.873 GC
2 setlinecap
10.0 ML
N
290 374 M
290 31 L
S
GR
GS
0.873 GC
2 setlinecap
10.0 ML
N
344.25 374 M
344.25 31 L
S
GR
GS
0.873 GC
2 setlinecap
10.0 ML
N
398.5 374 M
398.5 31 L
S
GR
GS
0.873 GC
2 setlinecap
10.0 ML
N
452.75 374 M
452.75 31 L
S
GR
GS
0.873 GC
2 setlinecap
10.0 ML
N
507 374 M
507 31 L
S
GR
GS
0.873 GC
2 setlinecap
10.0 ML
N
507 374 M
73 374 L
S
GR
GS
0.873 GC
2 setlinecap
10.0 ML
N
507 331.125 M
73 331.125 L
S
GR
GS
0.873 GC
2 setlinecap
10.0 ML
N
507 288.25 M
73 288.25 L
S
GR
GS
0.873 GC
2 setlinecap
10.0 ML
N
507 245.375 M
73 245.375 L
S
GR
GS
0.873 GC
2 setlinecap
10.0 ML
N
507 202.5 M
73 202.5 L
S
GR
GS
0.873 GC
2 setlinecap
10.0 ML
N
507 159.625 M
73 159.625 L
S
GR
GS
0.873 GC
2 setlinecap
10.0 ML
N
507 116.75 M
73 116.75 L
S
GR
GS
0.873 GC
2 setlinecap
10.0 ML
N
507 73.875 M
73 73.875 L
S
GR
GS
0.873 GC
2 setlinecap
10.0 ML
N
507 31 M
73 31 L
S
GR
GS
[1 0 0 1 290.00021 390] CT
0.149 GC
/Helvetica-Bold 11 F
GS
[1 0 0 1 0 0] CT
-53 9 moveto 
1 -1 scale
(No of transmissions) t 
GR
GR
GS
0.149 GC
2 setlinecap
10.0 ML
N
73 374 M
507 374 L
S
GR
GS
0.149 GC
2 setlinecap
10.0 ML
N
73 374 M
73 369.66 L
S
GR
GS
0.149 GC
2 setlinecap
10.0 ML
N
127.25 374 M
127.25 369.66 L
S
GR
GS
0.149 GC
2 setlinecap
10.0 ML
N
181.5 374 M
181.5 369.66 L
S
GR
GS
0.149 GC
2 setlinecap
10.0 ML
N
235.75 374 M
235.75 369.66 L
S
GR
GS
0.149 GC
2 setlinecap
10.0 ML
N
290 374 M
290 369.66 L
S
GR
GS
0.149 GC
2 setlinecap
10.0 ML
N
344.25 374 M
344.25 369.66 L
S
GR
GS
0.149 GC
2 setlinecap
10.0 ML
N
398.5 374 M
398.5 369.66 L
S
GR
GS
0.149 GC
2 setlinecap
10.0 ML
N
452.75 374 M
452.75 369.66 L
S
GR
GS
0.149 GC
2 setlinecap
10.0 ML
N
507 374 M
507 369.66 L
S
GR
GS
[1 0 0 1 73 378] CT
0.149 GC
/Helvetica-Bold 10 F
GS
[1 0 0 1 0 0] CT
-3 8 moveto 
1 -1 scale
(0) t 
GR
GR
GS
[1 0 0 1 127.25 378] CT
0.149 GC
/Helvetica-Bold 10 F
GS
[1 0 0 1 0 0] CT
-6 8 moveto 
1 -1 scale
(10) t 
GR
GR
GS
[1 0 0 1 181.5 378] CT
0.149 GC
/Helvetica-Bold 10 F
GS
[1 0 0 1 0 0] CT
-6 8 moveto 
1 -1 scale
(20) t 
GR
GR
GS
[1 0 0 1 235.75 378] CT
0.149 GC
/Helvetica-Bold 10 F
GS
[1 0 0 1 0 0] CT
-6 8 moveto 
1 -1 scale
(30) t 
GR
GR
GS
[1 0 0 1 290 378] CT
0.149 GC
/Helvetica-Bold 10 F
GS
[1 0 0 1 0 0] CT
-6 8 moveto 
1 -1 scale
(40) t 
GR
GR
GS
[1 0 0 1 344.25 378] CT
0.149 GC
/Helvetica-Bold 10 F
GS
[1 0 0 1 0 0] CT
-6 8 moveto 
1 -1 scale
(50) t 
GR
GR
GS
[1 0 0 1 398.5 378] CT
0.149 GC
/Helvetica-Bold 10 F
GS
[1 0 0 1 0 0] CT
-6 8 moveto 
1 -1 scale
(60) t 
GR
GR
GS
[1 0 0 1 452.75 378] CT
0.149 GC
/Helvetica-Bold 10 F
GS
[1 0 0 1 0 0] CT
-6 8 moveto 
1 -1 scale
(70) t 
GR
GR
GS
[1 0 0 1 507 378] CT
0.149 GC
/Helvetica-Bold 10 F
GS
[1 0 0 1 0 0] CT
-6 8 moveto 
1 -1 scale
(80) t 
GR
GR
GS
[0 -1 1 0 46 202.49983] CT
0.149 GC
/Helvetica-Bold 11 F
GS
[1 0 0 1 0 0] CT
-52 -3 moveto 
1 -1 scale
(System Throughput) t 
GR
GR
GS
0.149 GC
2 setlinecap
10.0 ML
N
73 374 M
73 31 L
S
GR
GS
0.149 GC
2 setlinecap
10.0 ML
N
73 374 M
77.34 374 L
S
GR
GS
0.149 GC
2 setlinecap
10.0 ML
N
73 331.125 M
77.34 331.125 L
S
GR
GS
0.149 GC
2 setlinecap
10.0 ML
N
73 288.25 M
77.34 288.25 L
S
GR
GS
0.149 GC
2 setlinecap
10.0 ML
N
73 245.375 M
77.34 245.375 L
S
GR
GS
0.149 GC
2 setlinecap
10.0 ML
N
73 202.5 M
77.34 202.5 L
S
GR
GS
0.149 GC
2 setlinecap
10.0 ML
N
73 159.625 M
77.34 159.625 L
S
GR
GS
0.149 GC
2 setlinecap
10.0 ML
N
73 116.75 M
77.34 116.75 L
S
GR
GS
0.149 GC
2 setlinecap
10.0 ML
N
73 73.875 M
77.34 73.875 L
S
GR
GS
0.149 GC
2 setlinecap
10.0 ML
N
73 31 M
77.34 31 L
S
GR
GS
[1 0 0 1 69 374] CT
0.149 GC
/Helvetica-Bold 10 F
GS
[1 0 0 1 0 0] CT
-6 2.5 moveto 
1 -1 scale
(0) t 
GR
GR
GS
[1 0 0 1 69 331.125] CT
0.149 GC
/Helvetica-Bold 10 F
GS
[1 0 0 1 0 0] CT
-20 2.5 moveto 
1 -1 scale
(0.05) t 
GR
GR
GS
[1 0 0 1 69 288.25] CT
0.149 GC
/Helvetica-Bold 10 F
GS
[1 0 0 1 0 0] CT
-14 2.5 moveto 
1 -1 scale
(0.1) t 
GR
GR
GS
[1 0 0 1 69 245.375] CT
0.149 GC
/Helvetica-Bold 10 F
GS
[1 0 0 1 0 0] CT
-20 2.5 moveto 
1 -1 scale
(0.15) t 
GR
GR
GS
[1 0 0 1 69 202.5] CT
0.149 GC
/Helvetica-Bold 10 F
GS
[1 0 0 1 0 0] CT
-14 2.5 moveto 
1 -1 scale
(0.2) t 
GR
GR
GS
[1 0 0 1 69 159.625] CT
0.149 GC
/Helvetica-Bold 10 F
GS
[1 0 0 1 0 0] CT
-20 2.5 moveto 
1 -1 scale
(0.25) t 
GR
GR
GS
[1 0 0 1 69 116.74999] CT
0.149 GC
/Helvetica-Bold 10 F
GS
[1 0 0 1 0 0] CT
-14 2.5 moveto 
1 -1 scale
(0.3) t 
GR
GR
GS
[1 0 0 1 69 73.87501] CT
0.149 GC
/Helvetica-Bold 10 F
GS
[1 0 0 1 0 0] CT
-20 2.5 moveto 
1 -1 scale
(0.35) t 
GR
GR
GS
[1 0 0 1 69 30.99999] CT
0.149 GC
/Helvetica-Bold 10 F
GS
[1 0 0 1 0 0] CT
-14 2.5 moveto 
1 -1 scale
(0.4) t 
GR
GR
GS
0.6 0 0 RC
2 LJ
2 LW
N
78.425 34.173 M
83.85 34.173 L
89.275 34.173 L
94.7 34.173 L
100.125 34.173 L
105.55 34.173 L
110.975 34.173 L
116.4 34.173 L
121.825 38.002 L
127.25 38.002 L
132.675 46.132 L
138.1 46.132 L
143.525 48.021 L
148.95 50.309 L
154.375 52.333 L
159.8 131.257 L
165.225 131.257 L
170.65 133.369 L
176.075 153.784 L
181.5 163.025 L
186.925 168.627 L
192.35 172.226 L
197.775 175.385 L
203.2 183.727 L
208.625 185.686 L
214.05 193.604 L
219.475 195.476 L
224.9 201.795 L
230.325 205.263 L
235.75 324.745 L
241.175 348.738 L
246.6 355.631 L
252.025 357.468 L
257.45 360.573 L
262.875 360.573 L
268.3 360.573 L
273.725 362.931 L
279.15 364.653 L
284.575 364.653 L
290 368.274 L
295.425 368.274 L
300.85 368.274 L
306.275 368.274 L
311.7 368.274 L
317.125 368.274 L
322.55 369.675 L
327.975 369.675 L
333.4 369.675 L
338.825 369.675 L
344.25 369.675 L
S
GR
GS
0.6 0 0 RC
2 LJ
2 LW
N
344.25 369.675 M
349.675 371.317 L
355.1 371.317 L
360.525 371.317 L
365.95 374 L
371.375 374 L
376.8 374 L
382.225 374 L
387.65 374 L
393.075 374 L
398.5 374 L
403.925 374 L
409.35 374 L
414.775 374 L
420.2 374 L
425.625 374 L
431.05 374 L
436.475 374 L
441.9 374 L
447.325 374 L
452.75 374 L
458.175 374 L
463.6 374 L
469.025 374 L
474.45 374 L
479.875 374 L
S
GR
GS
0.6 0 0 RC
2 LJ
2 LW
N
74.525 38.073 M
74.525 30.273 L
82.325 30.273 L
82.325 38.073 L
74.525 38.073 L
S
GR
GS
0.6 0 0 RC
2 LJ
2 LW
N
101.65 38.073 M
101.65 30.273 L
109.45 30.273 L
109.45 38.073 L
101.65 38.073 L
S
GR
GS
0.6 0 0 RC
2 LJ
2 LW
N
134.2 50.032 M
134.2 42.232 L
142 42.232 L
142 50.032 L
134.2 50.032 L
S
GR
GS
0.6 0 0 RC
2 LJ
2 LW
N
161.325 135.157 M
161.325 127.357 L
169.125 127.357 L
169.125 135.157 L
161.325 135.157 L
S
GR
GS
0.6 0 0 RC
2 LJ
2 LW
N
188.45 176.126 M
188.45 168.326 L
196.25 168.326 L
196.25 176.126 L
188.45 176.126 L
S
GR
GS
0.6 0 0 RC
2 LJ
2 LW
N
215.575 199.376 M
215.575 191.576 L
223.375 191.576 L
223.375 199.376 L
215.575 199.376 L
S
GR
GS
0.6 0 0 RC
2 LJ
2 LW
N
248.125 361.368 M
248.125 353.568 L
255.925 353.568 L
255.925 361.368 L
248.125 361.368 L
S
GR
GS
0.6 0 0 RC
2 LJ
2 LW
N
275.25 368.553 M
275.25 360.753 L
283.05 360.753 L
283.05 368.553 L
275.25 368.553 L
S
GR
GS
0.6 0 0 RC
2 LJ
2 LW
N
302.375 372.174 M
302.375 364.374 L
310.175 364.374 L
310.175 372.174 L
302.375 372.174 L
S
GR
GS
0.6 0 0 RC
2 LJ
2 LW
N
334.925 373.575 M
334.925 365.775 L
342.725 365.775 L
342.725 373.575 L
334.925 373.575 L
S
GR
GS
0.6 0 0 RC
2 LJ
2 LW
N
362.05 377.9 M
362.05 370.1 L
369.85 370.1 L
369.85 377.9 L
362.05 377.9 L
S
GR
GS
0.6 0 0 RC
2 LJ
2 LW
N
389.175 377.9 M
389.175 370.1 L
396.975 370.1 L
396.975 377.9 L
389.175 377.9 L
S
GR
GS
0.6 0 0 RC
2 LJ
2 LW
N
416.3 377.9 M
416.3 370.1 L
424.1 370.1 L
424.1 377.9 L
416.3 377.9 L
S
GR
GS
0.6 0 0 RC
2 LJ
2 LW
N
448.85 377.9 M
448.85 370.1 L
456.65 370.1 L
456.65 377.9 L
448.85 377.9 L
S
GR
GS
0.6 0 0 RC
2 LJ
2 LW
N
475.975 377.9 M
475.975 370.1 L
483.775 370.1 L
483.775 377.9 L
475.975 377.9 L
S
GR
GS
0.6 0 0 RC
2 LJ
2 LW
N
74.525 38.073 M
74.525 30.273 L
82.325 30.273 L
82.325 38.073 L
74.525 38.073 L
S
GR
GS
0 0.2 0.4 RC
2 LJ
2 LW
N
78.425 44.061 M
83.85 44.061 L
89.275 44.061 L
94.7 44.061 L
100.125 44.061 L
105.55 44.061 L
110.975 44.061 L
116.4 44.061 L
121.825 44.061 L
127.25 44.061 L
132.675 52.085 L
138.1 52.085 L
143.525 52.085 L
148.95 55.527 L
154.375 59.639 L
159.8 120.488 L
165.225 120.488 L
170.65 122.141 L
176.075 139.238 L
181.5 146.509 L
186.925 146.509 L
192.35 150.983 L
197.775 154.708 L
203.2 155.709 L
208.625 156.013 L
214.05 161.305 L
219.475 171.329 L
224.9 178.204 L
230.325 185.768 L
235.75 287.85 L
241.175 296.206 L
246.6 300.281 L
252.025 306.545 L
257.45 312.474 L
262.875 316.139 L
268.3 321.985 L
273.725 322.692 L
279.15 326.311 L
284.575 326.311 L
290 330.686 L
295.425 332.829 L
300.85 334.935 L
306.275 339.522 L
311.7 339.522 L
317.125 342.352 L
322.55 344.731 L
327.975 350.035 L
333.4 351.051 L
338.825 354.362 L
344.25 356.635 L
S
GR
GS
0 0.2 0.4 RC
2 LJ
2 LW
N
344.25 356.635 M
349.675 356.635 L
355.1 358.5 L
360.525 361.13 L
365.95 362.424 L
371.375 365.552 L
376.8 365.552 L
382.225 365.552 L
387.65 365.466 L
393.075 365.466 L
398.5 366.59 L
403.925 368.47 L
409.35 368.47 L
414.775 368.47 L
420.2 368.47 L
425.625 368.563 L
431.05 369.984 L
436.475 369.984 L
441.9 369.984 L
447.325 371.161 L
452.75 371.161 L
458.175 371.161 L
463.6 372 L
469.025 372.985 L
474.45 372.985 L
479.875 372.985 L
S
GR
GS
0 0.2 0.4 RC
2 LJ
2 LW
N
83.425 44.061 M
82.47 41.122 L
79.97 39.305 L
76.88 39.305 L
74.38 41.122 L
73.425 44.061 L
74.38 47 L
76.88 48.816 L
79.97 48.816 L
82.47 47 L
83.425 44.061 L
S
GR
GS
0 0.2 0.4 RC
2 LJ
2 LW
N
110.55 44.061 M
109.595 41.122 L
107.095 39.305 L
104.005 39.305 L
101.505 41.122 L
100.55 44.061 L
101.505 47 L
104.005 48.816 L
107.095 48.816 L
109.595 47 L
110.55 44.061 L
S
GR
GS
0 0.2 0.4 RC
2 LJ
2 LW
N
143.1 52.085 M
142.145 49.146 L
139.645 47.33 L
136.555 47.33 L
134.055 49.146 L
133.1 52.085 L
134.055 55.024 L
136.555 56.84 L
139.645 56.84 L
142.145 55.024 L
143.1 52.085 L
S
GR
GS
0 0.2 0.4 RC
2 LJ
2 LW
N
170.225 120.488 M
169.27 117.549 L
166.77 115.732 L
163.68 115.732 L
161.18 117.549 L
160.225 120.488 L
161.18 123.426 L
163.68 125.243 L
166.77 125.243 L
169.27 123.426 L
170.225 120.488 L
S
GR
GS
0 0.2 0.4 RC
2 LJ
2 LW
N
197.35 150.983 M
196.395 148.044 L
193.895 146.228 L
190.805 146.228 L
188.305 148.044 L
187.35 150.983 L
188.305 153.922 L
190.805 155.738 L
193.895 155.738 L
196.395 153.922 L
197.35 150.983 L
S
GR
GS
0 0.2 0.4 RC
2 LJ
2 LW
N
224.475 171.329 M
223.52 168.39 L
221.02 166.574 L
217.93 166.574 L
215.43 168.39 L
214.475 171.329 L
215.43 174.268 L
217.93 176.084 L
221.02 176.084 L
223.52 174.268 L
224.475 171.329 L
S
GR
GS
0 0.2 0.4 RC
2 LJ
2 LW
N
257.025 306.545 M
256.07 303.606 L
253.57 301.79 L
250.48 301.79 L
247.98 303.606 L
247.025 306.545 L
247.98 309.484 L
250.48 311.3 L
253.57 311.3 L
256.07 309.484 L
257.025 306.545 L
S
GR
GS
0 0.2 0.4 RC
2 LJ
2 LW
N
284.15 326.311 M
283.195 323.372 L
280.695 321.556 L
277.605 321.556 L
275.105 323.372 L
274.15 326.311 L
275.105 329.25 L
277.605 331.067 L
280.695 331.067 L
283.195 329.25 L
284.15 326.311 L
S
GR
GS
0 0.2 0.4 RC
2 LJ
2 LW
N
311.275 339.522 M
310.32 336.583 L
307.82 334.767 L
304.73 334.767 L
302.23 336.583 L
301.275 339.522 L
302.23 342.461 L
304.73 344.277 L
307.82 344.277 L
310.32 342.461 L
311.275 339.522 L
S
GR
GS
0 0.2 0.4 RC
2 LJ
2 LW
N
343.825 354.362 M
342.87 351.423 L
340.37 349.607 L
337.28 349.607 L
334.78 351.423 L
333.825 354.362 L
334.78 357.301 L
337.28 359.117 L
340.37 359.117 L
342.87 357.301 L
343.825 354.362 L
S
GR
GS
0 0.2 0.4 RC
2 LJ
2 LW
N
370.95 362.424 M
369.995 359.485 L
367.495 357.669 L
364.405 357.669 L
361.905 359.485 L
360.95 362.424 L
361.905 365.363 L
364.405 367.179 L
367.495 367.179 L
369.995 365.363 L
370.95 362.424 L
S
GR
GS
0 0.2 0.4 RC
2 LJ
2 LW
N
398.075 365.466 M
397.12 362.527 L
394.62 360.711 L
391.53 360.711 L
389.03 362.527 L
388.075 365.466 L
389.03 368.405 L
391.53 370.221 L
394.62 370.221 L
397.12 368.405 L
398.075 365.466 L
S
GR
GS
0 0.2 0.4 RC
2 LJ
2 LW
N
425.2 368.47 M
424.245 365.531 L
421.745 363.715 L
418.655 363.715 L
416.155 365.531 L
415.2 368.47 L
416.155 371.409 L
418.655 373.225 L
421.745 373.225 L
424.245 371.409 L
425.2 368.47 L
S
GR
GS
0 0.2 0.4 RC
2 LJ
2 LW
N
457.75 371.161 M
456.795 368.222 L
454.295 366.406 L
451.205 366.406 L
448.705 368.222 L
447.75 371.161 L
448.705 374.1 L
451.205 375.916 L
454.295 375.916 L
456.795 374.1 L
457.75 371.161 L
S
GR
GS
0 0.2 0.4 RC
2 LJ
2 LW
N
484.875 372.985 M
483.92 370.046 L
481.42 368.23 L
478.33 368.23 L
475.83 370.046 L
474.875 372.985 L
475.83 375.924 L
478.33 377.74 L
481.42 377.74 L
483.92 375.924 L
484.875 372.985 L
S
GR
GS
0 0.2 0.4 RC
2 LJ
2 LW
N
83.425 44.061 M
82.47 41.122 L
79.97 39.305 L
76.88 39.305 L
74.38 41.122 L
73.425 44.061 L
74.38 47 L
76.88 48.816 L
79.97 48.816 L
82.47 47 L
83.425 44.061 L
S
GR
GS
1 GC
N
417 65 M
417 41 L
497 41 L
497 65 L
cp
f
GR
GS
[1 0 0 1 456 47.85714] CT
/Helvetica-Bold 9 F
GS
[1 0 0 1 0 0] CT
0 2 moveto 
1 -1 scale
(Tree) t 
GR
GR
GS
0.6 0 0 RC
2 setlinecap
10.0 ML
2 LW
N
423 47.857 M
453 47.857 L
S
GR
GS
0.6 0 0 RC
2 setlinecap
10.0 ML
2 LW
N
433.6 51.4 M
433.6 43.6 L
441.4 43.6 L
441.4 51.4 L
433.6 51.4 L
S
GR
GS
[1 0 0 1 456 58.14286] CT
/Helvetica-Bold 9 F
GS
[1 0 0 1 0 0] CT
0 2 moveto 
1 -1 scale
(NECTAP) t 
GR
GR
GS
0 0.2 0.4 RC
2 setlinecap
10.0 ML
2 LW
N
423 58.143 M
453 58.143 L
S
GR
GS
0 0.2 0.4 RC
2 setlinecap
10.0 ML
2 LW
N
442.5 58.5 M
441.545 55.561 L
439.045 53.745 L
435.955 53.745 L
433.455 55.561 L
432.5 58.5 L
433.455 61.439 L
435.955 63.255 L
439.045 63.255 L
441.545 61.439 L
442.5 58.5 L
S
GR
GS
0.149 GC
2 setlinecap
10.0 ML
N
417 65 M
417 41 L
497 41 L
497 65 L
417 65 L
S
GR
%%Trailer
%%Pages: 1
%%EOF
