%!PS-Adobe-3.0 EPSF-3.0
%%Creator: (MATLAB, The Mathworks, Inc. Version 8.5.0.197613 \(R2015a\). Operating System: Mac OS X)
%%Title: /Users/Shared/switching_broadcast_th.eps
%%CreationDate: 2016-03-31T20:51:08
%%Pages: (atend)
%%BoundingBox: 0 0 560 420
%%LanguageLevel: 2
%%EndComments
%%BeginProlog
%%BeginResource: procset (Apache XML Graphics Std ProcSet) 1.2 0
%%Version: 1.2 0
%%Copyright: (Copyright 2001-2003,2010 The Apache Software Foundation. License terms: http://www.apache.org/licenses/LICENSE-2.0)
/bd{bind def}bind def
/ld{load def}bd
/GR/grestore ld
/M/moveto ld
/LJ/setlinejoin ld
/C/curveto ld
/f/fill ld
/LW/setlinewidth ld
/GC/setgray ld
/t/show ld
/N/newpath ld
/CT/concat ld
/cp/closepath ld
/S/stroke ld
/L/lineto ld
/CC/setcmykcolor ld
/A/ashow ld
/GS/gsave ld
/RC/setrgbcolor ld
/RM/rmoveto ld
/ML/setmiterlimit ld
/re {4 2 roll M
1 index 0 rlineto
0 exch rlineto
neg 0 rlineto
cp } bd
/_ctm matrix def
/_tm matrix def
/BT { _ctm currentmatrix pop matrix _tm copy pop 0 0 moveto } bd
/ET { _ctm setmatrix } bd
/iTm { _ctm setmatrix _tm concat } bd
/Tm { _tm astore pop iTm 0 0 moveto } bd
/ux 0.0 def
/uy 0.0 def
/F {
  /Tp exch def
  /Tf exch def
  Tf findfont Tp scalefont setfont
  /cf Tf def  /cs Tp def
} bd
/ULS {currentpoint /uy exch def /ux exch def} bd
/ULE {
  /Tcx currentpoint pop def
  gsave
  newpath
  cf findfont cs scalefont dup
  /FontMatrix get 0 get /Ts exch def /FontInfo get dup
  /UnderlinePosition get Ts mul /To exch def
  /UnderlineThickness get Ts mul /Tt exch def
  ux uy To add moveto  Tcx uy To add lineto
  Tt setlinewidth stroke
  grestore
} bd
/OLE {
  /Tcx currentpoint pop def
  gsave
  newpath
  cf findfont cs scalefont dup
  /FontMatrix get 0 get /Ts exch def /FontInfo get dup
  /UnderlinePosition get Ts mul /To exch def
  /UnderlineThickness get Ts mul /Tt exch def
  ux uy To add cs add moveto Tcx uy To add cs add lineto
  Tt setlinewidth stroke
  grestore
} bd
/SOE {
  /Tcx currentpoint pop def
  gsave
  newpath
  cf findfont cs scalefont dup
  /FontMatrix get 0 get /Ts exch def /FontInfo get dup
  /UnderlinePosition get Ts mul /To exch def
  /UnderlineThickness get Ts mul /Tt exch def
  ux uy To add cs 10 mul 26 idiv add moveto Tcx uy To add cs 10 mul 26 idiv add lineto
  Tt setlinewidth stroke
  grestore
} bd
/QT {
/Y22 exch store
/X22 exch store
/Y21 exch store
/X21 exch store
currentpoint
/Y21 load 2 mul add 3 div exch
/X21 load 2 mul add 3 div exch
/X21 load 2 mul /X22 load add 3 div
/Y21 load 2 mul /Y22 load add 3 div
/X22 load /Y22 load curveto
} bd
/SSPD {
dup length /d exch dict def
{
/v exch def
/k exch def
currentpagedevice k known {
/cpdv currentpagedevice k get def
v cpdv ne {
/upd false def
/nullv v type /nulltype eq def
/nullcpdv cpdv type /nulltype eq def
nullv nullcpdv or
{
/upd true def
} {
/sametype v type cpdv type eq def
sametype {
v type /arraytype eq {
/vlen v length def
/cpdvlen cpdv length def
vlen cpdvlen eq {
0 1 vlen 1 sub {
/i exch def
/obj v i get def
/cpdobj cpdv i get def
obj cpdobj ne {
/upd true def
exit
} if
} for
} {
/upd true def
} ifelse
} {
v type /dicttype eq {
v {
/dv exch def
/dk exch def
/cpddv cpdv dk get def
dv cpddv ne {
/upd true def
exit
} if
} forall
} {
/upd true def
} ifelse
} ifelse
} if
} ifelse
upd true eq {
d k v put
} if
} if
} if
} forall
d length 0 gt {
d setpagedevice
} if
} bd
%%EndResource
%%BeginResource: procset (Apache XML Graphics EPS ProcSet) 1.0 0
%%Version: 1.0 0
%%Copyright: (Copyright 2002-2003 The Apache Software Foundation. License terms: http://www.apache.org/licenses/LICENSE-2.0)
/BeginEPSF { %def
/b4_Inc_state save def         % Save state for cleanup
/dict_count countdictstack def % Count objects on dict stack
/op_count count 1 sub def      % Count objects on operand stack
userdict begin                 % Push userdict on dict stack
/showpage { } def              % Redefine showpage, { } = null proc
0 setgray 0 setlinecap         % Prepare graphics state
1 setlinewidth 0 setlinejoin
10 setmiterlimit [ ] 0 setdash newpath
/languagelevel where           % If level not equal to 1 then
{pop languagelevel             % set strokeadjust and
1 ne                           % overprint to their defaults.
{false setstrokeadjust false setoverprint
} if
} if
} bd
/EndEPSF { %def
count op_count sub {pop} repeat            % Clean up stacks
countdictstack dict_count sub {end} repeat
b4_Inc_state restore
} bd
%%EndResource
%FOPBeginFontDict
%%IncludeResource: font Courier-Bold
%%IncludeResource: font Helvetica
%%IncludeResource: font Courier-BoldOblique
%%IncludeResource: font Courier-Oblique
%%IncludeResource: font Times-Roman
%%IncludeResource: font Helvetica-BoldOblique
%%IncludeResource: font Helvetica-Bold
%%IncludeResource: font Helvetica-Oblique
%%IncludeResource: font Times-BoldItalic
%%IncludeResource: font Courier
%%IncludeResource: font Times-Italic
%%IncludeResource: font Times-Bold
%%IncludeResource: font Symbol
%%IncludeResource: font ZapfDingbats
%FOPEndFontDict
%%BeginResource: encoding WinAnsiEncoding
/WinAnsiEncoding [
/.notdef /.notdef /.notdef /.notdef /.notdef
/.notdef /.notdef /.notdef /.notdef /.notdef
/.notdef /.notdef /.notdef /.notdef /.notdef
/.notdef /.notdef /.notdef /.notdef /.notdef
/.notdef /.notdef /.notdef /.notdef /.notdef
/.notdef /.notdef /.notdef /.notdef /.notdef
/.notdef /.notdef /space /exclam /quotedbl
/numbersign /dollar /percent /ampersand /quotesingle
/parenleft /parenright /asterisk /plus /comma
/hyphen /period /slash /zero /one
/two /three /four /five /six
/seven /eight /nine /colon /semicolon
/less /equal /greater /question /at
/A /B /C /D /E
/F /G /H /I /J
/K /L /M /N /O
/P /Q /R /S /T
/U /V /W /X /Y
/Z /bracketleft /backslash /bracketright /asciicircum
/underscore /quoteleft /a /b /c
/d /e /f /g /h
/i /j /k /l /m
/n /o /p /q /r
/s /t /u /v /w
/x /y /z /braceleft /bar
/braceright /asciitilde /bullet /Euro /bullet
/quotesinglbase /florin /quotedblbase /ellipsis /dagger
/daggerdbl /circumflex /perthousand /Scaron /guilsinglleft
/OE /bullet /Zcaron /bullet /bullet
/quoteleft /quoteright /quotedblleft /quotedblright /bullet
/endash /emdash /asciitilde /trademark /scaron
/guilsinglright /oe /bullet /zcaron /Ydieresis
/space /exclamdown /cent /sterling /currency
/yen /brokenbar /section /dieresis /copyright
/ordfeminine /guillemotleft /logicalnot /sfthyphen /registered
/macron /degree /plusminus /twosuperior /threesuperior
/acute /mu /paragraph /middot /cedilla
/onesuperior /ordmasculine /guillemotright /onequarter /onehalf
/threequarters /questiondown /Agrave /Aacute /Acircumflex
/Atilde /Adieresis /Aring /AE /Ccedilla
/Egrave /Eacute /Ecircumflex /Edieresis /Igrave
/Iacute /Icircumflex /Idieresis /Eth /Ntilde
/Ograve /Oacute /Ocircumflex /Otilde /Odieresis
/multiply /Oslash /Ugrave /Uacute /Ucircumflex
/Udieresis /Yacute /Thorn /germandbls /agrave
/aacute /acircumflex /atilde /adieresis /aring
/ae /ccedilla /egrave /eacute /ecircumflex
/edieresis /igrave /iacute /icircumflex /idieresis
/eth /ntilde /ograve /oacute /ocircumflex
/otilde /odieresis /divide /oslash /ugrave
/uacute /ucircumflex /udieresis /yacute /thorn
/ydieresis
] def
%%EndResource
%FOPBeginFontReencode
/Courier-Bold findfont
dup length dict begin
  {1 index /FID ne {def} {pop pop} ifelse} forall
  /Encoding WinAnsiEncoding def
  currentdict
end
/Courier-Bold exch definefont pop
/Helvetica findfont
dup length dict begin
  {1 index /FID ne {def} {pop pop} ifelse} forall
  /Encoding WinAnsiEncoding def
  currentdict
end
/Helvetica exch definefont pop
/Courier-BoldOblique findfont
dup length dict begin
  {1 index /FID ne {def} {pop pop} ifelse} forall
  /Encoding WinAnsiEncoding def
  currentdict
end
/Courier-BoldOblique exch definefont pop
/Courier-Oblique findfont
dup length dict begin
  {1 index /FID ne {def} {pop pop} ifelse} forall
  /Encoding WinAnsiEncoding def
  currentdict
end
/Courier-Oblique exch definefont pop
/Times-Roman findfont
dup length dict begin
  {1 index /FID ne {def} {pop pop} ifelse} forall
  /Encoding WinAnsiEncoding def
  currentdict
end
/Times-Roman exch definefont pop
/Helvetica-BoldOblique findfont
dup length dict begin
  {1 index /FID ne {def} {pop pop} ifelse} forall
  /Encoding WinAnsiEncoding def
  currentdict
end
/Helvetica-BoldOblique exch definefont pop
/Helvetica-Bold findfont
dup length dict begin
  {1 index /FID ne {def} {pop pop} ifelse} forall
  /Encoding WinAnsiEncoding def
  currentdict
end
/Helvetica-Bold exch definefont pop
/Helvetica-Oblique findfont
dup length dict begin
  {1 index /FID ne {def} {pop pop} ifelse} forall
  /Encoding WinAnsiEncoding def
  currentdict
end
/Helvetica-Oblique exch definefont pop
/Times-BoldItalic findfont
dup length dict begin
  {1 index /FID ne {def} {pop pop} ifelse} forall
  /Encoding WinAnsiEncoding def
  currentdict
end
/Times-BoldItalic exch definefont pop
/Courier findfont
dup length dict begin
  {1 index /FID ne {def} {pop pop} ifelse} forall
  /Encoding WinAnsiEncoding def
  currentdict
end
/Courier exch definefont pop
/Times-Italic findfont
dup length dict begin
  {1 index /FID ne {def} {pop pop} ifelse} forall
  /Encoding WinAnsiEncoding def
  currentdict
end
/Times-Italic exch definefont pop
/Times-Bold findfont
dup length dict begin
  {1 index /FID ne {def} {pop pop} ifelse} forall
  /Encoding WinAnsiEncoding def
  currentdict
end
/Times-Bold exch definefont pop
%FOPEndFontReencode
%%EndProlog
%%Page: 1 1
%%PageBoundingBox: 0 0 560 420
%%BeginPageSetup
[1 0 0 -1 0 420] CT
%%EndPageSetup
GS
1 GC
N
0 0 560 420 re
f
GR
GS
1 GC
N
0 0 560 420 re
f
GR
GS
1 GC
N
73 374 M
507 374 L
507 31 L
73 31 L
cp
f
GR
GS
0.873 GC
2 setlinecap
10.0 ML
N
73 374 M
73 31 L
S
GR
GS
0.873 GC
2 setlinecap
10.0 ML
N
127.25 374 M
127.25 31 L
S
GR
GS
0.873 GC
2 setlinecap
10.0 ML
N
181.5 374 M
181.5 31 L
S
GR
GS
0.873 GC
2 setlinecap
10.0 ML
N
235.75 374 M
235.75 31 L
S
GR
GS
0.873 GC
2 setlinecap
10.0 ML
N
290 374 M
290 31 L
S
GR
GS
0.873 GC
2 setlinecap
10.0 ML
N
344.25 374 M
344.25 31 L
S
GR
GS
0.873 GC
2 setlinecap
10.0 ML
N
398.5 374 M
398.5 31 L
S
GR
GS
0.873 GC
2 setlinecap
10.0 ML
N
452.75 374 M
452.75 31 L
S
GR
GS
0.873 GC
2 setlinecap
10.0 ML
N
507 374 M
507 31 L
S
GR
GS
0.873 GC
2 setlinecap
10.0 ML
N
507 374 M
73 374 L
S
GR
GS
0.873 GC
2 setlinecap
10.0 ML
N
507 325 M
73 325 L
S
GR
GS
0.873 GC
2 setlinecap
10.0 ML
N
507 276 M
73 276 L
S
GR
GS
0.873 GC
2 setlinecap
10.0 ML
N
507 227 M
73 227 L
S
GR
GS
0.873 GC
2 setlinecap
10.0 ML
N
507 178 M
73 178 L
S
GR
GS
0.873 GC
2 setlinecap
10.0 ML
N
507 129 M
73 129 L
S
GR
GS
0.873 GC
2 setlinecap
10.0 ML
N
507 80 M
73 80 L
S
GR
GS
0.873 GC
2 setlinecap
10.0 ML
N
507 31 M
73 31 L
S
GR
GS
[1 0 0 1 290.00021 398.39999] CT
0.149 GC
/Helvetica-Bold 19 F
GS
[1 0 0 1 0 0] CT
-91.5 15 moveto 
1 -1 scale
(No of transmissions) t 
GR
GR
GS
0.149 GC
2 setlinecap
10.0 ML
N
73 374 M
507 374 L
S
GR
GS
0.149 GC
2 setlinecap
10.0 ML
N
73 374 M
73 369.66 L
S
GR
GS
0.149 GC
2 setlinecap
10.0 ML
N
127.25 374 M
127.25 369.66 L
S
GR
GS
0.149 GC
2 setlinecap
10.0 ML
N
181.5 374 M
181.5 369.66 L
S
GR
GS
0.149 GC
2 setlinecap
10.0 ML
N
235.75 374 M
235.75 369.66 L
S
GR
GS
0.149 GC
2 setlinecap
10.0 ML
N
290 374 M
290 369.66 L
S
GR
GS
0.149 GC
2 setlinecap
10.0 ML
N
344.25 374 M
344.25 369.66 L
S
GR
GS
0.149 GC
2 setlinecap
10.0 ML
N
398.5 374 M
398.5 369.66 L
S
GR
GS
0.149 GC
2 setlinecap
10.0 ML
N
452.75 374 M
452.75 369.66 L
S
GR
GS
0.149 GC
2 setlinecap
10.0 ML
N
507 374 M
507 369.66 L
S
GR
GS
[1 0 0 1 73 379.39999] CT
0.149 GC
/Helvetica-Bold 17 F
GS
[1 0 0 1 0 0] CT
-5 14 moveto 
1 -1 scale
(0) t 
GR
GR
GS
[1 0 0 1 127.25 379.39999] CT
0.149 GC
/Helvetica-Bold 17 F
GS
[1 0 0 1 0 0] CT
-9.5 14 moveto 
1 -1 scale
(10) t 
GR
GR
GS
[1 0 0 1 181.5 379.39999] CT
0.149 GC
/Helvetica-Bold 17 F
GS
[1 0 0 1 0 0] CT
-9.5 14 moveto 
1 -1 scale
(20) t 
GR
GR
GS
[1 0 0 1 235.75 379.39999] CT
0.149 GC
/Helvetica-Bold 17 F
GS
[1 0 0 1 0 0] CT
-9.5 14 moveto 
1 -1 scale
(30) t 
GR
GR
GS
[1 0 0 1 290 379.39999] CT
0.149 GC
/Helvetica-Bold 17 F
GS
[1 0 0 1 0 0] CT
-9.5 14 moveto 
1 -1 scale
(40) t 
GR
GR
GS
[1 0 0 1 344.25 379.39999] CT
0.149 GC
/Helvetica-Bold 17 F
GS
[1 0 0 1 0 0] CT
-9.5 14 moveto 
1 -1 scale
(50) t 
GR
GR
GS
[1 0 0 1 398.5 379.39999] CT
0.149 GC
/Helvetica-Bold 17 F
GS
[1 0 0 1 0 0] CT
-9.5 14 moveto 
1 -1 scale
(60) t 
GR
GR
GS
[1 0 0 1 452.75 379.39999] CT
0.149 GC
/Helvetica-Bold 17 F
GS
[1 0 0 1 0 0] CT
-9.5 14 moveto 
1 -1 scale
(70) t 
GR
GR
GS
[1 0 0 1 507 379.39999] CT
0.149 GC
/Helvetica-Bold 17 F
GS
[1 0 0 1 0 0] CT
-9.5 14 moveto 
1 -1 scale
(80) t 
GR
GR
GS
[0 -1 1 0 30.6 202.49985] CT
0.149 GC
/Helvetica-Bold 19 F
GS
[1 0 0 1 0 0] CT
-90 -5 moveto 
1 -1 scale
(System Throughput) t 
GR
GR
GS
0.149 GC
2 setlinecap
10.0 ML
N
73 374 M
73 31 L
S
GR
GS
0.149 GC
2 setlinecap
10.0 ML
N
73 374 M
77.34 374 L
S
GR
GS
0.149 GC
2 setlinecap
10.0 ML
N
73 325 M
77.34 325 L
S
GR
GS
0.149 GC
2 setlinecap
10.0 ML
N
73 276 M
77.34 276 L
S
GR
GS
0.149 GC
2 setlinecap
10.0 ML
N
73 227 M
77.34 227 L
S
GR
GS
0.149 GC
2 setlinecap
10.0 ML
N
73 178 M
77.34 178 L
S
GR
GS
0.149 GC
2 setlinecap
10.0 ML
N
73 129 M
77.34 129 L
S
GR
GS
0.149 GC
2 setlinecap
10.0 ML
N
73 80 M
77.34 80 L
S
GR
GS
0.149 GC
2 setlinecap
10.0 ML
N
73 31 M
77.34 31 L
S
GR
GS
[1 0 0 1 67.6 374] CT
0.149 GC
/Helvetica-Bold 17 F
GS
[1 0 0 1 0 0] CT
-10 5 moveto 
1 -1 scale
(0) t 
GR
GR
GS
[1 0 0 1 67.6 325] CT
0.149 GC
/Helvetica-Bold 17 F
GS
[1 0 0 1 0 0] CT
-34 5 moveto 
1 -1 scale
(0.05) t 
GR
GR
GS
[1 0 0 1 67.6 276] CT
0.149 GC
/Helvetica-Bold 17 F
GS
[1 0 0 1 0 0] CT
-24 5 moveto 
1 -1 scale
(0.1) t 
GR
GR
GS
[1 0 0 1 67.6 227] CT
0.149 GC
/Helvetica-Bold 17 F
GS
[1 0 0 1 0 0] CT
-34 5 moveto 
1 -1 scale
(0.15) t 
GR
GR
GS
[1 0 0 1 67.6 178] CT
0.149 GC
/Helvetica-Bold 17 F
GS
[1 0 0 1 0 0] CT
-24 5 moveto 
1 -1 scale
(0.2) t 
GR
GR
GS
[1 0 0 1 67.6 129] CT
0.149 GC
/Helvetica-Bold 17 F
GS
[1 0 0 1 0 0] CT
-34 5 moveto 
1 -1 scale
(0.25) t 
GR
GR
GS
[1 0 0 1 67.6 79.99998] CT
0.149 GC
/Helvetica-Bold 17 F
GS
[1 0 0 1 0 0] CT
-24 5 moveto 
1 -1 scale
(0.3) t 
GR
GR
GS
[1 0 0 1 67.6 31.00001] CT
0.149 GC
/Helvetica-Bold 17 F
GS
[1 0 0 1 0 0] CT
-34 5 moveto 
1 -1 scale
(0.35) t 
GR
GR
GS
0.6 0 0 RC
2 LJ
2 LW
N
78.425 165.754 M
83.85 165.754 L
89.275 165.754 L
94.7 165.754 L
100.125 165.754 L
105.55 165.754 L
110.975 165.754 L
116.4 165.754 L
121.825 171.258 L
127.25 171.258 L
132.675 228.292 L
138.1 228.292 L
143.525 228.292 L
148.95 230.005 L
154.375 233.414 L
159.8 323.532 L
165.225 323.532 L
170.65 323.532 L
176.075 327.875 L
181.5 337.052 L
186.925 345.931 L
192.35 348.297 L
197.775 348.297 L
203.2 348.297 L
208.625 348.297 L
214.05 349.551 L
219.475 351.236 L
224.9 352.037 L
230.325 359.128 L
235.75 372.868 L
241.175 372.868 L
246.6 372.868 L
252.025 372.868 L
257.45 373.582 L
262.875 373.582 L
268.3 373.582 L
273.725 373.582 L
279.15 373.582 L
284.575 373.582 L
290 373.582 L
295.425 373.582 L
300.85 373.582 L
306.275 373.582 L
311.7 373.582 L
317.125 373.582 L
322.55 373.582 L
327.975 373.582 L
333.4 373.582 L
338.825 373.582 L
344.25 373.582 L
S
GR
GS
0.6 0 0 RC
2 LJ
2 LW
N
344.25 373.582 M
349.675 373.582 L
355.1 373.582 L
360.525 373.582 L
365.95 373.582 L
371.375 373.582 L
376.8 373.582 L
382.225 373.582 L
387.65 373.582 L
393.075 374 L
398.5 374 L
403.925 374 L
409.35 374 L
414.775 374 L
420.2 374 L
425.625 374 L
431.05 374 L
436.475 374 L
441.9 374 L
447.325 374 L
452.75 374 L
458.175 374 L
463.6 374 L
S
GR
GS
0.6 0 0 RC
2 LJ
2 LW
N
74.525 169.654 M
74.525 161.854 L
82.325 161.854 L
82.325 169.654 L
74.525 169.654 L
S
GR
GS
0.6 0 0 RC
2 LJ
2 LW
N
101.65 169.654 M
101.65 161.854 L
109.45 161.854 L
109.45 169.654 L
101.65 169.654 L
S
GR
GS
0.6 0 0 RC
2 LJ
2 LW
N
128.775 232.192 M
128.775 224.392 L
136.575 224.392 L
136.575 232.192 L
128.775 232.192 L
S
GR
GS
0.6 0 0 RC
2 LJ
2 LW
N
155.9 327.432 M
155.9 319.632 L
163.7 319.632 L
163.7 327.432 L
155.9 327.432 L
S
GR
GS
0.6 0 0 RC
2 LJ
2 LW
N
183.025 349.831 M
183.025 342.031 L
190.825 342.031 L
190.825 349.831 L
183.025 349.831 L
S
GR
GS
0.6 0 0 RC
2 LJ
2 LW
N
210.15 353.451 M
210.15 345.651 L
217.95 345.651 L
217.95 353.451 L
210.15 353.451 L
S
GR
GS
0.6 0 0 RC
2 LJ
2 LW
N
237.275 376.768 M
237.275 368.968 L
245.075 368.968 L
245.075 376.768 L
237.275 376.768 L
S
GR
GS
0.6 0 0 RC
2 LJ
2 LW
N
269.825 377.482 M
269.825 369.682 L
277.625 369.682 L
277.625 377.482 L
269.825 377.482 L
S
GR
GS
0.6 0 0 RC
2 LJ
2 LW
N
296.95 377.482 M
296.95 369.682 L
304.75 369.682 L
304.75 377.482 L
296.95 377.482 L
S
GR
GS
0.6 0 0 RC
2 LJ
2 LW
N
324.075 377.482 M
324.075 369.682 L
331.875 369.682 L
331.875 377.482 L
324.075 377.482 L
S
GR
GS
0.6 0 0 RC
2 LJ
2 LW
N
351.2 377.482 M
351.2 369.682 L
359 369.682 L
359 377.482 L
351.2 377.482 L
S
GR
GS
0.6 0 0 RC
2 LJ
2 LW
N
378.325 377.482 M
378.325 369.682 L
386.125 369.682 L
386.125 377.482 L
378.325 377.482 L
S
GR
GS
0.6 0 0 RC
2 LJ
2 LW
N
405.45 377.9 M
405.45 370.1 L
413.25 370.1 L
413.25 377.9 L
405.45 377.9 L
S
GR
GS
0.6 0 0 RC
2 LJ
2 LW
N
432.575 377.9 M
432.575 370.1 L
440.375 370.1 L
440.375 377.9 L
432.575 377.9 L
S
GR
GS
0.6 0 0 RC
2 LJ
2 LW
N
459.7 377.9 M
459.7 370.1 L
467.5 370.1 L
467.5 377.9 L
459.7 377.9 L
S
GR
GS
0.6 0 0 RC
2 LJ
2 LW
N
74.525 169.654 M
74.525 161.854 L
82.325 161.854 L
82.325 169.654 L
74.525 169.654 L
S
GR
GS
0 0.2 0.4 RC
2 LJ
2 LW
N
78.425 92.408 M
83.85 92.408 L
89.275 92.408 L
94.7 92.408 L
100.125 92.408 L
105.55 92.408 L
110.975 92.408 L
116.4 92.408 L
121.825 92.408 L
127.25 92.408 L
132.675 92.408 L
138.1 92.408 L
143.525 92.408 L
148.95 92.408 L
154.375 92.408 L
159.8 65.962 L
165.225 65.962 L
170.65 70.217 L
176.075 70.217 L
181.5 74.471 L
186.925 86.747 L
192.35 86.747 L
197.775 92.967 L
203.2 140.285 L
208.625 142.154 L
214.05 152.697 L
219.475 159.801 L
224.9 164.031 L
230.325 167.504 L
235.75 224.451 L
241.175 282.357 L
246.6 285.815 L
252.025 290.125 L
257.45 300.256 L
262.875 307.304 L
268.3 319.669 L
273.725 324.697 L
279.15 324.697 L
284.575 329.901 L
290 329.901 L
295.425 335.589 L
300.85 338.585 L
306.275 338.585 L
311.7 339.743 L
317.125 341.349 L
322.55 347.124 L
327.975 353.83 L
333.4 356.613 L
338.825 358.387 L
344.25 359.376 L
S
GR
GS
0 0.2 0.4 RC
2 LJ
2 LW
N
344.25 359.376 M
349.675 359.895 L
355.1 360.623 L
360.525 361.237 L
365.95 363.267 L
371.375 363.267 L
376.8 363.267 L
382.225 366.063 L
387.65 366.063 L
393.075 367.14 L
398.5 367.14 L
403.925 368.669 L
409.35 370.126 L
414.775 370.126 L
420.2 371.497 L
425.625 371.497 L
431.05 371.497 L
436.475 371.497 L
441.9 371.497 L
447.325 371.497 L
452.75 371.497 L
458.175 372.592 L
463.6 372.592 L
S
GR
GS
0 0.2 0.4 RC
2 LJ
2 LW
N
83.425 92.408 M
82.47 89.469 L
79.97 87.653 L
76.88 87.653 L
74.38 89.469 L
73.425 92.408 L
74.38 95.347 L
76.88 97.163 L
79.97 97.163 L
82.47 95.347 L
83.425 92.408 L
S
GR
GS
0 0.2 0.4 RC
2 LJ
2 LW
N
110.55 92.408 M
109.595 89.469 L
107.095 87.653 L
104.005 87.653 L
101.505 89.469 L
100.55 92.408 L
101.505 95.347 L
104.005 97.163 L
107.095 97.163 L
109.595 95.347 L
110.55 92.408 L
S
GR
GS
0 0.2 0.4 RC
2 LJ
2 LW
N
137.675 92.408 M
136.72 89.469 L
134.22 87.653 L
131.13 87.653 L
128.63 89.469 L
127.675 92.408 L
128.63 95.347 L
131.13 97.163 L
134.22 97.163 L
136.72 95.347 L
137.675 92.408 L
S
GR
GS
0 0.2 0.4 RC
2 LJ
2 LW
N
164.8 65.962 M
163.845 63.023 L
161.345 61.207 L
158.255 61.207 L
155.755 63.023 L
154.8 65.962 L
155.755 68.901 L
158.255 70.717 L
161.345 70.717 L
163.845 68.901 L
164.8 65.962 L
S
GR
GS
0 0.2 0.4 RC
2 LJ
2 LW
N
191.925 86.747 M
190.97 83.808 L
188.47 81.992 L
185.38 81.992 L
182.88 83.808 L
181.925 86.747 L
182.88 89.686 L
185.38 91.503 L
188.47 91.503 L
190.97 89.686 L
191.925 86.747 L
S
GR
GS
0 0.2 0.4 RC
2 LJ
2 LW
N
219.05 152.697 M
218.095 149.758 L
215.595 147.941 L
212.505 147.941 L
210.005 149.758 L
209.05 152.697 L
210.005 155.636 L
212.505 157.452 L
215.595 157.452 L
218.095 155.636 L
219.05 152.697 L
S
GR
GS
0 0.2 0.4 RC
2 LJ
2 LW
N
246.175 282.357 M
245.22 279.418 L
242.72 277.602 L
239.63 277.602 L
237.13 279.418 L
236.175 282.357 L
237.13 285.296 L
239.63 287.113 L
242.72 287.113 L
245.22 285.296 L
246.175 282.357 L
S
GR
GS
0 0.2 0.4 RC
2 LJ
2 LW
N
278.725 324.697 M
277.77 321.758 L
275.27 319.942 L
272.18 319.942 L
269.68 321.758 L
268.725 324.697 L
269.68 327.636 L
272.18 329.453 L
275.27 329.453 L
277.77 327.636 L
278.725 324.697 L
S
GR
GS
0 0.2 0.4 RC
2 LJ
2 LW
N
305.85 338.585 M
304.895 335.646 L
302.395 333.83 L
299.305 333.83 L
296.805 335.646 L
295.85 338.585 L
296.805 341.524 L
299.305 343.34 L
302.395 343.34 L
304.895 341.524 L
305.85 338.585 L
S
GR
GS
0 0.2 0.4 RC
2 LJ
2 LW
N
332.975 353.83 M
332.02 350.892 L
329.52 349.075 L
326.43 349.075 L
323.93 350.892 L
322.975 353.83 L
323.93 356.769 L
326.43 358.586 L
329.52 358.586 L
332.02 356.769 L
332.975 353.83 L
S
GR
GS
0 0.2 0.4 RC
2 LJ
2 LW
N
360.1 360.623 M
359.145 357.684 L
356.645 355.868 L
353.555 355.868 L
351.055 357.684 L
350.1 360.623 L
351.055 363.562 L
353.555 365.378 L
356.645 365.378 L
359.145 363.562 L
360.1 360.623 L
S
GR
GS
0 0.2 0.4 RC
2 LJ
2 LW
N
387.225 366.063 M
386.27 363.124 L
383.77 361.308 L
380.68 361.308 L
378.18 363.124 L
377.225 366.063 L
378.18 369.002 L
380.68 370.818 L
383.77 370.818 L
386.27 369.002 L
387.225 366.063 L
S
GR
GS
0 0.2 0.4 RC
2 LJ
2 LW
N
414.35 370.126 M
413.395 367.187 L
410.895 365.371 L
407.805 365.371 L
405.305 367.187 L
404.35 370.126 L
405.305 373.065 L
407.805 374.881 L
410.895 374.881 L
413.395 373.065 L
414.35 370.126 L
S
GR
GS
0 0.2 0.4 RC
2 LJ
2 LW
N
441.475 371.497 M
440.52 368.558 L
438.02 366.741 L
434.93 366.741 L
432.43 368.558 L
431.475 371.497 L
432.43 374.436 L
434.93 376.252 L
438.02 376.252 L
440.52 374.436 L
441.475 371.497 L
S
GR
GS
0 0.2 0.4 RC
2 LJ
2 LW
N
468.6 372.592 M
467.645 369.653 L
465.145 367.837 L
462.055 367.837 L
459.555 369.653 L
458.6 372.592 L
459.555 375.531 L
462.055 377.347 L
465.145 377.347 L
467.645 375.531 L
468.6 372.592 L
S
GR
GS
0 0.2 0.4 RC
2 LJ
2 LW
N
83.425 92.408 M
82.47 89.469 L
79.97 87.653 L
76.88 87.653 L
74.38 89.469 L
73.425 92.408 L
74.38 95.347 L
76.88 97.163 L
79.97 97.163 L
82.47 95.347 L
83.425 92.408 L
S
GR
GS
1 GC
N
396 82 M
396 41 L
497 41 L
497 82 L
cp
f
GR
GS
[1 0 0 1 435 52.1358] CT
/Helvetica-Bold 17 F
GS
[1 0 0 1 0 0] CT
0 5 moveto 
1 -1 scale
(Tree) t 
GR
GR
GS
0.6 0 0 RC
2 setlinecap
10.0 ML
2 LW
N
402 52.136 M
432 52.136 L
S
GR
GS
0.6 0 0 RC
2 setlinecap
10.0 ML
2 LW
N
412.6 56.4 M
412.6 48.6 L
420.4 48.6 L
420.4 56.4 L
412.6 56.4 L
S
GR
GS
[1 0 0 1 435 70.8642] CT
/Helvetica-Bold 17 F
GS
[1 0 0 1 0 0] CT
0 5 moveto 
1 -1 scale
(NECTA) t 
GR
GR
GS
0 0.2 0.4 RC
2 setlinecap
10.0 ML
2 LW
N
402 70.864 M
432 70.864 L
S
GR
GS
0 0.2 0.4 RC
2 setlinecap
10.0 ML
2 LW
N
421.5 70.5 M
420.545 67.561 L
418.045 65.745 L
414.955 65.745 L
412.455 67.561 L
411.5 70.5 L
412.455 73.439 L
414.955 75.255 L
418.045 75.255 L
420.545 73.439 L
421.5 70.5 L
S
GR
GS
0.149 GC
2 setlinecap
10.0 ML
N
396 82 M
396 41 L
497 41 L
497 82 L
396 82 L
S
GR
%%Trailer
%%Pages: 1
%%EOF
