%!PS-Adobe-3.0 EPSF-3.0
%%Creator: (MATLAB, The Mathworks, Inc. Version 8.5.0.197613 \(R2015a\). Operating System: Mac OS X)
%%Title: /Users/Shared/switching_both_energy.eps
%%CreationDate: 2016-02-03T00:37:24
%%Pages: (atend)
%%BoundingBox: 0 0 560 420
%%LanguageLevel: 2
%%EndComments
%%BeginProlog
%%BeginResource: procset (Apache XML Graphics Std ProcSet) 1.2 0
%%Version: 1.2 0
%%Copyright: (Copyright 2001-2003,2010 The Apache Software Foundation. License terms: http://www.apache.org/licenses/LICENSE-2.0)
/bd{bind def}bind def
/ld{load def}bd
/GR/grestore ld
/M/moveto ld
/LJ/setlinejoin ld
/C/curveto ld
/f/fill ld
/LW/setlinewidth ld
/GC/setgray ld
/t/show ld
/N/newpath ld
/CT/concat ld
/cp/closepath ld
/S/stroke ld
/L/lineto ld
/CC/setcmykcolor ld
/A/ashow ld
/GS/gsave ld
/RC/setrgbcolor ld
/RM/rmoveto ld
/ML/setmiterlimit ld
/re {4 2 roll M
1 index 0 rlineto
0 exch rlineto
neg 0 rlineto
cp } bd
/_ctm matrix def
/_tm matrix def
/BT { _ctm currentmatrix pop matrix _tm copy pop 0 0 moveto } bd
/ET { _ctm setmatrix } bd
/iTm { _ctm setmatrix _tm concat } bd
/Tm { _tm astore pop iTm 0 0 moveto } bd
/ux 0.0 def
/uy 0.0 def
/F {
  /Tp exch def
  /Tf exch def
  Tf findfont Tp scalefont setfont
  /cf Tf def  /cs Tp def
} bd
/ULS {currentpoint /uy exch def /ux exch def} bd
/ULE {
  /Tcx currentpoint pop def
  gsave
  newpath
  cf findfont cs scalefont dup
  /FontMatrix get 0 get /Ts exch def /FontInfo get dup
  /UnderlinePosition get Ts mul /To exch def
  /UnderlineThickness get Ts mul /Tt exch def
  ux uy To add moveto  Tcx uy To add lineto
  Tt setlinewidth stroke
  grestore
} bd
/OLE {
  /Tcx currentpoint pop def
  gsave
  newpath
  cf findfont cs scalefont dup
  /FontMatrix get 0 get /Ts exch def /FontInfo get dup
  /UnderlinePosition get Ts mul /To exch def
  /UnderlineThickness get Ts mul /Tt exch def
  ux uy To add cs add moveto Tcx uy To add cs add lineto
  Tt setlinewidth stroke
  grestore
} bd
/SOE {
  /Tcx currentpoint pop def
  gsave
  newpath
  cf findfont cs scalefont dup
  /FontMatrix get 0 get /Ts exch def /FontInfo get dup
  /UnderlinePosition get Ts mul /To exch def
  /UnderlineThickness get Ts mul /Tt exch def
  ux uy To add cs 10 mul 26 idiv add moveto Tcx uy To add cs 10 mul 26 idiv add lineto
  Tt setlinewidth stroke
  grestore
} bd
/QT {
/Y22 exch store
/X22 exch store
/Y21 exch store
/X21 exch store
currentpoint
/Y21 load 2 mul add 3 div exch
/X21 load 2 mul add 3 div exch
/X21 load 2 mul /X22 load add 3 div
/Y21 load 2 mul /Y22 load add 3 div
/X22 load /Y22 load curveto
} bd
/SSPD {
dup length /d exch dict def
{
/v exch def
/k exch def
currentpagedevice k known {
/cpdv currentpagedevice k get def
v cpdv ne {
/upd false def
/nullv v type /nulltype eq def
/nullcpdv cpdv type /nulltype eq def
nullv nullcpdv or
{
/upd true def
} {
/sametype v type cpdv type eq def
sametype {
v type /arraytype eq {
/vlen v length def
/cpdvlen cpdv length def
vlen cpdvlen eq {
0 1 vlen 1 sub {
/i exch def
/obj v i get def
/cpdobj cpdv i get def
obj cpdobj ne {
/upd true def
exit
} if
} for
} {
/upd true def
} ifelse
} {
v type /dicttype eq {
v {
/dv exch def
/dk exch def
/cpddv cpdv dk get def
dv cpddv ne {
/upd true def
exit
} if
} forall
} {
/upd true def
} ifelse
} ifelse
} if
} ifelse
upd true eq {
d k v put
} if
} if
} if
} forall
d length 0 gt {
d setpagedevice
} if
} bd
%%EndResource
%%BeginResource: procset (Apache XML Graphics EPS ProcSet) 1.0 0
%%Version: 1.0 0
%%Copyright: (Copyright 2002-2003 The Apache Software Foundation. License terms: http://www.apache.org/licenses/LICENSE-2.0)
/BeginEPSF { %def
/b4_Inc_state save def         % Save state for cleanup
/dict_count countdictstack def % Count objects on dict stack
/op_count count 1 sub def      % Count objects on operand stack
userdict begin                 % Push userdict on dict stack
/showpage { } def              % Redefine showpage, { } = null proc
0 setgray 0 setlinecap         % Prepare graphics state
1 setlinewidth 0 setlinejoin
10 setmiterlimit [ ] 0 setdash newpath
/languagelevel where           % If level not equal to 1 then
{pop languagelevel             % set strokeadjust and
1 ne                           % overprint to their defaults.
{false setstrokeadjust false setoverprint
} if
} if
} bd
/EndEPSF { %def
count op_count sub {pop} repeat            % Clean up stacks
countdictstack dict_count sub {end} repeat
b4_Inc_state restore
} bd
%%EndResource
%FOPBeginFontDict
%%IncludeResource: font Courier-Bold
%%IncludeResource: font Helvetica
%%IncludeResource: font Courier-BoldOblique
%%IncludeResource: font Courier-Oblique
%%IncludeResource: font Times-Roman
%%IncludeResource: font Helvetica-BoldOblique
%%IncludeResource: font Helvetica-Bold
%%IncludeResource: font Helvetica-Oblique
%%IncludeResource: font Times-BoldItalic
%%IncludeResource: font Courier
%%IncludeResource: font Times-Italic
%%IncludeResource: font Times-Bold
%%IncludeResource: font Symbol
%%IncludeResource: font ZapfDingbats
%FOPEndFontDict
%%BeginResource: encoding WinAnsiEncoding
/WinAnsiEncoding [
/.notdef /.notdef /.notdef /.notdef /.notdef
/.notdef /.notdef /.notdef /.notdef /.notdef
/.notdef /.notdef /.notdef /.notdef /.notdef
/.notdef /.notdef /.notdef /.notdef /.notdef
/.notdef /.notdef /.notdef /.notdef /.notdef
/.notdef /.notdef /.notdef /.notdef /.notdef
/.notdef /.notdef /space /exclam /quotedbl
/numbersign /dollar /percent /ampersand /quotesingle
/parenleft /parenright /asterisk /plus /comma
/hyphen /period /slash /zero /one
/two /three /four /five /six
/seven /eight /nine /colon /semicolon
/less /equal /greater /question /at
/A /B /C /D /E
/F /G /H /I /J
/K /L /M /N /O
/P /Q /R /S /T
/U /V /W /X /Y
/Z /bracketleft /backslash /bracketright /asciicircum
/underscore /quoteleft /a /b /c
/d /e /f /g /h
/i /j /k /l /m
/n /o /p /q /r
/s /t /u /v /w
/x /y /z /braceleft /bar
/braceright /asciitilde /bullet /Euro /bullet
/quotesinglbase /florin /quotedblbase /ellipsis /dagger
/daggerdbl /circumflex /perthousand /Scaron /guilsinglleft
/OE /bullet /Zcaron /bullet /bullet
/quoteleft /quoteright /quotedblleft /quotedblright /bullet
/endash /emdash /asciitilde /trademark /scaron
/guilsinglright /oe /bullet /zcaron /Ydieresis
/space /exclamdown /cent /sterling /currency
/yen /brokenbar /section /dieresis /copyright
/ordfeminine /guillemotleft /logicalnot /sfthyphen /registered
/macron /degree /plusminus /twosuperior /threesuperior
/acute /mu /paragraph /middot /cedilla
/onesuperior /ordmasculine /guillemotright /onequarter /onehalf
/threequarters /questiondown /Agrave /Aacute /Acircumflex
/Atilde /Adieresis /Aring /AE /Ccedilla
/Egrave /Eacute /Ecircumflex /Edieresis /Igrave
/Iacute /Icircumflex /Idieresis /Eth /Ntilde
/Ograve /Oacute /Ocircumflex /Otilde /Odieresis
/multiply /Oslash /Ugrave /Uacute /Ucircumflex
/Udieresis /Yacute /Thorn /germandbls /agrave
/aacute /acircumflex /atilde /adieresis /aring
/ae /ccedilla /egrave /eacute /ecircumflex
/edieresis /igrave /iacute /icircumflex /idieresis
/eth /ntilde /ograve /oacute /ocircumflex
/otilde /odieresis /divide /oslash /ugrave
/uacute /ucircumflex /udieresis /yacute /thorn
/ydieresis
] def
%%EndResource
%FOPBeginFontReencode
/Courier-Bold findfont
dup length dict begin
  {1 index /FID ne {def} {pop pop} ifelse} forall
  /Encoding WinAnsiEncoding def
  currentdict
end
/Courier-Bold exch definefont pop
/Helvetica findfont
dup length dict begin
  {1 index /FID ne {def} {pop pop} ifelse} forall
  /Encoding WinAnsiEncoding def
  currentdict
end
/Helvetica exch definefont pop
/Courier-BoldOblique findfont
dup length dict begin
  {1 index /FID ne {def} {pop pop} ifelse} forall
  /Encoding WinAnsiEncoding def
  currentdict
end
/Courier-BoldOblique exch definefont pop
/Courier-Oblique findfont
dup length dict begin
  {1 index /FID ne {def} {pop pop} ifelse} forall
  /Encoding WinAnsiEncoding def
  currentdict
end
/Courier-Oblique exch definefont pop
/Times-Roman findfont
dup length dict begin
  {1 index /FID ne {def} {pop pop} ifelse} forall
  /Encoding WinAnsiEncoding def
  currentdict
end
/Times-Roman exch definefont pop
/Helvetica-BoldOblique findfont
dup length dict begin
  {1 index /FID ne {def} {pop pop} ifelse} forall
  /Encoding WinAnsiEncoding def
  currentdict
end
/Helvetica-BoldOblique exch definefont pop
/Helvetica-Bold findfont
dup length dict begin
  {1 index /FID ne {def} {pop pop} ifelse} forall
  /Encoding WinAnsiEncoding def
  currentdict
end
/Helvetica-Bold exch definefont pop
/Helvetica-Oblique findfont
dup length dict begin
  {1 index /FID ne {def} {pop pop} ifelse} forall
  /Encoding WinAnsiEncoding def
  currentdict
end
/Helvetica-Oblique exch definefont pop
/Times-BoldItalic findfont
dup length dict begin
  {1 index /FID ne {def} {pop pop} ifelse} forall
  /Encoding WinAnsiEncoding def
  currentdict
end
/Times-BoldItalic exch definefont pop
/Courier findfont
dup length dict begin
  {1 index /FID ne {def} {pop pop} ifelse} forall
  /Encoding WinAnsiEncoding def
  currentdict
end
/Courier exch definefont pop
/Times-Italic findfont
dup length dict begin
  {1 index /FID ne {def} {pop pop} ifelse} forall
  /Encoding WinAnsiEncoding def
  currentdict
end
/Times-Italic exch definefont pop
/Times-Bold findfont
dup length dict begin
  {1 index /FID ne {def} {pop pop} ifelse} forall
  /Encoding WinAnsiEncoding def
  currentdict
end
/Times-Bold exch definefont pop
%FOPEndFontReencode
%%EndProlog
%%Page: 1 1
%%PageBoundingBox: 0 0 560 420
%%BeginPageSetup
[1 0 0 -1 0 420] CT
%%EndPageSetup
GS
1 GC
N
0 0 560 420 re
f
GR
GS
1 GC
N
0 0 560 420 re
f
GR
GS
1 GC
N
73 374 M
507 374 L
507 31 L
73 31 L
cp
f
GR
GS
0.873 GC
2 setlinecap
10.0 ML
N
73 374 M
73 31 L
S
GR
GS
0.873 GC
2 setlinecap
10.0 ML
N
127.25 374 M
127.25 31 L
S
GR
GS
0.873 GC
2 setlinecap
10.0 ML
N
181.5 374 M
181.5 31 L
S
GR
GS
0.873 GC
2 setlinecap
10.0 ML
N
235.75 374 M
235.75 31 L
S
GR
GS
0.873 GC
2 setlinecap
10.0 ML
N
290 374 M
290 31 L
S
GR
GS
0.873 GC
2 setlinecap
10.0 ML
N
344.25 374 M
344.25 31 L
S
GR
GS
0.873 GC
2 setlinecap
10.0 ML
N
398.5 374 M
398.5 31 L
S
GR
GS
0.873 GC
2 setlinecap
10.0 ML
N
452.75 374 M
452.75 31 L
S
GR
GS
0.873 GC
2 setlinecap
10.0 ML
N
507 374 M
507 31 L
S
GR
GS
0.873 GC
2 setlinecap
10.0 ML
N
507 374 M
73 374 L
S
GR
GS
0.873 GC
2 setlinecap
10.0 ML
N
507 316.833 M
73 316.833 L
S
GR
GS
0.873 GC
2 setlinecap
10.0 ML
N
507 259.667 M
73 259.667 L
S
GR
GS
0.873 GC
2 setlinecap
10.0 ML
N
507 202.5 M
73 202.5 L
S
GR
GS
0.873 GC
2 setlinecap
10.0 ML
N
507 145.333 M
73 145.333 L
S
GR
GS
0.873 GC
2 setlinecap
10.0 ML
N
507 88.167 M
73 88.167 L
S
GR
GS
0.873 GC
2 setlinecap
10.0 ML
N
507 31 M
73 31 L
S
GR
GS
[1 0 0 1 290.00021 390] CT
0.149 GC
/Helvetica-Bold 11 F
GS
[1 0 0 1 0 0] CT
-53 9 moveto 
1 -1 scale
(No of transmissions) t 
GR
GR
GS
0.149 GC
2 setlinecap
10.0 ML
N
73 374 M
507 374 L
S
GR
GS
0.149 GC
2 setlinecap
10.0 ML
N
73 374 M
73 369.66 L
S
GR
GS
0.149 GC
2 setlinecap
10.0 ML
N
127.25 374 M
127.25 369.66 L
S
GR
GS
0.149 GC
2 setlinecap
10.0 ML
N
181.5 374 M
181.5 369.66 L
S
GR
GS
0.149 GC
2 setlinecap
10.0 ML
N
235.75 374 M
235.75 369.66 L
S
GR
GS
0.149 GC
2 setlinecap
10.0 ML
N
290 374 M
290 369.66 L
S
GR
GS
0.149 GC
2 setlinecap
10.0 ML
N
344.25 374 M
344.25 369.66 L
S
GR
GS
0.149 GC
2 setlinecap
10.0 ML
N
398.5 374 M
398.5 369.66 L
S
GR
GS
0.149 GC
2 setlinecap
10.0 ML
N
452.75 374 M
452.75 369.66 L
S
GR
GS
0.149 GC
2 setlinecap
10.0 ML
N
507 374 M
507 369.66 L
S
GR
GS
[1 0 0 1 73 378] CT
0.149 GC
/Helvetica-Bold 10 F
GS
[1 0 0 1 0 0] CT
-3 8 moveto 
1 -1 scale
(0) t 
GR
GR
GS
[1 0 0 1 127.25 378] CT
0.149 GC
/Helvetica-Bold 10 F
GS
[1 0 0 1 0 0] CT
-6 8 moveto 
1 -1 scale
(10) t 
GR
GR
GS
[1 0 0 1 181.5 378] CT
0.149 GC
/Helvetica-Bold 10 F
GS
[1 0 0 1 0 0] CT
-6 8 moveto 
1 -1 scale
(20) t 
GR
GR
GS
[1 0 0 1 235.75 378] CT
0.149 GC
/Helvetica-Bold 10 F
GS
[1 0 0 1 0 0] CT
-6 8 moveto 
1 -1 scale
(30) t 
GR
GR
GS
[1 0 0 1 290 378] CT
0.149 GC
/Helvetica-Bold 10 F
GS
[1 0 0 1 0 0] CT
-6 8 moveto 
1 -1 scale
(40) t 
GR
GR
GS
[1 0 0 1 344.25 378] CT
0.149 GC
/Helvetica-Bold 10 F
GS
[1 0 0 1 0 0] CT
-6 8 moveto 
1 -1 scale
(50) t 
GR
GR
GS
[1 0 0 1 398.5 378] CT
0.149 GC
/Helvetica-Bold 10 F
GS
[1 0 0 1 0 0] CT
-6 8 moveto 
1 -1 scale
(60) t 
GR
GR
GS
[1 0 0 1 452.75 378] CT
0.149 GC
/Helvetica-Bold 10 F
GS
[1 0 0 1 0 0] CT
-6 8 moveto 
1 -1 scale
(70) t 
GR
GR
GS
[1 0 0 1 507 378] CT
0.149 GC
/Helvetica-Bold 10 F
GS
[1 0 0 1 0 0] CT
-6 8 moveto 
1 -1 scale
(80) t 
GR
GR
GS
[0 -1 1 0 52 202.49983] CT
0.149 GC
/Helvetica-Bold 11 F
GS
[1 0 0 1 0 0] CT
-55 -3 moveto 
1 -1 scale
(Energy consumption) t 
GR
GR
GS
0.149 GC
2 setlinecap
10.0 ML
N
73 374 M
73 31 L
S
GR
GS
0.149 GC
2 setlinecap
10.0 ML
N
73 374 M
77.34 374 L
S
GR
GS
0.149 GC
2 setlinecap
10.0 ML
N
73 316.833 M
77.34 316.833 L
S
GR
GS
0.149 GC
2 setlinecap
10.0 ML
N
73 259.667 M
77.34 259.667 L
S
GR
GS
0.149 GC
2 setlinecap
10.0 ML
N
73 202.5 M
77.34 202.5 L
S
GR
GS
0.149 GC
2 setlinecap
10.0 ML
N
73 145.333 M
77.34 145.333 L
S
GR
GS
0.149 GC
2 setlinecap
10.0 ML
N
73 88.167 M
77.34 88.167 L
S
GR
GS
0.149 GC
2 setlinecap
10.0 ML
N
73 31 M
77.34 31 L
S
GR
GS
[1 0 0 1 69 374] CT
0.149 GC
/Helvetica-Bold 10 F
GS
[1 0 0 1 0 0] CT
-6 2.5 moveto 
1 -1 scale
(0) t 
GR
GR
GS
[1 0 0 1 69 316.83334] CT
0.149 GC
/Helvetica-Bold 10 F
GS
[1 0 0 1 0 0] CT
-14 2.5 moveto 
1 -1 scale
(0.5) t 
GR
GR
GS
[1 0 0 1 69 259.66666] CT
0.149 GC
/Helvetica-Bold 10 F
GS
[1 0 0 1 0 0] CT
-6 2.5 moveto 
1 -1 scale
(1) t 
GR
GR
GS
[1 0 0 1 69 202.5] CT
0.149 GC
/Helvetica-Bold 10 F
GS
[1 0 0 1 0 0] CT
-14 2.5 moveto 
1 -1 scale
(1.5) t 
GR
GR
GS
[1 0 0 1 69 145.33333] CT
0.149 GC
/Helvetica-Bold 10 F
GS
[1 0 0 1 0 0] CT
-6 2.5 moveto 
1 -1 scale
(2) t 
GR
GR
GS
[1 0 0 1 69 88.16666] CT
0.149 GC
/Helvetica-Bold 10 F
GS
[1 0 0 1 0 0] CT
-14 2.5 moveto 
1 -1 scale
(2.5) t 
GR
GR
GS
[1 0 0 1 69 31] CT
0.149 GC
/Helvetica-Bold 10 F
GS
[1 0 0 1 0 0] CT
-6 2.5 moveto 
1 -1 scale
(3) t 
GR
GR
GS
0.6 0 0 RC
2 LJ
2 LW
N
78.425 146.832 M
83.85 146.832 L
89.275 146.832 L
94.7 146.832 L
100.125 146.832 L
105.55 146.832 L
110.975 146.832 L
116.4 146.832 L
121.825 152.624 L
127.25 152.624 L
132.675 160.179 L
138.1 160.179 L
143.525 165.696 L
148.95 169.31 L
154.375 173.99 L
159.8 206.028 L
165.225 206.028 L
170.65 210.609 L
176.075 230.453 L
181.5 236.044 L
186.925 249.172 L
192.35 256.752 L
197.775 258.257 L
203.2 265.429 L
208.625 266.574 L
214.05 276.58 L
219.475 280.941 L
224.9 286.294 L
230.325 293.448 L
235.75 329.893 L
241.175 340.823 L
246.6 349.825 L
252.025 353.433 L
257.45 354.578 L
262.875 354.578 L
268.3 354.578 L
273.725 358.081 L
279.15 359.225 L
284.575 359.225 L
290 362.846 L
295.425 362.846 L
300.85 362.846 L
306.275 362.846 L
311.7 362.846 L
317.125 362.846 L
322.55 365.115 L
327.975 365.115 L
333.4 365.115 L
338.825 365.115 L
344.25 365.115 L
S
GR
GS
0.6 0 0 RC
2 LJ
2 LW
N
344.25 365.115 M
349.675 369.131 L
355.1 369.131 L
360.525 369.131 L
365.95 374 L
371.375 374 L
376.8 374 L
382.225 374 L
387.65 374 L
393.075 374 L
398.5 374 L
403.925 374 L
409.35 374 L
414.775 374 L
420.2 374 L
425.625 374 L
431.05 374 L
436.475 374 L
441.9 374 L
447.325 374 L
452.75 374 L
458.175 374 L
463.6 374 L
469.025 374 L
474.45 374 L
479.875 374 L
S
GR
GS
0.6 0 0 RC
2 LJ
2 LW
N
74.525 150.732 M
74.525 142.932 L
82.325 142.932 L
82.325 150.732 L
74.525 150.732 L
S
GR
GS
0.6 0 0 RC
2 LJ
2 LW
N
101.65 150.732 M
101.65 142.932 L
109.45 142.932 L
109.45 150.732 L
101.65 150.732 L
S
GR
GS
0.6 0 0 RC
2 LJ
2 LW
N
134.2 164.079 M
134.2 156.279 L
142 156.279 L
142 164.079 L
134.2 164.079 L
S
GR
GS
0.6 0 0 RC
2 LJ
2 LW
N
161.325 209.928 M
161.325 202.128 L
169.125 202.128 L
169.125 209.928 L
161.325 209.928 L
S
GR
GS
0.6 0 0 RC
2 LJ
2 LW
N
188.45 260.652 M
188.45 252.852 L
196.25 252.852 L
196.25 260.652 L
188.45 260.652 L
S
GR
GS
0.6 0 0 RC
2 LJ
2 LW
N
215.575 284.841 M
215.575 277.041 L
223.375 277.041 L
223.375 284.841 L
215.575 284.841 L
S
GR
GS
0.6 0 0 RC
2 LJ
2 LW
N
248.125 357.333 M
248.125 349.533 L
255.925 349.533 L
255.925 357.333 L
248.125 357.333 L
S
GR
GS
0.6 0 0 RC
2 LJ
2 LW
N
275.25 363.125 M
275.25 355.325 L
283.05 355.325 L
283.05 363.125 L
275.25 363.125 L
S
GR
GS
0.6 0 0 RC
2 LJ
2 LW
N
302.375 366.746 M
302.375 358.946 L
310.175 358.946 L
310.175 366.746 L
302.375 366.746 L
S
GR
GS
0.6 0 0 RC
2 LJ
2 LW
N
334.925 369.015 M
334.925 361.215 L
342.725 361.215 L
342.725 369.015 L
334.925 369.015 L
S
GR
GS
0.6 0 0 RC
2 LJ
2 LW
N
362.05 377.9 M
362.05 370.1 L
369.85 370.1 L
369.85 377.9 L
362.05 377.9 L
S
GR
GS
0.6 0 0 RC
2 LJ
2 LW
N
389.175 377.9 M
389.175 370.1 L
396.975 370.1 L
396.975 377.9 L
389.175 377.9 L
S
GR
GS
0.6 0 0 RC
2 LJ
2 LW
N
416.3 377.9 M
416.3 370.1 L
424.1 370.1 L
424.1 377.9 L
416.3 377.9 L
S
GR
GS
0.6 0 0 RC
2 LJ
2 LW
N
448.85 377.9 M
448.85 370.1 L
456.65 370.1 L
456.65 377.9 L
448.85 377.9 L
S
GR
GS
0.6 0 0 RC
2 LJ
2 LW
N
475.975 377.9 M
475.975 370.1 L
483.775 370.1 L
483.775 377.9 L
475.975 377.9 L
S
GR
GS
0.6 0 0 RC
2 LJ
2 LW
N
74.525 150.732 M
74.525 142.932 L
82.325 142.932 L
82.325 150.732 L
74.525 150.732 L
S
GR
GS
0 0.2 0.4 RC
2 LJ
2 LW
N
78.425 74.437 M
83.85 74.437 L
89.275 74.437 L
94.7 74.437 L
100.125 74.437 L
105.55 74.437 L
110.975 74.437 L
116.4 74.437 L
121.825 74.437 L
127.25 74.437 L
132.675 77.872 L
138.1 77.872 L
143.525 77.872 L
148.95 81.484 L
154.375 86.632 L
159.8 118.669 L
165.225 118.669 L
170.65 125.701 L
176.075 151.881 L
181.5 159.373 L
186.925 159.373 L
192.35 170.984 L
197.775 180.395 L
203.2 186.557 L
208.625 191.477 L
214.05 202.079 L
219.475 228.132 L
224.9 234.179 L
230.325 242.825 L
235.75 276.171 L
241.175 281.334 L
246.6 282.479 L
252.025 284.768 L
257.45 291.791 L
262.875 300.816 L
268.3 308.61 L
273.725 311.183 L
279.15 319.389 L
284.575 319.389 L
290 324.121 L
295.425 326.693 L
300.85 329.848 L
306.275 336.973 L
311.7 336.973 L
317.125 338.885 L
322.55 341.174 L
327.975 344.865 L
333.4 347.309 L
338.825 350.099 L
344.25 352.388 L
S
GR
GS
0 0.2 0.4 RC
2 LJ
2 LW
N
344.25 352.388 M
349.675 352.388 L
355.1 354.625 L
360.525 357.689 L
365.95 358.833 L
371.375 360.29 L
376.8 360.29 L
382.225 360.29 L
387.65 361.262 L
393.075 361.262 L
398.5 364.275 L
403.925 366.701 L
409.35 366.701 L
414.775 366.701 L
420.2 366.701 L
425.625 367.184 L
431.05 368.329 L
436.475 368.329 L
441.9 368.329 L
447.325 369.67 L
452.75 369.67 L
458.175 369.67 L
463.6 370.965 L
469.025 372.428 L
474.45 372.428 L
479.875 372.428 L
S
GR
GS
0 0.2 0.4 RC
2 LJ
2 LW
N
83.425 74.437 M
82.47 71.498 L
79.97 69.681 L
76.88 69.681 L
74.38 71.498 L
73.425 74.437 L
74.38 77.376 L
76.88 79.192 L
79.97 79.192 L
82.47 77.376 L
83.425 74.437 L
S
GR
GS
0 0.2 0.4 RC
2 LJ
2 LW
N
110.55 74.437 M
109.595 71.498 L
107.095 69.681 L
104.005 69.681 L
101.505 71.498 L
100.55 74.437 L
101.505 77.376 L
104.005 79.192 L
107.095 79.192 L
109.595 77.376 L
110.55 74.437 L
S
GR
GS
0 0.2 0.4 RC
2 LJ
2 LW
N
143.1 77.872 M
142.145 74.933 L
139.645 73.117 L
136.555 73.117 L
134.055 74.933 L
133.1 77.872 L
134.055 80.811 L
136.555 82.627 L
139.645 82.627 L
142.145 80.811 L
143.1 77.872 L
S
GR
GS
0 0.2 0.4 RC
2 LJ
2 LW
N
170.225 118.669 M
169.27 115.73 L
166.77 113.914 L
163.68 113.914 L
161.18 115.73 L
160.225 118.669 L
161.18 121.608 L
163.68 123.424 L
166.77 123.424 L
169.27 121.608 L
170.225 118.669 L
S
GR
GS
0 0.2 0.4 RC
2 LJ
2 LW
N
197.35 170.984 M
196.395 168.045 L
193.895 166.229 L
190.805 166.229 L
188.305 168.045 L
187.35 170.984 L
188.305 173.923 L
190.805 175.739 L
193.895 175.739 L
196.395 173.923 L
197.35 170.984 L
S
GR
GS
0 0.2 0.4 RC
2 LJ
2 LW
N
224.475 228.132 M
223.52 225.193 L
221.02 223.377 L
217.93 223.377 L
215.43 225.193 L
214.475 228.132 L
215.43 231.071 L
217.93 232.887 L
221.02 232.887 L
223.52 231.071 L
224.475 228.132 L
S
GR
GS
0 0.2 0.4 RC
2 LJ
2 LW
N
257.025 284.768 M
256.07 281.829 L
253.57 280.013 L
250.48 280.013 L
247.98 281.829 L
247.025 284.768 L
247.98 287.707 L
250.48 289.523 L
253.57 289.523 L
256.07 287.707 L
257.025 284.768 L
S
GR
GS
0 0.2 0.4 RC
2 LJ
2 LW
N
284.15 319.389 M
283.195 316.45 L
280.695 314.634 L
277.605 314.634 L
275.105 316.45 L
274.15 319.389 L
275.105 322.328 L
277.605 324.145 L
280.695 324.145 L
283.195 322.328 L
284.15 319.389 L
S
GR
GS
0 0.2 0.4 RC
2 LJ
2 LW
N
311.275 336.973 M
310.32 334.034 L
307.82 332.218 L
304.73 332.218 L
302.23 334.034 L
301.275 336.973 L
302.23 339.912 L
304.73 341.728 L
307.82 341.728 L
310.32 339.912 L
311.275 336.973 L
S
GR
GS
0 0.2 0.4 RC
2 LJ
2 LW
N
343.825 350.099 M
342.87 347.16 L
340.37 345.344 L
337.28 345.344 L
334.78 347.16 L
333.825 350.099 L
334.78 353.038 L
337.28 354.854 L
340.37 354.854 L
342.87 353.038 L
343.825 350.099 L
S
GR
GS
0 0.2 0.4 RC
2 LJ
2 LW
N
370.95 358.833 M
369.995 355.895 L
367.495 354.078 L
364.405 354.078 L
361.905 355.895 L
360.95 358.833 L
361.905 361.772 L
364.405 363.589 L
367.495 363.589 L
369.995 361.772 L
370.95 358.833 L
S
GR
GS
0 0.2 0.4 RC
2 LJ
2 LW
N
398.075 361.262 M
397.12 358.323 L
394.62 356.507 L
391.53 356.507 L
389.03 358.323 L
388.075 361.262 L
389.03 364.201 L
391.53 366.018 L
394.62 366.018 L
397.12 364.201 L
398.075 361.262 L
S
GR
GS
0 0.2 0.4 RC
2 LJ
2 LW
N
425.2 366.701 M
424.245 363.762 L
421.745 361.946 L
418.655 361.946 L
416.155 363.762 L
415.2 366.701 L
416.155 369.64 L
418.655 371.457 L
421.745 371.457 L
424.245 369.64 L
425.2 366.701 L
S
GR
GS
0 0.2 0.4 RC
2 LJ
2 LW
N
457.75 369.67 M
456.795 366.731 L
454.295 364.914 L
451.205 364.914 L
448.705 366.731 L
447.75 369.67 L
448.705 372.608 L
451.205 374.425 L
454.295 374.425 L
456.795 372.608 L
457.75 369.67 L
S
GR
GS
0 0.2 0.4 RC
2 LJ
2 LW
N
484.875 372.428 M
483.92 369.489 L
481.42 367.672 L
478.33 367.672 L
475.83 369.489 L
474.875 372.428 L
475.83 375.367 L
478.33 377.183 L
481.42 377.183 L
483.92 375.367 L
484.875 372.428 L
S
GR
GS
0 0.2 0.4 RC
2 LJ
2 LW
N
83.425 74.437 M
82.47 71.498 L
79.97 69.681 L
76.88 69.681 L
74.38 71.498 L
73.425 74.437 L
74.38 77.376 L
76.88 79.192 L
79.97 79.192 L
82.47 77.376 L
83.425 74.437 L
S
GR
GS
1 GC
N
424 65 M
424 41 L
497 41 L
497 65 L
cp
f
GR
GS
[1 0 0 1 463 47.85714] CT
/Helvetica-Bold 9 F
GS
[1 0 0 1 0 0] CT
0 2 moveto 
1 -1 scale
(Tree) t 
GR
GR
GS
0.6 0 0 RC
2 setlinecap
10.0 ML
2 LW
N
430 47.857 M
460 47.857 L
S
GR
GS
0.6 0 0 RC
2 setlinecap
10.0 ML
2 LW
N
441.6 51.4 M
441.6 43.6 L
449.4 43.6 L
449.4 51.4 L
441.6 51.4 L
S
GR
GS
[1 0 0 1 463 58.14286] CT
/Helvetica-Bold 9 F
GS
[1 0 0 1 0 0] CT
0 2 moveto 
1 -1 scale
(NECTA) t 
GR
GR
GS
0 0.2 0.4 RC
2 setlinecap
10.0 ML
2 LW
N
430 58.143 M
460 58.143 L
S
GR
GS
0 0.2 0.4 RC
2 setlinecap
10.0 ML
2 LW
N
450.5 58.5 M
449.545 55.561 L
447.045 53.745 L
443.955 53.745 L
441.455 55.561 L
440.5 58.5 L
441.455 61.439 L
443.955 63.255 L
447.045 63.255 L
449.545 61.439 L
450.5 58.5 L
S
GR
GS
0.149 GC
2 setlinecap
10.0 ML
N
424 65 M
424 41 L
497 41 L
497 65 L
424 65 L
S
GR
%%Trailer
%%Pages: 1
%%EOF
